# FreeCAD v0.16 build6712 (Git) Arch module
# http://www.freecadweb.org
o Part__Feature013
v 76.300045 83.529588 -238.896127
v 76.571117 83.041803 -238.455134
v 76.555923 82.947521 -238.593726
v 76.316828 83.634057 -238.730819
v 76.280615 83.40965 -239.050268
v 76.538025 82.83746 -238.719798
v 76.258728 83.275398 -239.191758
v 76.517683 82.713224 -238.83151
v 76.182248 82.905108 -236.001255
v 76.459421 82.42946 -236.463618
v 76.484433 82.576442 -236.541712
v 76.152921 82.732699 -235.912162
v 76.234593 83.128125 -239.319235
v 76.210063 83.068061 -236.10706
v 76.507783 82.713056 -236.637207
v 76.208442 82.969248 -239.43147
v 76.495196 82.576625 -238.927233
v 76.2361 83.21999 -236.228558
v 76.529131 82.837309 -236.748712
v 76.180528 82.800299 -239.527382
v 76.470891 82.429655 -239.005572
v 76.260106 83.359431 -236.36458
v 76.548166 82.94739 -236.8746
v 76.15112 82.622905 -239.606049
v 76.445122 82.274457 -239.065384
v 76.1205 82.438772 -239.666712
v 76.418264 82.113294 -239.105797
v 76.281852 83.485042 -236.513816
v 76.301128 83.595613 -236.674827
v 76.564611 83.041693 -237.013036
v 76.088964 82.249676 -239.708787
v 76.390711 81.948517 -239.126221
v 76.317747 83.690079 -236.846065
v 76.578225 83.118843 -237.162
v 76.056814 82.057437 -239.731868
v 76.33155 83.76753 -237.025878
v 76.58881 83.177716 -237.319321
v 76.024362 81.863907 -239.735735
v 76.362862 81.782528 -239.12636
v 75.991919 81.670948 -239.720349
v 76.335126 81.617747 -239.10621
v 76.342405 83.82722 -237.212537
v 76.596212 83.217452 -237.482705
v 75.959798 81.480421 -239.685859
v 76.307905 81.456579 -239.066065
v 75.928309 81.294158 -239.632596
v 76.281597 81.301372 -239.006512
v 76.350206 83.868575 -237.404243
v 76.600322 83.237473 -237.649768
v 75.897753 81.113955 -239.561074
v 76.354878 83.891195 -237.59915
v 76.356376 83.894865 -237.79538
v 76.601082 83.237485 -237.818075
v 76.354687 83.879547 -237.991045
v 76.598479 83.21749 -237.985172
v 76.349825 83.84539 -238.18426
v 76.592552 83.177779 -238.148622
v 76.341839 83.792722 -238.373163
v 76.583387 83.118931 -238.306041
v 76.330804 83.722051 -238.555936
v 68.480858 83.189103 -237.770563
v 67.632447 82.812209 -238.914306
v 67.600887 82.667125 -238.847736
v 67.556953 82.524754 -238.781505
v 67.487031 82.351165 -238.699607
v 67.456309 82.152367 -238.407471
v 67.403307 82.183101 -238.619195
v 67.49203 82.124256 -238.193158
v 67.506007 82.103758 -238.017324
v 67.504704 82.085605 -237.839448
v 67.489064 82.071015 -237.672845
v 67.460843 82.058692 -237.507812
v 67.421582 82.048399 -237.344552
v 67.458288 82.200336 -237.058618
v 67.37282 82.0399 -237.183264
v 67.526884 82.365805 -236.932481
v 67.567844 82.504193 -236.82902
v 67.593847 82.646834 -236.724385
v 67.603794 82.782907 -236.626409
v 67.600927 82.919879 -236.52938
v 67.586755 83.057324 -236.433413
v 67.638709 83.345813 -236.41092
v 67.562786 83.194816 -236.338625
v 67.7037 83.501344 -236.484462
v 67.755519 83.660888 -236.558863
v 67.791926 83.823924 -236.633736
v 68.164062 81.131514 -238.04749
v 68.208583 81.199913 -238.229006
v 68.202177 81.166753 -238.041885
v 68.161266 81.118407 -237.914786
v 68.133819 81.086764 -237.497248
v 68.132004 81.070311 -237.707415
v 68.159692 81.114555 -237.708743
v 68.385689 81.389259 -238.660229
v 68.371886 81.311808 -238.480415
v 68.32595 81.348482 -238.568936
v 68.263607 81.272899 -238.402119
v 68.275381 81.338382 -238.577106
v 68.340176 81.428815 -238.735381
v 68.217804 81.249963 -238.412213
v 68.254528 81.223623 -238.22174
v 68.124778 81.080602 -237.253425
v 68.119265 81.042393 -237.452932
v 68.13904 81.123453 -237.289713
v 68.199436 81.153904 -237.911798
v 68.161466 81.130638 -237.503295
v 68.314292 81.283644 -238.395674
v 68.361032 81.252118 -238.293756
v 68.248222 81.190974 -238.037508
v 68.133328 81.136799 -237.058331
v 68.147619 81.180024 -237.086808
v 68.197894 81.150128 -237.709819
v 68.353231 81.210763 -238.10205
v 68.305303 81.234854 -238.217074
v 68.166571 81.166503 -237.30042
v 68.245523 81.178324 -237.909429
v 68.144844 81.210506 -236.869313
v 68.159471 81.255933 -236.890488
v 68.159227 81.301094 -236.687984
v 68.199633 81.165894 -237.508424
v 68.299058 81.202527 -238.034658
v 68.348559 81.188142 -237.907144
v 68.174957 81.221804 -237.102072
v 68.244005 81.174605 -237.710569
v 68.176353 81.40779 -236.515891
v 68.173515 81.344389 -236.713426
v 68.204637 81.201052 -237.30955
v 68.296386 81.190002 -237.907842
v 68.186543 81.296009 -236.91016
v 68.245717 81.190128 -237.512283
v 68.190239 81.448575 -236.545382
v 68.212857 81.255262 -237.115114
v 68.294883 81.18632 -237.710942
v 68.34706 81.184473 -237.710913
v 68.34875 81.199791 -237.515248
v 68.200272 81.382479 -236.737073
v 68.250643 81.224743 -237.31648
v 68.196078 81.529683 -236.354503
v 68.209499 81.5676 -236.387791
v 68.218232 81.665733 -236.205196
v 68.224215 81.328003 -236.926987
v 68.353611 81.233948 -237.322034
v 68.296578 81.20169 -237.514611
v 68.21662 81.484325 -236.572803
v 68.258737 81.278116 -237.125046
v 68.242627 81.814781 -236.069244
v 68.231132 81.700449 -236.241997
v 68.237673 81.412767 -236.757315
v 68.301456 81.235963 -237.320738
v 68.235448 81.600677 -236.41875
v 68.269919 81.349734 -236.939824
v 68.254953 81.84599 -236.109244
v 68.253698 81.512604 -236.596284
v 68.309469 81.288811 -237.131191
v 68.361598 81.286616 -237.13313
v 68.372632 81.357287 -236.950357
v 68.256595 81.730544 -236.27623
v 68.283169 81.43319 -236.772771
v 68.280758 82.00298 -235.990664
v 68.269054 81.975554 -235.947807
v 68.297288 82.14668 -235.841921
v 68.272155 81.626662 -236.445271
v 68.320542 81.359722 -236.947795
v 68.279881 81.872817 -236.146458
v 68.298947 81.531486 -236.614227
v 68.308328 82.170079 -235.88727
v 68.327089 82.3267 -235.75249
v 68.292885 81.753967 -236.305561
v 68.386609 81.44528 -236.775474
v 68.333661 81.442355 -236.782389
v 68.305107 82.026281 -236.030541
v 68.317119 81.643782 -236.465545
v 68.337428 82.345864 -235.799943
v 68.315711 81.893433 -236.178349
v 68.349284 81.539682 -236.625408
v 68.403392 81.549749 -236.610166
v 68.332058 82.189629 -235.929468
v 68.337529 81.769121 -236.327993
v 68.367808 82.528833 -235.729429
v 68.358201 82.514077 -235.680276
v 68.6212 84.079412 -235.763661
v 68.589598 83.893052 -235.689065
v 68.624619 84.057336 -235.810851
v 68.34044 82.043871 -236.064718
v 68.422821 81.669687 -236.456025
v 68.367276 81.650871 -236.478191
v 68.360504 82.361466 -235.844102
v 68.360003 81.906435 -236.202744
v 68.39036 82.707214 -235.625896
v 68.39921 82.717425 -235.676328
v 68.366859 82.203997 -235.965639
v 68.444709 81.80394 -236.314535
v 68.387485 81.774975 -236.341995
v 68.390202 82.540327 -235.775171
v 68.755068 83.976705 -235.939232
v 68.775128 83.785179 -235.873697
v 68.805683 83.965383 -235.945219
v 68.340516 82.298793 -239.777464
v 68.350539 82.318614 -239.730213
v 68.32085 82.144056 -239.640653
v 68.38435 82.05455 -236.090868
v 68.310111 82.120029 -239.685746
v 68.281163 81.950386 -239.577688
v 68.292583 81.978404 -239.535138
v 68.431366 82.910032 -235.641094
v 68.253919 81.791312 -239.454213
v 68.423291 82.904462 -235.589814
v 68.344298 82.16419 -239.598573
v 68.394744 82.372445 -235.881957
v 68.373321 82.334828 -239.686122
v 68.407308 82.346332 -239.648196
v 68.409738 81.910935 -236.217981
v 68.468844 81.951213 -236.187059
v 68.265979 81.823073 -239.414568
v 68.420899 82.724685 -235.723262
v 68.316666 82.002258 -239.495428
v 68.453769 83.043925 -235.627398
v 68.241267 81.679386 -239.279972
v 68.228611 81.644162 -239.316373
v 68.456713 83.104139 -235.572336
v 68.410361 82.212203 -235.993319
v 68.378858 82.179059 -239.562374
v 68.423856 82.547777 -235.814385
v 68.29066 81.850414 -239.377565
v 68.433844 82.05759 -236.107208
v 68.218656 81.54857 -239.132497
v 68.494994 82.110089 -236.074824
v 68.205455 81.510194 -239.165345
v 68.184648 81.39055 -239.002418
v 68.452333 82.912967 -235.68882
v 68.351771 82.020322 -239.461262
v 68.488626 83.2518 -235.623245
v 68.490341 83.30454 -235.573614
v 68.266502 81.709953 -239.24599
v 68.437816 82.37805 -235.910928
v 68.422175 82.187651 -239.534521
v 68.450186 82.352341 -239.619018
v 68.453948 82.728499 -235.763501
v 68.198339 81.43174 -238.973403
v 68.166369 81.28625 -238.82898
v 68.474232 83.043853 -235.675431
v 68.326278 81.871473 -239.345724
v 68.459599 82.213689 -236.01062
v 68.522908 82.279038 -235.978911
v 68.244398 81.582075 -239.101827
v 68.523474 83.45906 -235.639771
v 68.523888 83.503956 -235.593635
v 68.466479 82.550676 -235.8444
v 68.395506 82.031364 -239.434971
v 68.18049 81.329894 -238.804046
v 68.484762 82.913067 -235.729738
v 68.302596 81.733782 -239.216745
v 68.508307 83.247061 -235.671371
v 68.550516 82.346638 -239.594131
v 68.521189 82.17423 -239.505039
v 68.471296 82.189379 -239.516913
v 68.486783 82.377901 -235.929042
v 68.552317 82.456433 -235.900245
v 68.499031 82.352445 -239.600577
v 68.496106 82.728607 -235.794301
v 68.224538 81.467868 -238.946305
v 68.557975 83.663709 -235.676818
v 68.370406 81.884813 -239.321216
v 68.557068 83.700687 -235.632228
v 68.506229 83.041372 -235.716613
v 68.150773 81.198184 -238.646513
v 68.16526 81.243901 -238.625872
v 68.542372 83.449667 -235.687526
v 68.582937 82.640565 -235.839582
v 68.515163 82.548825 -235.86317
v 68.280929 81.608426 -239.075425
v 68.44489 82.034632 -239.418344
v 68.493373 82.011277 -239.399234
v 68.526444 82.910326 -235.761059
v 68.591799 83.863777 -235.734028
v 68.207089 81.36831 -238.780751
v 68.347091 81.749249 -239.194229
v 68.539632 83.240571 -235.712633
v 68.614473 82.829661 -235.797507
v 68.544498 82.725002 -235.813565
v 68.137993 81.127105 -238.456572
v 68.152781 81.174494 -238.4404
v 68.576099 83.649721 -235.723741
v 68.54758 83.03665 -235.748137
v 68.26146 81.496472 -238.922971
v 68.467337 81.859348 -239.277735
v 68.420038 81.889526 -239.305712
v 68.573025 83.439181 -235.72847
v 68.192202 81.284247 -238.606578
v 68.646622 83.0219 -235.774425
v 68.574537 82.90493 -235.780651
v 68.641247 84.03451 -235.854765
v 68.609163 83.845297 -235.779667
v 68.325758 81.625828 -239.055091
v 68.128138 81.073617 -238.260778
v 68.143158 81.122265 -238.249213
v 68.580467 83.232773 -235.744219
v 68.121293 81.038179 -238.060802
v 68.606087 83.635289 -235.76397
v 68.595465 83.030008 -235.767856
v 68.613344 83.428317 -235.759811
v 68.244356 81.398877 -238.760683
v 68.44333 81.719906 -239.141713
v 68.396952 81.755299 -239.179976
v 68.669949 84.012488 -235.89241
v 68.638499 83.827007 -235.818793
v 68.628028 83.224198 -235.763976
v 68.180003 81.216398 -238.425271
v 68.679074 83.215431 -235.770558
v 68.711517 83.408389 -235.785944
v 68.306589 81.515603 -238.904991
v 68.645896 83.621397 -235.794764
v 68.136474 81.08766 -238.053943
v 68.660581 83.417814 -235.779415
v 68.743638 83.598917 -235.820435
v 68.708772 83.992772 -235.92122
v 68.677807 83.810155 -235.84874
v 68.229762 81.316473 -238.589944
v 68.692812 83.608991 -235.814023
v 68.421584 81.594295 -238.992478
v 68.37583 81.633094 -239.04221
v 68.724409 83.795888 -235.867467
v 68.170596 81.165342 -238.238377
v 68.117515 81.021091 -237.85835
v 68.133613 81.074252 -237.91819
v 68.289749 81.419514 -238.745208
v 68.402309 81.483725 -238.831466
v 68.35685 81.523956 -238.893589
v 68.116837 81.0225 -237.655149
v 68.939939 85.85379 -240.440522
v 66.494309 84.599038 -239.475176
v 66.544595 84.905187 -239.235465
v 68.969442 86.034992 -240.240826
v 67.884656 79.670529 -236.465119
v 67.90047 79.771527 -236.213858
v 67.647881 79.908428 -236.256927
v 67.406265 80.061463 -236.307921
v 68.908097 85.65901 -240.626613
v 66.585912 85.159378 -238.939833
v 66.616671 85.35184 -238.599642
v 66.806185 85.547894 -238.699869
v 67.871879 79.58746 -236.723033
v 67.011096 85.730446 -238.795183
v 67.176893 80.229827 -236.366572
v 67.862206 79.522745 -236.986284
v 66.96097 80.412637 -236.432571
v 67.230327 85.898535 -238.885082
v 67.855686 79.476713 -237.253532
v 66.75963 80.608931 -236.505572
v 67.462726 86.051279 -238.969095
v 67.707071 86.187875 -239.046779
v 65.986716 81.631054 -237.332683
v 66.404852 81.03778 -236.67101
v 66.253277 81.268081 -236.762577
v 66.120006 81.507371 -236.859413
v 66.005737 81.754393 -236.961006
v 65.980165 81.581579 -237.721562
v 67.28372 79.995504 -238.836201
v 67.98995 80.201532 -240.066958
v 67.963149 80.047736 -239.845122
v 67.938986 79.909948 -239.612714
v 67.852218 79.441539 -237.794557
v 65.986336 81.607869 -238.1127
v 67.852351 79.449598 -237.523415
v 67.917584 79.78887 -239.370918
v 66.573932 80.817678 -236.585191
v 67.899053 79.685118 -239.120968
v 67.883486 79.599222 -238.864136
v 67.870963 79.531619 -238.601732
v 67.861549 79.482654 -238.335093
v 67.85529 79.452576 -238.065576
v 66.004991 81.708914 -238.491064
v 66.381178 81.645718 -239.50516
v 68.238449 81.651296 -241.237029
v 68.197662 81.411407 -241.117143
v 68.158319 81.180576 -240.980203
v 68.120619 80.959981 -240.826908
v 68.084754 80.750745 -240.658038
v 68.050908 80.553934 -240.474455
v 68.019253 80.370552 -240.277093
v 66.126478 82.408382 -239.409883
v 66.18362 82.743744 -239.60478
v 66.076435 82.117012 -239.152362
v 66.035414 81.880831 -238.842115
v 66.686084 83.441131 -240.322971
v 68.546251 83.477271 -241.559056
v 68.501457 83.209976 -241.570449
v 68.456558 82.942575 -241.562479
v 68.411782 82.67643 -241.535187
v 69.042474 86.488264 -239.570596
v 68.777442 86.559771 -239.286611
v 69.061246 86.606678 -239.327267
v 68.367359 82.412897 -241.48871
v 68.498675 86.494043 -239.237959
v 68.323514 82.15332 -241.423287
v 68.280471 81.899021 -241.339251
v 66.374831 83.879466 -239.752493
v 66.436987 84.252694 -239.649755
v 66.310229 83.493696 -239.779441
v 66.245666 83.11021 -239.729565
v 68.083585 84.705455 -240.981582
v 68.874078 85.451644 -240.79815
v 68.838055 85.232749 -240.954259
v 68.800212 85.003439 -241.094144
v 69.02084 86.353039 -239.804752
v 68.226411 86.40984 -239.181565
v 68.760742 84.764884 -241.217094
v 68.719845 84.518299 -241.322481
v 68.677731 84.264941 -241.409767
v 68.634613 84.006101 -241.47851
v 68.590712 83.743098 -241.528357
v 68.996455 86.201691 -240.028542
v 67.96208 86.307605 -239.117727
v 68.612561 82.713104 -239.718916
v 69.007449 85.11223 -238.024102
v 69.009139 85.127548 -237.828437
v 68.644682 82.903632 -239.753406
v 68.581071 82.526841 -239.665653
v 69.002588 85.078073 -238.217317
v 68.994601 85.025405 -238.40622
v 68.83501 84.137791 -236.034312
v 68.983567 84.954734 -238.588993
v 68.969591 84.866741 -238.763876
v 68.862826 84.300744 -236.140117
v 68.952807 84.762272 -238.929184
v 68.888862 84.452673 -236.261615
v 68.933378 84.642334 -239.083325
v 68.912869 84.592115 -236.397637
v 68.91149 84.508081 -239.224815
v 68.934615 84.717725 -236.546873
v 68.887355 84.360808 -239.352292
v 68.95389 84.828296 -236.707884
v 68.861205 84.201932 -239.464527
v 68.97051 84.922762 -236.879122
v 68.833291 84.032983 -239.560439
v 68.984313 85.000213 -237.058935
v 68.803882 83.855588 -239.639106
v 68.773262 83.671456 -239.699768
v 68.995167 85.059903 -237.245594
v 69.002968 85.101258 -237.4373
v 68.741726 83.48236 -239.741843
v 69.00764 85.123879 -237.632207
v 68.709577 83.29012 -239.764925
v 68.677125 83.09659 -239.768792
v 76.058755 82.175706 -235.752887
v 76.122365 82.552496 -235.84064
v 75.700849 80.001265 -237.288977
v 75.708835 80.053932 -237.100073
v 75.868427 80.941547 -239.471982
v 75.71987 80.124603 -236.9173
v 75.733846 80.212597 -236.742417
v 75.75063 80.317066 -236.577109
v 75.840611 80.778593 -239.366177
v 75.814574 80.626664 -239.244678
v 75.790568 80.487223 -239.108656
v 75.770059 80.437004 -236.422968
v 75.768822 80.361612 -238.959421
v 75.791946 80.571256 -236.281478
v 75.816082 80.71853 -236.154002
v 75.842232 80.877406 -236.041767
v 75.749546 80.251041 -238.798409
v 75.732927 80.156576 -238.627172
v 75.870146 81.046355 -235.945854
v 75.899554 81.22375 -235.867188
v 75.719124 80.079125 -238.447358
v 75.708269 80.019435 -238.260699
v 75.930174 81.407882 -235.806525
v 75.961711 81.596978 -235.76445
v 75.700469 79.97808 -238.068993
v 75.99386 81.789217 -235.741368
v 75.695796 79.955459 -237.874087
v 76.026312 81.982748 -235.737501
v 75.694298 79.95179 -237.677856
v 75.695987 79.967107 -237.482191
v 76.090876 82.366234 -235.787378
v 66.480634 84.589535 -236.790141
v 66.545974 84.989221 -236.408286
v 66.50117 84.708033 -236.935685
v 66.517752 84.763886 -238.53842
v 66.531656 84.851234 -238.371616
v 66.074249 82.136857 -237.926594
v 66.072297 82.130282 -237.737916
v 66.541789 84.91637 -238.194695
v 66.635692 85.475179 -238.227966
v 66.586995 85.225402 -236.718534
v 66.518455 84.806769 -237.095682
v 66.080256 82.167665 -238.11277
v 66.248691 83.143438 -239.162927
v 66.279323 83.324883 -239.205185
v 66.090214 82.222178 -238.293257
v 66.500314 84.655821 -238.692252
v 66.617418 85.397319 -237.069585
v 66.532195 84.884055 -237.267392
v 66.310501 83.510233 -239.223063
v 66.34169 83.696317 -239.216255
v 66.542153 84.938568 -237.447879
v 66.128099 82.507195 -236.085473
v 66.185422 82.853539 -235.910894
v 66.19236 82.878837 -236.509672
v 66.220428 83.04824 -236.431179
v 66.247578 83.226767 -235.808156
v 66.25005 83.226282 -236.37577
v 66.103953 82.299464 -238.464967
v 66.479639 84.528889 -238.830481
v 66.456083 84.385262 -238.950742
v 66.430048 84.227396 -239.050976
v 66.166325 82.720971 -236.609907
v 66.121238 82.3982 -238.624963
v 66.077813 82.201046 -236.325184
v 66.372358 83.879951 -239.184879
v 66.548159 84.969376 -237.634054
v 66.636073 85.498364 -237.447949
v 66.280718 83.409915 -236.344394
v 66.312179 83.612537 -235.781208
v 66.40198 84.057993 -239.12947
v 66.142769 82.577343 -236.730167
v 66.141774 82.516697 -238.770507
v 66.165209 82.652928 -238.899109
v 66.311908 83.595999 -236.337586
v 66.122095 82.450411 -236.868396
v 66.550111 84.975951 -237.822732
v 66.642243 85.524654 -237.839087
v 66.036497 81.946855 -236.620816
v 66.547975 84.958181 -238.010685
v 66.376743 83.996023 -235.831084
v 66.343085 83.78135 -236.355464
v 66.104656 82.342347 -237.022229
v 66.373717 83.962795 -236.397722
v 66.438788 84.362489 -235.955869
v 66.191141 82.804561 -239.008568
v 66.40328 84.13723 -236.463637
v 66.090752 82.254999 -237.189032
v 66.49593 84.69785 -236.150766
v 66.431267 84.301672 -236.55208
v 66.08062 82.189863 -237.365953
v 66.4572 84.453305 -236.661539
v 66.074433 82.148052 -237.549964
v 66.219129 82.969002 -239.097012
v 67.992275 80.343213 -235.300299
v 68.021777 80.524415 -235.100603
v 68.053619 80.719195 -234.914512
v 69.109366 86.928607 -238.017711
v 69.109498 86.936667 -237.746569
v 69.106031 86.901492 -238.287593
v 69.09951 86.85546 -238.554841
v 69.089837 86.790745 -238.818092
v 69.077061 86.707676 -239.076006
v 67.582378 81.890145 -234.565373
v 68.087638 80.926561 -234.742976
v 68.123661 81.145456 -234.586866
v 68.161504 81.374766 -234.446981
v 68.200975 81.613321 -234.324031
v 68.241871 81.859906 -234.218645
v 68.283986 82.113264 -234.131358
v 68.327103 82.372104 -234.062615
v 68.371004 82.635107 -234.012768
v 68.415465 82.900934 -233.982069
v 66.679836 83.540359 -235.234333
v 68.46026 83.168229 -233.970676
v 68.505159 83.43563 -233.978646
v 68.549934 83.701775 -234.005938
v 68.594357 83.965308 -234.052415
v 68.638202 84.224885 -234.117838
v 68.681245 84.479184 -234.201875
v 68.723267 84.72691 -234.304097
v 67.919242 79.889941 -235.97053
v 66.984742 85.335773 -236.052143
v 68.764054 84.966799 -234.423983
v 68.803398 85.197629 -234.560922
v 68.841098 85.418224 -234.714217
v 68.876962 85.62746 -234.883087
v 68.910808 85.824271 -235.066671
v 68.942463 86.007653 -235.264032
v 68.971766 86.176673 -235.474167
v 67.940876 80.025166 -235.736374
v 68.382243 86.600096 -236.710754
v 68.998567 86.330469 -235.696004
v 67.965262 80.176514 -235.512583
v 69.02273 86.468257 -235.928412
v 69.044132 86.589336 -236.170207
v 69.062664 86.693087 -236.420157
v 69.07823 86.778983 -236.676989
v 69.090753 86.846586 -236.939393
v 69.100168 86.895551 -237.206033
v 69.106427 86.925629 -237.475549
v 68.651605 84.258176 -235.855379
v 68.680553 84.427819 -235.963437
v 68.836939 85.297603 -238.2877
v 68.828388 85.241406 -238.482794
v 68.707798 84.586894 -236.086912
v 68.842452 85.335812 -238.088193
v 68.733106 84.734043 -236.224752
v 68.844879 85.355705 -237.885977
v 68.756262 84.868011 -236.37578
v 68.844202 85.357114 -237.682775
v 68.777068 84.987656 -236.538708
v 68.840424 85.340027 -237.480323
v 68.795347 85.091955 -236.712145
v 68.833578 85.304588 -237.280347
v 68.810944 85.180021 -236.894613
v 68.823724 85.2511 -237.084554
v 68.372118 82.485153 -239.85206
v 68.404648 82.677519 -239.908897
v 68.437828 82.874249 -239.947491
v 68.471375 83.073665 -239.967511
v 68.505003 83.274067 -239.968789
v 68.538426 83.473743 -239.951312
v 68.571356 83.670991 -239.915229
v 68.603515 83.864128 -239.860849
v 68.634628 84.051505 -239.788635
v 68.664428 84.231525 -239.699204
v 68.692662 84.402652 -239.593318
v 68.71909 84.563424 -239.471881
v 68.743485 84.712472 -239.33593
v 68.765639 84.848522 -239.186623
v 68.785363 84.970416 -239.025234
v 68.80249 85.077111 -238.853141
v 68.816872 85.167699 -238.671813
v 68.859454 85.108858 -237.128392
v 68.847495 85.042347 -236.950661
v 68.895351 85.072214 -237.138119
v 68.883577 85.006731 -236.963132
v 68.850505 85.237824 -237.493397
v 68.843971 85.203996 -237.302511
v 68.875081 85.192067 -237.498721
v 68.868675 85.158907 -237.3116
v 68.853301 85.250931 -237.626102
v 68.841339 85.289186 -238.043817
v 68.843154 85.305639 -237.83365
v 68.854875 85.254783 -237.832144
v 68.841545 85.301698 -237.622875
v 68.92815 84.980668 -236.970873
v 68.913923 84.900336 -236.804429
v 68.869208 84.925599 -236.79503
v 68.904429 85.12149 -237.318498
v 68.836118 85.252497 -238.251352
v 68.877822 85.204916 -237.628808
v 68.853101 85.2387 -238.037592
v 68.939807 85.045506 -237.144135
v 68.910736 85.154139 -237.50273
v 68.827539 85.195926 -238.454257
v 68.879364 85.208693 -237.830786
v 68.948797 85.094297 -237.322736
v 68.847996 85.202835 -238.240467
v 68.913435 85.166789 -237.630809
v 68.815687 85.120017 -238.650577
v 68.877625 85.192926 -238.032182
v 68.955041 85.126623 -237.505152
v 68.83961 85.147534 -238.438816
v 68.914953 85.170508 -237.829668
v 68.801643 85.031561 -238.827639
v 68.872621 85.157769 -238.231055
v 68.957713 85.139149 -237.631968
v 68.828024 85.073329 -238.630728
v 68.913241 85.154985 -238.027955
v 68.784919 84.927375 -238.995683
v 68.864401 85.103558 -238.425492
v 68.959217 85.142831 -237.828867
v 68.814295 84.986859 -238.803814
v 68.908314 85.12037 -238.223758
v 68.765659 84.80835 -239.153274
v 68.853043 85.030817 -238.613618
v 68.957522 85.127461 -238.025199
v 68.797947 84.885013 -238.968085
v 68.900221 85.066997 -238.415192
v 68.744026 84.675501 -239.299068
v 68.839585 84.946053 -238.783291
v 68.952644 85.093187 -238.219072
v 68.779119 84.768661 -239.122137
v 68.889039 84.995379 -238.600414
v 68.720205 84.52996 -239.431821
v 68.823559 84.846216 -238.944321
v 68.94463 85.04034 -238.408619
v 68.757972 84.638794 -239.264658
v 68.875788 84.911923 -238.767467
v 68.6944 84.37297 -239.5504
v 68.805103 84.732158 -239.095335
v 68.933558 84.969428 -238.592015
v 68.734686 84.496522 -239.39443
v 68.86001 84.813627 -238.926011
v 68.66683 84.20587 -239.653795
v 68.784373 84.604853 -239.235044
v 68.920438 84.886795 -238.757421
v 68.70946 84.343057 -239.510347
v 68.841839 84.701331 -239.074693
v 68.63773 84.030086 -239.741122
v 68.761546 84.465387 -239.362257
v 68.904816 84.789469 -238.914402
v 68.682509 84.179709 -239.611419
v 68.821429 84.575992 -239.212245
v 68.60735 83.847117 -239.811636
v 68.736818 84.314949 -239.475887
v 68.886823 84.678279 -239.061619
v 68.654063 84.007872 -239.696786
v 68.798955 84.438678 -239.337494
v 68.575948 83.658525 -239.864737
v 68.654309 84.231894 -235.900411
v 68.682575 84.397545 -236.005926
v 68.710398 84.154823 -239.574966
v 68.866614 84.554175 -239.197815
v 68.670269 84.205148 -235.942314
v 68.709179 84.552877 -236.126496
v 68.624365 83.829011 -239.765717
v 68.774608 84.290563 -239.44937
v 68.697901 84.36708 -236.04546
v 68.733891 84.696564 -236.261093
v 68.543792 83.465918 -239.89997
v 68.682514 83.986376 -239.658649
v 68.6984 84.179761 -235.978232
v 68.844362 84.418216 -239.321828
v 68.723907 84.518924 -236.163323
v 68.593668 83.644653 -239.817625
v 68.756503 84.82738 -236.408567
v 68.52139 83.332025 -239.913667
v 68.725487 84.338499 -236.079343
v 68.748596 84.13291 -239.546919
v 68.748065 84.659385 -236.294897
v 68.736783 84.157462 -236.005717
v 68.653401 83.811043 -239.72622
v 68.820255 84.271561 -239.432602
v 68.776819 84.94421 -236.567662
v 68.562234 83.456371 -239.852068
v 68.75098 84.487348 -236.194881
v 68.486532 83.12415 -239.91782
v 68.721142 83.967063 -239.629309
v 68.770169 84.787264 -236.43906
v 68.62331 83.630322 -239.777105
v 68.763452 84.313749 -236.105267
v 68.794669 85.046056 -236.737018
v 68.540335 83.325485 -239.865456
v 68.774661 84.625038 -236.32386
v 68.7945 84.115461 -239.529189
v 68.782803 84.139772 -236.022896
v 68.451685 82.91689 -239.901294
v 68.790029 84.90147 -236.594582
v 68.692479 83.794437 -239.695838
v 68.788551 84.4603 -236.219021
v 68.592496 83.445753 -239.810868
v 68.809898 85.132049 -236.915193
v 68.50626 83.122278 -239.869516
v 68.767316 83.951249 -239.610767
v 68.796329 84.750394 -236.46518
v 68.809209 84.294518 -236.121465
v 68.662852 83.616506 -239.745937
v 68.417183 82.712241 -239.864247
v 68.807478 85.001029 -236.760136
v 68.571028 83.317448 -239.823992
v 68.811867 84.595864 -236.346009
v 68.472195 82.919671 -239.853361
v 68.822377 85.201456 -237.100664
v 68.738936 83.780325 -239.67664
v 68.632514 83.434787 -239.779178
v 68.815798 84.862348 -236.617634
v 68.383359 82.512173 -239.807036
v 68.834061 84.439624 -236.234098
v 68.537626 83.118249 -239.827972
v 68.822365 85.085091 -236.93431
v 68.709601 83.604148 -239.726245
v 68.8332 84.719285 -236.485147
v 68.438468 82.719617 -239.817146
v 68.611378 83.308463 -239.7921
v 68.832 85.253685 -237.291851
v 68.504232 82.919639 -239.812136
v 68.832902 84.959943 -236.779923
v 68.679562 83.424221 -239.759159
v 68.857147 84.573852 -236.359834
v 68.405404 82.524042 -239.76122
v 68.578491 83.11234 -239.796019
v 68.834564 85.15294 -237.115617
v 68.471171 82.723531 -239.776635
v 68.852368 84.82951 -236.635247
v 68.658634 83.299142 -239.771954
v 68.545614 82.916796 -239.780427
v 68.838684 85.28829 -237.487122
v 68.438759 82.531813 -239.721812
v 68.87827 84.696056 -236.4976
v 68.626072 83.104952 -239.775834
v 68.513062 82.723716 -239.745474
v 68.593518 82.911336 -239.760395
v 68.481151 82.534958 -239.691498
v 68.561288 82.720159 -239.725787
v 68.529691 82.533262 -239.672343
v 68.897249 84.805195 -236.646221
v 66.332633 83.498168 -239.127718
v 66.316097 83.301063 -239.039121
v 66.290995 83.105153 -238.950456
v 66.256314 82.910515 -238.861684
v 66.195709 82.652955 -238.743186
v 66.527131 84.673975 -238.498204
v 66.515103 84.497975 -238.624826
v 66.494511 84.323411 -238.751486
v 66.464398 84.150445 -238.878189
v 66.410028 83.92221 -239.047191
v 66.529712 84.725491 -237.150967
v 66.550752 84.744209 -237.366283
v 66.563228 84.764363 -237.581637
v 66.566184 84.786114 -237.797034
v 66.555903 84.817502 -238.084294
v 66.333775 83.586501 -236.426441
v 66.38056 83.764535 -236.508693
v 66.420129 83.943799 -236.590986
v 66.45157 84.124101 -236.673171
v 66.470777 84.269134 -236.738854
v 66.485152 84.414841 -236.804499
v 66.495135 84.561161 -236.870108
v 66.143217 82.424215 -237.062229
v 66.188178 82.59469 -236.935459
v 66.224576 82.766601 -236.808727
v 66.251453 82.94011 -236.682039
v 66.273069 83.173841 -236.513185
v 66.140635 82.372699 -238.409466
v 66.152529 82.348456 -238.194002
v 66.155859 82.32565 -237.978577
v 66.149668 82.304441 -237.763195
v 66.127194 82.278548 -237.476082
v 67.810247 83.971883 -236.700656
v 67.815992 84.121608 -236.767479
v 67.806987 84.308002 -236.849538
v 67.84522 84.504377 -237.141124
v 67.783238 84.492933 -236.929917
v 67.890033 84.518975 -237.355074
v 67.911474 84.533532 -237.530749
v 67.917723 84.550855 -237.708603
v 67.90916 84.569505 -237.875315
v 67.887951 84.590121 -238.04057
v 67.855629 84.612424 -238.204153
v 67.843241 84.456408 -238.489977
v 67.813725 84.636134 -238.365848
v 67.855179 84.277426 -238.615751
v 67.849637 84.133096 -238.719053
v 67.828579 83.989625 -238.823665
v 67.79443 83.857613 -238.921751
v 67.747868 83.728935 -239.019002
v 67.690456 83.6035 -239.115291
v 67.645739 83.31484 -239.138215
v 67.623759 83.481218 -239.210487
v 67.656064 83.147306 -239.064614
v 67.65216 82.978839 -238.989605
v 76.169901 80.689029 -237.014997
v 76.185096 80.783311 -236.876404
v 76.202994 80.893372 -236.750332
v 76.223335 81.017608 -236.638621
v 76.256586 81.15439 -238.928418
v 76.233236 81.017776 -238.832923
v 76.245822 81.154207 -236.542897
v 76.211888 80.893523 -238.721418
v 76.270128 81.301177 -236.464559
v 76.192853 80.783442 -238.59553
v 76.295897 81.456375 -236.404747
v 76.322754 81.617538 -236.364334
v 76.176408 80.689139 -238.457095
v 76.350308 81.782315 -236.343909
v 76.162794 80.611989 -238.30813
v 76.152209 80.553116 -238.150809
v 76.378156 81.948304 -236.343771
v 76.405893 82.113084 -236.363921
v 76.144807 80.51338 -237.987426
v 76.433113 82.274253 -236.404065
v 76.140696 80.493359 -237.820362
v 76.139937 80.493347 -237.652055
v 76.14254 80.513342 -237.484958
v 76.148467 80.553053 -237.321509
v 76.157632 80.611901 -237.16409
f 1 2 3
f 1 4 2
f 5 3 6
f 5 1 3
f 7 6 8
f 7 5 6
f 9 10 11
f 9 12 10
f 13 7 8
f 14 11 15
f 16 8 17
f 14 9 11
f 16 13 8
f 18 15 19
f 18 14 15
f 20 17 21
f 20 16 17
f 22 19 23
f 24 21 25
f 22 18 19
f 24 20 21
f 26 25 27
f 28 22 23
f 26 24 25
f 29 23 30
f 31 27 32
f 31 26 27
f 29 28 23
f 33 30 34
f 35 31 32
f 33 29 30
f 36 34 37
f 38 32 39
f 36 33 34
f 38 35 32
f 40 39 41
f 42 37 43
f 40 38 39
f 42 36 37
f 44 41 45
f 44 40 41
f 46 45 47
f 48 43 49
f 46 44 45
f 48 42 43
f 50 46 47
f 51 48 49
f 52 51 49
f 52 49 53
f 54 53 55
f 54 52 53
f 56 55 57
f 56 54 55
f 58 57 59
f 58 56 57
f 60 58 59
f 4 59 2
f 4 60 59
f 61 62 63
f 64 65 66
f 66 65 67
f 63 64 68
f 64 66 68
f 61 63 69
f 63 68 69
f 61 69 70
f 61 70 71
f 72 73 74
f 74 73 75
f 71 72 76
f 72 74 76
f 61 71 77
f 71 76 77
f 61 77 78
f 61 78 79
f 80 81 82
f 82 81 83
f 79 80 84
f 80 82 84
f 61 79 85
f 79 84 85
f 61 85 86
f 87 88 89
f 90 87 89
f 91 92 93
f 92 90 93
f 94 95 96
f 97 98 96
f 99 94 96
f 98 99 96
f 100 97 101
f 88 100 101
f 89 88 101
f 102 103 104
f 103 91 104
f 90 89 105
f 93 90 105
f 91 93 106
f 96 95 107
f 97 96 107
f 95 108 107
f 101 97 107
f 105 89 109
f 89 101 109
f 110 102 111
f 102 104 111
f 106 93 112
f 93 105 112
f 108 113 114
f 107 108 114
f 101 107 114
f 109 101 114
f 91 106 115
f 104 91 115
f 111 104 115
f 105 109 116
f 112 105 116
f 117 110 118
f 119 117 118
f 110 111 118
f 106 112 120
f 116 109 121
f 113 122 121
f 109 114 121
f 114 113 121
f 111 115 123
f 118 111 123
f 120 112 124
f 112 116 124
f 125 119 126
f 119 118 126
f 115 106 127
f 123 115 127
f 106 120 127
f 116 121 128
f 121 122 128
f 124 116 128
f 118 123 129
f 120 124 130
f 125 126 131
f 123 127 132
f 129 123 132
f 128 122 133
f 122 134 133
f 134 135 133
f 124 128 133
f 130 124 133
f 126 118 136
f 118 129 136
f 131 126 136
f 127 120 137
f 120 130 137
f 132 127 137
f 138 125 139
f 125 131 139
f 140 138 139
f 129 132 141
f 136 129 141
f 135 142 143
f 133 135 143
f 130 133 143
f 131 136 144
f 132 137 145
f 141 132 145
f 146 140 147
f 140 139 147
f 144 136 148
f 136 141 148
f 130 143 149
f 145 137 149
f 137 130 149
f 143 142 149
f 131 144 150
f 139 131 150
f 141 145 151
f 148 141 151
f 146 147 152
f 144 148 153
f 145 149 154
f 142 155 154
f 155 156 154
f 151 145 154
f 149 142 154
f 139 150 157
f 147 139 157
f 153 148 158
f 148 151 158
f 146 152 159
f 160 146 159
f 161 160 159
f 144 153 162
f 150 144 162
f 151 154 163
f 154 156 163
f 158 151 163
f 147 157 164
f 152 147 164
f 153 158 165
f 161 159 166
f 167 161 166
f 150 162 168
f 164 157 168
f 157 150 168
f 156 169 170
f 158 163 170
f 163 156 170
f 165 158 170
f 159 152 171
f 166 159 171
f 152 164 171
f 153 165 172
f 162 153 172
f 168 162 172
f 167 166 173
f 171 164 174
f 164 168 174
f 170 169 175
f 169 176 175
f 165 170 175
f 166 171 177
f 168 172 178
f 174 168 178
f 167 173 179
f 180 167 179
f 181 182 183
f 171 174 184
f 177 171 184
f 176 185 186
f 172 165 186
f 175 176 186
f 165 175 186
f 178 172 186
f 173 166 187
f 166 177 187
f 174 178 188
f 184 174 188
f 189 180 190
f 180 179 190
f 177 184 191
f 185 192 193
f 186 185 193
f 178 186 193
f 188 178 193
f 173 187 194
f 195 196 197
f 179 173 194
f 198 199 200
f 191 184 201
f 202 198 200
f 203 202 200
f 203 200 204
f 184 188 201
f 189 190 205
f 206 203 204
f 207 189 205
f 200 199 208
f 177 191 209
f 204 200 208
f 199 210 208
f 210 211 208
f 194 187 209
f 187 177 209
f 188 193 212
f 192 213 212
f 201 188 212
f 206 204 214
f 193 192 212
f 179 194 215
f 204 208 216
f 190 179 215
f 207 205 217
f 206 214 218
f 219 206 218
f 220 207 217
f 209 191 221
f 208 211 222
f 191 201 221
f 215 194 223
f 218 214 224
f 214 204 224
f 194 209 223
f 204 216 224
f 201 212 225
f 221 201 225
f 219 218 226
f 213 227 225
f 212 213 225
f 228 219 226
f 229 228 226
f 217 205 230
f 190 215 230
f 205 190 230
f 208 222 231
f 216 208 231
f 220 217 232
f 233 220 232
f 218 224 234
f 223 209 235
f 231 222 236
f 222 211 236
f 209 221 235
f 211 237 236
f 215 223 238
f 229 226 239
f 240 229 239
f 232 217 241
f 217 230 241
f 224 216 242
f 221 225 243
f 216 231 242
f 235 221 243
f 227 244 243
f 239 226 245
f 225 227 243
f 218 234 245
f 233 232 246
f 247 233 246
f 226 218 245
f 223 235 248
f 231 236 249
f 242 231 249
f 238 223 248
f 240 239 250
f 230 215 251
f 241 230 251
f 215 238 251
f 234 224 252
f 224 242 252
f 232 241 253
f 254 255 256
f 235 243 257
f 244 258 257
f 237 259 256
f 248 235 257
f 249 236 256
f 243 244 257
f 259 254 256
f 236 237 256
f 238 248 260
f 239 245 261
f 247 246 262
f 252 242 263
f 242 249 263
f 264 247 262
f 241 251 265
f 266 240 267
f 253 241 265
f 240 250 267
f 246 232 268
f 232 253 268
f 258 269 270
f 261 245 271
f 248 257 270
f 234 252 271
f 257 258 270
f 245 234 271
f 260 248 270
f 263 249 272
f 255 273 272
f 256 255 272
f 251 238 274
f 249 256 272
f 238 260 274
f 265 251 274
f 183 182 275
f 250 239 276
f 264 262 275
f 239 261 276
f 182 264 275
f 252 263 277
f 253 265 278
f 271 252 277
f 269 279 280
f 270 269 280
f 260 270 280
f 281 266 282
f 262 246 283
f 246 268 283
f 275 262 283
f 266 267 282
f 265 274 284
f 278 265 284
f 276 261 285
f 261 271 285
f 273 286 287
f 263 272 287
f 277 263 287
f 268 253 288
f 253 278 288
f 272 273 287
f 282 267 289
f 279 290 291
f 267 250 289
f 280 279 291
f 274 260 291
f 260 280 291
f 250 276 289
f 284 274 291
f 292 183 293
f 275 283 293
f 183 275 293
f 271 277 294
f 285 271 294
f 295 281 296
f 278 284 297
f 298 295 296
f 268 288 299
f 293 283 299
f 281 282 296
f 283 268 299
f 297 284 300
f 284 291 300
f 291 290 300
f 288 278 301
f 276 285 302
f 286 303 304
f 287 286 304
f 277 287 304
f 278 297 301
f 294 277 304
f 305 292 306
f 293 299 306
f 292 293 306
f 300 290 307
f 282 289 308
f 297 300 307
f 290 309 307
f 309 310 307
f 285 294 311
f 302 285 311
f 306 299 312
f 288 301 312
f 299 288 312
f 298 296 313
f 297 307 314
f 301 297 314
f 307 310 314
f 310 315 314
f 316 305 317
f 305 306 317
f 306 312 317
f 289 276 318
f 276 302 318
f 312 301 319
f 301 314 319
f 308 289 318
f 303 320 321
f 314 315 319
f 304 303 321
f 317 312 319
f 294 304 321
f 195 316 322
f 311 294 321
f 316 317 322
f 196 195 322
f 315 196 322
f 319 315 322
f 317 319 322
f 313 296 323
f 296 282 323
f 282 308 323
f 324 298 325
f 298 313 325
f 302 311 326
f 308 318 100
f 320 327 328
f 321 320 328
f 311 321 328
f 326 311 328
f 313 323 87
f 325 313 87
f 329 324 92
f 324 325 92
f 318 302 98
f 302 326 98
f 100 318 98
f 87 323 88
f 323 308 88
f 308 100 88
f 325 87 90
f 92 325 90
f 327 94 99
f 328 327 99
f 326 328 99
f 98 326 99
f 103 329 91
f 329 92 91
f 100 98 97
f 330 331 332
f 330 332 333
f 334 335 336
f 337 334 336
f 338 331 330
f 339 340 341
f 342 334 337
f 343 339 341
f 344 342 337
f 345 344 346
f 345 342 344
f 347 339 343
f 332 339 347
f 348 346 349
f 348 345 346
f 350 332 347
f 351 332 350
f 352 353 354
f 352 354 355
f 352 355 356
f 357 353 352
f 358 359 360
f 358 360 361
f 358 362 363
f 357 364 348
f 358 361 365
f 357 349 366
f 358 365 367
f 357 366 353
f 358 367 368
f 358 368 369
f 358 369 370
f 357 348 349
f 358 370 371
f 358 371 362
f 358 363 372
f 373 359 358
f 373 374 375
f 363 364 357
f 373 375 376
f 373 376 377
f 373 377 378
f 373 378 379
f 373 379 380
f 373 380 359
f 373 358 372
f 373 381 382
f 363 362 364
f 373 383 381
f 373 384 383
f 373 372 384
f 385 386 387
f 385 374 373
f 385 387 388
f 385 388 389
f 390 391 392
f 385 389 393
f 390 394 391
f 385 373 382
f 385 393 395
f 385 395 396
f 385 396 374
f 385 397 398
f 385 399 397
f 385 400 399
f 385 382 400
f 401 386 385
f 401 338 402
f 401 402 403
f 401 403 404
f 405 406 394
f 401 404 407
f 401 407 408
f 401 408 409
f 401 409 410
f 401 410 411
f 405 394 390
f 401 411 386
f 401 385 398
f 401 398 331
f 401 331 338
f 412 413 406
f 412 406 405
f 333 332 351
f 333 413 412
f 333 351 413
f 414 40 44
f 415 416 54
f 414 417 40
f 418 414 44
f 418 44 46
f 419 54 56
f 418 46 50
f 419 56 58
f 254 418 50
f 419 415 54
f 420 419 58
f 420 58 60
f 421 12 9
f 421 9 14
f 422 420 60
f 421 197 12
f 423 60 4
f 424 14 18
f 423 422 60
f 424 421 14
f 425 4 1
f 425 1 5
f 425 423 4
f 426 424 18
f 427 5 7
f 427 425 5
f 428 18 22
f 428 22 28
f 428 426 18
f 429 7 13
f 429 427 7
f 430 28 29
f 430 428 28
f 431 429 13
f 432 29 33
f 433 13 16
f 433 16 20
f 432 430 29
f 433 431 13
f 434 432 33
f 435 433 20
f 436 434 33
f 437 20 24
f 436 33 36
f 436 36 42
f 437 435 20
f 438 24 26
f 439 436 42
f 438 437 24
f 440 439 42
f 440 42 48
f 441 26 31
f 441 31 35
f 441 438 26
f 442 48 51
f 442 440 48
f 443 441 35
f 444 35 38
f 416 442 51
f 416 51 52
f 416 52 54
f 444 443 35
f 417 444 38
f 417 38 40
f 315 310 445
f 196 446 12
f 196 315 446
f 142 447 448
f 197 196 12
f 142 135 447
f 254 50 449
f 155 142 448
f 156 448 450
f 156 450 451
f 156 155 448
f 255 254 449
f 169 451 452
f 169 156 451
f 273 449 453
f 273 255 449
f 176 169 452
f 286 453 454
f 286 454 455
f 185 452 456
f 286 273 453
f 185 176 452
f 303 455 457
f 192 456 458
f 192 458 459
f 303 286 455
f 192 185 456
f 213 459 460
f 320 303 457
f 213 192 459
f 327 457 461
f 327 461 462
f 327 320 457
f 227 213 460
f 244 460 463
f 244 463 464
f 94 462 465
f 244 227 460
f 94 327 462
f 95 94 465
f 95 465 466
f 258 244 464
f 269 464 467
f 269 467 468
f 108 95 466
f 108 466 469
f 269 258 464
f 279 269 468
f 279 468 470
f 113 108 469
f 122 113 469
f 122 469 471
f 290 470 472
f 290 279 470
f 309 472 445
f 134 471 473
f 134 473 474
f 309 290 472
f 134 122 471
f 310 309 445
f 315 445 475
f 135 134 474
f 315 475 446
f 135 474 447
f 476 477 478
f 479 480 340
f 363 357 481
f 357 482 481
f 480 483 340
f 483 484 340
f 478 485 486
f 363 481 487
f 363 487 372
f 488 489 400
f 382 488 400
f 372 487 490
f 491 479 339
f 486 485 492
f 493 486 492
f 479 340 339
f 494 495 399
f 489 494 399
f 493 492 496
f 497 498 499
f 498 500 499
f 498 501 502
f 400 489 399
f 372 490 503
f 491 339 332
f 500 498 502
f 504 491 332
f 505 504 332
f 505 332 331
f 506 505 331
f 497 499 507
f 399 495 397
f 503 508 384
f 372 503 384
f 509 497 507
f 495 510 397
f 511 496 512
f 502 501 513
f 496 492 512
f 506 331 398
f 501 514 513
f 397 510 398
f 515 506 398
f 510 515 398
f 509 507 516
f 517 518 383
f 513 514 519
f 508 517 383
f 384 508 383
f 509 516 520
f 521 511 522
f 523 509 520
f 524 521 522
f 511 512 522
f 514 525 526
f 519 514 526
f 356 523 527
f 523 520 527
f 526 525 528
f 525 529 528
f 518 530 381
f 528 529 531
f 383 518 381
f 356 527 532
f 483 524 484
f 524 522 484
f 529 533 534
f 531 529 534
f 352 356 535
f 356 532 535
f 533 477 536
f 534 533 536
f 357 352 537
f 352 535 537
f 536 477 476
f 357 537 482
f 538 488 382
f 530 538 382
f 381 530 382
f 477 485 478
f 341 340 484
f 349 346 539
f 497 540 541
f 343 341 484
f 347 343 484
f 347 484 522
f 542 512 543
f 542 522 512
f 350 347 522
f 544 522 542
f 509 366 349
f 509 539 540
f 509 540 497
f 509 349 539
f 351 350 522
f 351 522 544
f 353 366 509
f 413 351 544
f 413 544 545
f 406 413 545
f 546 406 545
f 394 406 546
f 547 394 546
f 523 354 353
f 391 394 547
f 523 353 509
f 392 391 547
f 548 541 549
f 548 549 550
f 548 550 551
f 548 551 552
f 548 552 553
f 548 553 554
f 548 554 555
f 548 555 556
f 548 556 557
f 548 497 541
f 548 498 497
f 355 354 523
f 558 498 548
f 558 557 559
f 558 559 560
f 558 560 561
f 558 548 557
f 558 561 562
f 356 355 523
f 558 562 563
f 558 563 564
f 558 564 565
f 336 335 566
f 558 501 498
f 558 514 501
f 558 525 514
f 558 529 525
f 567 565 568
f 567 568 569
f 567 569 570
f 567 570 571
f 567 571 572
f 567 572 573
f 567 573 574
f 337 566 575
f 567 533 529
f 567 477 533
f 337 336 566
f 567 485 477
f 567 492 485
f 567 558 565
f 567 529 558
f 576 543 512
f 576 492 567
f 576 574 577
f 344 575 578
f 576 577 579
f 576 579 580
f 576 580 581
f 576 581 582
f 576 582 583
f 576 583 584
f 576 584 585
f 344 337 575
f 576 585 543
f 576 512 492
f 576 567 574
f 346 578 539
f 346 344 578
f 586 587 569
f 588 589 546
f 589 547 546
f 569 587 570
f 587 590 570
f 591 588 545
f 588 546 545
f 570 590 571
f 591 545 544
f 571 590 572
f 590 592 572
f 593 591 542
f 591 544 542
f 572 592 573
f 592 594 573
f 595 593 543
f 593 542 543
f 573 594 574
f 594 596 574
f 595 543 585
f 597 595 585
f 574 596 577
f 596 598 577
f 597 585 584
f 599 597 584
f 577 598 579
f 599 584 583
f 579 598 580
f 598 600 580
f 599 583 582
f 601 599 582
f 580 600 581
f 601 582 581
f 600 601 581
f 368 367 281
f 367 365 266
f 281 367 266
f 266 365 240
f 361 360 240
f 365 361 240
f 369 368 295
f 370 369 295
f 368 281 295
f 371 370 298
f 370 295 298
f 240 360 229
f 360 359 229
f 362 371 324
f 371 298 324
f 229 359 228
f 359 380 228
f 380 379 219
f 228 380 219
f 362 324 329
f 364 362 329
f 219 379 206
f 378 377 206
f 379 378 206
f 364 329 103
f 348 364 103
f 345 348 103
f 377 376 203
f 206 377 203
f 342 345 102
f 345 103 102
f 376 375 202
f 203 376 202
f 342 102 110
f 334 342 110
f 374 396 198
f 375 374 198
f 202 375 198
f 335 334 117
f 566 335 117
f 334 110 117
f 396 395 602
f 198 396 602
f 575 566 119
f 566 117 119
f 395 393 603
f 602 395 603
f 575 119 125
f 578 575 125
f 389 388 604
f 393 389 604
f 603 393 604
f 539 578 138
f 540 539 138
f 578 125 138
f 388 387 605
f 604 388 605
f 540 138 140
f 541 540 140
f 387 386 606
f 605 387 606
f 549 541 146
f 541 140 146
f 386 411 607
f 606 386 607
f 550 549 160
f 549 146 160
f 411 410 608
f 607 411 608
f 551 550 161
f 550 160 161
f 551 161 552
f 608 410 409
f 608 409 609
f 552 161 167
f 552 167 553
f 609 409 408
f 609 408 610
f 553 167 180
f 553 180 554
f 610 408 407
f 610 407 611
f 554 180 189
f 611 407 404
f 554 189 555
f 612 611 403
f 611 404 403
f 555 189 556
f 189 207 556
f 556 207 557
f 207 220 557
f 613 612 402
f 612 403 402
f 220 233 559
f 557 220 559
f 614 613 338
f 613 402 338
f 615 614 330
f 614 338 330
f 559 233 560
f 233 247 560
f 560 247 561
f 615 330 333
f 247 264 562
f 561 247 562
f 616 615 412
f 615 333 412
f 264 182 563
f 562 264 563
f 617 616 405
f 616 412 405
f 563 182 564
f 182 181 564
f 618 617 390
f 617 405 390
f 564 181 565
f 618 390 392
f 565 181 568
f 181 586 568
f 618 392 547
f 589 618 547
f 568 586 569
f 619 620 621
f 620 622 621
f 586 181 183
f 623 624 625
f 624 626 625
f 627 623 625
f 628 629 630
f 629 631 630
f 631 627 630
f 434 436 632
f 633 434 632
f 622 634 632
f 634 633 632
f 626 619 635
f 619 621 635
f 588 591 636
f 591 628 636
f 627 625 637
f 636 628 638
f 628 630 638
f 621 622 639
f 622 632 639
f 436 439 639
f 632 436 639
f 626 635 640
f 625 626 640
f 637 625 640
f 589 588 641
f 588 636 641
f 627 637 642
f 638 630 642
f 630 627 642
f 439 440 643
f 635 621 643
f 639 439 643
f 621 639 643
f 636 638 644
f 637 640 645
f 618 589 646
f 589 641 646
f 638 642 647
f 440 442 648
f 640 635 648
f 643 440 648
f 635 643 648
f 646 641 649
f 636 644 649
f 641 636 649
f 637 645 650
f 642 637 650
f 647 642 650
f 617 618 651
f 616 617 651
f 618 646 651
f 644 638 652
f 638 647 652
f 649 644 652
f 648 442 653
f 645 640 653
f 640 648 653
f 646 649 654
f 647 650 655
f 652 647 655
f 615 616 656
f 616 651 656
f 649 652 657
f 442 416 658
f 650 645 658
f 645 653 658
f 655 650 658
f 653 442 658
f 651 646 659
f 646 654 659
f 656 651 659
f 652 655 660
f 615 656 661
f 654 649 662
f 649 657 662
f 416 415 663
f 415 419 663
f 655 658 663
f 658 416 663
f 656 659 664
f 661 656 664
f 657 652 665
f 652 660 665
f 662 657 665
f 614 615 666
f 615 661 666
f 654 662 667
f 659 654 667
f 655 663 668
f 663 419 668
f 660 655 668
f 661 664 669
f 666 661 669
f 662 665 670
f 614 666 671
f 613 614 671
f 664 659 672
f 659 667 672
f 669 664 672
f 419 420 673
f 660 668 673
f 665 660 673
f 668 419 673
f 666 669 674
f 667 662 675
f 662 670 675
f 613 671 676
f 612 613 676
f 611 612 676
f 674 669 677
f 669 672 677
f 420 422 678
f 665 673 678
f 670 665 678
f 673 420 678
f 666 674 679
f 676 671 679
f 671 666 679
f 667 675 680
f 672 667 680
f 677 672 680
f 611 676 681
f 610 611 681
f 674 677 682
f 422 423 683
f 678 422 683
f 675 670 683
f 670 678 683
f 676 679 684
f 677 680 685
f 610 681 686
f 609 610 686
f 674 682 687
f 684 679 687
f 679 674 687
f 423 425 688
f 683 423 688
f 675 683 688
f 685 680 688
f 680 675 688
f 198 602 199
f 686 681 689
f 681 676 689
f 676 684 689
f 682 677 690
f 677 685 690
f 609 686 691
f 684 687 692
f 425 427 693
f 688 425 693
f 685 688 693
f 691 686 694
f 686 689 694
f 687 682 695
f 682 690 695
f 608 609 696
f 607 608 696
f 586 183 697
f 609 691 696
f 586 697 698
f 587 586 698
f 689 684 699
f 684 692 699
f 694 689 699
f 427 429 700
f 697 183 701
f 183 292 701
f 693 427 700
f 690 685 700
f 685 693 700
f 698 697 701
f 590 587 702
f 592 590 702
f 691 694 703
f 699 692 704
f 587 698 702
f 692 687 704
f 698 701 705
f 687 695 704
f 702 698 705
f 592 702 706
f 607 696 707
f 703 694 708
f 701 292 709
f 694 699 708
f 292 305 709
f 305 316 709
f 690 700 710
f 705 701 709
f 429 431 710
f 700 429 710
f 702 705 711
f 695 690 710
f 706 702 711
f 691 703 712
f 707 696 712
f 592 706 713
f 696 691 712
f 594 592 713
f 607 707 714
f 606 607 714
f 705 709 715
f 699 704 716
f 706 711 717
f 316 195 718
f 703 708 719
f 709 316 718
f 704 695 720
f 710 431 720
f 431 433 720
f 695 710 720
f 594 713 721
f 596 594 721
f 707 712 722
f 714 707 722
f 705 715 723
f 606 714 724
f 605 606 724
f 711 705 723
f 699 716 725
f 713 706 726
f 708 699 725
f 721 713 726
f 706 717 726
f 719 708 725
f 722 712 727
f 723 715 728
f 709 718 728
f 715 709 728
f 596 721 729
f 703 719 727
f 712 703 727
f 598 596 729
f 724 714 730
f 711 723 731
f 714 722 730
f 433 435 732
f 716 704 732
f 717 711 731
f 720 433 732
f 197 421 733
f 704 720 732
f 718 195 733
f 605 724 734
f 195 197 733
f 604 605 734
f 721 726 735
f 729 721 735
f 719 725 736
f 723 728 737
f 722 727 738
f 730 722 738
f 598 729 739
f 734 724 740
f 600 598 739
f 724 730 740
f 435 437 741
f 725 716 741
f 732 435 741
f 717 731 742
f 716 732 741
f 736 725 741
f 726 717 742
f 421 424 743
f 727 719 744
f 733 421 743
f 719 736 744
f 718 733 743
f 728 718 743
f 604 734 745
f 603 604 745
f 729 735 746
f 730 738 747
f 731 723 748
f 734 740 749
f 723 737 748
f 601 600 750
f 599 601 750
f 437 438 751
f 741 437 751
f 736 741 751
f 738 727 752
f 600 739 750
f 747 738 752
f 727 744 752
f 726 742 753
f 746 735 753
f 199 602 754
f 735 726 753
f 602 603 754
f 424 426 755
f 603 745 754
f 737 728 755
f 210 199 754
f 743 424 755
f 728 743 755
f 740 730 756
f 739 729 757
f 730 747 756
f 438 441 758
f 729 746 757
f 751 438 758
f 744 736 758
f 736 751 758
f 731 748 759
f 745 734 760
f 734 749 760
f 742 731 759
f 754 745 760
f 747 752 761
f 597 599 762
f 756 747 761
f 599 750 762
f 749 740 763
f 740 756 763
f 757 746 764
f 746 753 764
f 758 441 765
f 441 443 765
f 426 428 766
f 761 752 765
f 755 426 766
f 752 744 765
f 737 755 766
f 744 758 765
f 748 737 766
f 210 754 767
f 754 760 767
f 756 761 768
f 739 757 769
f 750 739 769
f 763 756 768
f 749 763 770
f 767 760 770
f 742 759 771
f 753 742 771
f 760 749 770
f 761 765 772
f 765 443 772
f 443 444 772
f 763 768 773
f 597 762 774
f 210 767 775
f 757 764 620
f 211 210 775
f 767 770 775
f 428 430 776
f 772 444 777
f 766 428 776
f 759 748 776
f 748 766 776
f 768 761 777
f 761 772 777
f 775 770 778
f 763 773 778
f 762 750 624
f 770 763 778
f 750 769 624
f 773 768 779
f 768 777 779
f 597 774 631
f 444 417 779
f 595 597 631
f 777 444 779
f 775 778 780
f 211 775 780
f 237 211 780
f 259 237 780
f 778 773 781
f 780 778 781
f 764 753 634
f 779 417 781
f 753 771 634
f 773 779 781
f 417 414 781
f 414 418 782
f 418 254 782
f 780 781 782
f 259 780 782
f 769 757 619
f 781 414 782
f 757 620 619
f 254 259 782
f 430 432 783
f 776 430 783
f 771 759 783
f 759 776 783
f 631 774 623
f 774 762 623
f 762 624 623
f 593 595 629
f 595 631 629
f 620 764 622
f 764 634 622
f 624 769 626
f 769 619 626
f 631 623 627
f 432 434 633
f 634 771 633
f 783 432 633
f 771 783 633
f 591 593 628
f 593 629 628
f 784 495 494
f 785 784 489
f 784 494 489
f 786 785 488
f 785 489 488
f 787 786 538
f 786 488 538
f 787 538 530
f 788 787 518
f 787 530 518
f 788 518 517
f 788 517 508
f 789 480 479
f 790 789 491
f 789 479 491
f 791 790 504
f 790 491 504
f 792 791 505
f 791 504 505
f 792 505 506
f 793 792 515
f 792 506 515
f 793 515 510
f 793 510 495
f 794 478 486
f 795 794 493
f 794 486 493
f 796 795 496
f 795 493 496
f 797 796 511
f 796 496 511
f 797 511 521
f 798 797 524
f 797 521 524
f 798 524 483
f 798 483 480
f 799 513 519
f 800 799 526
f 799 519 526
f 801 800 528
f 800 526 528
f 802 801 531
f 801 528 531
f 803 802 534
f 802 531 534
f 804 803 536
f 803 534 536
f 805 804 476
f 804 536 476
f 805 476 478
f 806 532 527
f 807 806 520
f 806 527 520
f 808 807 516
f 807 520 516
f 809 808 507
f 808 516 507
f 809 507 499
f 810 809 500
f 809 499 500
f 810 500 502
f 810 502 513
f 811 508 503
f 812 811 490
f 811 503 490
f 813 812 487
f 812 490 487
f 814 813 481
f 813 487 481
f 814 481 482
f 815 814 537
f 814 482 537
f 815 537 535
f 815 535 532
f 61 86 816
f 817 818 819
f 819 818 820
f 816 817 821
f 817 819 821
f 61 816 822
f 816 821 822
f 61 822 823
f 61 823 824
f 825 826 827
f 827 826 828
f 824 825 829
f 825 827 829
f 61 824 830
f 824 829 830
f 61 830 831
f 61 831 832
f 833 834 835
f 835 834 836
f 832 833 837
f 833 835 837
f 61 832 838
f 832 837 838
f 61 838 62
f 793 495 836
f 793 836 834
f 792 793 833
f 793 834 833
f 792 833 832
f 791 792 831
f 792 832 831
f 791 831 830
f 790 791 829
f 791 830 829
f 790 829 827
f 789 790 828
f 480 789 828
f 790 827 828
f 508 67 788
f 67 65 788
f 63 62 787
f 64 63 787
f 65 64 787
f 788 65 787
f 838 837 786
f 62 838 786
f 787 62 786
f 837 835 785
f 786 837 785
f 835 836 784
f 785 835 784
f 784 836 495
f 815 532 75
f 815 75 73
f 814 815 72
f 815 73 72
f 814 72 71
f 813 814 70
f 814 71 70
f 813 70 69
f 812 813 68
f 813 69 68
f 812 68 66
f 811 812 67
f 508 811 67
f 812 66 67
f 810 513 83
f 810 83 81
f 809 810 80
f 810 81 80
f 809 80 79
f 808 809 78
f 809 79 78
f 808 78 77
f 807 808 76
f 808 77 76
f 807 76 74
f 806 807 75
f 532 806 75
f 807 74 75
f 805 478 820
f 804 805 820
f 803 804 818
f 804 820 818
f 802 803 817
f 803 818 817
f 802 817 816
f 801 802 86
f 802 816 86
f 801 86 85
f 800 801 84
f 801 85 84
f 800 84 82
f 799 800 83
f 513 799 83
f 800 82 83
f 798 480 828
f 798 828 826
f 797 798 825
f 798 826 825
f 797 825 824
f 796 797 823
f 797 824 823
f 796 823 822
f 795 796 821
f 796 822 821
f 795 821 819
f 794 795 820
f 478 794 820
f 795 819 820
f 452 839 840
f 452 451 839
f 456 840 841
f 456 452 840
f 458 841 842
f 458 456 841
f 449 50 47
f 449 47 843
f 459 458 842
f 453 843 844
f 460 842 845
f 453 449 843
f 460 459 842
f 454 844 846
f 454 453 844
f 463 845 847
f 463 460 845
f 455 846 848
f 464 847 849
f 455 454 846
f 464 463 847
f 467 464 849
f 467 849 850
f 457 455 848
f 461 848 851
f 468 850 852
f 468 467 850
f 461 457 848
f 462 851 853
f 470 468 852
f 462 461 851
f 465 853 854
f 472 852 855
f 465 462 853
f 472 470 852
f 445 855 856
f 466 854 857
f 445 472 855
f 466 465 854
f 475 856 858
f 475 445 856
f 446 858 10
f 469 857 859
f 446 475 858
f 469 466 857
f 12 446 10
f 471 469 859
f 473 471 859
f 473 859 860
f 474 860 861
f 474 473 860
f 447 861 862
f 447 474 861
f 448 862 863
f 448 447 862
f 450 448 863
f 451 863 839
f 451 450 863
f 852 850 855
f 853 851 859
f 854 853 859
f 857 854 859
f 8 6 3
f 859 851 848
f 859 8 2
f 8 3 2
f 861 859 2
f 860 859 861
f 846 844 843
f 2 59 57
f 862 861 863
f 861 2 57
f 863 861 57
f 840 863 57
f 10 858 11
f 843 47 45
f 57 55 53
f 840 57 53
f 15 11 19
f 11 858 19
f 839 863 840
f 856 855 19
f 858 856 19
f 45 41 39
f 846 843 39
f 843 45 39
f 23 19 30
f 855 850 30
f 19 855 30
f 847 840 37
f 850 847 37
f 49 43 37
f 53 49 37
f 840 53 37
f 30 850 37
f 30 37 34
f 39 32 27
f 848 846 27
f 846 39 27
f 841 840 847
f 842 841 847
f 845 842 847
f 27 25 21
f 859 848 21
f 848 27 21
f 849 847 850
f 859 21 8
f 21 17 8
