# FreeCAD v0.16 build6712 (Git) Arch module
# http://www.freecadweb.org
o Part__Feature010
v 108.832835 267.216962 -619.989774
v 109.081382 266.589072 -619.766459
v 109.077106 266.559147 -619.932031
v 108.836728 267.245369 -619.795609
v 108.8258 267.169924 -620.180195
v 109.069543 266.509761 -620.092753
v 108.81569 267.104709 -620.365038
v 109.058804 266.441632 -620.246282
v 108.530011 265.475826 -617.610513
v 108.845429 265.224566 -618.205682
v 108.873272 265.390252 -618.215724
v 108.497532 265.282494 -617.601024
v 108.802603 267.021944 -620.542523
v 108.562264 265.667295 -617.639173
v 108.900801 265.553521 -618.245943
v 108.786664 266.922427 -620.71094
v 109.045044 266.355756 -620.390379
v 108.59398 265.855058 -617.686726
v 108.927613 265.711993 -618.2959
v 108.768028 266.807116 -620.868669
v 109.028465 266.253384 -620.522942
v 108.624854 266.037307 -617.752714
v 108.953319 265.863357 -618.364866
v 108.746873 266.677121 -621.014189
v 109.009308 266.136009 -620.642038
v 108.723403 266.533695 -621.146099
v 108.987853 266.005342 -620.745931
v 108.654588 266.212286 -617.836503
v 108.682896 266.37831 -617.937284
v 108.977542 266.005405 -618.451834
v 108.697844 266.378219 -621.263129
v 108.964413 265.863289 -620.833106
v 108.709505 266.53378 -618.054089
v 108.99993 266.136066 -618.555537
v 108.670443 266.21219 -621.364152
v 108.73416 266.677198 -618.18579
v 109.020157 266.253434 -618.674463
v 108.641464 266.037206 -621.448195
v 108.939328 265.711922 -620.902292
v 108.611184 265.854954 -621.514448
v 108.912966 265.553448 -620.952479
v 108.756622 266.807185 -618.331121
v 109.037927 266.355799 -618.806878
v 108.579897 265.667189 -621.562274
v 108.88571 265.390177 -620.982936
v 108.547903 265.475717 -621.591212
v 108.857958 265.22449 -620.993218
v 108.776676 266.922487 -618.488682
v 109.052981 266.441668 -618.950849
v 108.515511 265.282385 -621.600983
v 108.794128 267.021995 -618.656955
v 108.80881 267.10475 -618.83432
v 109.0651 266.509788 -619.104279
v 108.820581 267.169956 -619.019068
v 109.074108 266.559165 -619.26493
v 108.829328 267.216983 -619.20942
v 109.079871 266.589081 -619.430458
v 108.834966 267.24538 -619.403544
v 109.082308 266.599099 -619.598451
v 108.83744 267.254872 -619.59957
v 100.962043 266.548215 -619.634948
v 100.198989 266.677145 -620.888394
v 100.16536 266.51794 -620.88854
v 100.119366 266.361509 -620.888743
v 100.046895 266.170519 -620.889063
v 99.999745 265.870899 -620.705182
v 99.960665 265.985355 -620.889446
v 100.021367 265.75801 -620.518674
v 100.023773 265.667928 -620.365663
v 100.010759 265.579356 -620.210883
v 99.984147 265.498784 -620.065921
v 99.945053 265.421078 -619.922333
v 99.895031 265.346085 -619.780293
v 99.909887 265.368824 -619.455559
v 99.835637 265.273649 -619.639976
v 99.967123 265.468211 -619.268898
v 99.99876 265.552359 -619.115759
v 100.015328 265.64011 -618.960852
v 100.016433 265.72475 -618.81577
v 100.004806 265.810757 -618.672062
v 99.981964 265.897768 -618.529905
v 100.027604 266.151795 -618.389124
v 99.949429 265.985423 -618.389471
v 100.094885 266.322953 -618.388827
v 100.149018 266.498294 -618.388588
v 100.187753 266.677213 -618.388419
v 100.698017 264.782905 -620.741605
v 100.753576 264.918351 -620.876424
v 100.735091 264.812379 -620.719634
v 100.686481 264.717247 -620.62608
v 100.631426 264.519672 -620.259985
v 100.64407 264.58971 -620.458426
v 100.671065 264.630355 -620.439847
v 100.9563 265.263782 -621.180975
v 100.931646 265.120364 -621.049273
v 100.891202 265.1903 -621.118298
v 100.818972 265.054457 -621.001007
v 100.84147 265.185006 -621.133287
v 100.91533 265.330937 -621.236614
v 100.774332 265.038146 -621.02262
v 100.798537 264.936512 -620.857068
v 100.606047 264.415471 -620.040743
v 100.614634 264.461348 -620.238517
v 100.622031 264.469159 -620.055524
v 100.723783 264.748016 -620.606387
v 100.658705 264.561889 -620.245861
v 100.868926 265.061038 -620.987322
v 100.909183 264.990377 -620.903942
v 100.780337 264.832176 -620.702699
v 100.600498 264.387789 -619.839506
v 100.615976 264.438657 -619.847012
v 100.708671 264.662837 -620.423827
v 100.889129 264.875074 -620.746382
v 100.848691 264.944256 -620.844802
v 100.649521 264.51251 -620.045991
v 100.769204 264.768807 -620.5912
v 100.598032 264.378539 -619.636525
v 100.613318 264.428461 -619.636457
v 100.598673 264.3878 -619.43353
v 100.696555 264.595722 -620.233668
v 100.830671 264.840948 -620.691954
v 100.871677 264.775567 -620.578109
v 100.643602 264.482694 -619.842161
v 100.754325 264.684943 -620.411459
v 100.602413 264.415493 -619.232253
v 100.613943 264.437505 -619.438239
v 100.687552 264.547317 -620.03774
v 100.819648 264.778204 -620.581555
v 100.641004 264.472727 -619.636334
v 100.742396 264.618864 -620.224236
v 100.617596 264.464546 -619.241698
v 100.681749 264.518089 -619.83793
v 100.804915 264.695167 -620.403586
v 100.856995 264.692812 -620.400744
v 100.845224 264.627606 -620.215996
v 100.641615 264.481567 -619.442566
v 100.733532 264.571207 -620.031333
v 100.609222 264.461381 -619.034412
v 100.624245 264.509355 -619.048512
v 100.619041 264.525074 -618.841695
v 100.679202 264.508318 -619.636164
v 100.836478 264.580579 -620.025643
v 100.793104 264.62974 -620.218208
v 100.645185 264.508001 -619.250439
v 100.727819 264.54243 -619.834609
v 100.631786 264.606027 -618.655745
v 100.633832 264.571549 -618.860329
v 100.679802 264.516984 -619.446217
v 100.784328 264.582552 -620.027207
v 100.651685 264.551804 -619.06159
v 100.725311 264.53281 -619.635957
v 100.646278 264.650597 -618.678754
v 100.683302 264.542897 -619.257879
v 100.778671 264.554059 -619.832422
v 100.83084 264.552182 -619.831519
v 100.828365 264.54269 -619.635494
v 100.661057 264.612601 -618.877633
v 100.725901 264.541342 -619.448944
v 100.661475 264.745826 -618.505338
v 100.647349 264.703551 -618.47815
v 100.665597 264.816812 -618.310423
v 100.689673 264.585835 -619.072756
v 100.776188 264.544534 -619.635729
v 100.673223 264.689875 -618.700135
v 100.729347 264.566855 -619.263513
v 100.679293 264.856423 -618.341558
v 100.686374 264.944845 -618.153998
v 100.698861 264.645434 -618.892427
v 100.829078 264.552193 -619.439455
v 100.776772 264.552982 -619.450559
v 100.688079 264.782965 -618.530612
v 100.73562 264.609131 -619.081248
v 100.699581 264.981443 -618.188813
v 100.710787 264.721183 -618.718431
v 100.780184 264.578243 -619.266957
v 100.83297 264.5806 -619.24529
v 100.705497 264.891079 -618.37051
v 100.744666 264.667809 -618.903703
v 100.722166 265.119821 -618.048405
v 100.709503 265.086558 -618.010207
v 100.952155 266.548275 -617.43497
v 100.91861 266.348082 -617.4445
v 100.959108 266.547146 -617.486703
v 100.725349 264.812438 -618.552251
v 100.840005 264.627638 -619.054869
v 100.786395 264.620102 -619.086488
v 100.72533 265.013292 -618.221195
v 100.756408 264.742389 -618.732394
v 100.734787 265.240741 -617.880278
v 100.746854 265.270377 -617.921533
v 100.742424 264.918418 -618.395307
v 100.850115 264.692853 -618.870026
v 100.795352 264.678201 -618.910694
v 100.747407 265.148563 -618.08394
v 101.099214 266.523742 -617.627495
v 101.117902 266.321845 -617.643851
v 101.150295 266.515177 -617.634081
v 100.971931 266.548155 -621.834926
v 100.978419 266.547029 -621.783132
v 100.945582 266.351547 -621.77411
v 100.770746 264.832234 -618.56878
v 100.938302 266.347963 -621.825686
v 100.904876 266.149479 -621.797757
v 100.912942 266.157733 -621.746838
v 100.773436 265.431824 -617.809279
v 100.871937 265.954397 -621.751374
v 100.762009 265.406078 -617.765319
v 100.965807 266.352632 -621.725988
v 100.761865 265.038221 -618.248937
v 100.997907 266.543724 -621.734808
v 101.029066 266.538466 -621.693246
v 100.806978 264.752046 -618.741072
v 100.863202 264.775618 -618.692541
v 100.880778 265.967241 -621.701547
v 100.771542 265.295738 -617.959917
v 100.9339 266.16317 -621.699328
v 100.792692 265.548425 -617.741087
v 100.849365 265.781697 -621.638624
v 100.839767 265.764382 -621.686936
v 100.790938 265.58116 -617.666311
v 100.787557 264.936579 -618.414259
v 100.997599 266.351143 -621.6846
v 100.783508 265.170824 -618.114389
v 100.902458 265.976955 -621.655054
v 100.821175 264.841006 -618.579072
v 100.818971 265.602682 -621.558607
v 100.879141 264.875135 -618.524123
v 100.808641 265.581053 -621.60499
v 100.778823 265.405977 -621.506237
v 100.797527 265.45356 -617.850183
v 100.966321 266.165418 -621.658466
v 100.82382 265.736378 -617.650815
v 100.821327 265.764493 -617.584099
v 100.871751 265.795577 -621.593545
v 100.806698 265.054532 -618.270149
v 101.038792 266.347182 -621.652767
v 101.069773 266.531613 -621.661278
v 100.807166 265.315096 -617.992813
v 100.789855 265.431725 -621.462177
v 100.750568 265.240645 -621.391518
v 100.81635 265.567543 -617.783523
v 100.9355 265.982877 -621.615065
v 100.83782 264.944322 -618.426074
v 100.897778 264.990446 -618.366395
v 100.842039 265.620582 -621.515324
v 100.856343 265.932139 -617.579651
v 100.852916 265.954512 -617.519384
v 100.828006 265.185087 -618.137678
v 101.007997 266.164325 -621.627036
v 100.762265 265.270283 -621.350158
v 100.832638 265.469805 -617.885244
v 100.905398 265.805076 -621.554769
v 100.846779 265.751276 -617.695278
v 101.168273 266.515068 -621.63404
v 101.135794 266.321736 -621.62455
v 101.086578 266.34102 -621.632657
v 100.856773 265.061112 -618.283384
v 100.918933 265.12044 -618.220875
v 101.117254 266.523633 -621.641085
v 100.851299 265.327131 -618.017979
v 100.813577 265.453463 -621.421059
v 100.88995 266.133821 -617.528281
v 100.977652 265.984602 -621.584305
v 100.885436 266.149597 -617.472719
v 100.85109 265.58154 -617.819898
v 100.724118 265.086469 -621.261813
v 100.736437 265.119735 -621.223505
v 100.878572 265.942641 -617.625711
v 100.942403 265.263867 -618.088965
v 100.87787 265.190381 -618.15222
v 100.876273 265.633532 -621.478091
v 101.056087 266.159965 -621.607179
v 101.103542 266.130267 -621.595891
v 100.876378 265.479452 -617.912071
v 100.924315 266.339484 -617.497198
v 100.786606 265.295647 -621.311555
v 100.948015 265.809546 -621.52494
v 100.880919 265.761649 -617.733393
v 100.967961 265.419343 -617.971934
v 100.900934 265.331024 -618.0337
v 100.699697 264.944764 -621.118229
v 100.712591 264.981364 -621.083298
v 100.911424 266.139795 -617.575494
v 100.894546 265.589462 -617.847733
v 100.848372 265.46971 -621.385686
v 101.071826 265.942503 -621.548338
v 101.026041 265.982014 -621.56487
v 100.912085 265.949239 -617.665199
v 100.761358 265.148479 -621.187746
v 100.995362 265.585372 -617.870911
v 100.925766 265.481844 -617.928836
v 100.979029 266.543838 -617.53485
v 100.945017 266.340839 -617.54511
v 100.919339 265.640651 -621.449446
v 100.677515 264.81674 -620.961989
v 100.690931 264.856352 -620.930735
v 100.923913 265.76679 -617.762565
v 100.65776 264.703487 -620.794428
v 100.944289 266.142504 -617.615972
v 100.943754 265.590769 -617.865133
v 100.954598 265.951483 -617.695424
v 100.821933 265.315006 -621.278342
v 101.040952 265.760255 -621.482349
v 100.996696 265.808684 -621.50609
v 101.010561 266.538578 -617.57613
v 100.97722 266.339583 -617.586187
v 100.972832 265.766349 -617.780804
v 100.738048 265.013215 -621.050688
v 101.024342 265.760356 -617.786869
v 101.054621 265.942608 -617.720615
v 100.891869 265.479358 -621.358467
v 100.986305 266.141765 -617.646957
v 100.671641 264.745764 -620.767116
v 101.003215 265.949222 -617.714325
v 101.085908 266.130373 -617.672789
v 101.051554 266.531724 -617.60773
v 101.018727 266.335801 -617.617631
v 100.797183 265.170741 -621.156975
v 101.034609 266.137627 -617.666336
v 101.011218 265.585276 -621.398561
v 100.968303 265.641454 -621.43134
v 101.066712 266.329751 -617.6373
v 100.716874 264.89101 -620.90155
v 100.640602 264.605974 -620.616974
v 100.65984 264.678599 -620.648937
v 100.865838 265.327043 -621.252781
v 100.98291 265.419252 -621.297779
v 100.941103 265.481751 -621.341258
v 100.626185 264.52503 -620.431142
v 101.557114 270.059512 -620.960346
v 99.101558 268.734498 -620.408744
v 101.570131 270.144003 -620.702907
v 99.072532 268.552216 -620.754647
v 100.336118 262.810134 -619.908751
v 100.333297 262.800593 -619.637672
v 100.082009 262.946369 -619.638805
v 99.841941 263.109967 -619.639889
v 101.541065 269.957129 -621.211031
v 99.118702 268.846751 -620.03348
v 99.123307 268.884661 -619.643276
v 99.315956 269.10211 -619.642416
v 100.342128 262.838723 -620.178435
v 99.523851 269.305031 -619.641487
v 99.614355 263.290527 -619.640917
v 100.351297 262.886215 -620.445349
v 99.400449 263.487101 -619.641883
v 99.7459 269.492357 -619.640494
v 100.363578 262.952368 -620.708134
v 99.201345 263.698654 -619.642784
v 99.980937 269.663105 -619.639442
v 100.227726 269.816376 -619.638337
v 98.469582 264.977685 -620.036292
v 98.851647 264.162182 -619.644368
v 98.702891 264.411721 -619.645044
v 98.572604 264.67138 -619.645636
v 98.46147 264.939796 -619.646143
v 98.4901 265.089917 -620.411393
v 99.891433 264.074445 -621.980594
v 100.675708 264.75208 -622.9714
v 100.636486 264.52201 -622.833152
v 100.598923 264.302266 -622.678606
v 100.397211 263.139215 -621.215987
v 98.522234 265.27218 -620.757031
v 100.56321 264.093966 -622.508551
v 100.52953 263.898173 -622.323853
v 100.378909 263.036845 -620.96545
v 100.498054 263.715883 -622.125452
v 99.01809 263.924076 -619.643614
v 100.468942 263.548027 -621.914361
v 100.442343 263.395458 -621.691654
v 100.418392 263.258956 -621.458466
v 98.56475 265.51747 -621.059923
v 99.009511 265.865392 -621.984606
v 100.979122 266.548111 -623.434909
v 100.934225 266.280759 -623.425422
v 100.889469 266.01477 -623.396619
v 100.845083 265.751499 -623.348647
v 100.801292 265.492288 -623.281752
v 100.758322 265.238458 -623.196273
v 100.716389 264.991302 -623.092646
v 98.736646 266.527373 -621.60654
v 98.801378 266.912174 -621.644689
v 98.674057 266.157361 -621.492999
v 98.616015 265.816358 -621.308428
v 99.339821 267.834195 -621.983175
v 101.278359 268.344168 -622.968789
v 101.238769 268.104939 -623.090383
v 101.197769 267.857778 -623.194369
v 101.155569 267.603943 -623.280217
v 101.112381 267.344728 -623.347489
v 101.590404 270.286281 -619.903317
v 101.305683 270.240054 -619.633504
v 101.590788 270.295837 -619.632224
v 101.068428 267.081455 -623.395844
v 101.025369 270.163763 -619.634762
v 101.023933 266.815464 -623.425033
v 98.983712 268.008008 -621.306835
v 99.03274 268.306911 -621.057895
v 98.927331 267.666996 -621.491901
v 98.865764 267.296978 -621.605981
v 100.757942 269.239252 -621.97684
v 101.522065 269.837374 -621.453685
v 101.586819 270.257677 -620.173042
v 100.751318 270.067365 -619.635991
v 101.500211 269.700859 -621.687071
v 101.475615 269.548279 -621.909999
v 101.448401 269.380411 -622.121335
v 101.41871 269.198111 -622.32
v 101.386691 269.002307 -622.504983
v 101.352509 268.793998 -622.675341
v 101.316336 268.574245 -622.830206
v 101.58005 270.21017 -620.440026
v 100.48497 269.951366 -619.637185
v 101.23266 266.899872 -621.595331
v 101.473344 268.402639 -619.052125
v 101.461573 268.337434 -618.867377
v 101.263947 267.087637 -621.547505
v 101.200666 266.708401 -621.624269
v 101.48209 268.449666 -619.242477
v 101.487728 268.478063 -619.436601
v 101.182774 266.708509 -617.64357
v 101.490203 268.487555 -619.632627
v 101.48949 268.478052 -619.828666
v 101.215027 266.899978 -617.67223
v 101.485598 268.449645 -620.022831
v 101.246742 267.087742 -617.719783
v 101.478563 268.402607 -620.213252
v 101.277616 267.26999 -617.785771
v 101.468453 268.337392 -620.398095
v 101.30735 267.444969 -617.86956
v 101.455366 268.254627 -620.57558
v 101.335658 267.610993 -617.970341
v 101.439427 268.15511 -620.743997
v 101.362268 267.766463 -618.087145
v 101.42079 268.039799 -620.901726
v 101.386922 267.909882 -618.218847
v 101.399635 267.909805 -621.047246
v 101.376165 267.766379 -621.179156
v 101.409385 268.039868 -618.364178
v 101.429439 268.155171 -618.521739
v 101.350607 267.610902 -621.296186
v 101.446891 268.254679 -618.690012
v 101.323206 267.444873 -621.397209
v 101.294226 267.26989 -621.481252
v 108.433146 264.89769 -617.639732
v 108.46514 265.089161 -617.610795
v 108.401859 264.709924 -617.687558
v 108.192462 263.394923 -620.182939
v 108.183715 263.347896 -619.992586
v 108.178078 263.319499 -619.798462
v 108.483032 265.089053 -621.591493
v 108.175603 263.310007 -619.602437
v 108.176315 263.31951 -619.406398
v 108.180208 263.347917 -619.212233
v 108.450779 264.897583 -621.562834
v 108.419063 264.70982 -621.515281
v 108.38819 264.527572 -621.449292
v 108.187243 263.394955 -619.021812
v 108.358455 264.352593 -621.365504
v 108.197353 263.46017 -618.836969
v 108.21044 263.542935 -618.659484
v 108.226379 263.642452 -618.491066
v 108.330147 264.186569 -621.264722
v 108.303538 264.031099 -621.147918
v 108.245015 263.757763 -618.333338
v 108.26617 263.887757 -618.187818
v 108.278883 263.88768 -621.016216
v 108.256421 263.757694 -620.870885
v 108.28964 264.031183 -618.055908
v 108.315199 264.18666 -617.938877
v 108.236367 263.642391 -620.713325
v 108.3426 264.352689 -617.837854
v 108.37158 264.527672 -617.753812
v 108.218915 263.542883 -620.545052
v 108.204233 263.460128 -620.367687
v 98.736844 266.543767 -621.039157
v 98.767648 266.726388 -621.075858
v 98.847933 267.28069 -618.250262
v 98.910721 267.667096 -617.79642
v 98.877788 267.457007 -618.310822
v 99.028319 268.323536 -619.455287
v 99.021392 268.287215 -619.270141
v 99.115195 268.846772 -619.253127
v 99.094678 268.73454 -618.878026
v 98.588808 265.679438 -620.367286
v 98.574231 265.597089 -620.198016
v 98.968763 268.008099 -617.980991
v 98.90618 267.624003 -618.394205
v 98.606869 265.782881 -620.524193
v 98.512246 265.272241 -618.534772
v 98.552038 265.517546 -618.231524
v 98.598971 265.782929 -618.766868
v 98.61893 265.905703 -618.624831
v 98.932626 267.77882 -618.498984
v 98.601066 265.816449 -617.982584
v 98.641858 266.0457 -618.500244
v 98.628105 265.905648 -620.666052
v 98.582321 265.679478 -618.923925
v 98.48322 265.089959 -618.880675
v 98.66736 266.200522 -618.39524
v 98.956673 267.918809 -618.623368
v 99.020027 268.306988 -618.229496
v 98.657447 266.157461 -617.797518
v 98.798876 266.912189 -621.088071
v 98.829993 267.097991 -621.075587
v 98.652151 266.045637 -620.790435
v 98.569265 265.597119 -619.093315
v 99.030012 268.323526 -619.83208
v 99.031209 268.335709 -619.643675
v 98.695003 266.367522 -618.311614
v 98.977908 268.041576 -618.765226
v 98.466075 264.977706 -619.255939
v 98.560027 265.537262 -619.27214
v 98.719013 266.527479 -617.683439
v 98.724311 266.543843 -618.250798
v 98.860466 267.280615 -621.038622
v 98.678597 266.200454 -620.895214
v 98.554765 265.500931 -619.457339
v 99.02475 268.287195 -620.017279
v 98.995969 268.145019 -618.922133
v 99.062543 268.552277 -618.532388
v 98.754785 266.726466 -618.213832
v 98.889775 267.456935 -620.977805
v 98.917417 267.623935 -620.89418
v 98.783399 266.912283 -617.64473
v 99.015512 268.227338 -620.196104
v 98.553569 265.488748 -619.645744
v 99.002457 268.144979 -620.365494
v 98.94292 267.778758 -620.789175
v 98.785901 266.912268 -618.201348
v 98.556459 265.500921 -619.834132
v 98.985807 268.041528 -620.522551
v 98.70699 266.36745 -620.978597
v 98.965847 267.918754 -620.664588
v 99.010547 268.227368 -619.091403
v 98.848131 267.297084 -617.682879
v 98.817129 267.098069 -618.213562
v 98.563385 265.537242 -620.019278
v 100.353954 262.952427 -618.566989
v 100.366971 263.036917 -618.30955
v 100.383021 263.139301 -618.058865
v 101.545177 270.059584 -618.304445
v 101.526874 269.957215 -618.053909
v 101.560508 270.144061 -618.561761
v 101.572789 270.210214 -618.824546
v 101.581958 270.257706 -619.091461
v 101.587968 270.286296 -619.361145
v 99.87039 264.074573 -617.298886
v 100.402021 263.259055 -617.816211
v 100.423875 263.39557 -617.582825
v 100.448471 263.548151 -617.359896
v 100.475684 263.716019 -617.148561
v 100.505376 263.898319 -616.949895
v 100.537394 264.094122 -616.764912
v 100.571577 264.302431 -616.594554
v 100.607749 264.522184 -616.439689
v 100.645727 264.752261 -616.301107
v 98.988468 265.865519 -617.302899
v 100.685316 264.99149 -616.179513
v 100.726316 265.238652 -616.075527
v 100.768517 265.492487 -615.989679
v 100.811704 265.751701 -615.922406
v 100.855657 266.014975 -615.874052
v 100.900153 266.280966 -615.844862
v 100.944963 266.548318 -615.834986
v 100.333681 262.810148 -619.366579
v 99.318778 267.834322 -617.301468
v 100.989861 266.81567 -615.844474
v 101.034617 267.081659 -615.873277
v 101.079003 267.34493 -615.921248
v 101.122793 267.604141 -615.988144
v 101.165764 267.857971 -616.073623
v 101.207697 268.105127 -616.177249
v 101.248378 268.34435 -616.298496
v 100.337267 262.838753 -619.096853
v 100.736899 269.239379 -617.295132
v 101.2876 268.574419 -616.436744
v 100.344036 262.886259 -618.82987
v 101.325163 268.794164 -616.591289
v 101.360875 269.002463 -616.761345
v 101.394556 269.198257 -616.946043
v 101.426032 269.380546 -617.144443
v 101.455144 269.548403 -617.355535
v 101.481743 269.700971 -617.578242
v 101.505694 269.837474 -617.811429
v 101.314863 268.635048 -620.235483
v 101.321672 268.680937 -620.037642
v 101.325413 268.70863 -619.836366
v 101.326053 268.717891 -619.633371
v 100.985783 266.748467 -617.444209
v 101.323588 268.708641 -619.430389
v 101.01921 266.94695 -617.472139
v 101.318038 268.680959 -619.229153
v 101.052148 267.142032 -617.518521
v 101.309451 268.635081 -619.031378
v 101.084318 267.332048 -617.58296
v 101.2979 268.571399 -618.838754
v 101.115445 267.515376 -617.664905
v 101.283484 268.490456 -618.652922
v 101.145262 267.690453 -617.763659
v 101.266325 268.392942 -618.475468
v 101.173517 267.855784 -617.878377
v 101.24657 268.27969 -618.307906
v 101.199968 268.00996 -618.008082
v 101.224388 268.151665 -618.151667
v 101.005475 266.748348 -621.825395
v 101.038649 266.946833 -621.797177
v 101.07117 267.141917 -621.750511
v 101.102759 267.331936 -621.685796
v 101.133148 267.515269 -621.603584
v 101.162077 267.690351 -621.504576
v 101.189299 267.855689 -621.389618
v 101.214582 268.009872 -621.259688
v 101.237711 268.151584 -621.115898
v 101.258488 268.279617 -620.959472
v 101.276736 268.392879 -620.791746
v 101.292299 268.490402 -620.61415
v 101.305044 268.571356 -620.428201
v 101.265295 268.038899 -618.246756
v 101.242444 267.906303 -618.112401
v 101.302354 268.00888 -618.268001
v 101.279856 267.878332 -618.135721
v 101.278919 268.304657 -618.528053
v 101.260063 268.196553 -618.368108
v 101.304536 268.264666 -618.549742
v 101.286051 268.158694 -618.392952
v 101.290455 268.370315 -618.643578
v 101.306101 268.574502 -619.00985
v 101.293457 268.504464 -618.811409
v 101.305871 268.457208 -618.829811
v 101.277687 268.415576 -618.620898
v 101.325266 267.857075 -618.150282
v 101.301139 267.716438 -618.031966
v 101.255488 267.736294 -618.016228
v 101.32279 268.126825 -618.41194
v 101.315496 268.625015 -619.214311
v 101.315844 268.329029 -618.662989
v 101.318231 268.525673 -619.023797
v 101.347543 267.986336 -618.281258
v 101.34099 268.231161 -618.566309
v 101.321551 268.655517 -619.422823
v 101.330956 268.414208 -618.845548
v 101.367777 268.103119 -618.423778
v 101.327415 268.575052 -619.223667
v 101.352123 268.29453 -618.677808
v 101.324209 268.665713 -619.633378
v 101.343072 268.481323 -619.035708
v 101.385797 268.206427 -618.576626
v 101.333334 268.604868 -619.427497
v 101.367002 268.378394 -618.857549
v 101.323584 268.65667 -619.831596
v 101.352074 268.529727 -619.231636
v 101.396821 268.269171 -618.687025
v 101.335933 268.614836 -619.633323
v 101.378931 268.444473 -619.044772
v 101.319931 268.629628 -620.028137
v 101.357877 268.558956 -619.431445
v 101.411553 268.352208 -618.864994
v 101.335321 268.605996 -619.827091
v 101.387795 268.49213 -619.237675
v 101.313283 268.58482 -620.221323
v 101.360424 268.568726 -619.633212
v 101.423364 268.417635 -619.050372
v 101.331751 268.579561 -620.019219
v 101.393508 268.520907 -619.434399
v 101.303695 268.522626 -620.409506
v 101.359825 268.560061 -619.823158
v 101.43214 268.464823 -619.241373
v 101.325251 268.535759 -620.208067
v 101.396015 268.530527 -619.633051
v 101.291249 268.443577 -620.591081
v 101.356325 268.534148 -620.011496
v 101.437797 268.493316 -619.436158
v 101.315879 268.474961 -620.392025
v 101.395425 268.521995 -619.820064
v 101.276053 268.348348 -620.764497
v 101.349954 268.491209 -620.19662
v 101.44028 268.502841 -619.632851
v 101.303713 268.397688 -620.569522
v 101.391979 268.496482 -620.005495
v 101.258234 268.237752 -620.928277
v 101.340766 268.431611 -620.376949
v 101.439696 268.494393 -619.818021
v 101.288857 268.304597 -620.739045
v 101.385707 268.454207 -620.18776
v 101.237946 268.112731 -621.081022
v 101.32884 268.355861 -620.550945
v 101.436284 268.469132 -620.001623
v 101.271439 268.196484 -620.899147
v 101.376661 268.395529 -620.365305
v 101.215361 267.974353 -621.22143
v 101.314277 268.264607 -620.717124
v 101.430073 268.427273 -620.182092
v 101.251606 268.07427 -621.048463
v 101.364919 268.320949 -620.536615
v 101.190673 267.823798 -621.348302
v 100.991946 266.742627 -617.495725
v 101.024585 266.936441 -617.522997
v 101.297203 268.158626 -620.874068
v 101.421116 268.369174 -620.357886
v 101.01113 266.734931 -617.543669
v 101.056749 267.126933 -617.568288
v 101.229529 267.938999 -621.185718
v 101.350581 268.231103 -620.700228
v 101.043036 266.924393 -617.57033
v 101.088162 267.312478 -617.631211
v 101.164091 267.66235 -621.460556
v 101.277761 268.038823 -621.020439
v 101.042028 266.725902 -617.584775
v 101.40949 268.295329 -620.527508
v 101.074478 267.110607 -617.614603
v 101.205394 267.791825 -621.309741
v 101.118556 267.491492 -617.711228
v 101.144835 267.545749 -621.528748
v 101.073305 266.911626 -617.61091
v 101.33377 268.126759 -620.854749
v 101.105185 267.291986 -617.676113
v 101.082535 266.716155 -617.616241
v 101.256119 267.90622 -621.154986
v 101.395294 268.206369 -620.689508
v 101.147672 267.66245 -617.807658
v 101.17941 267.634002 -621.419474
v 101.104127 267.094168 -617.65431
v 101.113707 267.357796 -621.61902
v 101.314629 268.008806 -620.998859
v 101.134897 267.466981 -617.754334
v 101.232461 267.761949 -621.276563
v 101.11333 266.899012 -617.641972
v 101.175262 267.823891 -617.919677
v 101.160586 267.520019 -621.486135
v 101.134229 267.271969 -617.714607
v 101.378648 268.103053 -620.842506
v 101.12989 266.706355 -617.635923
v 101.081184 267.162036 -621.690184
v 101.16336 267.634099 -617.848598
v 101.293321 267.87825 -621.13133
v 101.143675 267.078735 -617.684703
v 101.206989 267.607239 -621.384132
v 101.20109 267.974439 -618.04633
v 101.130157 267.336287 -621.57438
v 101.359696 267.986263 -620.985196
v 101.163354 267.443512 -617.791285
v 101.160381 266.88741 -617.661401
v 101.270028 267.736206 -621.251029
v 101.047578 266.960353 -621.741554
v 101.19033 267.791916 -617.958102
v 101.188536 267.495504 -621.449478
v 101.173312 267.253791 -617.744068
v 101.098364 267.144922 -621.643946
v 101.224936 268.11281 -618.186537
v 101.338598 267.856994 -621.11636
v 101.244949 267.583885 -621.356938
v 101.191255 267.607335 -617.88369
v 101.013212 266.754691 -621.772637
v 101.190427 267.065361 -617.70371
v 101.158708 267.315396 -621.535983
v 101.215578 267.939084 -618.081912
v 101.315535 267.71635 -621.23488
v 101.201988 267.422686 -617.819562
v 101.065512 266.947768 -621.694163
v 101.226781 267.473875 -621.421275
v 101.246597 268.237822 -618.3391
v 101.127542 267.127806 -621.604176
v 101.217694 267.762038 -617.991034
v 101.290703 267.565531 -621.339744
v 101.219772 267.238691 -617.76249
v 101.031919 266.746723 -621.724548
v 101.197413 267.296548 -621.506443
v 101.238889 268.074347 -618.21897
v 101.095338 266.93454 -621.653403
v 101.229458 267.583979 -617.910541
v 101.272715 267.456606 -621.403447
v 101.166728 267.111854 -621.573584
v 101.265887 268.34841 -618.502719
v 101.062407 266.737461 -621.683189
v 101.248166 267.405921 -617.83724
v 101.243636 267.281026 -621.487776
v 101.135022 266.921572 -621.622051
v 101.213254 267.098153 -621.554255
v 101.102599 266.727536 -621.651377
v 101.18186 266.909748 -621.602244
v 101.149757 266.717624 -621.63128
v 101.275365 267.565624 -617.927322
v 98.905613 267.407037 -620.894227
v 98.886327 267.191164 -620.894308
v 98.858471 266.976463 -620.894427
v 98.821032 266.763002 -620.894589
v 98.756744 266.480303 -620.894871
v 99.038109 268.224922 -619.831143
v 99.037507 268.115393 -620.018644
v 99.028341 268.007301 -620.206184
v 99.009655 267.900806 -620.393767
v 98.97052 267.761199 -620.643942
v 98.948904 267.726737 -618.581517
v 98.984125 267.830731 -618.768864
v 99.010782 267.936161 -618.956249
v 99.027919 268.043188 -619.143677
v 99.036547 268.188277 -619.393644
v 98.722969 266.394525 -618.394995
v 98.772311 266.590013 -618.394778
v 98.814439 266.786733 -618.394594
v 98.848432 266.98446 -618.394447
v 98.869679 267.143414 -618.394356
v 98.886092 267.303029 -618.394286
v 98.898111 267.463246 -618.394237
v 98.594607 265.591493 -619.458061
v 98.628143 265.695496 -619.270411
v 98.653114 265.800936 -619.0828
v 98.668566 265.907974 -618.895231
v 98.674947 266.053076 -618.645204
v 98.683812 266.089677 -620.707686
v 98.681525 265.980158 -620.520191
v 98.670673 265.872076 -620.332735
v 98.650302 265.765592 -620.145322
v 98.608919 265.625998 -619.895502
v 100.208152 266.839354 -618.388332
v 100.21597 267.003228 -618.388301
v 100.209507 267.206982 -618.388335
v 100.264153 267.504069 -618.572184
v 100.188249 267.408904 -618.388437
v 100.323065 267.603446 -618.758328
v 100.356077 267.687586 -618.911181
v 100.374037 267.775328 -619.065938
v 100.376447 267.85996 -619.211009
v 100.366111 267.945959 -619.354819
v 100.344548 268.032963 -619.497182
v 100.354011 268.006144 -619.821806
v 100.313277 268.12061 -619.637907
v 100.377309 267.893245 -620.008105
v 100.38109 267.803155 -620.161084
v 100.369468 267.714574 -620.315969
v 100.34416 267.633994 -620.46116
v 100.306358 267.556281 -620.60509
v 100.257616 267.481279 -620.74757
v 100.219228 267.227181 -620.888318
v 100.199485 267.408836 -620.888411
v 100.227271 267.044078 -620.888276
v 100.22104 266.859731 -620.888299
v 108.622006 263.859984 -619.432442
v 108.626282 263.889909 -619.26687
v 108.633844 263.939295 -619.106148
v 108.644584 264.007424 -618.952619
v 108.830115 265.058804 -620.983177
v 108.802587 264.895535 -620.952957
v 108.658343 264.0933 -618.808522
v 108.775774 264.737063 -620.903
v 108.674922 264.195672 -618.675959
v 108.750069 264.5857 -620.834035
v 108.694079 264.313047 -618.556862
v 108.715534 264.443714 -618.452969
v 108.725846 264.443652 -620.747067
v 108.738975 264.585767 -618.365794
v 108.703457 264.312991 -620.643363
v 108.683231 264.195622 -620.524437
v 108.764059 264.737134 -618.296609
v 108.790422 264.895609 -618.246422
v 108.665461 264.093257 -620.392023
v 108.817677 265.05888 -618.215965
v 108.650406 264.007388 -620.248051
v 108.638287 263.939269 -620.094622
v 108.62928 263.889891 -619.933971
v 108.623516 263.859975 -619.768442
v 108.62108 263.849957 -619.600449
f 1 2 3
f 1 4 2
f 5 3 6
f 5 1 3
f 7 6 8
f 7 5 6
f 9 10 11
f 9 12 10
f 13 7 8
f 14 11 15
f 16 8 17
f 14 9 11
f 16 13 8
f 18 15 19
f 18 14 15
f 20 17 21
f 20 16 17
f 22 19 23
f 24 21 25
f 22 18 19
f 24 20 21
f 26 25 27
f 28 22 23
f 26 24 25
f 29 23 30
f 31 27 32
f 31 26 27
f 29 28 23
f 33 30 34
f 35 31 32
f 33 29 30
f 36 34 37
f 38 32 39
f 36 33 34
f 38 35 32
f 40 39 41
f 42 37 43
f 40 38 39
f 42 36 37
f 44 41 45
f 44 40 41
f 46 45 47
f 48 43 49
f 46 44 45
f 48 42 43
f 50 46 47
f 51 48 49
f 52 51 49
f 52 49 53
f 54 53 55
f 54 52 53
f 56 55 57
f 56 54 55
f 58 57 59
f 58 56 57
f 60 58 59
f 4 59 2
f 4 60 59
f 61 62 63
f 64 65 66
f 66 65 67
f 63 64 68
f 64 66 68
f 61 63 69
f 63 68 69
f 61 69 70
f 61 70 71
f 72 73 74
f 74 73 75
f 71 72 76
f 72 74 76
f 61 71 77
f 71 76 77
f 61 77 78
f 61 78 79
f 80 81 82
f 82 81 83
f 79 80 84
f 80 82 84
f 61 79 85
f 79 84 85
f 61 85 86
f 87 88 89
f 90 87 89
f 91 92 93
f 92 90 93
f 94 95 96
f 97 98 96
f 99 94 96
f 98 99 96
f 100 97 101
f 88 100 101
f 89 88 101
f 102 103 104
f 103 91 104
f 90 89 105
f 93 90 105
f 91 93 106
f 96 95 107
f 97 96 107
f 95 108 107
f 101 97 107
f 105 89 109
f 89 101 109
f 110 102 111
f 102 104 111
f 106 93 112
f 93 105 112
f 108 113 114
f 107 108 114
f 101 107 114
f 109 101 114
f 91 106 115
f 104 91 115
f 111 104 115
f 105 109 116
f 112 105 116
f 117 110 118
f 119 117 118
f 110 111 118
f 106 112 120
f 116 109 121
f 113 122 121
f 109 114 121
f 114 113 121
f 111 115 123
f 118 111 123
f 120 112 124
f 112 116 124
f 125 119 126
f 119 118 126
f 115 106 127
f 123 115 127
f 106 120 127
f 116 121 128
f 121 122 128
f 124 116 128
f 118 123 129
f 120 124 130
f 125 126 131
f 123 127 132
f 129 123 132
f 128 122 133
f 122 134 133
f 134 135 133
f 124 128 133
f 130 124 133
f 126 118 136
f 118 129 136
f 131 126 136
f 127 120 137
f 120 130 137
f 132 127 137
f 138 125 139
f 125 131 139
f 140 138 139
f 129 132 141
f 136 129 141
f 135 142 143
f 133 135 143
f 130 133 143
f 131 136 144
f 132 137 145
f 141 132 145
f 146 140 147
f 140 139 147
f 144 136 148
f 136 141 148
f 130 143 149
f 145 137 149
f 137 130 149
f 143 142 149
f 131 144 150
f 139 131 150
f 141 145 151
f 148 141 151
f 146 147 152
f 144 148 153
f 145 149 154
f 142 155 154
f 155 156 154
f 151 145 154
f 149 142 154
f 139 150 157
f 147 139 157
f 153 148 158
f 148 151 158
f 146 152 159
f 160 146 159
f 161 160 159
f 144 153 162
f 150 144 162
f 151 154 163
f 154 156 163
f 158 151 163
f 147 157 164
f 152 147 164
f 153 158 165
f 161 159 166
f 167 161 166
f 150 162 168
f 164 157 168
f 157 150 168
f 156 169 170
f 158 163 170
f 163 156 170
f 165 158 170
f 159 152 171
f 166 159 171
f 152 164 171
f 153 165 172
f 162 153 172
f 168 162 172
f 167 166 173
f 171 164 174
f 164 168 174
f 170 169 175
f 169 176 175
f 165 170 175
f 166 171 177
f 168 172 178
f 174 168 178
f 167 173 179
f 180 167 179
f 181 182 183
f 171 174 184
f 177 171 184
f 176 185 186
f 172 165 186
f 175 176 186
f 165 175 186
f 178 172 186
f 173 166 187
f 166 177 187
f 174 178 188
f 184 174 188
f 189 180 190
f 180 179 190
f 177 184 191
f 185 192 193
f 186 185 193
f 178 186 193
f 188 178 193
f 173 187 194
f 195 196 197
f 179 173 194
f 198 199 200
f 191 184 201
f 202 198 200
f 203 202 200
f 203 200 204
f 184 188 201
f 189 190 205
f 206 203 204
f 207 189 205
f 200 199 208
f 177 191 209
f 204 200 208
f 199 210 208
f 210 211 208
f 194 187 209
f 187 177 209
f 188 193 212
f 192 213 212
f 201 188 212
f 206 204 214
f 193 192 212
f 179 194 215
f 204 208 216
f 190 179 215
f 207 205 217
f 206 214 218
f 219 206 218
f 220 207 217
f 209 191 221
f 208 211 222
f 191 201 221
f 215 194 223
f 218 214 224
f 214 204 224
f 194 209 223
f 204 216 224
f 201 212 225
f 221 201 225
f 219 218 226
f 213 227 225
f 212 213 225
f 228 219 226
f 229 228 226
f 217 205 230
f 190 215 230
f 205 190 230
f 208 222 231
f 216 208 231
f 220 217 232
f 233 220 232
f 218 224 234
f 223 209 235
f 231 222 236
f 222 211 236
f 209 221 235
f 211 237 236
f 215 223 238
f 229 226 239
f 240 229 239
f 232 217 241
f 217 230 241
f 224 216 242
f 221 225 243
f 216 231 242
f 235 221 243
f 227 244 243
f 239 226 245
f 225 227 243
f 218 234 245
f 233 232 246
f 247 233 246
f 226 218 245
f 223 235 248
f 231 236 249
f 242 231 249
f 238 223 248
f 240 239 250
f 230 215 251
f 241 230 251
f 215 238 251
f 234 224 252
f 224 242 252
f 232 241 253
f 254 255 256
f 235 243 257
f 244 258 257
f 237 259 256
f 248 235 257
f 249 236 256
f 243 244 257
f 259 254 256
f 236 237 256
f 238 248 260
f 239 245 261
f 247 246 262
f 252 242 263
f 242 249 263
f 264 247 262
f 241 251 265
f 266 240 267
f 253 241 265
f 240 250 267
f 246 232 268
f 232 253 268
f 258 269 270
f 261 245 271
f 248 257 270
f 234 252 271
f 257 258 270
f 245 234 271
f 260 248 270
f 263 249 272
f 255 273 272
f 256 255 272
f 251 238 274
f 249 256 272
f 238 260 274
f 265 251 274
f 183 182 275
f 250 239 276
f 264 262 275
f 239 261 276
f 182 264 275
f 252 263 277
f 253 265 278
f 271 252 277
f 269 279 280
f 270 269 280
f 260 270 280
f 281 266 282
f 262 246 283
f 246 268 283
f 275 262 283
f 266 267 282
f 265 274 284
f 278 265 284
f 276 261 285
f 261 271 285
f 273 286 287
f 263 272 287
f 277 263 287
f 268 253 288
f 253 278 288
f 272 273 287
f 282 267 289
f 279 290 291
f 267 250 289
f 280 279 291
f 274 260 291
f 260 280 291
f 250 276 289
f 284 274 291
f 292 183 293
f 275 283 293
f 183 275 293
f 271 277 294
f 285 271 294
f 295 281 296
f 278 284 297
f 298 295 296
f 268 288 299
f 293 283 299
f 281 282 296
f 283 268 299
f 297 284 300
f 284 291 300
f 291 290 300
f 288 278 301
f 276 285 302
f 286 303 304
f 287 286 304
f 277 287 304
f 278 297 301
f 294 277 304
f 305 292 306
f 293 299 306
f 292 293 306
f 300 290 307
f 282 289 308
f 297 300 307
f 290 309 307
f 309 310 307
f 285 294 311
f 302 285 311
f 306 299 312
f 288 301 312
f 299 288 312
f 298 296 313
f 297 307 314
f 301 297 314
f 307 310 314
f 310 315 314
f 316 305 317
f 305 306 317
f 306 312 317
f 289 276 318
f 276 302 318
f 312 301 319
f 301 314 319
f 308 289 318
f 303 320 321
f 314 315 319
f 304 303 321
f 317 312 319
f 294 304 321
f 195 316 322
f 311 294 321
f 316 317 322
f 196 195 322
f 315 196 322
f 319 315 322
f 317 319 322
f 313 296 323
f 296 282 323
f 282 308 323
f 324 298 325
f 298 313 325
f 302 311 326
f 308 318 100
f 320 327 328
f 321 320 328
f 311 321 328
f 326 311 328
f 313 323 87
f 325 313 87
f 329 324 92
f 324 325 92
f 318 302 98
f 302 326 98
f 100 318 98
f 87 323 88
f 323 308 88
f 308 100 88
f 325 87 90
f 92 325 90
f 327 94 99
f 328 327 99
f 326 328 99
f 98 326 99
f 103 329 91
f 329 92 91
f 100 98 97
f 330 331 332
f 330 333 331
f 334 335 336
f 337 334 336
f 338 333 330
f 339 340 341
f 342 334 337
f 343 339 341
f 344 342 337
f 345 344 346
f 345 342 344
f 347 339 343
f 331 339 347
f 348 346 349
f 348 345 346
f 350 331 347
f 351 331 350
f 352 353 354
f 352 354 355
f 352 355 356
f 357 353 352
f 358 359 360
f 358 360 361
f 358 362 363
f 358 361 364
f 358 364 365
f 357 366 348
f 358 365 367
f 357 349 368
f 358 367 369
f 357 368 353
f 358 369 370
f 358 370 371
f 358 371 362
f 357 348 349
f 358 363 372
f 373 374 375
f 373 375 376
f 373 376 377
f 373 377 378
f 373 378 379
f 363 366 357
f 373 379 380
f 373 380 359
f 373 358 372
f 373 381 382
f 373 383 381
f 373 384 383
f 373 372 384
f 373 359 358
f 363 362 366
f 385 374 373
f 385 386 387
f 385 387 388
f 385 388 389
f 385 389 390
f 391 392 393
f 385 390 394
f 391 395 392
f 385 394 396
f 385 396 374
f 385 373 382
f 385 397 398
f 385 399 397
f 385 400 399
f 385 382 400
f 401 333 338
f 401 385 398
f 401 338 402
f 401 386 385
f 403 404 395
f 401 402 405
f 401 405 406
f 401 406 407
f 401 407 408
f 401 408 409
f 403 395 391
f 401 409 410
f 401 410 411
f 401 411 386
f 401 398 333
f 412 404 403
f 412 413 404
f 332 331 351
f 332 351 413
f 332 413 412
f 414 40 44
f 415 416 54
f 414 417 40
f 418 414 44
f 418 44 46
f 419 54 56
f 418 46 50
f 419 56 58
f 254 418 50
f 419 415 54
f 420 419 58
f 420 58 60
f 421 12 9
f 421 9 14
f 422 420 60
f 421 197 12
f 423 60 4
f 424 14 18
f 423 422 60
f 424 421 14
f 425 4 1
f 425 1 5
f 425 423 4
f 426 424 18
f 427 5 7
f 427 425 5
f 428 18 22
f 428 22 28
f 428 426 18
f 429 7 13
f 429 427 7
f 430 28 29
f 430 428 28
f 431 429 13
f 432 29 33
f 433 13 16
f 433 16 20
f 432 430 29
f 433 431 13
f 434 432 33
f 435 433 20
f 436 434 33
f 437 20 24
f 436 33 36
f 436 36 42
f 437 435 20
f 438 24 26
f 439 436 42
f 438 437 24
f 440 439 42
f 440 42 48
f 441 26 31
f 441 31 35
f 441 438 26
f 442 48 51
f 442 440 48
f 443 441 35
f 444 35 38
f 416 442 51
f 416 51 52
f 416 52 54
f 444 443 35
f 417 444 38
f 417 38 40
f 315 445 446
f 315 310 447
f 135 134 448
f 196 446 12
f 196 315 446
f 197 196 12
f 142 449 450
f 142 135 449
f 254 50 451
f 155 142 450
f 156 450 452
f 156 452 453
f 156 155 450
f 255 254 451
f 169 453 454
f 169 156 453
f 273 451 455
f 273 255 451
f 176 169 454
f 286 455 456
f 286 456 457
f 185 454 458
f 286 273 455
f 185 176 454
f 303 457 459
f 192 458 460
f 192 460 461
f 303 286 457
f 192 185 458
f 213 461 462
f 320 303 459
f 213 192 461
f 327 459 463
f 327 463 464
f 327 320 459
f 227 213 462
f 244 462 465
f 244 465 466
f 94 464 467
f 244 227 462
f 94 327 464
f 95 94 467
f 95 467 468
f 258 244 466
f 269 466 469
f 269 469 470
f 108 95 468
f 269 258 466
f 113 468 471
f 279 269 470
f 279 470 472
f 113 108 468
f 122 113 471
f 290 472 473
f 122 471 474
f 122 474 475
f 290 279 472
f 309 473 447
f 134 475 448
f 309 290 473
f 134 122 475
f 310 309 447
f 315 447 445
f 135 448 449
f 476 477 381
f 383 476 381
f 478 479 480
f 481 482 483
f 482 484 483
f 363 357 485
f 357 486 485
f 479 487 488
f 480 479 488
f 363 485 489
f 490 491 492
f 491 493 492
f 488 487 494
f 491 495 496
f 363 489 372
f 493 491 496
f 372 489 497
f 490 492 498
f 499 490 498
f 496 495 500
f 501 494 502
f 494 487 502
f 495 503 500
f 504 505 382
f 477 504 382
f 381 477 382
f 372 497 506
f 499 498 507
f 508 509 340
f 509 481 340
f 481 483 340
f 500 503 510
f 501 502 511
f 512 499 513
f 499 507 513
f 503 514 515
f 505 516 400
f 510 503 515
f 382 505 400
f 506 517 384
f 356 512 518
f 372 506 384
f 519 508 339
f 520 511 521
f 512 513 518
f 508 340 339
f 511 502 521
f 515 514 522
f 523 524 399
f 514 525 522
f 516 523 399
f 400 516 399
f 519 339 331
f 526 519 331
f 356 518 527
f 528 526 331
f 399 524 397
f 524 529 397
f 528 331 333
f 522 525 530
f 352 356 531
f 532 528 333
f 356 527 531
f 397 529 398
f 532 333 398
f 533 476 383
f 534 532 398
f 517 533 383
f 529 534 398
f 384 517 383
f 535 520 484
f 482 535 484
f 525 536 537
f 520 521 484
f 530 525 537
f 357 352 538
f 352 531 538
f 536 479 478
f 537 536 478
f 357 538 486
f 341 340 483
f 349 346 539
f 490 540 541
f 343 341 483
f 347 343 483
f 347 483 484
f 542 521 543
f 542 484 521
f 350 347 484
f 544 484 542
f 499 368 349
f 499 539 540
f 499 540 490
f 499 349 539
f 351 350 484
f 351 484 544
f 353 368 499
f 413 351 544
f 413 544 545
f 404 413 545
f 546 404 545
f 395 404 546
f 547 395 546
f 512 354 353
f 392 395 547
f 512 353 499
f 393 392 547
f 548 541 549
f 548 549 550
f 548 550 551
f 548 551 552
f 548 552 553
f 548 553 554
f 548 554 555
f 548 555 556
f 548 556 557
f 548 490 541
f 548 491 490
f 355 354 512
f 558 491 548
f 558 557 559
f 558 559 560
f 558 560 561
f 558 548 557
f 558 561 562
f 356 355 512
f 558 562 563
f 558 563 564
f 558 564 565
f 336 335 566
f 558 495 491
f 558 503 495
f 558 514 503
f 558 525 514
f 567 565 568
f 567 568 569
f 567 569 570
f 567 570 571
f 567 571 572
f 567 572 573
f 567 573 574
f 337 566 575
f 567 536 525
f 567 479 536
f 337 336 566
f 567 487 479
f 567 502 487
f 567 558 565
f 567 525 558
f 576 543 521
f 576 502 567
f 576 574 577
f 344 575 578
f 576 577 579
f 576 579 580
f 576 580 581
f 576 581 582
f 576 582 583
f 576 583 584
f 576 584 585
f 344 337 575
f 576 585 543
f 576 521 502
f 576 567 574
f 346 578 539
f 346 344 578
f 586 330 332
f 247 264 562
f 561 247 562
f 587 586 412
f 586 332 412
f 264 182 563
f 562 264 563
f 588 587 403
f 587 412 403
f 182 181 564
f 563 182 564
f 589 588 391
f 588 403 391
f 564 181 565
f 589 391 393
f 565 181 568
f 181 590 568
f 591 589 547
f 589 393 547
f 367 365 281
f 568 590 569
f 590 592 569
f 593 591 546
f 591 547 546
f 365 364 266
f 281 365 266
f 369 367 295
f 370 369 295
f 592 594 570
f 569 592 570
f 595 593 545
f 367 281 295
f 593 546 545
f 266 364 240
f 570 594 571
f 361 360 240
f 364 361 240
f 371 370 298
f 595 545 544
f 571 594 572
f 370 295 298
f 594 596 572
f 240 360 229
f 597 595 542
f 595 544 542
f 360 359 229
f 362 371 324
f 572 596 573
f 596 598 573
f 599 597 543
f 371 298 324
f 597 542 543
f 229 359 228
f 598 600 574
f 359 380 228
f 573 598 574
f 599 543 585
f 601 599 585
f 574 600 577
f 362 324 329
f 600 602 577
f 366 362 329
f 601 585 584
f 603 601 584
f 577 602 579
f 603 584 583
f 228 380 219
f 579 602 580
f 380 379 219
f 602 604 580
f 603 583 582
f 348 366 103
f 605 603 582
f 345 348 103
f 580 604 581
f 605 582 581
f 604 605 581
f 366 329 103
f 378 377 206
f 379 378 206
f 219 379 206
f 342 345 102
f 345 103 102
f 206 377 203
f 377 376 203
f 342 102 110
f 334 342 110
f 376 375 202
f 203 376 202
f 334 110 117
f 335 334 117
f 566 335 117
f 374 396 198
f 375 374 198
f 202 375 198
f 575 566 119
f 566 117 119
f 396 394 606
f 198 396 606
f 575 119 125
f 578 575 125
f 394 390 607
f 606 394 607
f 539 578 138
f 578 125 138
f 540 539 138
f 389 388 608
f 390 389 608
f 607 390 608
f 541 540 140
f 540 138 140
f 388 387 609
f 608 388 609
f 549 541 146
f 541 140 146
f 387 386 610
f 609 387 610
f 550 549 160
f 549 146 160
f 386 411 611
f 610 386 611
f 550 160 161
f 551 550 161
f 411 410 612
f 611 411 612
f 551 161 552
f 612 410 409
f 552 161 167
f 612 409 613
f 552 167 553
f 613 409 408
f 553 167 180
f 613 408 614
f 553 180 554
f 614 408 407
f 554 180 189
f 614 407 615
f 554 189 555
f 615 407 406
f 555 189 556
f 189 207 556
f 616 615 405
f 615 406 405
f 556 207 557
f 207 220 557
f 617 616 402
f 616 405 402
f 220 233 559
f 557 220 559
f 618 617 338
f 617 402 338
f 233 247 560
f 559 233 560
f 586 618 330
f 618 338 330
f 560 247 561
f 619 620 621
f 620 622 621
f 590 181 183
f 623 624 625
f 624 626 625
f 627 623 625
f 628 629 630
f 629 631 630
f 631 627 630
f 434 436 632
f 633 434 632
f 622 634 632
f 634 633 632
f 626 619 635
f 619 621 635
f 593 595 636
f 595 628 636
f 627 625 637
f 636 628 638
f 628 630 638
f 621 622 639
f 622 632 639
f 436 439 639
f 632 436 639
f 626 635 640
f 625 626 640
f 637 625 640
f 591 593 641
f 593 636 641
f 627 637 642
f 638 630 642
f 630 627 642
f 439 440 643
f 635 621 643
f 639 439 643
f 621 639 643
f 636 638 644
f 637 640 645
f 589 591 646
f 591 641 646
f 638 642 647
f 440 442 648
f 640 635 648
f 643 440 648
f 635 643 648
f 646 641 649
f 636 644 649
f 641 636 649
f 637 645 650
f 642 637 650
f 647 642 650
f 588 589 651
f 587 588 651
f 589 646 651
f 644 638 652
f 638 647 652
f 649 644 652
f 648 442 653
f 645 640 653
f 640 648 653
f 646 649 654
f 647 650 655
f 652 647 655
f 586 587 656
f 587 651 656
f 649 652 657
f 442 416 658
f 650 645 658
f 645 653 658
f 655 650 658
f 653 442 658
f 651 646 659
f 646 654 659
f 656 651 659
f 652 655 660
f 586 656 661
f 654 649 662
f 649 657 662
f 416 415 663
f 415 419 663
f 655 658 663
f 658 416 663
f 656 659 664
f 661 656 664
f 657 652 665
f 652 660 665
f 662 657 665
f 618 586 666
f 586 661 666
f 654 662 667
f 659 654 667
f 655 663 668
f 663 419 668
f 660 655 668
f 661 664 669
f 666 661 669
f 662 665 670
f 618 666 671
f 617 618 671
f 664 659 672
f 659 667 672
f 669 664 672
f 419 420 673
f 660 668 673
f 665 660 673
f 668 419 673
f 666 669 674
f 667 662 675
f 662 670 675
f 617 671 676
f 616 617 676
f 615 616 676
f 674 669 677
f 669 672 677
f 420 422 678
f 665 673 678
f 670 665 678
f 673 420 678
f 666 674 679
f 676 671 679
f 671 666 679
f 667 675 680
f 672 667 680
f 677 672 680
f 615 676 681
f 614 615 681
f 674 677 682
f 422 423 683
f 678 422 683
f 675 670 683
f 670 678 683
f 676 679 684
f 677 680 685
f 614 681 686
f 613 614 686
f 674 682 687
f 684 679 687
f 679 674 687
f 423 425 688
f 683 423 688
f 675 683 688
f 685 680 688
f 680 675 688
f 198 606 199
f 686 681 689
f 681 676 689
f 676 684 689
f 682 677 690
f 677 685 690
f 613 686 691
f 684 687 692
f 425 427 693
f 688 425 693
f 685 688 693
f 691 686 694
f 686 689 694
f 687 682 695
f 682 690 695
f 612 613 696
f 611 612 696
f 590 183 697
f 613 691 696
f 590 697 698
f 592 590 698
f 689 684 699
f 684 692 699
f 694 689 699
f 427 429 700
f 697 183 701
f 183 292 701
f 693 427 700
f 690 685 700
f 685 693 700
f 698 697 701
f 594 592 702
f 596 594 702
f 691 694 703
f 699 692 704
f 592 698 702
f 692 687 704
f 698 701 705
f 687 695 704
f 702 698 705
f 596 702 706
f 611 696 707
f 703 694 708
f 701 292 709
f 694 699 708
f 292 305 709
f 305 316 709
f 690 700 710
f 705 701 709
f 429 431 710
f 700 429 710
f 702 705 711
f 695 690 710
f 706 702 711
f 691 703 712
f 707 696 712
f 596 706 713
f 696 691 712
f 598 596 713
f 611 707 714
f 610 611 714
f 705 709 715
f 699 704 716
f 706 711 717
f 316 195 718
f 703 708 719
f 709 316 718
f 704 695 720
f 710 431 720
f 431 433 720
f 695 710 720
f 598 713 721
f 600 598 721
f 707 712 722
f 714 707 722
f 705 715 723
f 610 714 724
f 609 610 724
f 711 705 723
f 699 716 725
f 713 706 726
f 708 699 725
f 721 713 726
f 706 717 726
f 719 708 725
f 722 712 727
f 723 715 728
f 709 718 728
f 715 709 728
f 600 721 729
f 703 719 727
f 712 703 727
f 602 600 729
f 724 714 730
f 711 723 731
f 714 722 730
f 433 435 732
f 716 704 732
f 717 711 731
f 720 433 732
f 197 421 733
f 704 720 732
f 718 195 733
f 609 724 734
f 195 197 733
f 608 609 734
f 721 726 735
f 729 721 735
f 719 725 736
f 723 728 737
f 722 727 738
f 730 722 738
f 602 729 739
f 734 724 740
f 604 602 739
f 724 730 740
f 435 437 741
f 725 716 741
f 732 435 741
f 717 731 742
f 716 732 741
f 736 725 741
f 726 717 742
f 421 424 743
f 727 719 744
f 733 421 743
f 719 736 744
f 718 733 743
f 728 718 743
f 608 734 745
f 607 608 745
f 729 735 746
f 730 738 747
f 731 723 748
f 734 740 749
f 723 737 748
f 605 604 750
f 603 605 750
f 437 438 751
f 741 437 751
f 736 741 751
f 738 727 752
f 604 739 750
f 747 738 752
f 727 744 752
f 726 742 753
f 746 735 753
f 199 606 754
f 735 726 753
f 606 607 754
f 424 426 755
f 607 745 754
f 737 728 755
f 210 199 754
f 743 424 755
f 728 743 755
f 740 730 756
f 739 729 757
f 730 747 756
f 438 441 758
f 729 746 757
f 751 438 758
f 744 736 758
f 736 751 758
f 731 748 759
f 745 734 760
f 734 749 760
f 742 731 759
f 754 745 760
f 747 752 761
f 601 603 762
f 756 747 761
f 603 750 762
f 749 740 763
f 740 756 763
f 757 746 764
f 746 753 764
f 758 441 765
f 441 443 765
f 426 428 766
f 761 752 765
f 755 426 766
f 752 744 765
f 737 755 766
f 744 758 765
f 748 737 766
f 210 754 767
f 754 760 767
f 756 761 768
f 739 757 769
f 750 739 769
f 763 756 768
f 749 763 770
f 767 760 770
f 742 759 771
f 753 742 771
f 760 749 770
f 761 765 772
f 765 443 772
f 443 444 772
f 763 768 773
f 601 762 774
f 210 767 775
f 757 764 620
f 211 210 775
f 767 770 775
f 428 430 776
f 772 444 777
f 766 428 776
f 759 748 776
f 748 766 776
f 768 761 777
f 761 772 777
f 775 770 778
f 763 773 778
f 762 750 624
f 770 763 778
f 750 769 624
f 773 768 779
f 768 777 779
f 601 774 631
f 444 417 779
f 599 601 631
f 777 444 779
f 775 778 780
f 211 775 780
f 237 211 780
f 259 237 780
f 778 773 781
f 780 778 781
f 764 753 634
f 779 417 781
f 753 771 634
f 773 779 781
f 417 414 781
f 414 418 782
f 418 254 782
f 780 781 782
f 259 780 782
f 769 757 619
f 781 414 782
f 757 620 619
f 254 259 782
f 430 432 783
f 776 430 783
f 771 759 783
f 759 776 783
f 631 774 623
f 774 762 623
f 762 624 623
f 597 599 629
f 599 631 629
f 620 764 622
f 764 634 622
f 624 769 626
f 769 619 626
f 631 623 627
f 432 434 633
f 634 771 633
f 783 432 633
f 771 783 633
f 595 597 628
f 597 629 628
f 784 524 523
f 785 784 516
f 784 523 516
f 786 785 505
f 785 516 505
f 787 786 504
f 786 505 504
f 787 504 477
f 788 787 476
f 787 477 476
f 788 476 533
f 788 533 517
f 789 509 508
f 790 789 519
f 789 508 519
f 791 790 526
f 790 519 526
f 792 791 528
f 791 526 528
f 792 528 532
f 793 792 534
f 792 532 534
f 793 534 529
f 793 529 524
f 794 488 494
f 795 794 501
f 794 494 501
f 796 795 511
f 795 501 511
f 797 796 520
f 796 511 520
f 797 520 535
f 798 797 482
f 797 535 482
f 798 482 481
f 798 481 509
f 799 500 510
f 800 799 515
f 799 510 515
f 801 800 522
f 800 515 522
f 802 801 530
f 801 522 530
f 803 802 537
f 802 530 537
f 804 803 478
f 803 537 478
f 805 804 480
f 804 478 480
f 805 480 488
f 806 527 518
f 807 806 513
f 806 518 513
f 808 807 507
f 807 513 507
f 809 808 498
f 808 507 498
f 809 498 492
f 810 809 493
f 809 492 493
f 810 493 496
f 810 496 500
f 811 517 506
f 812 811 497
f 811 506 497
f 813 812 489
f 812 497 489
f 814 813 485
f 813 489 485
f 814 485 486
f 815 814 538
f 814 486 538
f 815 538 531
f 815 531 527
f 61 86 816
f 817 818 819
f 819 818 820
f 816 817 821
f 817 819 821
f 61 816 822
f 816 821 822
f 61 822 823
f 61 823 824
f 825 826 827
f 827 826 828
f 824 825 829
f 825 827 829
f 61 824 830
f 824 829 830
f 61 830 831
f 61 831 832
f 833 834 835
f 835 834 836
f 832 833 837
f 833 835 837
f 61 832 838
f 832 837 838
f 61 838 62
f 793 524 836
f 793 836 834
f 792 793 833
f 793 834 833
f 792 833 832
f 791 792 831
f 792 832 831
f 791 831 830
f 790 791 829
f 791 830 829
f 790 829 827
f 789 790 828
f 509 789 828
f 790 827 828
f 517 67 788
f 67 65 788
f 63 62 787
f 64 63 787
f 65 64 787
f 788 65 787
f 838 837 786
f 62 838 786
f 787 62 786
f 837 835 785
f 786 837 785
f 835 836 784
f 785 835 784
f 784 836 524
f 815 527 75
f 815 75 73
f 814 815 72
f 815 73 72
f 814 72 71
f 813 814 70
f 814 71 70
f 813 70 69
f 812 813 68
f 813 69 68
f 812 68 66
f 811 812 67
f 517 811 67
f 812 66 67
f 810 500 83
f 810 83 81
f 809 810 80
f 810 81 80
f 809 80 79
f 808 809 78
f 809 79 78
f 808 78 77
f 807 808 76
f 808 77 76
f 807 76 74
f 806 807 75
f 527 806 75
f 807 74 75
f 805 488 820
f 804 805 820
f 803 804 818
f 804 820 818
f 802 803 817
f 803 818 817
f 802 817 816
f 801 802 86
f 802 816 86
f 801 86 85
f 800 801 84
f 801 85 84
f 800 84 82
f 799 800 83
f 500 799 83
f 800 82 83
f 798 509 828
f 798 828 826
f 797 798 825
f 798 826 825
f 797 825 824
f 796 797 823
f 797 824 823
f 796 823 822
f 795 796 821
f 796 822 821
f 795 821 819
f 794 795 820
f 488 794 820
f 795 819 820
f 454 839 840
f 454 453 839
f 458 840 841
f 458 454 840
f 460 841 842
f 460 458 841
f 451 50 47
f 451 47 843
f 461 460 842
f 455 843 844
f 462 842 845
f 455 451 843
f 462 461 842
f 456 844 846
f 456 455 844
f 465 845 847
f 465 462 845
f 457 846 848
f 466 847 849
f 457 456 846
f 466 465 847
f 469 466 849
f 469 849 850
f 459 457 848
f 463 848 851
f 470 850 852
f 470 469 850
f 463 459 848
f 464 851 853
f 472 470 852
f 464 463 851
f 467 853 854
f 473 852 855
f 467 464 853
f 473 472 852
f 447 855 856
f 468 854 857
f 447 473 855
f 468 467 854
f 445 856 858
f 445 447 856
f 446 858 10
f 471 857 859
f 446 445 858
f 471 468 857
f 12 446 10
f 474 471 859
f 475 474 859
f 475 859 860
f 448 860 861
f 448 475 860
f 449 861 862
f 449 448 861
f 450 862 863
f 450 449 862
f 452 450 863
f 453 863 839
f 453 452 863
f 841 53 49
f 842 841 49
f 853 27 25
f 845 842 49
f 855 850 23
f 11 855 23
f 853 25 21
f 854 853 21
f 857 854 21
f 19 11 23
f 847 845 43
f 845 49 43
f 23 850 30
f 850 847 37
f 847 43 37
f 30 850 37
f 30 37 34
f 857 21 17
f 849 847 850
f 857 17 8
f 859 857 8
f 846 844 843
f 860 859 6
f 861 860 6
f 859 8 6
f 852 850 855
f 843 47 45
f 861 6 3
f 861 3 2
f 862 861 2
f 863 862 2
f 856 855 858
f 45 41 39
f 848 846 39
f 863 2 59
f 846 843 39
f 843 45 39
f 839 863 57
f 840 839 57
f 863 59 57
f 10 858 11
f 858 855 11
f 39 32 27
f 851 848 27
f 853 851 27
f 57 55 53
f 848 39 27
f 841 840 53
f 840 57 53
f 15 11 19
