# FreeCAD v0.16 build6712 (Git) Arch module
# http://www.freecadweb.org
o Part__Feature011
v 63.426439 -1.954728 -565.291214
v 63.82495 -1.680774 -564.769651
v 63.798893 -1.834374 -564.705966
v 63.457197 -1.773219 -565.359263
v 63.396853 -2.128771 -565.205448
v 63.774214 -1.979271 -564.623967
v 63.368724 -2.293673 -565.102791
v 63.751273 -2.11335 -564.524849
v 63.866499 0.701419 -564.052114
v 64.120346 0.107609 -563.736208
v 64.113703 0.06366 -563.898542
v 63.873888 0.750551 -563.862236
v 63.342325 -2.447845 -564.984233
v 63.856045 0.634172 -564.236208
v 64.103847 0.000738 -564.054335
v 63.317908 -2.589803 -564.850913
v 63.730404 -2.234657 -564.410058
v 63.842626 0.549458 -564.412746
v 64.090923 -0.080239 -564.201317
v 63.295709 -2.718179 -564.704118
v 63.711912 -2.341422 -564.281267
v 63.826372 0.448092 -564.580028
v 64.075117 -0.178092 -564.337342
v 63.275942 -2.831738 -564.54526
v 63.696067 -2.43209 -564.140354
v 63.258797 -2.929385 -564.375869
v 63.683098 -2.505337 -563.989376
v 63.807439 0.331052 -564.736441
v 63.78601 0.199463 -564.880481
v 64.056662 -0.291393 -564.460429
v 63.24444 -3.01018 -564.197576
v 63.673197 -2.560095 -563.830532
v 63.762291 0.054594 -565.01076
v 64.035826 -0.418489 -564.568781
v 63.233008 -3.073345 -564.0121
v 63.73651 -0.102161 -565.126023
v 64.012913 -0.557528 -564.66082
v 63.224611 -3.118272 -563.821225
v 63.666506 -2.595567 -563.666139
v 63.219331 -3.144528 -563.62679
v 63.663123 -2.611234 -563.498595
v 63.708916 -0.269291 -565.225159
v 63.988257 -0.706482 -564.735202
v 63.217219 -3.15186 -563.430667
v 63.663099 -2.606868 -563.330343
v 63.218294 -3.140198 -563.234746
v 63.666432 -2.582534 -563.163836
v 63.679774 -0.445188 -565.307216
v 63.962217 -0.863179 -564.790844
v 63.222546 -3.109654 -563.040914
v 63.649365 -0.628157 -565.371401
v 63.617982 -0.816436 -565.417098
v 63.935174 -1.025333 -564.826933
v 63.585927 -1.008213 -565.443865
v 63.907522 -1.190581 -564.842944
v 63.553509 -1.201639 -565.451446
v 63.879663 -1.356513 -564.838643
v 63.52104 -1.394853 -565.439767
v 63.852005 -1.520708 -564.814092
v 63.488833 -1.585993 -565.40894
v 56.003738 0.086224 -563.485519
v 55.031522 -0.991126 -563.232314
v 55.02962 -0.956959 -563.073236
v 55.015218 -0.920838 -562.914889
v 54.981845 -0.873525 -562.718987
v 55.024659 -0.63491 -562.46007
v 54.934037 -0.824513 -562.526546
v 55.098475 -0.439905 -562.392837
v 55.14372 -0.277275 -562.337723
v 55.17406 -0.110101 -562.282016
v 55.18807 0.048959 -562.229884
v 55.189229 0.208709 -562.178283
v 55.179041 0.368695 -562.127271
v 55.243321 0.674869 -562.218461
v 55.159009 0.528463 -562.076906
v 55.310746 0.826133 -562.361881
v 55.350745 0.95286 -562.479666
v 55.375776 1.083701 -562.598935
v 55.384812 1.208718 -562.710753
v 55.381042 1.334733 -562.821614
v 55.365976 1.461336 -562.931369
v 55.384756 1.54394 -563.212893
v 55.341125 1.588115 -563.039873
v 55.416923 1.501081 -563.38882
v 55.435562 1.460086 -563.566715
v 55.438611 1.421502 -563.745641
v 55.903162 -0.622239 -561.511011
v 55.908278 -0.786835 -561.622771
v 55.937012 -0.613611 -561.549814
v 55.923958 -0.497174 -561.469583
v 55.969954 -0.098942 -561.345534
v 55.935523 -0.304932 -561.374285
v 55.95691 -0.29948 -561.421601
v 55.986905 -1.181014 -561.925447
v 56.012686 -1.024259 -561.810184
v 55.948579 -1.094775 -561.857183
v 55.92449 -0.943656 -561.738818
v 55.899004 -1.098308 -561.841192
v 55.925062 -1.238036 -561.972435
v 55.88085 -0.952694 -561.711618
v 55.951493 -0.780359 -561.651343
v 56.002122 0.135577 -561.286074
v 55.968531 -0.064775 -561.29099
v 56.004775 0.108821 -561.337391
v 55.957398 -0.491013 -561.509203
v 55.990568 -0.098115 -561.393496
v 55.973814 -0.941648 -561.755819
v 56.040281 -0.857129 -561.711047
v 55.979784 -0.609809 -561.579513
v 56.035728 0.335507 -561.299922
v 56.03965 0.316356 -561.349936
v 55.9897 -0.297219 -561.462168
v 56.069423 -0.681232 -561.628991
v 56.000551 -0.779961 -561.669206
v 56.024607 0.104983 -561.385536
v 55.999856 -0.489104 -561.539528
v 56.069061 0.53331 -561.332418
v 56.074245 0.521663 -561.383048
v 56.101836 0.727299 -561.383283
v 56.022694 -0.099826 -561.434616
v 56.028563 -0.611092 -561.598084
v 56.099831 -0.498263 -561.564806
v 56.058699 0.307857 -561.397799
v 56.031659 -0.298302 -561.49322
v 56.133775 0.915818 -561.452083
v 56.106249 0.711087 -561.432716
v 56.056062 0.099266 -561.426814
v 56.048437 -0.491577 -561.558494
v 56.092517 0.508554 -561.430167
v 56.064143 -0.103956 -561.466094
v 56.137436 0.895171 -561.499897
v 56.089482 0.298139 -561.438835
v 56.079927 -0.302656 -561.512641
v 56.131214 -0.309983 -561.519109
v 56.163269 -0.118207 -561.492341
v 56.123802 0.693726 -561.47872
v 56.096996 0.092062 -561.458411
v 56.164604 1.09726 -561.538232
v 56.167539 1.072344 -561.584019
v 56.19406 1.270076 -561.640995
v 56.122632 0.494878 -561.470564
v 56.195687 0.07522 -561.484761
v 56.112091 -0.110226 -561.485783
v 56.154289 0.873676 -561.544393
v 56.1299 0.287864 -561.470247
v 56.221893 1.432792 -561.759494
v 56.196303 1.241094 -561.684364
v 56.153301 0.676397 -561.518159
v 56.14462 0.08386 -561.478176
v 56.183717 1.04687 -561.626626
v 56.162539 0.481565 -561.501487
v 56.223481 1.399981 -561.800075
v 56.183186 0.852798 -561.582537
v 56.177199 0.277732 -561.489895
v 56.228156 0.268433 -561.49644
v 56.260364 0.459574 -561.527267
v 56.211834 1.211831 -561.724718
v 56.192734 0.660281 -561.548347
v 56.248841 1.54765 -561.930166
v 56.247864 1.584019 -561.892719
v 56.271753 1.722468 -562.039534
v 56.212033 1.022576 -561.663148
v 56.209516 0.469523 -561.520827
v 56.238402 1.367151 -561.837831
v 56.222157 0.833959 -561.611731
v 56.272168 1.682841 -562.073526
v 56.293355 1.846956 -562.198685
v 56.239596 1.184283 -561.759305
v 56.291999 0.6468 -561.576944
v 56.239413 0.646478 -561.567225
v 56.263193 1.511504 -561.965
v 56.250559 1.001116 -561.691097
v 56.293262 1.8044 -562.228932
v 56.26564 1.336539 -561.870187
v 56.268547 0.818443 -561.629984
v 56.322758 0.828308 -561.644993
v 56.285996 1.643659 -562.105141
v 56.277697 1.160326 -561.785769
v 56.311943 1.911292 -562.395059
v 56.312487 1.956423 -562.368815
v 56.361976 2.209337 -563.937247
v 56.366475 2.241532 -563.736657
v 56.360268 2.158254 -563.926588
v 56.289942 1.478045 -561.994848
v 56.352344 1.002352 -561.730759
v 56.296669 0.983952 -561.708568
v 56.306616 1.76249 -562.257058
v 56.303338 1.310231 -561.894939
v 56.328984 2.049934 -562.548472
v 56.328052 2.002602 -562.570489
v 56.312295 1.607593 -562.132225
v 56.380472 1.167253 -561.833416
v 56.323539 1.141593 -561.802307
v 56.324878 1.866981 -562.419455
v 56.47671 1.998376 -563.896922
v 56.530903 2.013779 -563.70146
v 56.52665 1.983234 -563.895293
v 55.6455 -2.036889 -563.033792
v 55.66065 -1.988062 -563.04439
v 55.668028 -1.938937 -562.852283
v 56.327265 1.449552 -562.017676
v 55.653056 -1.98658 -562.837056
v 55.663603 -1.918587 -562.645852
v 55.678327 -1.872543 -562.665578
v 56.341451 2.077554 -562.753726
v 55.677052 -1.83349 -562.461812
v 56.342706 2.126691 -562.736124
v 55.695421 -1.896795 -562.866412
v 56.332509 1.72408 -562.281146
v 55.688209 -1.944817 -563.054206
v 55.726299 -1.910102 -563.06257
v 56.348928 1.29002 -561.910401
v 56.406872 1.321426 -561.951974
v 55.69146 -1.789448 -562.485869
v 56.340625 1.956241 -562.590946
v 55.705489 -1.831893 -562.6839
v 56.349031 2.119255 -562.883419
v 55.707314 -1.69036 -562.314687
v 55.693289 -1.732014 -562.286506
v 56.353536 2.18604 -562.930169
v 56.349273 1.577101 -562.152932
v 55.733369 -1.863028 -562.878481
v 56.35041 1.82651 -562.440339
v 55.718327 -1.750663 -562.508225
v 56.372619 1.427968 -562.031928
v 55.725755 -1.576124 -562.153495
v 56.431289 1.463383 -562.085293
v 55.712174 -1.615025 -562.121429
v 55.733546 -1.483522 -561.967991
v 56.353724 2.029509 -562.770068
v 55.743238 -1.799405 -562.699568
v 56.35805 2.167511 -563.088442
v 56.361382 2.227474 -563.128953
v 55.733825 -1.6538 -562.340888
v 56.369175 1.691789 -562.299553
v 55.779285 -1.839935 -562.887665
v 55.772325 -1.886283 -563.068912
v 56.365847 1.91401 -562.608448
v 55.746624 -1.447716 -562.003667
v 55.757224 -1.338627 -561.827499
v 56.361133 2.070274 -562.89685
v 55.755823 -1.719778 -562.527359
v 56.39441 1.554259 -562.16585
v 56.453487 1.59176 -562.232089
v 55.751852 -1.542129 -562.183315
v 56.363721 2.195714 -563.297288
v 56.366177 2.250639 -563.330778
v 56.3868 1.792637 -562.456289
v 55.789002 -1.777295 -562.711515
v 55.769745 -1.306229 -561.866481
v 56.378687 1.985833 -562.784037
v 55.771016 -1.624825 -562.363322
v 56.36995 2.117447 -563.097268
v 55.875309 -1.876971 -563.073971
v 55.882698 -1.827839 -562.884093
v 55.830041 -1.829092 -562.893341
v 56.414115 1.667817 -562.311026
v 56.473254 1.705318 -562.390947
v 55.823149 -1.874983 -563.072801
v 56.401998 1.878786 -562.621802
v 55.772253 -1.416604 -562.036851
v 56.36599 2.203589 -563.507946
v 55.801393 -1.698897 -562.541964
v 56.367879 2.255339 -563.533924
v 56.385951 2.025793 -562.908317
v 55.783005 -1.181575 -561.701153
v 55.794919 -1.152873 -561.743108
v 56.375494 2.145016 -563.301425
v 56.490399 1.802965 -562.560338
v 56.431566 1.767671 -562.466216
v 55.788687 -1.515357 -562.208857
v 55.839662 -1.767069 -562.718927
v 55.893152 -1.760592 -562.699998
v 56.41464 1.9495 -562.79468
v 56.364835 2.191063 -563.718389
v 55.794854 -1.278295 -561.902745
v 55.816351 -1.605411 -562.38046
v 56.394593 2.072036 -563.104783
v 56.504757 1.88376 -562.73863
v 56.446615 1.852971 -562.630098
v 55.810669 -1.013707 -561.590031
v 55.821932 -0.988955 -561.6346
v 56.377712 2.152715 -563.507353
v 56.421791 1.988844 -562.917041
v 55.808685 -1.392308 -562.065281
v 55.90657 -1.675877 -562.52346
v 55.85193 -1.689444 -562.551048
v 56.400027 2.099061 -563.304913
v 55.819463 -1.128382 -561.782142
v 56.516189 1.946926 -562.924107
v 56.459132 1.922988 -562.801271
v 56.372118 2.108398 -563.916595
v 56.376583 2.14047 -563.71307
v 55.833749 -1.497633 -562.22838
v 55.83998 -0.836455 -561.49508
v 55.850554 -0.815873 -561.541883
v 56.4303 2.034373 -563.110474
v 55.870689 -0.651331 -561.417112
v 56.402202 2.106608 -563.506779
v 56.466213 1.961943 -562.922427
v 56.435651 2.06098 -563.307513
v 55.830841 -1.256727 -561.933821
v 55.922824 -1.574512 -562.356179
v 55.866741 -1.596879 -562.391135
v 56.396718 2.063165 -563.907949
v 56.401095 2.094604 -563.708439
v 56.474638 2.007023 -563.113952
v 55.84587 -0.968144 -561.676071
v 56.524585 1.991853 -563.114982
v 56.529865 2.018109 -563.309417
v 55.853439 -1.376483 -562.087022
v 56.437792 2.068411 -563.506263
v 55.88054 -0.635104 -561.465749
v 56.479936 2.033369 -563.30905
v 56.531978 2.025441 -563.505539
v 56.432393 2.025639 -563.901239
v 56.436702 2.056592 -563.704809
v 55.854965 -1.109771 -561.815597
v 56.482056 2.040726 -563.50584
v 55.941757 -1.457471 -562.199765
v 55.883968 -1.490163 -562.240554
v 56.480977 2.029024 -563.702429
v 55.873849 -0.798949 -561.585436
v 55.902532 -0.459914 -561.356789
v 55.901814 -0.507166 -561.423369
v 55.875252 -1.242995 -561.957591
v 55.963186 -1.325883 -562.055726
v 55.903464 -1.370208 -562.10059
v 55.935239 -0.263838 -561.314629
v 55.681783 -1.918879 -566.697358
v 53.603775 -0.960014 -564.89462
v 53.654592 -0.663884 -565.146498
v 55.72115 -1.687903 -566.834044
v 56.072138 0.594881 -559.720338
v 56.116568 0.858463 -559.766525
v 55.845337 0.882693 -559.867742
v 55.644056 -2.139638 -566.544305
v 55.581535 0.901631 -559.987941
v 53.712306 -0.324939 -565.33492
v 53.7747 0.043796 -565.452646
v 53.919277 -0.031747 -565.69304
v 56.027359 0.328707 -559.693337
v 54.081405 -0.107776 -565.921802
v 55.326547 0.915177 -560.126491
v 55.98246 0.061297 -559.685661
v 55.081715 0.92326 -560.282663
v 54.260231 -0.183892 -566.137732
v 55.937669 -0.205986 -559.697347
v 54.848324 0.925837 -560.455638
v 54.454816 -0.259696 -566.339693
v 54.664138 -0.334788 -566.526626
v 53.828792 0.472326 -561.49541
v 54.420707 0.91445 -560.848274
v 54.228728 0.900546 -561.065872
v 54.052673 0.881255 -561.296156
v 53.893468 0.85668 -561.537916
v 53.764319 0.087123 -561.529758
v 55.052433 -1.532012 -560.445104
v 55.514727 -2.762301 -561.018381
v 55.544192 -2.581313 -560.818486
v 55.576 -2.386731 -560.632182
v 55.849324 -0.73473 -559.778473
v 53.702527 -0.284126 -561.63964
v 55.609988 -2.179548 -560.460418
v 55.893215 -0.47178 -559.728337
v 55.645981 -1.960819 -560.304069
v 54.627602 0.922895 -560.644506
v 55.683798 -1.731658 -560.163932
v 55.723245 -1.493234 -560.040721
v 55.764122 -1.246762 -559.935064
v 55.80622 -0.993497 -559.847499
v 53.645791 -0.627153 -561.820834
v 53.8543 -1.668353 -562.036073
v 55.384964 -3.580971 -562.705263
v 55.39459 -3.516536 -562.441941
v 55.407319 -3.433743 -562.183937
v 55.423088 -3.333013 -561.932565
v 55.441816 -3.214859 -561.689107
v 55.463408 -3.079883 -561.454803
v 55.487752 -2.928774 -561.230847
v 53.526256 -1.363486 -562.710648
v 53.508413 -1.479865 -563.08462
v 53.555929 -1.177406 -562.366828
v 53.596291 -0.928777 -562.066375
v 53.795025 -2.074047 -563.989836
v 55.406579 -3.502491 -564.583029
v 55.39401 -3.570374 -564.320699
v 55.384548 -3.619623 -564.054113
v 55.378241 -3.649989 -563.78463
v 55.847053 -0.945663 -567.139375
v 55.625746 -0.620252 -567.10571
v 55.890908 -0.686016 -567.204513
v 55.375121 -3.661315 -563.513623
v 55.369166 -0.551883 -566.987853
v 55.375205 -3.653545 -563.242473
v 55.378491 -3.626718 -562.972561
v 53.530307 -1.380391 -564.241283
v 53.561809 -1.201949 -564.588966
v 53.510478 -1.488483 -563.864931
v 53.503086 -1.522071 -563.474374
v 54.896935 -2.596278 -565.570456
v 55.608163 -2.349054 -566.375665
v 55.574285 -2.546061 -566.192298
v 55.542596 -2.729654 -565.995137
v 55.803996 -1.200052 -567.055617
v 55.122517 -0.481266 -566.85156
v 55.513256 -2.898898 -565.785188
v 55.486416 -3.05293 -565.56352
v 55.462212 -3.190966 -565.331264
v 55.440767 -3.312303 -565.089602
v 55.422192 -3.416321 -564.839766
v 55.761957 -1.447886 -566.953667
v 54.887095 -0.408775 -566.697548
v 55.872094 -1.911845 -563.659847
v 55.877374 -1.885589 -563.854282
v 55.869981 -1.919177 -563.463724
v 56.23869 0.22447 -565.476922
v 56.270744 0.416247 -565.450155
v 55.871056 -1.907515 -563.267803
v 56.206272 0.031044 -565.484503
v 56.173803 -0.16217 -565.472824
v 56.519261 1.934102 -564.085171
v 56.141595 -0.35331 -565.441997
v 56.10996 -0.540536 -565.39232
v 56.508807 1.866855 -564.269265
v 56.079201 -0.722045 -565.324271
v 56.495389 1.782141 -564.445803
v 56.479135 1.680775 -564.613085
v 56.049615 -0.896088 -565.238505
v 56.021487 -1.06099 -565.135848
v 56.460202 1.563735 -564.769498
v 55.995087 -1.215162 -565.017289
v 56.438773 1.432146 -564.913538
v 55.97067 -1.35712 -564.88397
v 56.415053 1.287277 -565.043817
v 55.948472 -1.485496 -564.737175
v 56.389272 1.130523 -565.159079
v 55.928705 -1.599055 -564.578317
v 55.91156 -1.696702 -564.408926
v 56.361678 0.963392 -565.258216
v 56.332536 0.787495 -565.340273
v 55.897202 -1.777497 -564.230633
v 56.302127 0.604526 -565.404458
v 55.88577 -1.840662 -564.045157
v 63.877103 0.785425 -563.27636
v 63.879215 0.792758 -563.472482
v 63.510507 -1.35089 -561.459285
v 63.87814 0.781095 -563.668403
v 63.542925 -1.157464 -561.451704
v 63.575394 -0.96425 -561.463383
v 63.229935 -3.060522 -562.851036
v 63.607601 -0.77311 -561.49421
v 63.639236 -0.585884 -561.543887
v 63.669995 -0.404375 -561.611936
v 63.240389 -2.993275 -562.666941
v 63.253808 -2.908561 -562.490403
v 63.270062 -2.807195 -562.323122
v 63.699581 -0.230332 -561.697702
v 63.72771 -0.06543 -561.800359
v 63.288995 -2.690155 -562.166708
v 63.754109 0.088742 -561.918917
v 63.778526 0.2307 -562.052236
v 63.310424 -2.558566 -562.022669
v 63.800725 0.359076 -562.199032
v 63.334143 -2.413697 -561.89239
v 63.359924 -2.256942 -561.777127
v 63.820492 0.472635 -562.35789
v 63.387518 -2.089812 -561.67799
v 63.837637 0.570282 -562.527281
v 63.41666 -1.913915 -561.595934
v 63.851994 0.651077 -562.705573
v 63.447069 -1.730946 -561.531749
v 63.863426 0.714242 -562.89105
v 63.871823 0.759169 -563.081925
v 63.478452 -1.542666 -561.486052
v 53.753683 0.007798 -562.123743
v 53.783736 0.188182 -562.076787
v 54.112239 2.077881 -564.623734
v 54.071877 1.829252 -564.924187
v 54.0162 1.50989 -564.458248
v 54.034825 1.624888 -564.309672
v 53.725006 -0.165016 -562.194167
v 53.994458 1.37676 -564.590347
v 54.064393 1.860489 -562.095943
v 54.106359 2.102424 -562.401596
v 54.011164 1.53091 -562.555003
v 54.030582 1.642601 -562.705982
v 53.599052 -0.942694 -563.198912
v 53.595468 -0.969064 -563.38583
v 53.606656 -0.892491 -563.017065
v 53.698195 -0.327302 -562.286853
v 54.137862 2.280866 -562.74928
v 54.046638 1.733889 -562.870466
v 53.760916 -0.022391 -564.857119
v 53.791227 0.156914 -564.907888
v 53.822272 0.341237 -564.934487
v 53.839376 0.42815 -565.495152
v 53.969973 1.227778 -564.70371
v 54.022377 1.527629 -565.169729
v 53.67371 -0.476285 -562.400215
v 53.988716 1.40073 -562.420113
v 54.013577 1.564359 -561.844065
v 54.059057 1.803214 -563.045641
v 54.15769 2.388959 -563.125631
v 53.943162 1.065491 -564.796396
v 53.595968 -0.971149 -563.57462
v 53.963622 1.254286 -562.303618
v 53.731857 -0.193609 -564.783048
v 54.067627 1.849389 -563.228509
v 53.651968 -0.609414 -562.532314
v 53.600542 -0.948913 -563.762053
v 53.609112 -0.902738 -563.944921
v 53.955862 1.225414 -561.655642
v 53.936312 1.094084 -562.207514
v 53.965641 1.184601 -565.350922
v 53.914485 0.892677 -564.866819
v 54.165082 2.422547 -563.516189
v 54.0722 1.871624 -563.415942
v 53.704547 -0.35381 -564.686944
v 53.679453 -0.500254 -564.57045
v 53.907252 0.922867 -562.133443
v 53.621531 -0.833414 -564.120096
v 54.0727 1.869539 -563.604733
v 54.159755 2.38034 -563.905942
v 53.657005 -0.630435 -564.435559
v 53.637587 -0.742125 -564.28458
v 53.633343 -0.724413 -562.68089
v 53.618152 -0.819313 -562.843401
v 53.876941 0.743562 -562.082674
v 53.884433 0.712293 -564.913775
v 53.903849 0.813353 -565.460804
v 54.069117 1.843169 -563.79165
v 53.853519 0.527426 -564.93646
v 53.845896 0.559238 -562.056076
v 54.061512 1.792966 -563.973497
v 54.141912 2.263961 -564.279915
v 53.81465 0.37305 -562.054102
v 54.050016 1.719788 -564.147161
v 56.286327 1.86035 -560.136994
v 56.325694 2.091327 -560.273681
v 56.36342 2.312085 -560.426734
v 56.114262 0.644228 -567.242701
v 56.158153 0.907178 -567.192565
v 56.069808 0.378434 -567.273691
v 56.025017 0.111151 -567.285378
v 55.980118 -0.156259 -567.277701
v 55.935339 -0.422433 -567.250701
v 55.814788 2.986121 -561.406412
v 56.399314 2.521502 -560.595374
v 56.433191 2.718508 -560.778741
v 56.464881 2.902101 -560.975902
v 56.49422 3.071346 -561.185851
v 56.521061 3.225378 -561.407518
v 56.545265 3.363414 -561.639775
v 56.566709 3.484751 -561.881437
v 56.585285 3.588769 -562.131273
v 56.600897 3.674939 -562.38801
v 54.616655 2.84978 -562.997381
v 56.613466 3.742822 -562.65034
v 56.622929 3.792071 -562.916925
v 56.629236 3.822437 -563.186408
v 56.632355 3.833763 -563.457415
v 56.632272 3.825993 -563.728566
v 56.628985 3.799166 -563.998478
v 56.622513 3.753419 -564.265776
v 56.160423 1.118111 -559.831664
v 54.55738 2.444086 -564.951144
v 56.612887 3.688984 -564.529098
v 56.600157 3.606191 -564.787102
v 56.584388 3.505461 -565.038474
v 56.56566 3.387307 -565.281932
v 56.544069 3.252331 -565.516236
v 56.519724 3.101222 -565.740191
v 56.49275 2.934749 -565.952658
v 56.20348 1.372499 -559.915422
v 55.659291 1.921855 -566.531764
v 56.463284 2.75376 -566.152553
v 56.245519 1.620334 -560.017372
v 56.431476 2.559179 -566.338857
v 56.397489 2.351996 -566.510621
v 56.361495 2.133266 -566.66697
v 56.323678 1.904106 -566.807107
v 56.284231 1.665682 -566.930318
v 56.243354 1.41921 -567.035975
v 56.201257 1.165945 -567.123539
v 56.005354 0.036871 -565.684965
v 55.971748 -0.163059 -565.671116
v 56.343873 2.091035 -564.325187
v 56.330424 2.005937 -564.509227
v 56.038946 0.237223 -565.680049
v 56.314188 1.904462 -564.684533
v 56.072237 0.436285 -565.65641
v 56.295303 1.787473 -564.849609
v 56.104944 0.632362 -565.614249
v 56.27393 1.65597 -565.003048
v 56.136788 0.823779 -565.553927
v 56.250252 1.511075 -565.143539
v 56.167496 1.008903 -565.475958
v 56.224472 1.354023 -565.269885
v 56.196807 1.186155 -565.381008
v 55.641001 -2.069084 -563.234382
v 55.639597 -2.082891 -563.437115
v 55.6413 -2.078191 -563.640261
v 55.646094 -2.055026 -563.842086
v 55.65394 -2.013592 -564.04087
v 55.66477 -1.954243 -564.234915
v 55.678493 -1.877486 -564.422567
v 55.69499 -1.783975 -564.602224
v 55.714121 -1.674508 -564.772354
v 55.735723 -1.55002 -564.931505
v 55.759612 -1.411571 -565.078319
v 55.785583 -1.260344 -565.211545
v 55.813416 -1.097628 -565.330044
v 55.842873 -0.924812 -565.432807
v 55.873702 -0.743371 -565.518956
v 55.90564 -0.554851 -565.587756
v 55.938416 -0.360862 -565.638621
v 56.354421 2.159028 -564.133983
v 56.242167 1.105756 -565.258901
v 56.268053 1.262834 -565.154922
v 56.280228 1.083012 -565.231333
v 56.305714 1.237664 -565.128959
v 56.157165 0.78582 -565.45979
v 56.186478 0.962529 -565.385365
v 56.186006 0.766674 -565.420705
v 56.21474 0.939898 -565.347748
v 56.136369 0.660754 -565.501218
v 56.050964 0.269134 -565.625444
v 56.085395 0.475125 -565.596693
v 56.103417 0.463061 -565.5492
v 56.119104 0.677359 -565.547609
v 56.35128 1.218169 -565.11254
v 56.374797 1.361429 -564.997288
v 56.329465 1.382351 -565.01256
v 56.253224 0.919715 -565.318808
v 56.016143 0.061371 -565.633587
v 56.165619 0.644076 -565.461316
v 56.069759 0.261696 -565.577305
v 56.326045 1.065041 -565.213904
v 56.224933 0.749165 -565.390639
v 55.981268 -0.146163 -565.621042
v 56.133317 0.450282 -565.508351
v 56.299308 0.903354 -565.300517
v 56.03572 0.058598 -565.585265
v 56.204862 0.628459 -565.430623
v 55.946673 -0.35147 -565.58793
v 56.100323 0.252888 -565.535903
v 56.271296 0.734486 -565.37164
v 56.001628 -0.144276 -565.573002
v 56.173058 0.437658 -565.476932
v 55.914669 -0.540895 -565.538262
v 56.066956 0.053797 -565.543705
v 56.251422 0.61497 -565.41123
v 55.96781 -0.344974 -565.540634
v 56.140574 0.243312 -565.504058
v 55.883482 -0.724979 -565.471081
v 56.033536 -0.145076 -565.531684
v 56.219932 0.426049 -565.457082
v 55.936525 -0.530145 -565.492081
v 56.107722 0.047294 -565.51174
v 55.853379 -0.902151 -565.386959
v 56.000385 -0.341815 -565.499955
v 56.187768 0.233619 -565.483941
v 55.906038 -0.710095 -565.426408
v 56.074818 -0.148508 -565.499904
v 55.824615 -1.070901 -565.286614
v 55.969717 -0.523334 -565.452359
v 56.15524 0.039534 -565.491547
v 55.87661 -0.88329 -565.344175
v 56.042179 -0.342209 -565.468665
v 55.797437 -1.229788 -565.170903
v 55.939832 -0.699735 -565.387982
v 56.12266 -0.154339 -565.479828
v 55.848493 -1.04825 -565.246083
v 56.011984 -0.520926 -565.421804
v 55.772077 -1.377457 -565.040812
v 55.910984 -0.869513 -565.30737
v 56.090343 -0.34613 -565.448896
v 55.821925 -1.20357 -565.13297
v 55.98256 -0.694603 -565.35842
v 55.74875 -1.512648 -564.897452
v 55.883421 -1.03122 -565.211214
v 56.060446 -0.523085 -565.402498
v 55.797134 -1.347923 -565.005801
v 55.954158 -0.86176 -565.279054
v 55.727656 -1.634208 -564.742046
v 55.857378 -1.183476 -565.100332
v 56.031312 -0.69505 -565.339739
v 55.774331 -1.480079 -564.865659
v 55.927021 -1.02097 -565.184382
v 55.708975 -1.741099 -564.575919
v 55.833076 -1.324982 -564.97567
v 56.00319 -0.860559 -565.261155
v 55.753711 -1.598909 -564.713743
v 55.901379 -1.170875 -565.075212
v 55.692866 -1.83241 -564.400489
v 56.35289 2.109129 -564.118695
v 56.342591 2.042736 -564.3054
v 55.810722 -1.45453 -564.838294
v 55.97632 -1.0182 -565.167416
v 56.364906 2.060376 -564.104388
v 56.329458 1.959641 -564.48511
v 55.735449 -1.7034 -564.551346
v 55.877453 -1.310196 -564.952475
v 56.354838 1.995474 -564.286901
v 56.313604 1.860553 -564.656291
v 55.679467 -1.907361 -564.217252
v 55.790509 -1.571017 -564.689373
v 56.389648 2.016091 -564.092038
v 55.950931 -1.166627 -565.059322
v 56.342 1.914244 -564.462576
v 55.719702 -1.79266 -564.379855
v 56.295163 1.746317 -564.817483
v 55.671887 -1.949062 -564.087559
v 56.379779 1.952468 -564.270951
v 55.855444 -1.437745 -564.817219
v 56.326502 1.817381 -564.629913
v 56.425432 1.979291 -564.082486
v 55.772607 -1.673447 -564.53018
v 55.92724 -1.304575 -564.937796
v 56.274294 1.617908 -564.967312
v 55.706603 -1.865928 -564.200733
v 56.367195 1.872841 -564.44316
v 55.662868 -1.997319 -563.882536
v 55.835543 -1.552433 -564.670598
v 56.308475 1.70571 -564.787486
v 55.757171 -1.760947 -564.362071
v 56.415715 1.916651 -564.258636
v 56.251173 1.476422 -565.104497
v 55.699194 -1.906693 -564.073951
v 56.352002 1.777888 -564.607197
v 55.905449 -1.430866 -564.803873
v 56.469818 1.952485 -564.076383
v 55.657197 -2.025521 -563.67369
v 56.288074 1.580185 -564.93395
v 55.817918 -1.653281 -564.513863
v 56.403325 1.838253 -564.428187
v 55.744331 -1.83277 -564.186482
v 56.225999 1.323066 -565.227871
v 55.690377 -1.953866 -563.873533
v 55.885744 -1.544423 -564.658697
v 56.334331 1.66842 -564.761662
v 56.460197 1.890462 -564.250796
v 55.80272 -1.73943 -564.34835
v 55.654928 -2.033397 -563.463032
v 56.265473 1.441876 -565.068056
v 55.737067 -1.87273 -564.062201
v 56.388367 1.744766 -564.589691
v 55.684833 -1.981435 -563.669376
v 56.198986 1.159147 -565.336378
v 55.868293 -1.644278 -564.503507
v 55.790078 -1.810144 -564.175472
v 56.314332 1.545371 -564.905237
v 55.656083 -2.02087 -563.25259
v 56.447929 1.812837 -564.418676
v 55.728425 -1.918973 -563.865736
v 56.240864 1.291963 -565.188659
v 55.853244 -1.729577 -564.339626
v 56.370969 1.636988 -564.741771
v 55.682615 -1.989134 -563.463448
v 55.782926 -1.849488 -564.05311
v 56.170364 0.986066 -565.429095
v 55.72299 -1.945998 -563.665606
v 56.292177 1.40979 -565.036698
v 55.840727 -1.799594 -564.168452
v 56.433118 1.720272 -564.578588
v 55.683744 -1.976889 -563.257731
v 55.774417 -1.895017 -563.859678
v 56.214457 1.131725 -565.29473
v 55.720816 -1.953545 -563.463739
v 56.351279 1.515839 -564.88313
v 55.833646 -1.83855 -564.047296
v 55.769067 -1.921625 -563.662638
v 56.140378 0.805297 -565.505229
v 55.721922 -1.941541 -563.26208
v 56.415892 1.613557 -564.729169
v 55.825221 -1.88363 -563.855771
v 55.766926 -1.929055 -563.463888
v 55.819923 -1.909976 -563.660673
v 55.768015 -1.917237 -563.265342
v 55.817803 -1.917333 -563.463883
v 55.818882 -1.905631 -563.267294
v 56.396396 1.493601 -564.869134
v 53.639433 -0.862883 -563.733554
v 53.662317 -0.821732 -563.521997
v 53.676683 -0.779097 -563.310223
v 53.681536 -0.734791 -563.098137
v 53.673732 -0.67322 -562.814941
v 53.787879 -0.006056 -564.763335
v 53.777029 -0.167766 -564.618816
v 53.757614 -0.32804 -564.474335
v 53.72868 -0.486716 -564.329898
v 53.675879 -0.695899 -564.137378
v 54.006424 1.302922 -564.525586
v 53.989144 1.097213 -564.592958
v 53.963301 0.89294 -564.660368
v 53.927938 0.690265 -564.727822
v 53.866566 0.422418 -564.817823
v 54.075532 1.758699 -563.241795
v 54.085657 1.71516 -563.438397
v 54.088563 1.672828 -563.635051
v 54.083404 1.631923 -563.831397
v 54.073373 1.600236 -563.988283
v 54.058535 1.569386 -564.145045
v 54.039331 1.539296 -564.301697
v 53.928228 0.898488 -562.227012
v 53.972012 1.054673 -562.371383
v 54.007232 1.212295 -562.515792
v 54.032932 1.371514 -562.660244
v 54.052978 1.586192 -562.852911
v 53.709684 -0.410489 -562.464761
v 53.759896 -0.210306 -562.397241
v 53.801545 -0.008685 -562.329759
v 53.833674 0.194533 -562.26232
v 53.862291 0.467876 -562.172466
v 55.427145 1.38943 -563.905471
v 55.403171 1.359534 -564.064994
v 55.357703 1.325548 -564.260787
v 55.322629 1.085896 -564.518438
v 55.298268 1.294791 -564.452479
v 55.329347 0.877379 -564.585309
v 55.31952 0.708807 -564.640264
v 55.294126 0.540803 -564.695949
v 55.255914 0.385804 -564.748189
v 55.205326 0.234347 -564.800013
v 55.14393 0.086371 -564.851347
v 55.103968 -0.223883 -564.760048
v 55.073296 -0.058185 -564.902119
v 55.117077 -0.388658 -564.616265
v 55.112496 -0.521328 -564.498321
v 55.09241 -0.652999 -564.379029
v 55.059172 -0.773955 -564.26732
v 55.013513 -0.891677 -564.156682
v 54.956994 -1.00627 -564.047248
v 54.945246 -1.090289 -563.766798
v 54.89118 -1.117837 -563.939153
v 54.98827 -1.060187 -563.591202
v 55.01772 -1.027061 -563.412154
v 63.961828 -0.794152 -562.130393
v 63.987885 -0.640551 -562.194078
v 64.012564 -0.495655 -562.276077
v 64.035505 -0.361575 -562.375195
v 63.673075 -2.538585 -563.001502
v 63.682931 -2.475664 -562.845708
v 64.056374 -0.240268 -562.489986
v 63.695856 -2.394686 -562.698727
v 64.074866 -0.133503 -562.618777
v 63.711661 -2.296833 -562.562701
v 64.090712 -0.042836 -562.759689
v 64.10368 0.030411 -562.910668
v 63.730116 -2.183533 -562.439615
v 64.113582 0.08517 -563.069512
v 63.750952 -2.056436 -562.331262
v 63.773865 -1.917398 -562.239224
v 64.120273 0.120641 -563.233905
v 64.123655 0.136308 -563.401449
v 63.798522 -1.768444 -562.164842
v 64.12368 0.131943 -563.569701
v 63.824561 -1.611747 -562.1092
v 63.851604 -1.449592 -562.073111
v 63.879257 -1.284344 -562.0571
v 63.907115 -1.118413 -562.061401
v 63.934774 -0.954217 -562.085951
f 1 2 3
f 1 4 2
f 5 3 6
f 5 1 3
f 7 6 8
f 7 5 6
f 9 10 11
f 9 12 10
f 13 7 8
f 14 11 15
f 16 8 17
f 14 9 11
f 16 13 8
f 18 15 19
f 18 14 15
f 20 17 21
f 20 16 17
f 22 19 23
f 24 21 25
f 22 18 19
f 24 20 21
f 26 25 27
f 28 22 23
f 26 24 25
f 29 23 30
f 31 27 32
f 31 26 27
f 29 28 23
f 33 30 34
f 35 31 32
f 33 29 30
f 36 34 37
f 38 32 39
f 36 33 34
f 38 35 32
f 40 39 41
f 42 37 43
f 40 38 39
f 42 36 37
f 44 41 45
f 44 40 41
f 46 45 47
f 48 43 49
f 46 44 45
f 48 42 43
f 50 46 47
f 51 48 49
f 52 51 49
f 52 49 53
f 54 53 55
f 54 52 53
f 56 55 57
f 56 54 55
f 58 57 59
f 58 56 57
f 60 58 59
f 4 59 2
f 4 60 59
f 61 62 63
f 64 65 66
f 66 65 67
f 63 64 68
f 64 66 68
f 61 63 69
f 63 68 69
f 61 69 70
f 61 70 71
f 72 73 74
f 74 73 75
f 71 72 76
f 72 74 76
f 61 71 77
f 71 76 77
f 61 77 78
f 61 78 79
f 80 81 82
f 82 81 83
f 79 80 84
f 80 82 84
f 61 79 85
f 79 84 85
f 61 85 86
f 87 88 89
f 90 87 89
f 91 92 93
f 92 90 93
f 94 95 96
f 97 98 96
f 99 94 96
f 98 99 96
f 100 97 101
f 88 100 101
f 89 88 101
f 102 103 104
f 103 91 104
f 90 89 105
f 93 90 105
f 91 93 106
f 96 95 107
f 97 96 107
f 95 108 107
f 101 97 107
f 105 89 109
f 89 101 109
f 110 102 111
f 102 104 111
f 106 93 112
f 93 105 112
f 108 113 114
f 107 108 114
f 101 107 114
f 109 101 114
f 91 106 115
f 104 91 115
f 111 104 115
f 105 109 116
f 112 105 116
f 117 110 118
f 119 117 118
f 110 111 118
f 106 112 120
f 116 109 121
f 113 122 121
f 109 114 121
f 114 113 121
f 111 115 123
f 118 111 123
f 120 112 124
f 112 116 124
f 125 119 126
f 119 118 126
f 115 106 127
f 123 115 127
f 106 120 127
f 116 121 128
f 121 122 128
f 124 116 128
f 118 123 129
f 120 124 130
f 125 126 131
f 123 127 132
f 129 123 132
f 128 122 133
f 122 134 133
f 134 135 133
f 124 128 133
f 130 124 133
f 126 118 136
f 118 129 136
f 131 126 136
f 127 120 137
f 120 130 137
f 132 127 137
f 138 125 139
f 125 131 139
f 140 138 139
f 129 132 141
f 136 129 141
f 135 142 143
f 133 135 143
f 130 133 143
f 131 136 144
f 132 137 145
f 141 132 145
f 146 140 147
f 140 139 147
f 144 136 148
f 136 141 148
f 130 143 149
f 145 137 149
f 137 130 149
f 143 142 149
f 131 144 150
f 139 131 150
f 141 145 151
f 148 141 151
f 146 147 152
f 144 148 153
f 145 149 154
f 142 155 154
f 155 156 154
f 151 145 154
f 149 142 154
f 139 150 157
f 147 139 157
f 153 148 158
f 148 151 158
f 146 152 159
f 160 146 159
f 161 160 159
f 144 153 162
f 150 144 162
f 151 154 163
f 154 156 163
f 158 151 163
f 147 157 164
f 152 147 164
f 153 158 165
f 161 159 166
f 167 161 166
f 150 162 168
f 164 157 168
f 157 150 168
f 156 169 170
f 158 163 170
f 163 156 170
f 165 158 170
f 159 152 171
f 166 159 171
f 152 164 171
f 153 165 172
f 162 153 172
f 168 162 172
f 167 166 173
f 171 164 174
f 164 168 174
f 170 169 175
f 169 176 175
f 165 170 175
f 166 171 177
f 168 172 178
f 174 168 178
f 167 173 179
f 180 167 179
f 181 182 183
f 171 174 184
f 177 171 184
f 176 185 186
f 172 165 186
f 175 176 186
f 165 175 186
f 178 172 186
f 173 166 187
f 166 177 187
f 174 178 188
f 184 174 188
f 189 180 190
f 180 179 190
f 177 184 191
f 185 192 193
f 186 185 193
f 178 186 193
f 188 178 193
f 173 187 194
f 195 196 197
f 179 173 194
f 198 199 200
f 191 184 201
f 202 198 200
f 203 202 200
f 203 200 204
f 184 188 201
f 189 190 205
f 206 203 204
f 207 189 205
f 200 199 208
f 177 191 209
f 204 200 208
f 199 210 208
f 210 211 208
f 194 187 209
f 187 177 209
f 188 193 212
f 192 213 212
f 201 188 212
f 206 204 214
f 193 192 212
f 179 194 215
f 204 208 216
f 190 179 215
f 207 205 217
f 206 214 218
f 219 206 218
f 220 207 217
f 209 191 221
f 208 211 222
f 191 201 221
f 215 194 223
f 218 214 224
f 214 204 224
f 194 209 223
f 204 216 224
f 201 212 225
f 221 201 225
f 219 218 226
f 213 227 225
f 212 213 225
f 228 219 226
f 229 228 226
f 217 205 230
f 190 215 230
f 205 190 230
f 208 222 231
f 216 208 231
f 220 217 232
f 233 220 232
f 218 224 234
f 223 209 235
f 231 222 236
f 222 211 236
f 209 221 235
f 211 237 236
f 215 223 238
f 229 226 239
f 240 229 239
f 232 217 241
f 217 230 241
f 224 216 242
f 221 225 243
f 216 231 242
f 235 221 243
f 227 244 243
f 239 226 245
f 225 227 243
f 218 234 245
f 233 232 246
f 247 233 246
f 226 218 245
f 223 235 248
f 231 236 249
f 242 231 249
f 238 223 248
f 240 239 250
f 230 215 251
f 241 230 251
f 215 238 251
f 234 224 252
f 224 242 252
f 232 241 253
f 254 255 256
f 235 243 257
f 244 258 257
f 237 259 256
f 248 235 257
f 249 236 256
f 243 244 257
f 259 254 256
f 236 237 256
f 238 248 260
f 239 245 261
f 247 246 262
f 252 242 263
f 242 249 263
f 264 247 262
f 241 251 265
f 266 240 267
f 253 241 265
f 240 250 267
f 246 232 268
f 232 253 268
f 258 269 270
f 261 245 271
f 248 257 270
f 234 252 271
f 257 258 270
f 245 234 271
f 260 248 270
f 263 249 272
f 255 273 272
f 256 255 272
f 251 238 274
f 249 256 272
f 238 260 274
f 265 251 274
f 183 182 275
f 250 239 276
f 264 262 275
f 239 261 276
f 182 264 275
f 252 263 277
f 253 265 278
f 271 252 277
f 269 279 280
f 270 269 280
f 260 270 280
f 281 266 282
f 262 246 283
f 246 268 283
f 275 262 283
f 266 267 282
f 265 274 284
f 278 265 284
f 276 261 285
f 261 271 285
f 273 286 287
f 263 272 287
f 277 263 287
f 268 253 288
f 253 278 288
f 272 273 287
f 282 267 289
f 279 290 291
f 267 250 289
f 280 279 291
f 274 260 291
f 260 280 291
f 250 276 289
f 284 274 291
f 292 183 293
f 275 283 293
f 183 275 293
f 271 277 294
f 285 271 294
f 295 281 296
f 278 284 297
f 298 295 296
f 268 288 299
f 293 283 299
f 281 282 296
f 283 268 299
f 297 284 300
f 284 291 300
f 291 290 300
f 288 278 301
f 276 285 302
f 286 303 304
f 287 286 304
f 277 287 304
f 278 297 301
f 294 277 304
f 305 292 306
f 293 299 306
f 292 293 306
f 300 290 307
f 282 289 308
f 297 300 307
f 290 309 307
f 309 310 307
f 285 294 311
f 302 285 311
f 306 299 312
f 288 301 312
f 299 288 312
f 298 296 313
f 297 307 314
f 301 297 314
f 307 310 314
f 310 315 314
f 316 305 317
f 305 306 317
f 306 312 317
f 289 276 318
f 276 302 318
f 312 301 319
f 301 314 319
f 308 289 318
f 303 320 321
f 314 315 319
f 304 303 321
f 317 312 319
f 294 304 321
f 195 316 322
f 311 294 321
f 316 317 322
f 196 195 322
f 315 196 322
f 319 315 322
f 317 319 322
f 313 296 323
f 296 282 323
f 282 308 323
f 324 298 325
f 298 313 325
f 302 311 326
f 308 318 100
f 320 327 328
f 321 320 328
f 311 321 328
f 326 311 328
f 313 323 87
f 325 313 87
f 329 324 92
f 324 325 92
f 318 302 98
f 302 326 98
f 100 318 98
f 87 323 88
f 323 308 88
f 308 100 88
f 325 87 90
f 92 325 90
f 327 94 99
f 328 327 99
f 326 328 99
f 98 326 99
f 103 329 91
f 329 92 91
f 100 98 97
f 330 331 332
f 330 332 333
f 334 335 336
f 337 331 330
f 338 334 336
f 339 340 341
f 342 334 338
f 343 339 341
f 344 342 338
f 345 344 346
f 345 342 344
f 347 339 343
f 332 339 347
f 348 346 349
f 348 345 346
f 350 332 347
f 351 332 350
f 352 353 354
f 352 354 355
f 352 355 356
f 357 353 352
f 358 359 360
f 358 360 361
f 358 362 363
f 358 361 364
f 357 365 348
f 358 364 366
f 357 349 367
f 358 366 368
f 357 367 353
f 358 368 369
f 358 369 370
f 358 370 371
f 357 348 349
f 358 371 362
f 358 363 372
f 373 359 358
f 373 374 375
f 373 375 376
f 363 365 357
f 373 376 377
f 373 377 378
f 373 378 379
f 373 379 380
f 373 380 359
f 373 358 372
f 373 381 382
f 373 383 381
f 363 362 365
f 373 384 383
f 373 372 384
f 385 386 387
f 385 374 373
f 385 387 388
f 385 388 389
f 390 391 392
f 385 389 393
f 390 394 391
f 385 373 382
f 385 393 395
f 385 395 396
f 385 396 374
f 385 397 398
f 385 399 397
f 385 400 399
f 385 382 400
f 401 386 385
f 401 337 402
f 401 402 403
f 401 403 404
f 405 406 394
f 401 404 407
f 401 407 408
f 401 408 409
f 401 409 410
f 401 410 411
f 405 394 390
f 401 411 386
f 401 385 398
f 401 398 331
f 401 331 337
f 412 413 406
f 412 406 405
f 333 332 351
f 333 413 412
f 333 351 413
f 414 415 38
f 416 40 44
f 417 418 54
f 416 414 40
f 419 44 46
f 419 46 50
f 420 54 56
f 419 416 44
f 254 419 50
f 420 417 54
f 421 56 58
f 421 58 60
f 421 420 56
f 422 12 9
f 422 9 14
f 423 421 60
f 422 197 12
f 424 60 4
f 425 14 18
f 425 422 14
f 424 423 60
f 426 4 1
f 426 1 5
f 427 425 18
f 426 424 4
f 428 18 22
f 428 22 28
f 429 426 5
f 428 427 18
f 430 5 7
f 430 7 13
f 430 429 5
f 431 428 28
f 432 430 13
f 433 28 29
f 433 431 28
f 434 13 16
f 434 16 20
f 435 433 29
f 434 432 13
f 435 29 33
f 436 434 20
f 437 435 33
f 437 33 36
f 437 36 42
f 438 20 24
f 438 436 20
f 439 438 24
f 439 24 26
f 440 437 42
f 441 42 48
f 442 26 31
f 442 31 35
f 441 440 42
f 442 439 26
f 443 48 51
f 444 35 38
f 443 441 48
f 444 442 35
f 418 51 52
f 418 52 54
f 415 444 38
f 418 443 51
f 414 38 40
f 315 445 446
f 135 134 447
f 315 310 445
f 196 446 448
f 196 448 12
f 196 315 446
f 197 196 12
f 142 135 449
f 155 449 450
f 254 50 451
f 155 142 449
f 156 450 452
f 156 452 453
f 156 155 450
f 255 254 451
f 169 453 454
f 273 451 455
f 169 156 453
f 273 255 451
f 286 455 456
f 286 456 457
f 176 169 454
f 286 273 455
f 185 454 458
f 185 458 459
f 303 457 460
f 185 176 454
f 303 286 457
f 192 459 461
f 192 185 459
f 213 461 462
f 320 303 460
f 213 192 461
f 327 460 463
f 327 320 460
f 227 213 462
f 94 327 463
f 244 462 464
f 94 463 465
f 94 465 466
f 244 227 462
f 258 464 467
f 95 466 468
f 95 94 466
f 258 244 464
f 269 258 467
f 108 95 468
f 269 467 469
f 108 468 470
f 269 469 471
f 113 108 470
f 279 269 471
f 122 470 472
f 290 471 473
f 122 113 470
f 290 279 471
f 309 473 474
f 309 474 445
f 134 472 475
f 134 475 447
f 309 290 473
f 134 122 472
f 310 309 445
f 135 447 449
f 363 357 476
f 357 477 476
f 478 479 480
f 481 478 480
f 363 476 482
f 480 479 483
f 363 482 372
f 484 485 486
f 485 487 486
f 488 489 382
f 490 488 382
f 372 482 491
f 485 492 493
f 381 490 382
f 494 495 340
f 487 485 493
f 495 496 340
f 496 497 340
f 498 483 499
f 483 479 499
f 372 491 500
f 484 486 501
f 502 484 501
f 493 492 503
f 492 504 503
f 498 499 505
f 489 506 400
f 502 501 507
f 382 489 400
f 508 494 339
f 503 504 509
f 494 340 339
f 500 510 384
f 511 512 399
f 506 511 399
f 372 500 384
f 513 502 514
f 505 499 515
f 516 505 515
f 400 506 399
f 502 507 514
f 508 339 332
f 504 517 518
f 519 508 332
f 520 519 332
f 509 504 518
f 399 512 397
f 356 513 521
f 513 514 521
f 512 522 397
f 518 517 523
f 517 524 523
f 520 332 331
f 525 520 331
f 397 522 398
f 525 331 398
f 526 525 398
f 522 526 398
f 527 528 383
f 510 527 383
f 384 510 383
f 356 521 529
f 530 516 531
f 523 524 532
f 533 530 531
f 516 515 531
f 352 356 534
f 356 529 534
f 532 524 535
f 524 536 535
f 357 352 537
f 352 534 537
f 528 490 381
f 536 478 538
f 535 536 538
f 383 528 381
f 496 533 497
f 357 537 477
f 533 531 497
f 538 478 481
f 341 340 497
f 349 346 539
f 484 540 541
f 343 341 497
f 347 343 497
f 347 497 531
f 542 515 543
f 542 531 515
f 350 347 531
f 544 531 542
f 502 367 349
f 502 539 540
f 502 540 484
f 502 349 539
f 351 350 531
f 351 531 544
f 353 367 502
f 413 351 544
f 413 544 545
f 406 413 545
f 546 406 545
f 394 406 546
f 547 394 546
f 513 354 353
f 391 394 547
f 513 353 502
f 392 391 547
f 548 541 549
f 548 549 550
f 548 550 551
f 548 551 552
f 548 552 553
f 548 553 554
f 548 554 555
f 548 555 556
f 548 556 557
f 548 484 541
f 548 485 484
f 355 354 513
f 558 485 548
f 558 557 559
f 558 559 560
f 558 560 561
f 558 548 557
f 558 561 562
f 356 355 513
f 558 562 563
f 558 563 564
f 558 564 565
f 336 335 566
f 558 492 485
f 558 504 492
f 558 517 504
f 558 524 517
f 567 565 568
f 567 568 569
f 567 569 570
f 567 570 571
f 567 571 572
f 567 572 573
f 567 573 574
f 338 566 575
f 567 536 524
f 567 478 536
f 338 336 566
f 567 479 478
f 567 499 479
f 567 558 565
f 567 524 558
f 576 543 515
f 576 499 567
f 576 574 577
f 344 575 578
f 576 577 579
f 576 579 580
f 576 580 581
f 576 581 582
f 576 582 583
f 576 583 584
f 576 584 585
f 344 338 575
f 576 585 543
f 576 515 499
f 576 567 574
f 346 578 539
f 346 344 578
f 586 587 546
f 587 547 546
f 569 588 570
f 588 589 570
f 590 586 545
f 586 546 545
f 570 589 571
f 590 545 544
f 571 589 572
f 589 591 572
f 592 590 542
f 590 544 542
f 572 591 573
f 591 593 573
f 594 592 543
f 592 542 543
f 573 593 574
f 593 595 574
f 594 543 585
f 596 594 585
f 574 595 577
f 595 597 577
f 596 585 584
f 598 596 584
f 577 597 579
f 598 584 583
f 579 597 580
f 597 599 580
f 598 583 582
f 600 598 582
f 580 599 581
f 600 582 581
f 599 600 581
f 366 364 266
f 368 366 281
f 366 266 281
f 361 360 240
f 364 361 240
f 266 364 240
f 368 281 295
f 369 368 295
f 370 369 295
f 371 370 298
f 370 295 298
f 360 359 229
f 240 360 229
f 362 371 324
f 371 298 324
f 359 380 228
f 229 359 228
f 380 379 219
f 228 380 219
f 362 324 329
f 365 362 329
f 378 377 206
f 379 378 206
f 219 379 206
f 365 329 103
f 348 365 103
f 345 348 103
f 345 103 102
f 342 345 102
f 206 377 203
f 377 376 203
f 203 376 202
f 376 375 202
f 334 342 110
f 342 102 110
f 202 375 198
f 374 396 198
f 375 374 198
f 335 334 117
f 566 335 117
f 334 110 117
f 396 395 601
f 198 396 601
f 575 566 119
f 566 117 119
f 395 393 602
f 601 395 602
f 578 575 125
f 575 119 125
f 389 388 603
f 393 389 603
f 602 393 603
f 539 578 138
f 540 539 138
f 578 125 138
f 388 387 604
f 603 388 604
f 541 540 140
f 540 138 140
f 387 386 605
f 604 387 605
f 541 140 146
f 549 541 146
f 386 411 606
f 605 386 606
f 550 549 160
f 549 146 160
f 411 410 607
f 606 411 607
f 551 550 161
f 550 160 161
f 551 161 552
f 607 410 409
f 607 409 608
f 552 161 167
f 552 167 553
f 608 409 408
f 608 408 609
f 553 167 180
f 553 180 554
f 609 408 407
f 609 407 610
f 554 180 189
f 554 189 555
f 610 407 404
f 555 189 556
f 189 207 556
f 611 610 403
f 610 404 403
f 556 207 557
f 207 220 557
f 612 611 402
f 611 403 402
f 557 220 559
f 220 233 559
f 613 612 337
f 612 402 337
f 233 247 560
f 559 233 560
f 614 613 330
f 613 337 330
f 560 247 561
f 614 330 333
f 247 264 562
f 561 247 562
f 615 614 412
f 614 333 412
f 264 182 563
f 562 264 563
f 616 615 405
f 615 412 405
f 182 181 564
f 563 182 564
f 617 616 390
f 616 405 390
f 564 181 565
f 617 390 392
f 565 181 568
f 181 618 568
f 587 617 547
f 617 392 547
f 568 618 569
f 618 588 569
f 619 620 621
f 620 622 621
f 618 181 183
f 623 624 625
f 624 626 625
f 627 623 625
f 628 629 630
f 629 631 630
f 631 627 630
f 435 437 632
f 633 435 632
f 622 634 632
f 634 633 632
f 626 619 635
f 619 621 635
f 586 590 636
f 590 628 636
f 627 625 637
f 636 628 638
f 628 630 638
f 621 622 639
f 622 632 639
f 437 440 639
f 632 437 639
f 626 635 640
f 625 626 640
f 637 625 640
f 587 586 641
f 586 636 641
f 627 637 642
f 638 630 642
f 630 627 642
f 440 441 643
f 635 621 643
f 639 440 643
f 621 639 643
f 636 638 644
f 637 640 645
f 617 587 646
f 587 641 646
f 638 642 647
f 441 443 648
f 640 635 648
f 643 441 648
f 635 643 648
f 646 641 649
f 636 644 649
f 641 636 649
f 637 645 650
f 642 637 650
f 647 642 650
f 616 617 651
f 615 616 651
f 617 646 651
f 644 638 652
f 638 647 652
f 649 644 652
f 648 443 653
f 645 640 653
f 640 648 653
f 646 649 654
f 647 650 655
f 652 647 655
f 614 615 656
f 615 651 656
f 649 652 657
f 443 418 658
f 650 645 658
f 645 653 658
f 655 650 658
f 653 443 658
f 651 646 659
f 646 654 659
f 656 651 659
f 652 655 660
f 614 656 661
f 654 649 662
f 649 657 662
f 418 417 663
f 417 420 663
f 655 658 663
f 658 418 663
f 656 659 664
f 661 656 664
f 657 652 665
f 652 660 665
f 662 657 665
f 613 614 666
f 614 661 666
f 654 662 667
f 659 654 667
f 655 663 668
f 663 420 668
f 660 655 668
f 661 664 669
f 666 661 669
f 662 665 670
f 613 666 671
f 612 613 671
f 664 659 672
f 659 667 672
f 669 664 672
f 420 421 673
f 660 668 673
f 665 660 673
f 668 420 673
f 666 669 674
f 667 662 675
f 662 670 675
f 612 671 676
f 611 612 676
f 610 611 676
f 674 669 677
f 669 672 677
f 421 423 678
f 665 673 678
f 670 665 678
f 673 421 678
f 666 674 679
f 676 671 679
f 671 666 679
f 667 675 680
f 672 667 680
f 677 672 680
f 610 676 681
f 609 610 681
f 674 677 682
f 423 424 683
f 678 423 683
f 675 670 683
f 670 678 683
f 676 679 684
f 677 680 685
f 609 681 686
f 608 609 686
f 674 682 687
f 684 679 687
f 679 674 687
f 424 426 688
f 683 424 688
f 675 683 688
f 685 680 688
f 680 675 688
f 198 601 199
f 686 681 689
f 681 676 689
f 676 684 689
f 682 677 690
f 677 685 690
f 608 686 691
f 684 687 692
f 426 429 693
f 688 426 693
f 685 688 693
f 691 686 694
f 686 689 694
f 687 682 695
f 682 690 695
f 607 608 696
f 606 607 696
f 618 183 697
f 608 691 696
f 618 697 698
f 588 618 698
f 689 684 699
f 684 692 699
f 694 689 699
f 429 430 700
f 697 183 701
f 183 292 701
f 693 429 700
f 690 685 700
f 685 693 700
f 698 697 701
f 589 588 702
f 591 589 702
f 691 694 703
f 699 692 704
f 588 698 702
f 692 687 704
f 698 701 705
f 687 695 704
f 702 698 705
f 591 702 706
f 606 696 707
f 703 694 708
f 701 292 709
f 694 699 708
f 292 305 709
f 305 316 709
f 690 700 710
f 705 701 709
f 430 432 710
f 700 430 710
f 702 705 711
f 695 690 710
f 706 702 711
f 691 703 712
f 707 696 712
f 591 706 713
f 696 691 712
f 593 591 713
f 606 707 714
f 605 606 714
f 705 709 715
f 699 704 716
f 706 711 717
f 316 195 718
f 703 708 719
f 709 316 718
f 704 695 720
f 710 432 720
f 432 434 720
f 695 710 720
f 593 713 721
f 595 593 721
f 707 712 722
f 714 707 722
f 705 715 723
f 605 714 724
f 604 605 724
f 711 705 723
f 699 716 725
f 713 706 726
f 708 699 725
f 721 713 726
f 706 717 726
f 719 708 725
f 722 712 727
f 723 715 728
f 709 718 728
f 715 709 728
f 595 721 729
f 703 719 727
f 712 703 727
f 597 595 729
f 724 714 730
f 711 723 731
f 714 722 730
f 434 436 732
f 716 704 732
f 717 711 731
f 720 434 732
f 197 422 733
f 704 720 732
f 718 195 733
f 604 724 734
f 195 197 733
f 603 604 734
f 721 726 735
f 729 721 735
f 719 725 736
f 723 728 737
f 722 727 738
f 730 722 738
f 597 729 739
f 734 724 740
f 599 597 739
f 724 730 740
f 436 438 741
f 725 716 741
f 732 436 741
f 717 731 742
f 716 732 741
f 736 725 741
f 726 717 742
f 422 425 743
f 727 719 744
f 733 422 743
f 719 736 744
f 718 733 743
f 728 718 743
f 603 734 745
f 602 603 745
f 729 735 746
f 730 738 747
f 731 723 748
f 734 740 749
f 723 737 748
f 600 599 750
f 598 600 750
f 438 439 751
f 741 438 751
f 736 741 751
f 738 727 752
f 599 739 750
f 747 738 752
f 727 744 752
f 726 742 753
f 746 735 753
f 199 601 754
f 735 726 753
f 601 602 754
f 425 427 755
f 602 745 754
f 737 728 755
f 210 199 754
f 743 425 755
f 728 743 755
f 740 730 756
f 739 729 757
f 730 747 756
f 439 442 758
f 729 746 757
f 751 439 758
f 744 736 758
f 736 751 758
f 731 748 759
f 745 734 760
f 734 749 760
f 742 731 759
f 754 745 760
f 747 752 761
f 596 598 762
f 756 747 761
f 598 750 762
f 749 740 763
f 740 756 763
f 757 746 764
f 746 753 764
f 758 442 765
f 442 444 765
f 427 428 766
f 761 752 765
f 755 427 766
f 752 744 765
f 737 755 766
f 744 758 765
f 748 737 766
f 210 754 767
f 754 760 767
f 756 761 768
f 739 757 769
f 750 739 769
f 763 756 768
f 749 763 770
f 767 760 770
f 742 759 771
f 753 742 771
f 760 749 770
f 761 765 772
f 765 444 772
f 444 415 772
f 763 768 773
f 596 762 774
f 210 767 775
f 757 764 620
f 211 210 775
f 767 770 775
f 428 431 776
f 772 415 777
f 766 428 776
f 759 748 776
f 748 766 776
f 768 761 777
f 761 772 777
f 775 770 778
f 763 773 778
f 762 750 624
f 770 763 778
f 750 769 624
f 773 768 779
f 768 777 779
f 596 774 631
f 415 414 779
f 594 596 631
f 777 415 779
f 775 778 780
f 211 775 780
f 237 211 780
f 259 237 780
f 778 773 781
f 780 778 781
f 764 753 634
f 779 414 781
f 753 771 634
f 773 779 781
f 414 416 781
f 416 419 782
f 419 254 782
f 780 781 782
f 259 780 782
f 769 757 619
f 781 416 782
f 757 620 619
f 254 259 782
f 431 433 783
f 776 431 783
f 771 759 783
f 759 776 783
f 631 774 623
f 774 762 623
f 762 624 623
f 592 594 629
f 594 631 629
f 620 764 622
f 764 634 622
f 624 769 626
f 769 619 626
f 631 623 627
f 433 435 633
f 634 771 633
f 783 433 633
f 771 783 633
f 590 592 628
f 592 629 628
f 784 512 511
f 785 784 506
f 784 511 506
f 786 785 489
f 785 506 489
f 787 786 488
f 786 489 488
f 787 488 490
f 788 787 528
f 787 490 528
f 788 528 527
f 788 527 510
f 789 495 494
f 790 789 508
f 789 494 508
f 791 790 519
f 790 508 519
f 792 791 520
f 791 519 520
f 792 520 525
f 793 792 526
f 792 525 526
f 793 526 522
f 793 522 512
f 794 480 483
f 795 794 498
f 794 483 498
f 796 795 505
f 795 498 505
f 797 796 516
f 796 505 516
f 797 516 530
f 798 797 533
f 797 530 533
f 798 533 496
f 798 496 495
f 799 503 509
f 800 799 518
f 799 509 518
f 801 800 523
f 800 518 523
f 802 801 532
f 801 523 532
f 803 802 535
f 802 532 535
f 804 803 538
f 803 535 538
f 805 804 481
f 804 538 481
f 805 481 480
f 806 529 521
f 807 806 514
f 806 521 514
f 808 807 507
f 807 514 507
f 809 808 501
f 808 507 501
f 809 501 486
f 810 809 487
f 809 486 487
f 810 487 493
f 810 493 503
f 811 510 500
f 812 811 491
f 811 500 491
f 813 812 482
f 812 491 482
f 814 813 476
f 813 482 476
f 814 476 477
f 815 814 537
f 814 477 537
f 815 537 534
f 815 534 529
f 61 86 816
f 817 818 819
f 819 818 820
f 816 817 821
f 817 819 821
f 61 816 822
f 816 821 822
f 61 822 823
f 61 823 824
f 825 826 827
f 827 826 828
f 824 825 829
f 825 827 829
f 61 824 830
f 824 829 830
f 61 830 831
f 61 831 832
f 833 834 835
f 835 834 836
f 832 833 837
f 833 835 837
f 61 832 838
f 832 837 838
f 61 838 62
f 793 512 836
f 793 836 834
f 792 793 833
f 793 834 833
f 792 833 832
f 791 792 831
f 792 832 831
f 791 831 830
f 790 791 829
f 791 830 829
f 790 829 827
f 789 790 828
f 495 789 828
f 790 827 828
f 510 67 788
f 67 65 788
f 63 62 787
f 64 63 787
f 65 64 787
f 788 65 787
f 838 837 786
f 62 838 786
f 787 62 786
f 837 835 785
f 786 837 785
f 835 836 784
f 785 835 784
f 784 836 512
f 815 529 75
f 815 75 73
f 814 815 72
f 815 73 72
f 814 72 71
f 813 814 70
f 814 71 70
f 813 70 69
f 812 813 68
f 813 69 68
f 812 68 66
f 811 812 67
f 510 811 67
f 812 66 67
f 810 503 83
f 810 83 81
f 809 810 80
f 810 81 80
f 809 80 79
f 808 809 78
f 809 79 78
f 808 78 77
f 807 808 76
f 808 77 76
f 807 76 74
f 806 807 75
f 529 806 75
f 807 74 75
f 805 480 820
f 804 805 820
f 803 804 818
f 804 820 818
f 802 803 817
f 803 818 817
f 802 817 816
f 801 802 86
f 802 816 86
f 801 86 85
f 800 801 84
f 801 85 84
f 800 84 82
f 799 800 83
f 503 799 83
f 800 82 83
f 798 495 828
f 798 828 826
f 797 798 825
f 798 826 825
f 797 825 824
f 796 797 823
f 797 824 823
f 796 823 822
f 795 796 821
f 796 822 821
f 795 821 819
f 794 795 820
f 480 794 820
f 795 819 820
f 454 839 840
f 454 453 839
f 458 840 841
f 458 454 840
f 459 841 842
f 459 458 841
f 451 50 47
f 451 47 843
f 461 459 842
f 455 843 844
f 462 842 845
f 455 451 843
f 462 461 842
f 456 844 846
f 456 455 844
f 464 845 847
f 464 462 845
f 457 846 848
f 467 847 849
f 457 456 846
f 467 464 847
f 469 467 849
f 469 849 850
f 460 457 848
f 463 848 851
f 471 850 852
f 471 469 850
f 463 460 848
f 465 851 853
f 473 471 852
f 465 463 851
f 466 853 854
f 474 852 855
f 466 465 853
f 474 473 852
f 445 855 856
f 468 854 857
f 445 474 855
f 468 466 854
f 446 856 858
f 446 445 856
f 448 858 10
f 470 857 859
f 448 446 858
f 470 468 857
f 12 448 10
f 472 470 859
f 475 472 859
f 475 859 860
f 447 860 861
f 447 475 860
f 449 861 862
f 449 447 861
f 450 862 863
f 450 449 862
f 452 450 863
f 453 863 839
f 453 452 863
f 851 848 850
f 853 851 850
f 849 847 850
f 847 853 850
f 857 854 859
f 21 17 8
f 860 859 861
f 848 846 855
f 852 850 855
f 850 848 855
f 846 844 843
f 846 843 856
f 855 846 856
f 8 6 3
f 862 861 863
f 8 3 2
f 843 47 10
f 858 856 10
f 856 843 10
f 839 863 840
f 861 859 840
f 863 861 840
f 47 45 11
f 10 47 11
f 41 39 15
f 45 41 15
f 11 45 15
f 15 39 19
f 57 55 53
f 59 57 53
f 2 59 53
f 841 840 845
f 39 27 23
f 842 841 845
f 19 39 23
f 39 32 27
f 8 2 49
f 2 53 49
f 854 853 847
f 21 8 43
f 25 21 43
f 859 854 847
f 8 49 43
f 845 840 847
f 840 859 847
f 30 23 37
f 34 30 37
f 25 43 37
f 27 25 37
f 23 27 37
