# Created by FreeCAD <http://www.freecadweb.org>
v -53.000000 205.973251 -23.239578
v -59.000000 205.973251 -23.239578
v -59.000000 206.296768 -23.282171
v -53.000000 206.296768 -23.282171
v -53.000000 206.598251 -23.407047
v -59.000000 206.598251 -23.407047
v -53.000000 206.857132 -23.605696
v -53.000000 207.055786 -23.864578
v -59.000000 206.857132 -23.605696
v -53.000000 207.180649 -24.166056
v -59.000000 207.055786 -23.864578
v -59.000000 207.180649 -24.166056
v -53.000000 207.223251 -24.489578
v -59.000000 207.223251 -24.489578
v -53.000000 207.180649 -24.813103
v -59.000000 207.180649 -24.813103
v -53.000000 207.055786 -25.114578
v -53.000000 206.857132 -25.373463
v -59.000000 207.055786 -25.114578
v -59.000000 206.857132 -25.373463
v -53.000000 206.598251 -25.572111
v -59.000000 206.598251 -25.572111
v -53.000000 206.296768 -25.696985
v -59.000000 206.296768 -25.696985
v -53.000000 205.973251 -25.739578
v -59.000000 205.973251 -25.739578
v -52.624462 206.598251 -24.489578
v -52.624462 206.415192 -24.047638
v -52.624462 206.415192 -24.931520
v -52.436691 206.194214 -24.268608
v -52.436691 206.092834 -24.200867
v -52.248924 205.973251 -24.489578
v -52.812229 206.332016 -23.623442
v -52.436691 206.194214 -24.710550
v -52.436691 206.092834 -24.778292
v -52.812229 206.332016 -25.355717
v -52.342808 206.117599 -24.429785
v -53.000000 206.296768 -54.282173
v -53.000000 205.973251 -54.239578
v -59.000000 205.973251 -54.239578
v -53.000000 206.598251 -54.407047
v -59.000000 206.296768 -54.282173
v -59.000000 206.598251 -54.407047
v -53.000000 206.857132 -54.605694
v -59.000000 206.857132 -54.605694
v -53.000000 207.055786 -54.864578
v -59.000000 207.055786 -54.864578
v -53.000000 207.180649 -55.166054
v -59.000000 207.180649 -55.166054
v -53.000000 207.223251 -55.489578
v -59.000000 207.223251 -55.489578
v -53.000000 207.180649 -55.813103
v -59.000000 207.180649 -55.813103
v -53.000000 207.055786 -56.114578
v -53.000000 206.857132 -56.373463
v -59.000000 207.055786 -56.114578
v -53.000000 206.598251 -56.572109
v -59.000000 206.857132 -56.373463
v -53.000000 206.296768 -56.696987
v -59.000000 206.598251 -56.572109
v -59.000000 206.296768 -56.696987
v -53.000000 205.973251 -56.739578
v -59.000000 205.973251 -56.739578
v -52.624462 206.598251 -55.489578
v -52.624462 206.415192 -55.047638
v -52.624462 206.415192 -55.931522
v -52.248924 205.973251 -55.489578
v -52.436691 206.092834 -55.200867
v -52.436691 206.194214 -55.268608
v -52.812229 206.332016 -54.623444
v -52.436691 206.194214 -55.710548
v -52.436691 206.092834 -55.778290
v -52.812229 206.332016 -56.355717
v -52.342808 206.117599 -55.429783
v -53.000000 236.973251 -23.239578
v -59.000000 236.973251 -23.239578
v -59.000000 237.296768 -23.282171
v -53.000000 237.296768 -23.282171
v -53.000000 237.598251 -23.407047
v -59.000000 237.598251 -23.407047
v -53.000000 237.857132 -23.605696
v -59.000000 237.857132 -23.605696
v -53.000000 238.055786 -23.864578
v -53.000000 238.180649 -24.166056
v -59.000000 238.055786 -23.864578
v -53.000000 238.223251 -24.489578
v -59.000000 238.180649 -24.166056
v -53.000000 238.180649 -24.813103
v -59.000000 238.223251 -24.489578
v -53.000000 238.055786 -25.114578
v -59.000000 238.180649 -24.813103
v -53.000000 237.857132 -25.373463
v -59.000000 238.055786 -25.114578
v -53.000000 237.598251 -25.572111
v -59.000000 237.857132 -25.373463
v -53.000000 237.296768 -25.696985
v -59.000000 237.598251 -25.572111
v -59.000000 237.296768 -25.696985
v -53.000000 236.973251 -25.739578
v -59.000000 236.973251 -25.739578
v -52.624462 237.415192 -24.047638
v -52.624462 237.598251 -24.489578
v -52.624462 237.415192 -24.931520
v -52.436691 237.092834 -24.200867
v -52.436691 237.194214 -24.268608
v -52.248924 236.973251 -24.489578
v -52.812229 237.332016 -23.623442
v -52.436691 237.194214 -24.710550
v -52.436691 237.092834 -24.778292
v -52.812229 237.332016 -25.355717
v -52.342808 237.117599 -24.429785
v -53.000000 237.296768 -54.282173
v -53.000000 236.973251 -54.239578
v -59.000000 236.973251 -54.239578
v -53.000000 237.598251 -54.407047
v -59.000000 237.296768 -54.282173
v -59.000000 237.598251 -54.407047
v -53.000000 237.857132 -54.605694
v -59.000000 237.857132 -54.605694
v -53.000000 238.055786 -54.864578
v -59.000000 238.055786 -54.864578
v -53.000000 238.180649 -55.166054
v -59.000000 238.180649 -55.166054
v -53.000000 238.223251 -55.489578
v -59.000000 238.223251 -55.489578
v -53.000000 238.180649 -55.813103
v -59.000000 238.180649 -55.813103
v -53.000000 238.055786 -56.114578
v -53.000000 237.857132 -56.373463
v -59.000000 238.055786 -56.114578
v -53.000000 237.598251 -56.572109
v -59.000000 237.857132 -56.373463
v -53.000000 237.296768 -56.696987
v -59.000000 237.598251 -56.572109
v -59.000000 237.296768 -56.696987
v -53.000000 236.973251 -56.739578
v -59.000000 236.973251 -56.739578
v -52.624462 237.598251 -55.489578
v -52.624462 237.415192 -55.047638
v -52.624462 237.415192 -55.931522
v -52.436691 237.194214 -55.268608
v -52.436691 237.092834 -55.200867
v -52.248924 236.973251 -55.489578
v -52.812229 237.332016 -54.623444
v -52.436691 237.194214 -55.710548
v -52.436691 237.092834 -55.778290
v -52.812229 237.332016 -56.355717
v -52.342808 237.117599 -55.429783
v -60.500000 220.955612 -38.057728
v -84.500000 220.955612 -38.057728
v -84.500000 220.473251 -38.257526
v -84.500000 221.473251 -37.989578
v -60.500000 221.473251 -37.989578
v -60.500000 220.473251 -38.257526
v -60.500000 220.059036 -38.575367
v -84.500000 220.059036 -38.575367
v -60.500000 219.741196 -38.989578
v -84.500000 219.741196 -38.989578
v -84.500000 219.541397 -39.471939
v -60.500000 219.541397 -39.471939
v -60.500000 219.473251 -39.989578
v -84.500000 219.473251 -39.989578
v -60.500000 219.541397 -40.507217
v -84.500000 219.541397 -40.507217
v -60.500000 219.741196 -40.989578
v -84.500000 219.741196 -40.989578
v -84.500000 220.059036 -41.403793
v -60.500000 220.059036 -41.403793
v -84.500000 220.473251 -41.721630
v -60.500000 220.473251 -41.721630
v -84.500000 220.955612 -41.921429
v -60.500000 220.955612 -41.921429
v -60.500000 221.473251 -41.989578
v -84.500000 221.473251 -41.989578
v -59.000000 210.684616 -42.135571
v -60.500000 210.526215 -41.067768
v -60.500000 210.684616 -42.135571
v -59.000000 210.526215 -41.067768
v -59.000000 210.946899 -43.182709
v -60.500000 210.946899 -43.182709
v -59.000000 221.473251 -28.989578
v -60.500000 221.473251 -28.989578
v -60.500000 220.395065 -29.042547
v -59.000000 211.310577 -44.199097
v -60.500000 211.310577 -44.199097
v -59.000000 220.395065 -29.042547
v -59.000000 211.772110 -45.174942
v -60.500000 211.772110 -45.174942
v -59.000000 219.327255 -29.200941
v -60.500000 219.327255 -29.200941
v -59.000000 212.327087 -46.100853
v -60.500000 212.327087 -46.100853
v -59.000000 218.280121 -29.463236
v -60.500000 218.280121 -29.463236
v -59.000000 212.970139 -46.967903
v -60.500000 212.970139 -46.967903
v -60.500000 213.695068 -47.767754
v -59.000000 217.263733 -29.826904
v -60.500000 217.263733 -29.826904
v -59.000000 213.695068 -47.767754
v -60.500000 214.494919 -48.492695
v -59.000000 216.287888 -30.288445
v -60.500000 216.287888 -30.288445
v -59.000000 214.494919 -48.492695
v -60.500000 215.361969 -49.135746
v -59.000000 215.361969 -30.843412
v -60.500000 215.361969 -30.843412
v -59.000000 215.361969 -49.135746
v -59.000000 214.494919 -31.486464
v -60.500000 214.494919 -31.486464
v -59.000000 216.287888 -49.690712
v -60.500000 216.287888 -49.690712
v -59.000000 213.695068 -32.211403
v -60.500000 213.695068 -32.211403
v -60.500000 212.970139 -33.011253
v -59.000000 217.263733 -50.152252
v -60.500000 217.263733 -50.152252
v -59.000000 212.970139 -33.011253
v -59.000000 218.280121 -50.515923
v -60.500000 218.280121 -50.515923
v -60.500000 219.327255 -50.778217
v -59.000000 212.327087 -33.878307
v -60.500000 212.327087 -33.878307
v -59.000000 219.327255 -50.778217
v -59.000000 220.395065 -50.936611
v -60.500000 220.395065 -50.936611
v -60.500000 221.473251 -50.989578
v -59.000000 211.772110 -34.804214
v -60.500000 211.772110 -34.804214
v -60.500000 211.310577 -35.780060
v -59.000000 221.473251 -50.989578
v -59.000000 211.310577 -35.780060
v -60.500000 210.946899 -36.796448
v -59.000000 210.946899 -36.796448
v -59.000000 210.684616 -37.843586
v -60.500000 210.684616 -37.843586
v -60.500000 210.526215 -38.911388
v -59.000000 210.526215 -38.911388
v -59.000000 210.473251 -39.989578
v -60.500000 210.473251 -39.989578
v -60.500000 223.205292 -38.989578
v -60.500000 229.976364 -33.011253
v -60.500000 230.619415 -33.878307
v -60.500000 231.174377 -34.804214
v -60.500000 231.635925 -35.780060
v -60.500000 227.584518 -49.135746
v -60.500000 222.473251 -41.721630
v -60.500000 228.451569 -48.492695
v -60.500000 222.887466 -38.575367
v -60.500000 223.405106 -39.471939
v -60.500000 231.999588 -36.796448
v -60.500000 232.261887 -37.843586
v -60.500000 232.420273 -38.911388
v -60.500000 226.658615 -49.690712
v -60.500000 221.990891 -38.057728
v -60.500000 222.551437 -29.042547
v -60.500000 223.619247 -29.200941
v -60.500000 225.682770 -50.152252
v -60.500000 224.666382 -29.463236
v -60.500000 225.682770 -29.826904
v -60.500000 221.990891 -41.921429
v -60.500000 222.473251 -38.257526
v -60.500000 223.473251 -39.989578
v -60.500000 232.473251 -39.989578
v -60.500000 232.420273 -41.067768
v -60.500000 224.666382 -50.515923
v -60.500000 223.619247 -50.778217
v -60.500000 223.405106 -40.507217
v -60.500000 232.261887 -42.135571
v -60.500000 231.999588 -43.182709
v -60.500000 231.635925 -44.199097
v -60.500000 222.551437 -50.936611
v -60.500000 223.205292 -40.989578
v -60.500000 231.174377 -45.174942
v -60.500000 230.619415 -46.100853
v -60.500000 229.976364 -46.967903
v -60.500000 222.887466 -41.403793
v -60.500000 229.251419 -47.767754
v -60.500000 228.451569 -31.486464
v -60.500000 229.251419 -32.211403
v -60.500000 226.658615 -30.288445
v -60.500000 227.584518 -30.843412
v -59.000000 242.405106 -25.300367
v -59.000000 241.887466 -24.403791
v -59.000000 242.205292 -24.818007
v -59.000000 236.162460 -19.057728
v -59.000000 236.644821 -19.257528
v -59.000000 237.059036 -19.575365
v -59.000000 242.473251 -25.818007
v -59.000000 235.644821 -18.989578
v -59.000000 205.649719 -54.282173
v -59.000000 236.649719 -23.282171
v -59.000000 236.348251 -23.407047
v -59.000000 236.089371 -23.605696
v -59.000000 235.890717 -23.864578
v -59.000000 235.765839 -24.166056
v -59.000000 207.301682 -60.989578
v -59.000000 228.451569 -31.486464
v -59.000000 236.089371 -25.373463
v -59.000000 229.251419 -32.211403
v -59.000000 235.890717 -25.114578
v -59.000000 235.644821 -60.989578
v -59.000000 200.473251 -54.161152
v -59.000000 229.976364 -33.011253
v -59.000000 205.089371 -54.605694
v -59.000000 204.890717 -54.864578
v -59.000000 236.348251 -25.572111
v -59.000000 205.348251 -54.407047
v -59.000000 227.584518 -30.843412
v -59.000000 235.765839 -24.813103
v -59.000000 200.473251 -25.818007
v -59.000000 230.619415 -33.878307
v -59.000000 236.649719 -25.696985
v -59.000000 226.658615 -30.288445
v -59.000000 235.723251 -24.489578
v -59.000000 206.301682 -60.721630
v -59.000000 206.784042 -60.921429
v -59.000000 231.174377 -34.804214
v -59.000000 225.682770 -29.826904
v -59.000000 231.635925 -35.780060
v -59.000000 205.887466 -60.403793
v -59.000000 205.649719 -56.696987
v -59.000000 205.348251 -56.572109
v -59.000000 205.089371 -56.373463
v -59.000000 224.666382 -29.463236
v -59.000000 201.059036 -55.575367
v -59.000000 200.741196 -55.161152
v -59.000000 200.541397 -54.678791
v -59.000000 204.890717 -56.114578
v -59.000000 204.765839 -55.813103
v -59.000000 231.999588 -36.796448
v -59.000000 204.723251 -55.489578
v -59.000000 204.765839 -55.166054
v -59.000000 223.619247 -29.200941
v -59.000000 232.261887 -37.843586
v -59.000000 222.551437 -29.042547
v -59.000000 232.420273 -38.911388
v -59.000000 232.473251 -39.989578
v -59.000000 242.473251 -54.161152
v -59.000000 232.420273 -41.067768
v -59.000000 232.261887 -42.135571
v -59.000000 231.999588 -43.182709
v -59.000000 207.301682 -18.989578
v -59.000000 206.301682 -19.257528
v -59.000000 206.784042 -19.057728
v -59.000000 241.887466 -55.575367
v -59.000000 242.405106 -54.678791
v -59.000000 242.205292 -55.161152
v -59.000000 205.887466 -19.575365
v -59.000000 231.635925 -44.199097
v -59.000000 231.174377 -45.174942
v -59.000000 205.649719 -23.282171
v -59.000000 236.649719 -54.282173
v -59.000000 230.619415 -46.100853
v -59.000000 205.348251 -23.407047
v -59.000000 236.348251 -54.407047
v -59.000000 229.976364 -46.967903
v -59.000000 205.089371 -23.605696
v -59.000000 236.089371 -54.605694
v -59.000000 229.251419 -47.767754
v -59.000000 228.451569 -48.492695
v -59.000000 235.890717 -54.864578
v -59.000000 227.584518 -49.135746
v -59.000000 235.765839 -55.166054
v -59.000000 226.658615 -49.690712
v -59.000000 235.723251 -55.489578
v -59.000000 237.059036 -60.403793
v -59.000000 236.649719 -56.696987
v -59.000000 236.348251 -56.572109
v -59.000000 201.059036 -24.403791
v -59.000000 204.765839 -24.813103
v -59.000000 204.890717 -25.114578
v -59.000000 204.723251 -24.489578
v -59.000000 204.765839 -24.166056
v -59.000000 204.890717 -23.864578
v -59.000000 205.649719 -25.696985
v -59.000000 225.682770 -50.152252
v -59.000000 235.765839 -55.813103
v -59.000000 205.348251 -25.572111
v -59.000000 205.089371 -25.373463
v -59.000000 200.541397 -25.300367
v -59.000000 200.741196 -24.818007
v -59.000000 236.644821 -60.721630
v -59.000000 236.162460 -60.921429
v -59.000000 236.089371 -56.373463
v -59.000000 235.890717 -56.114578
v -59.000000 224.666382 -50.515923
v -59.000000 223.619247 -50.778217
v -59.000000 222.551437 -50.936611
v -51.000000 201.059036 -24.403791
v -51.000000 200.741196 -24.818007
v -51.000000 200.473251 -25.818007
v -51.000000 200.541397 -25.300367
v -51.000000 236.162460 -60.921429
v -51.000000 236.644821 -60.721630
v -51.000000 235.644821 -60.989578
v -51.000000 237.059036 -60.403793
v -51.000000 242.205292 -24.818007
v -51.000000 241.887466 -24.403791
v -51.000000 242.405106 -25.300367
v -51.000000 205.887466 -19.575365
v -51.000000 201.644821 -27.818007
v -51.000000 237.059036 -19.575365
v -51.000000 236.644821 -19.257528
v -51.000000 236.162460 -19.057728
v -51.000000 209.301682 -20.161152
v -51.000000 241.887466 -55.575367
v -51.000000 233.644821 -59.818005
v -51.000000 241.301682 -52.161152
v -51.000000 242.473251 -25.818007
v -51.000000 235.644821 -18.989578
v -51.000000 201.269821 -28.251007
v -51.000000 233.211823 -60.193005
v -51.000000 233.644821 -20.161152
v -51.000000 241.301682 -27.818007
v -51.000000 200.960510 -28.733131
v -51.000000 232.729691 -60.502308
v -51.000000 233.211823 -19.786154
v -51.000000 241.676666 -28.251007
v -51.000000 200.723251 -29.254492
v -51.000000 232.729691 -19.476849
v -51.000000 232.208328 -60.739578
v -51.000000 241.985977 -28.733131
v -51.000000 232.208328 -19.239578
v -51.000000 242.223251 -29.254492
v -51.000000 209.734680 -60.193005
v -51.000000 209.301682 -59.818005
v -51.000000 207.301682 -60.989578
v -51.000000 210.216797 -60.502308
v -51.000000 210.738159 -60.739578
v -51.000000 200.960510 -51.246025
v -51.000000 200.723251 -50.724667
v -51.000000 200.473251 -54.161152
v -51.000000 201.269821 -51.728149
v -51.000000 201.644821 -52.161152
v -51.000000 241.676666 -51.728149
v -51.000000 242.473251 -54.161152
v -51.000000 241.985977 -51.246025
v -51.000000 242.223251 -50.724667
v -51.000000 210.216797 -19.476849
v -51.000000 210.738159 -19.239578
v -51.000000 207.301682 -18.989578
v -51.000000 209.734680 -19.786154
v -51.000000 206.784042 -60.921429
v -51.000000 206.301682 -60.721630
v -51.000000 205.887466 -60.403793
v -51.000000 206.784042 -19.057728
v -51.000000 206.301682 -19.257528
v -51.000000 200.541397 -54.678791
v -51.000000 201.059036 -55.575367
v -51.000000 200.741196 -55.161152
v -51.000000 242.205292 -55.161152
v -51.000000 242.405106 -54.678791
v -27.000000 201.644821 -52.161152
v -27.000000 201.269821 -51.728149
v -27.000000 200.960510 -51.246025
v -27.000000 200.723251 -50.724667
v -27.000000 209.301682 -59.818005
v -27.000000 210.738159 -60.739578
v -27.000000 210.216797 -60.502308
v -27.000000 209.734680 -60.193005
v -27.000000 232.208328 -60.739578
v -27.000000 233.644821 -59.818005
v -27.000000 233.211823 -60.193005
v -27.000000 232.729691 -60.502308
v -27.000000 241.301682 -52.161152
v -27.000000 242.223251 -50.724667
v -27.000000 241.985977 -51.246025
v -27.000000 241.676666 -51.728149
v -27.000000 242.223251 -29.254492
v -27.000000 241.301682 -27.818007
v -27.000000 241.676666 -28.251007
v -27.000000 241.985977 -28.733131
v -27.000000 233.644821 -20.161152
v -27.000000 232.208328 -19.239578
v -27.000000 232.729691 -19.476849
v -27.000000 233.211823 -19.786154
v -27.000000 210.738159 -19.239578
v -27.000000 209.301682 -20.161152
v -27.000000 209.734680 -19.786154
v -27.000000 210.216797 -19.476849
v -27.000000 201.644821 -27.818007
v -27.000000 200.723251 -29.254492
v -27.000000 200.960510 -28.733131
v -27.000000 201.269821 -28.251007
v -27.000000 200.541397 -25.300367
v -27.000000 200.741196 -24.818007
v -27.000000 201.059036 -24.403791
v -27.000000 200.473251 -25.818007
v -27.000000 236.162460 -19.057728
v -27.000000 236.644821 -19.257528
v -27.000000 237.059036 -19.575365
v -27.000000 235.644821 -60.989578
v -27.000000 237.059036 -60.403793
v -27.000000 236.644821 -60.721630
v -27.000000 236.162460 -60.921429
v -27.000000 242.405106 -25.300367
v -27.000000 241.887466 -24.403791
v -27.000000 242.205292 -24.818007
v -27.000000 235.644821 -18.989578
v -27.000000 241.887466 -55.575367
v -27.000000 242.473251 -25.818007
v -27.000000 207.301682 -60.989578
v -27.000000 200.473251 -54.161152
v -27.000000 207.301682 -18.989578
v -27.000000 242.473251 -54.161152
v -27.000000 206.301682 -60.721630
v -27.000000 206.784042 -60.921429
v -27.000000 242.205292 -55.161152
v -27.000000 242.405106 -54.678791
v -27.000000 205.887466 -60.403793
v -27.000000 205.887466 -19.575365
v -27.000000 201.059036 -55.575367
v -27.000000 200.741196 -55.161152
v -27.000000 200.541397 -54.678791
v -27.000000 206.301682 -19.257528
v -27.000000 206.784042 -19.057728
v -19.000000 201.059036 -24.403791
v -19.000000 205.887466 -19.575365
v -19.000000 200.473251 -54.161152
v -19.000000 200.473251 -25.818007
v -19.000000 205.887466 -60.403793
v -19.000000 201.059036 -55.575367
v -19.000000 235.644821 -60.989578
v -19.000000 207.301682 -60.989578
v -19.000000 241.887466 -55.575367
v -19.000000 237.059036 -60.403793
v -19.000000 242.473251 -25.818007
v -19.000000 242.473251 -54.161152
v -19.000000 237.059036 -19.575365
v -19.000000 241.887466 -24.403791
v -19.000000 207.301682 -18.989578
v -19.000000 235.644821 -18.989578
v -19.000000 236.644821 -19.257528
v -19.000000 236.162460 -19.057728
v -19.000000 242.205292 -24.818007
v -19.000000 242.405106 -25.300367
v -19.000000 206.784042 -19.057728
v -19.000000 206.301682 -19.257528
v -19.000000 242.405106 -54.678791
v -19.000000 242.205292 -55.161152
v -19.000000 200.741196 -24.818007
v -19.000000 200.541397 -25.300367
v -19.000000 236.162460 -60.921429
v -19.000000 236.644821 -60.721630
v -19.000000 206.784042 -60.921429
v -19.000000 206.301682 -60.721630
v -19.000000 200.541397 -54.678791
v -19.000000 200.741196 -55.161152
v -84.500000 221.820541 -41.959194
v -84.500000 222.157288 -41.868965
v -67.500000 222.473251 -41.721630
v -84.500000 222.473251 -41.721630
v -67.500000 222.887466 -41.403793
v -67.500000 223.205292 -40.989578
v -67.500000 223.405106 -40.507217
v -67.500000 223.473251 -39.989578
v -67.500000 223.405106 -39.471939
v -67.500000 223.205292 -38.989578
v -67.500000 222.887466 -38.575367
v -67.500000 222.473251 -38.257526
v -84.500000 222.473251 -38.257526
v -84.500000 222.157288 -38.110195
v -84.500000 221.820541 -38.019962
v -53.000000 235.890717 -56.114578
v -53.000000 235.765839 -55.813103
v -52.624462 236.348251 -55.489578
v -53.000000 235.723251 -55.489578
v -53.000000 235.765839 -55.166054
v -53.000000 235.890717 -54.864578
v -52.624462 236.531311 -55.931522
v -52.624462 236.531311 -55.047638
v -52.436691 236.853653 -55.778290
v -52.436691 236.752274 -55.710548
v -53.000000 236.649719 -56.696987
v -52.812229 236.614487 -56.355717
v -53.000000 236.348251 -56.572109
v -53.000000 236.089371 -56.373463
v -52.436691 236.752274 -55.268608
v -52.436691 236.853653 -55.200867
v -53.000000 236.089371 -54.605694
v -52.812229 236.614487 -54.623444
v -53.000000 236.348251 -54.407047
v -53.000000 236.649719 -54.282173
v -52.342808 236.828888 -55.549374
v -53.000000 235.890717 -25.114578
v -53.000000 235.765839 -24.813103
v -52.624462 236.531311 -24.931520
v -53.000000 235.723251 -24.489578
v -52.624462 236.348251 -24.489578
v -53.000000 235.765839 -24.166056
v -53.000000 235.890717 -23.864578
v -52.624462 236.531311 -24.047638
v -52.436691 236.853653 -24.778292
v -52.436691 236.752274 -24.710550
v -53.000000 236.649719 -25.696985
v -52.812229 236.614487 -25.355717
v -53.000000 236.348251 -25.572111
v -53.000000 236.089371 -25.373463
v -52.436691 236.752274 -24.268608
v -52.436691 236.853653 -24.200867
v -53.000000 236.089371 -23.605696
v -52.812229 236.614487 -23.623442
v -53.000000 236.348251 -23.407047
v -53.000000 236.649719 -23.282171
v -52.342808 236.828888 -24.429785
v -53.000000 204.890717 -56.114578
v -53.000000 204.765839 -55.813103
v -52.624462 205.348251 -55.489578
v -53.000000 204.723251 -55.489578
v -53.000000 204.765839 -55.166054
v -53.000000 204.890717 -54.864578
v -52.624462 205.531311 -55.931522
v -52.624462 205.531311 -55.047638
v -52.436691 205.853653 -55.778290
v -52.436691 205.752274 -55.710548
v -53.000000 205.649719 -56.696987
v -52.812229 205.614487 -56.355717
v -53.000000 205.348251 -56.572109
v -53.000000 205.089371 -56.373463
v -52.436691 205.752274 -55.268608
v -52.436691 205.853653 -55.200867
v -53.000000 205.089371 -54.605694
v -52.812229 205.614487 -54.623444
v -53.000000 205.348251 -54.407047
v -53.000000 205.649719 -54.282173
v -52.342808 205.828888 -55.549374
v -53.000000 204.890717 -25.114578
v -53.000000 204.765839 -24.813103
v -52.624462 205.531311 -24.931520
v -53.000000 204.723251 -24.489578
v -52.624462 205.348251 -24.489578
v -53.000000 204.765839 -24.166056
v -53.000000 204.890717 -23.864578
v -52.624462 205.531311 -24.047638
v -52.436691 205.853653 -24.778292
v -52.436691 205.752274 -24.710550
v -53.000000 205.649719 -25.696985
v -52.812229 205.614487 -25.355717
v -53.000000 205.348251 -25.572111
v -53.000000 205.089371 -25.373463
v -52.436691 205.752274 -24.268608
v -52.436691 205.853653 -24.200867
v -53.000000 205.089371 -23.605696
v -52.812229 205.614487 -23.623442
v -53.000000 205.348251 -23.407047
v -53.000000 205.649719 -23.282171
v -52.342808 205.828888 -24.429785
f 1 2 3
f 4 1 3
f 5 4 6
f 7 5 6
f 4 3 6
f 8 7 9
f 7 6 9
f 10 8 11
f 8 9 11
f 10 11 12
f 13 10 14
f 10 12 14
f 15 13 16
f 17 15 16
f 13 14 16
f 18 17 19
f 17 16 19
f 18 19 20
f 21 18 22
f 18 20 22
f 23 21 24
f 25 23 24
f 21 22 24
f 25 24 26
f 8 10 27
f 10 13 27
f 13 15 27
f 15 17 27
f 28 8 27
f 27 17 29
f 28 27 30
f 31 28 30
f 32 31 30
f 1 4 33
f 4 5 33
f 5 7 33
f 7 8 33
f 32 1 33
f 8 28 33
f 28 31 33
f 33 32 31
f 27 29 34
f 25 32 35
f 32 34 35
f 34 29 35
f 17 18 36
f 18 21 36
f 21 23 36
f 23 25 36
f 29 17 36
f 25 35 36
f 35 29 36
f 34 32 37
f 32 30 37
f 27 34 37
f 30 27 37
f 38 39 40
f 41 38 42
f 38 40 42
f 41 42 43
f 44 41 45
f 46 44 45
f 41 43 45
f 46 45 47
f 48 46 49
f 46 47 49
f 50 48 51
f 48 49 51
f 52 50 53
f 54 52 53
f 50 51 53
f 55 54 56
f 54 53 56
f 57 55 58
f 55 56 58
f 59 57 60
f 57 58 60
f 59 60 61
f 62 59 63
f 59 61 63
f 46 48 64
f 48 50 64
f 50 52 64
f 52 54 64
f 65 46 64
f 64 54 66
f 67 39 68
f 65 64 69
f 68 65 69
f 67 68 69
f 39 38 70
f 38 41 70
f 41 44 70
f 44 46 70
f 46 65 70
f 65 68 70
f 68 39 70
f 64 66 71
f 62 67 72
f 67 71 72
f 71 66 72
f 54 55 73
f 55 57 73
f 57 59 73
f 59 62 73
f 66 54 73
f 62 72 73
f 72 66 73
f 71 67 74
f 67 69 74
f 64 71 74
f 69 64 74
f 75 76 77
f 78 75 77
f 79 78 80
f 78 77 80
f 81 79 82
f 83 81 82
f 79 80 82
f 84 83 85
f 83 82 85
f 86 84 87
f 84 85 87
f 88 86 89
f 86 87 89
f 90 88 91
f 88 89 91
f 92 90 93
f 90 91 93
f 94 92 95
f 92 93 95
f 96 94 97
f 94 95 97
f 96 97 98
f 99 96 100
f 96 98 100
f 83 84 101
f 84 86 102
f 86 88 102
f 101 84 102
f 88 90 103
f 102 88 103
f 104 101 105
f 106 104 105
f 101 102 105
f 75 78 107
f 78 79 107
f 79 81 107
f 81 83 107
f 106 75 107
f 83 101 107
f 101 104 107
f 107 106 104
f 102 103 108
f 99 106 109
f 106 108 109
f 108 103 109
f 90 92 110
f 92 94 110
f 94 96 110
f 96 99 110
f 103 90 110
f 99 109 110
f 109 103 110
f 105 102 111
f 108 106 111
f 102 108 111
f 106 105 111
f 112 113 114
f 115 112 116
f 112 114 116
f 115 116 117
f 118 115 119
f 115 117 119
f 120 118 121
f 118 119 121
f 122 120 123
f 120 121 123
f 124 122 125
f 122 123 125
f 126 124 127
f 128 126 127
f 124 125 127
f 129 128 130
f 128 127 130
f 131 129 132
f 129 130 132
f 133 131 134
f 131 132 134
f 133 134 135
f 136 133 137
f 133 135 137
f 120 122 138
f 122 124 138
f 124 126 138
f 126 128 138
f 139 120 138
f 138 128 140
f 139 138 141
f 142 139 141
f 143 142 141
f 113 112 144
f 112 115 144
f 115 118 144
f 118 120 144
f 143 113 144
f 120 139 144
f 139 142 144
f 144 143 142
f 138 140 145
f 143 145 146
f 145 140 146
f 128 129 147
f 129 131 147
f 131 133 147
f 133 136 147
f 136 143 147
f 147 146 143
f 140 128 147
f 146 140 147
f 145 143 148
f 143 141 148
f 141 138 148
f 138 145 148
f 149 150 151
f 149 152 150
f 149 153 152
f 154 149 151
f 155 151 156
f 155 154 151
f 157 158 159
f 157 156 158
f 157 155 156
f 160 157 159
f 161 159 162
f 161 160 159
f 163 162 164
f 163 161 162
f 165 166 167
f 165 164 166
f 165 163 164
f 168 167 169
f 168 165 167
f 170 169 171
f 170 168 169
f 172 170 171
f 173 171 174
f 173 172 171
f 175 176 177
f 175 178 176
f 179 177 180
f 179 175 177
f 181 182 183
f 184 180 185
f 184 179 180
f 186 181 183
f 187 185 188
f 189 183 190
f 187 184 185
f 189 186 183
f 191 188 192
f 193 190 194
f 191 187 188
f 193 189 190
f 195 196 197
f 195 192 196
f 198 194 199
f 195 191 192
f 198 193 194
f 200 197 201
f 200 195 197
f 202 199 203
f 202 198 199
f 204 201 205
f 204 200 201
f 206 203 207
f 206 202 203
f 208 204 205
f 209 207 210
f 209 206 207
f 211 205 212
f 211 208 205
f 213 209 210
f 213 214 215
f 213 210 214
f 216 212 217
f 216 211 212
f 218 213 215
f 219 220 221
f 219 217 220
f 219 216 217
f 222 218 215
f 222 215 223
f 224 219 221
f 225 226 227
f 225 221 226
f 228 222 223
f 225 224 221
f 228 229 230
f 228 223 229
f 231 225 227
f 232 230 233
f 232 228 230
f 234 232 233
f 235 236 237
f 235 233 236
f 235 234 233
f 238 235 237
f 239 240 176
f 239 237 240
f 239 238 237
f 178 239 176
f 241 242 243
f 223 215 157
f 241 243 244
f 241 244 245
f 246 247 248
f 229 223 157
f 241 249 242
f 250 241 245
f 250 245 251
f 250 251 252
f 250 252 253
f 254 247 246
f 230 157 160
f 230 229 157
f 255 256 257
f 258 247 254
f 255 257 259
f 255 259 260
f 258 261 247
f 255 260 262
f 233 230 160
f 263 253 264
f 263 264 265
f 266 261 258
f 263 250 253
f 236 233 160
f 153 182 256
f 153 256 255
f 267 261 266
f 153 183 182
f 237 236 160
f 268 265 269
f 268 269 270
f 268 270 271
f 237 160 161
f 268 263 265
f 272 261 267
f 272 173 261
f 149 199 194
f 149 194 190
f 227 173 272
f 149 190 183
f 149 183 153
f 273 271 274
f 273 274 275
f 240 237 161
f 273 275 276
f 273 268 271
f 154 210 207
f 154 199 149
f 154 207 203
f 226 173 227
f 154 203 199
f 226 172 173
f 176 240 161
f 277 273 276
f 155 210 154
f 176 161 163
f 221 172 226
f 214 210 155
f 278 277 276
f 177 176 163
f 220 172 221
f 180 177 163
f 217 172 220
f 215 214 155
f 217 170 172
f 215 155 157
f 248 247 277
f 185 180 163
f 248 277 278
f 249 279 280
f 185 163 165
f 249 280 242
f 212 170 217
f 188 185 165
f 205 170 212
f 192 188 165
f 201 170 205
f 201 168 170
f 262 260 281
f 262 281 282
f 262 282 279
f 196 192 165
f 262 279 249
f 196 165 168
f 197 168 201
f 197 196 168
f 45 200 204
f 45 195 200
f 43 191 195
f 283 284 285
f 43 195 45
f 286 287 288
f 47 204 208
f 47 45 204
f 289 284 283
f 42 191 43
f 290 286 288
f 42 187 191
f 82 288 284
f 49 47 208
f 85 82 284
f 80 288 82
f 49 208 211
f 77 288 80
f 51 49 211
f 87 85 284
f 51 211 216
f 89 87 284
f 40 184 187
f 40 187 42
f 76 288 77
f 291 184 40
f 291 179 184
f 292 288 76
f 53 51 216
f 91 89 284
f 53 216 219
f 93 284 289
f 93 91 284
f 293 290 288
f 293 288 292
f 95 93 289
f 294 290 293
f 97 95 289
f 295 290 294
f 98 97 289
f 296 290 295
f 297 53 219
f 297 56 53
f 297 58 56
f 297 60 58
f 297 225 231
f 297 224 225
f 298 299 300
f 297 219 224
f 298 301 299
f 297 231 302
f 303 179 291
f 304 300 299
f 303 305 306
f 304 299 307
f 303 308 305
f 303 291 308
f 303 175 179
f 303 178 175
f 303 239 178
f 309 310 301
f 303 311 239
f 309 301 298
f 312 307 313
f 312 304 307
f 314 315 310
f 316 297 317
f 314 310 309
f 318 312 313
f 318 313 100
f 319 296 315
f 319 315 314
f 320 318 100
f 321 322 63
f 321 323 322
f 321 324 323
f 321 297 316
f 320 100 98
f 321 60 297
f 321 61 60
f 321 63 61
f 325 290 296
f 325 296 319
f 326 324 321
f 326 327 328
f 326 328 303
f 326 329 324
f 326 330 329
f 331 320 98
f 326 332 330
f 331 98 289
f 326 333 332
f 326 303 306
f 326 306 333
f 334 290 325
f 335 331 289
f 336 290 334
f 337 335 289
f 181 290 336
f 338 337 289
f 339 340 338
f 339 341 340
f 339 342 341
f 339 338 289
f 343 290 181
f 343 189 193
f 343 186 189
f 343 181 186
f 344 345 343
f 346 339 347
f 346 347 348
f 349 344 343
f 6 349 343
f 6 343 9
f 11 9 343
f 117 339 119
f 121 339 346
f 121 119 339
f 12 11 343
f 12 193 198
f 12 343 193
f 3 349 6
f 116 339 117
f 116 350 342
f 116 342 339
f 123 121 346
f 14 12 198
f 14 198 202
f 2 349 3
f 114 351 350
f 114 350 116
f 125 123 346
f 16 14 202
f 16 202 206
f 352 349 2
f 353 351 114
f 353 354 351
f 127 125 346
f 19 16 206
f 19 206 209
f 355 349 352
f 356 357 354
f 356 354 353
f 130 127 346
f 20 19 209
f 20 209 213
f 358 349 355
f 359 357 356
f 132 130 346
f 360 357 359
f 218 22 20
f 218 20 213
f 361 359 362
f 361 360 359
f 222 24 22
f 222 22 218
f 363 361 362
f 363 362 364
f 228 26 24
f 228 24 222
f 365 363 364
f 365 364 366
f 367 132 346
f 367 368 137
f 367 369 368
f 367 134 132
f 367 135 134
f 367 137 135
f 370 371 372
f 370 373 371
f 370 374 373
f 370 375 374
f 370 358 375
f 370 349 358
f 232 376 26
f 232 26 228
f 377 365 366
f 377 366 378
f 311 379 376
f 311 380 379
f 311 372 380
f 311 370 372
f 311 381 382
f 311 382 370
f 302 369 367
f 302 367 383
f 302 383 384
f 302 385 369
f 302 386 385
f 302 378 386
f 234 311 376
f 234 376 232
f 387 378 302
f 387 377 378
f 235 311 234
f 388 387 302
f 238 311 235
f 389 388 302
f 239 311 238
f 231 389 302
f 390 391 392
f 391 393 392
f 394 395 396
f 395 397 396
f 398 399 400
f 401 390 402
f 403 404 405
f 390 392 402
f 406 401 402
f 397 407 408
f 407 409 408
f 396 397 408
f 400 399 410
f 403 405 411
f 402 392 412
f 396 408 413
f 403 411 414
f 399 403 415
f 412 392 416
f 410 399 415
f 403 414 415
f 396 413 417
f 414 411 418
f 410 415 419
f 416 392 420
f 418 411 421
f 396 417 422
f 410 419 423
f 421 411 424
f 410 423 425
f 426 427 428
f 429 426 428
f 430 429 428
f 431 432 433
f 434 431 433
f 435 434 433
f 436 409 437
f 438 436 437
f 439 438 437
f 440 441 442
f 443 440 442
f 406 443 442
f 444 428 445
f 428 427 446
f 445 428 446
f 442 447 448
f 433 449 450
f 449 451 450
f 437 409 407
f 427 435 450
f 452 453 407
f 435 433 450
f 453 437 407
f 446 427 450
f 420 392 433
f 432 420 433
f 406 442 401
f 430 428 396
f 442 448 401
f 422 430 396
f 425 437 410
f 439 437 425
f 424 411 442
f 441 424 442
f 349 370 390
f 349 390 401
f 392 303 433
f 311 303 392
f 321 446 450
f 326 321 450
f 428 302 396
f 297 302 428
f 346 407 397
f 367 346 397
f 437 289 410
f 339 289 437
f 284 288 403
f 284 403 399
f 442 411 290
f 343 442 290
f 435 454 455
f 434 435 455
f 431 456 457
f 431 455 456
f 431 434 455
f 432 431 457
f 458 454 435
f 458 435 427
f 430 459 460
f 429 460 461
f 429 430 460
f 426 429 461
f 427 461 458
f 427 426 461
f 462 459 422
f 459 430 422
f 413 408 463
f 413 463 464
f 417 465 462
f 417 464 465
f 417 413 464
f 422 417 462
f 466 463 408
f 466 408 409
f 438 439 467
f 438 468 469
f 438 467 468
f 436 469 466
f 436 438 469
f 409 436 466
f 425 470 439
f 470 467 439
f 419 415 471
f 419 471 472
f 423 473 470
f 423 472 473
f 423 419 472
f 425 423 470
f 474 471 414
f 471 415 414
f 421 424 475
f 421 475 476
f 418 476 477
f 418 421 476
f 414 477 474
f 414 418 477
f 478 475 441
f 475 424 441
f 443 406 479
f 443 479 480
f 440 480 481
f 440 443 480
f 441 481 478
f 441 440 481
f 482 479 406
f 482 406 402
f 416 420 483
f 416 483 484
f 412 484 485
f 412 416 484
f 402 485 482
f 402 412 485
f 420 432 457
f 483 420 457
f 486 487 488
f 489 486 488
f 490 491 492
f 493 494 495
f 493 495 496
f 497 498 499
f 482 488 479
f 482 489 488
f 500 490 492
f 463 501 494
f 463 494 493
f 502 498 497
f 463 466 501
f 485 489 482
f 464 463 493
f 474 500 492
f 471 492 498
f 471 498 502
f 471 474 492
f 484 489 485
f 477 500 474
f 465 464 493
f 472 471 502
f 476 500 477
f 483 489 484
f 462 465 493
f 473 472 502
f 475 500 476
f 470 473 502
f 503 458 461
f 503 461 460
f 503 460 459
f 504 457 456
f 504 456 455
f 504 455 454
f 505 478 481
f 505 481 480
f 505 480 479
f 506 466 469
f 506 469 468
f 506 468 467
f 507 503 508
f 509 506 510
f 511 454 458
f 511 458 503
f 511 503 507
f 512 505 479
f 513 514 515
f 513 515 504
f 512 516 517
f 513 504 454
f 512 517 505
f 513 454 511
f 501 466 506
f 505 500 475
f 501 506 509
f 505 475 478
f 502 506 467
f 502 467 470
f 493 503 459
f 493 459 462
f 488 512 479
f 504 489 457
f 457 489 483
f 512 488 518
f 512 518 519
f 489 504 520
f 489 520 521
f 511 522 523
f 513 511 523
f 503 493 524
f 503 524 525
f 494 526 527
f 494 501 526
f 506 502 528
f 506 528 529
f 498 492 530
f 498 530 531
f 500 532 533
f 500 505 532
f 530 534 535
f 536 531 537
f 530 535 533
f 531 530 528
f 537 531 528
f 530 533 528
f 528 533 532
f 532 538 539
f 540 529 541
f 532 539 519
f 541 529 526
f 526 529 527
f 518 542 543
f 519 518 521
f 528 532 521
f 532 519 521
f 518 543 521
f 544 545 524
f 545 527 524
f 527 529 524
f 525 524 520
f 529 528 520
f 528 521 520
f 524 529 520
f 546 525 547
f 520 548 523
f 548 549 523
f 525 520 523
f 547 525 522
f 525 523 522
f 335 252 251
f 335 337 252
f 331 251 245
f 331 335 251
f 320 245 244
f 320 331 245
f 389 231 227
f 389 227 272
f 318 320 244
f 388 272 267
f 388 389 272
f 312 244 243
f 312 318 244
f 387 266 258
f 387 267 266
f 387 388 267
f 304 243 242
f 304 312 243
f 377 387 258
f 300 280 279
f 300 242 280
f 300 304 242
f 365 258 254
f 365 377 258
f 298 300 279
f 363 254 246
f 363 365 254
f 309 279 282
f 309 298 279
f 361 248 278
f 361 246 248
f 361 363 246
f 314 281 260
f 314 282 281
f 314 309 282
f 360 361 278
f 319 260 259
f 319 314 260
f 357 360 278
f 357 278 276
f 325 319 259
f 354 357 276
f 334 259 257
f 354 275 274
f 334 325 259
f 354 276 275
f 336 257 256
f 336 334 257
f 351 354 274
f 181 256 182
f 181 336 256
f 350 351 274
f 350 274 271
f 342 271 270
f 342 350 271
f 341 269 265
f 341 270 269
f 341 342 270
f 340 341 265
f 338 264 253
f 338 265 264
f 338 340 265
f 337 253 252
f 337 338 253
f 173 174 550
f 261 550 551
f 261 173 550
f 552 551 553
f 552 261 551
f 247 261 552
f 554 247 552
f 277 247 554
f 273 554 555
f 273 277 554
f 268 555 556
f 268 273 555
f 263 556 557
f 263 268 556
f 250 557 558
f 250 263 557
f 241 558 559
f 241 250 558
f 249 559 560
f 249 241 559
f 561 562 563
f 262 560 561
f 262 249 560
f 255 563 564
f 255 262 561
f 255 561 563
f 153 564 152
f 153 255 564
f 152 564 563
f 150 152 563
f 553 563 562
f 158 156 151
f 158 151 150
f 551 158 150
f 551 150 563
f 551 563 553
f 162 551 550
f 162 159 158
f 162 158 551
f 174 162 550
f 171 162 174
f 166 164 162
f 166 162 171
f 167 171 169
f 167 166 171
f 561 552 562
f 552 553 562
f 558 560 559
f 555 557 556
f 552 561 560
f 552 558 557
f 552 555 554
f 552 560 558
f 552 557 555
f 565 566 567
f 566 568 567
f 568 569 567
f 569 570 567
f 571 565 567
f 567 570 572
f 143 136 573
f 571 567 574
f 573 571 574
f 143 573 574
f 136 575 576
f 575 577 576
f 577 578 576
f 578 565 576
f 565 571 576
f 571 573 576
f 573 136 576
f 567 572 579
f 113 143 580
f 143 579 580
f 579 572 580
f 570 581 582
f 581 583 582
f 583 584 582
f 584 113 582
f 572 570 582
f 113 580 582
f 580 572 582
f 579 143 585
f 143 574 585
f 567 579 585
f 574 567 585
f 575 136 137
f 577 575 368
f 575 137 368
f 578 577 369
f 577 368 369
f 565 578 385
f 578 369 385
f 566 565 386
f 565 385 386
f 568 566 378
f 566 386 378
f 568 378 366
f 569 568 364
f 568 366 364
f 570 569 362
f 569 364 362
f 581 570 359
f 570 362 359
f 583 581 356
f 581 359 356
f 584 583 353
f 583 356 353
f 113 584 114
f 584 353 114
f 586 587 588
f 587 589 590
f 589 591 590
f 591 592 590
f 588 587 590
f 590 592 593
f 106 99 594
f 594 588 595
f 106 594 595
f 588 590 595
f 99 596 597
f 596 598 597
f 598 599 597
f 599 586 597
f 594 99 597
f 586 588 597
f 588 594 597
f 590 593 600
f 600 593 601
f 106 600 601
f 592 602 603
f 602 604 603
f 604 605 603
f 605 75 603
f 75 106 603
f 603 601 106
f 593 592 603
f 601 593 603
f 590 600 606
f 600 106 606
f 106 595 606
f 595 590 606
f 99 100 313
f 596 99 313
f 598 596 307
f 599 598 307
f 596 313 307
f 586 599 299
f 599 307 299
f 587 586 301
f 586 299 301
f 589 587 310
f 587 301 310
f 589 310 315
f 591 589 296
f 589 315 296
f 592 591 295
f 591 296 295
f 602 592 294
f 604 602 294
f 592 295 294
f 605 604 293
f 604 294 293
f 75 605 292
f 605 293 292
f 75 292 76
f 607 608 609
f 608 610 609
f 610 611 609
f 611 612 609
f 613 607 609
f 609 612 614
f 67 62 615
f 613 609 616
f 615 613 616
f 67 615 616
f 62 617 618
f 617 619 618
f 619 620 618
f 620 607 618
f 607 613 618
f 613 615 618
f 615 62 618
f 609 614 621
f 39 67 622
f 67 621 622
f 621 614 622
f 612 623 624
f 623 625 624
f 625 626 624
f 626 39 624
f 614 612 624
f 39 622 624
f 622 614 624
f 621 67 627
f 67 616 627
f 616 609 627
f 609 621 627
f 617 62 63
f 619 617 322
f 617 63 322
f 620 619 323
f 619 322 323
f 620 323 324
f 607 620 329
f 608 607 329
f 620 324 329
f 608 329 330
f 610 608 332
f 608 330 332
f 611 610 333
f 612 611 333
f 610 332 333
f 612 333 306
f 623 612 305
f 625 623 305
f 612 306 305
f 626 625 308
f 625 305 308
f 626 308 291
f 39 626 40
f 626 291 40
f 628 629 630
f 629 631 632
f 631 633 632
f 630 629 632
f 633 634 635
f 632 633 635
f 32 25 636
f 636 630 637
f 32 636 637
f 630 632 637
f 25 638 639
f 638 640 639
f 640 641 639
f 641 628 639
f 628 630 639
f 630 636 639
f 636 25 639
f 632 635 642
f 32 642 643
f 642 635 643
f 634 644 645
f 644 646 645
f 646 647 645
f 647 1 645
f 1 32 645
f 645 643 32
f 635 634 645
f 643 635 645
f 637 632 648
f 632 642 648
f 642 32 648
f 32 637 648
f 25 26 376
f 638 25 376
f 640 638 379
f 638 376 379
f 641 640 380
f 640 379 380
f 628 641 372
f 629 628 372
f 641 380 372
f 631 629 371
f 629 372 371
f 631 371 373
f 633 631 374
f 631 373 374
f 634 633 375
f 644 634 375
f 633 374 375
f 646 644 358
f 644 375 358
f 647 646 355
f 646 358 355
f 1 647 352
f 647 355 352
f 1 352 2
f 490 533 535
f 490 500 533
f 491 535 534
f 491 490 535
f 492 534 530
f 492 491 534
f 495 545 544
f 495 527 545
f 495 494 527
f 496 544 524
f 496 495 544
f 493 496 524
f 514 523 549
f 514 513 523
f 515 549 548
f 515 514 549
f 504 548 520
f 504 515 548
f 311 392 393
f 381 393 391
f 381 311 393
f 382 391 390
f 382 381 391
f 370 382 390
f 499 531 536
f 499 498 531
f 497 536 537
f 497 499 536
f 502 537 528
f 502 497 537
f 344 401 448
f 344 349 401
f 345 448 447
f 345 344 448
f 343 447 442
f 343 345 447
f 486 521 543
f 486 489 521
f 487 542 518
f 487 543 542
f 487 486 543
f 488 487 518
f 317 428 444
f 317 297 428
f 316 444 445
f 316 317 444
f 321 445 446
f 321 316 445
f 508 525 546
f 508 503 525
f 507 546 547
f 507 508 546
f 511 547 522
f 511 507 547
f 290 411 405
f 286 405 404
f 286 290 405
f 287 404 403
f 287 286 404
f 288 287 403
f 510 529 540
f 510 506 529
f 509 540 541
f 509 510 540
f 501 541 526
f 501 509 541
f 285 399 398
f 285 284 399
f 283 398 400
f 283 285 398
f 289 400 410
f 289 283 400
f 516 539 538
f 516 519 539
f 516 512 519
f 517 538 532
f 517 516 538
f 505 517 532
f 383 397 395
f 383 367 397
f 384 395 394
f 384 383 395
f 302 394 396
f 302 384 394
f 326 450 451
f 327 326 451
f 328 451 449
f 328 327 451
f 303 449 433
f 303 328 449
f 347 437 453
f 347 339 437
f 348 453 452
f 348 347 453
f 346 452 407
f 346 348 452
