# FreeCAD v0.16 build6712 (Git) Arch module
# http://www.freecadweb.org
o Part__Feature024
v -47.302363 265.461804 503.510421
v -48.158828 264.775841 504.010421
v -47.264568 264.963235 504.010421
v -48.324375 265.24764 503.510421
v -46.259746 265.404155 503.510421
v -46.352278 264.912791 504.010421
v -45.267577 265.078621 503.510421
v -45.48413 264.627949 504.010421
v -44.393468 264.507386 503.510421
v -44.719285 264.128119 504.010421
v -43.696991 263.729381 503.510421
v -44.109867 263.447364 504.010421
v -43.225608 262.797623 503.510421
v -43.697407 262.632076 504.010421
v -43.011444 261.775612 503.510421
v -43.510014 261.737816 504.010421
v -43.069094 260.732995 503.510421
v -43.560457 260.825527 504.010421
v -43.394628 259.740825 503.510421
v -43.845299 259.957378 504.010421
v -44.345129 259.192533 504.010421
v -43.965862 258.866717 503.510421
v -45.025884 258.583116 504.010421
v -44.743868 258.17024 503.510421
v -45.675625 257.698857 503.510421
v -45.841172 258.170656 504.010421
v -45.025884 258.583116 8.010421
v -45.675625 257.698857 8.510421
v -45.841172 258.170656 8.010421
v -44.743868 258.17024 8.510421
v -44.345129 259.192533 8.010421
v -43.965862 258.866717 8.510421
v -43.845299 259.957378 8.010421
v -43.394628 259.740825 8.510421
v -43.560457 260.825527 8.010421
v -43.069094 260.732995 8.510421
v -43.011444 261.775612 8.510421
v -43.510014 261.737816 8.010421
v -43.225608 262.797623 8.510421
v -43.697407 262.632076 8.010421
v -43.696991 263.729381 8.510421
v -44.109867 263.447364 8.010421
v -44.393468 264.507386 8.510421
v -44.719285 264.128119 8.010421
v -45.267577 265.078621 8.510421
v -45.48413 264.627949 8.010421
v -46.259746 265.404155 8.510421
v -46.352278 264.912791 8.010421
v -47.302363 265.461804 8.510421
v -47.264568 264.963235 8.010421
v -48.324375 265.24764 8.510421
v -48.158828 264.775841 8.010421
v -47.930655 262.83574 492.510421
v -47.546305 263.030185 492.510421
v -47.546305 263.030185 504.010421
v -48.251582 262.548443 492.510421
v -47.930655 262.83574 504.010421
v -48.487216 262.187873 492.510421
v -48.251582 262.548443 504.010421
v -48.621499 261.778603 492.510421
v -48.487216 262.187873 504.010421
v -48.621499 261.778603 504.010421
v -48.645279 261.348523 492.510421
v -48.645279 261.348523 504.010421
v -48.556937 260.926944 492.510421
v -48.556937 260.926944 504.010421
v -48.362491 260.542594 492.510421
v -48.362491 260.542594 504.010421
v -48.075194 260.221666 492.510421
v -48.075194 260.221666 504.010421
v -47.714625 259.986032 492.510421
v -47.714625 259.986032 504.010421
v -47.305355 259.85175 492.510421
v -47.305355 259.85175 504.010421
v -46.875275 259.827969 492.510421
v -46.875275 259.827969 504.010421
v -46.453695 259.916312 492.510421
v -46.453695 259.916312 504.010421
v -47.0 261.473248 491.519001
v -46.875275 259.827969 19.510421
v -46.453695 259.916312 19.510421
v -46.453695 259.916312 8.010421
v -47.305355 259.85175 19.510421
v -46.875275 259.827969 8.010421
v -47.714625 259.986032 19.510421
v -47.305355 259.85175 8.010421
v -48.075194 260.221666 19.510421
v -47.714625 259.986032 8.010421
v -48.075194 260.221666 8.010421
v -48.362491 260.542594 19.510421
v -48.362491 260.542594 8.010421
v -48.556937 260.926944 19.510421
v -48.556937 260.926944 8.010421
v -48.645279 261.348523 19.510421
v -48.645279 261.348523 8.010421
v -48.621499 261.778603 19.510421
v -48.621499 261.778603 8.010421
v -48.487216 262.187873 19.510421
v -48.487216 262.187873 8.010421
v -48.251582 262.548443 19.510421
v -48.251582 262.548443 8.010421
v -47.930655 262.83574 19.510421
v -47.930655 262.83574 8.010421
v -47.546305 263.030185 19.510421
v -47.546305 263.030185 8.010421
v -47.0 261.473248 20.501841
v -49.256132 264.776257 8.510421
v -49.256132 264.776257 503.510421
v -50.034138 264.07978 8.510421
v -50.034138 264.07978 503.510421
v -50.605372 263.205672 8.510421
v -50.605372 263.205672 503.510421
v -50.930906 262.213502 503.510421
v -50.930906 262.213502 8.510421
v -50.988556 261.170885 503.510421
v -50.988556 261.170885 8.510421
v -50.774392 260.148874 503.510421
v -50.774392 260.148874 8.510421
v -50.303009 259.217116 503.510421
v -50.303009 259.217116 8.510421
v -49.606532 258.43911 503.510421
v -49.606532 258.43911 8.510421
v -48.732423 257.867876 503.510421
v -48.732423 257.867876 8.510421
v -47.740254 257.542342 503.510421
v -47.740254 257.542342 8.510421
v -46.697637 257.484693 8.510421
v -46.697637 257.484693 503.510421
v -45.378501 261.167894 8.010421
v -45.354721 261.597973 8.010421
v -45.443063 262.019553 8.010421
v -48.974116 264.363381 8.010421
v -49.654871 263.753963 8.010421
v -45.637509 262.403903 8.010421
v -48.51587 258.318548 8.010421
v -49.280715 258.818378 8.010421
v -45.924806 262.72483 8.010421
v -47.647722 258.033705 8.010421
v -47.124725 263.118528 8.010421
v -49.890133 259.499133 8.010421
v -46.285375 262.960464 8.010421
v -46.735432 257.983262 8.010421
v -46.694645 263.094747 8.010421
v -50.302593 260.31442 8.010421
v -46.069345 260.110757 8.010421
v -50.489986 261.20868 8.010421
v -45.748418 260.398054 8.010421
v -50.439543 262.12097 8.010421
v -45.512784 260.758624 8.010421
v -50.154701 262.989119 8.010421
v -45.378501 261.167894 504.010421
v -45.354721 261.597973 504.010421
v -45.443063 262.019553 504.010421
v -49.654871 263.753963 504.010421
v -48.974116 264.363381 504.010421
v -49.280715 258.818378 504.010421
v -48.51587 258.318548 504.010421
v -47.647722 258.033705 504.010421
v -49.890133 259.499133 504.010421
v -45.637509 262.403903 504.010421
v -45.924806 262.72483 504.010421
v -46.735432 257.983262 504.010421
v -47.124725 263.118528 504.010421
v -46.694645 263.094747 504.010421
v -50.302593 260.31442 504.010421
v -46.285375 262.960464 504.010421
v -46.069345 260.110757 504.010421
v -50.489986 261.20868 504.010421
v -45.748418 260.398054 504.010421
v -50.439543 262.12097 504.010421
v -45.512784 260.758624 504.010421
v -50.154701 262.989119 504.010421
v -47.124725 263.118528 19.510421
v -46.694645 263.094747 19.510421
v -46.285375 262.960464 19.510421
v -45.924806 262.72483 19.510421
v -45.637509 262.403903 19.510421
v -45.443063 262.019553 19.510421
v -45.354721 261.597973 19.510421
v -45.378501 261.167894 19.510421
v -45.512784 260.758624 19.510421
v -45.748418 260.398054 19.510421
v -46.069345 260.110757 19.510421
v -46.069345 260.110757 492.510421
v -45.748418 260.398054 492.510421
v -45.512784 260.758624 492.510421
v -45.378501 261.167894 492.510421
v -45.354721 261.597973 492.510421
v -45.443063 262.019553 492.510421
v -45.637509 262.403903 492.510421
v -45.924806 262.72483 492.510421
v -46.285375 262.960464 492.510421
v -46.694645 263.094747 492.510421
v -47.124725 263.118528 492.510421
f 1 2 3
f 1 4 2
f 5 3 6
f 5 1 3
f 7 6 8
f 7 5 6
f 9 8 10
f 9 7 8
f 11 10 12
f 11 9 10
f 13 12 14
f 13 11 12
f 15 14 16
f 15 13 14
f 17 16 18
f 17 15 16
f 19 18 20
f 19 17 18
f 21 19 20
f 22 19 21
f 23 22 21
f 24 22 23
f 25 23 26
f 25 24 23
f 27 28 29
f 30 28 27
f 31 30 27
f 32 30 31
f 33 32 31
f 34 32 33
f 35 34 33
f 36 34 35
f 37 35 38
f 37 36 35
f 39 38 40
f 39 37 38
f 41 40 42
f 41 39 40
f 43 42 44
f 43 41 42
f 45 44 46
f 45 43 44
f 47 46 48
f 47 45 46
f 49 48 50
f 49 47 48
f 51 50 52
f 51 49 50
f 53 54 55
f 56 53 57
f 53 55 57
f 58 56 59
f 56 57 59
f 60 58 61
f 58 59 61
f 60 61 62
f 63 60 64
f 60 62 64
f 65 63 66
f 63 64 66
f 67 65 68
f 69 67 68
f 65 66 68
f 69 68 70
f 71 69 72
f 73 71 72
f 69 70 72
f 73 72 74
f 75 73 76
f 73 74 76
f 77 75 78
f 75 76 78
f 79 54 53
f 79 53 56
f 79 56 58
f 79 58 60
f 79 60 63
f 79 63 65
f 79 65 67
f 79 67 69
f 79 69 71
f 79 71 73
f 79 73 75
f 79 75 77
f 80 81 82
f 83 80 84
f 80 82 84
f 85 83 86
f 83 84 86
f 87 85 88
f 85 86 88
f 87 88 89
f 90 87 91
f 87 89 91
f 92 90 93
f 90 91 93
f 94 92 95
f 96 94 95
f 92 93 95
f 96 95 97
f 98 96 99
f 100 98 99
f 96 97 99
f 100 99 101
f 102 100 103
f 100 101 103
f 104 102 105
f 102 103 105
f 106 81 80
f 106 80 83
f 106 83 85
f 106 85 87
f 106 87 90
f 106 90 92
f 106 92 94
f 106 94 96
f 106 96 98
f 106 98 100
f 106 100 102
f 106 102 104
f 24 28 30
f 24 25 28
f 22 30 32
f 22 24 30
f 19 32 34
f 19 22 32
f 17 34 36
f 17 36 37
f 17 19 34
f 15 37 39
f 15 17 37
f 13 39 41
f 13 15 39
f 11 41 43
f 11 13 41
f 9 43 45
f 9 11 43
f 7 45 47
f 7 9 45
f 5 47 49
f 5 7 47
f 1 49 51
f 1 5 49
f 4 1 51
f 4 51 107
f 108 107 109
f 108 4 107
f 110 109 111
f 110 108 109
f 112 110 111
f 113 111 114
f 113 112 111
f 115 114 116
f 115 113 114
f 117 116 118
f 117 115 116
f 119 118 120
f 119 117 118
f 121 120 122
f 121 119 120
f 123 122 124
f 123 121 122
f 125 124 126
f 125 126 127
f 125 123 124
f 128 127 28
f 128 125 127
f 25 128 28
f 38 35 129
f 38 130 131
f 38 129 130
f 132 103 133
f 132 105 103
f 40 131 134
f 40 38 131
f 52 105 132
f 88 135 136
f 42 134 137
f 42 40 134
f 86 138 135
f 50 105 52
f 50 139 105
f 86 135 88
f 89 136 140
f 89 88 136
f 44 137 141
f 84 142 138
f 44 42 137
f 48 143 139
f 84 138 86
f 48 139 50
f 46 143 48
f 46 141 143
f 46 44 141
f 91 89 140
f 82 29 142
f 82 27 29
f 82 142 84
f 93 140 144
f 93 91 140
f 145 31 27
f 145 27 82
f 95 144 146
f 95 93 144
f 147 31 145
f 97 146 148
f 97 95 146
f 33 31 147
f 149 33 147
f 99 97 148
f 150 99 148
f 101 99 150
f 35 33 149
f 35 149 129
f 133 103 101
f 133 101 150
f 151 18 16
f 152 151 16
f 153 152 16
f 154 57 155
f 57 55 155
f 156 157 72
f 153 16 14
f 157 158 74
f 155 55 2
f 72 157 74
f 159 156 70
f 153 14 12
f 160 153 12
f 156 72 70
f 161 160 12
f 158 162 76
f 2 55 3
f 74 158 76
f 163 164 3
f 55 163 3
f 165 159 68
f 159 70 68
f 161 12 10
f 166 161 10
f 162 26 78
f 26 23 78
f 164 166 6
f 76 162 78
f 3 164 6
f 166 10 8
f 6 166 8
f 165 68 66
f 23 21 167
f 78 23 167
f 168 165 64
f 165 66 64
f 167 21 169
f 170 168 62
f 168 64 62
f 169 21 20
f 169 20 171
f 170 62 61
f 170 61 172
f 172 61 59
f 171 20 18
f 151 171 18
f 59 57 154
f 172 59 154
f 106 104 173
f 106 173 174
f 106 174 175
f 106 175 176
f 106 176 177
f 106 177 178
f 106 178 179
f 106 179 180
f 106 180 181
f 106 181 182
f 106 182 183
f 106 183 81
f 173 104 105
f 173 105 139
f 174 173 143
f 173 139 143
f 175 174 141
f 174 143 141
f 176 175 137
f 177 176 137
f 175 141 137
f 178 177 134
f 177 137 134
f 178 134 131
f 179 178 130
f 178 131 130
f 180 179 129
f 179 130 129
f 181 180 149
f 182 181 149
f 180 129 149
f 183 182 147
f 182 149 147
f 81 183 145
f 183 147 145
f 81 145 82
f 79 77 184
f 79 184 185
f 79 185 186
f 79 186 187
f 79 187 188
f 79 188 189
f 79 189 190
f 79 190 191
f 79 191 192
f 79 192 193
f 79 193 194
f 79 194 54
f 184 77 78
f 184 78 167
f 185 184 169
f 184 167 169
f 186 185 171
f 185 169 171
f 187 186 151
f 188 187 151
f 186 171 151
f 189 188 152
f 188 151 152
f 189 152 153
f 190 189 160
f 189 153 160
f 191 190 161
f 190 160 161
f 192 191 166
f 193 192 166
f 191 161 166
f 194 193 164
f 193 166 164
f 54 194 163
f 194 164 163
f 54 163 55
f 107 51 52
f 107 52 132
f 109 132 133
f 109 107 132
f 111 133 150
f 111 109 133
f 114 150 148
f 114 111 150
f 146 114 148
f 116 114 146
f 144 116 146
f 118 116 144
f 140 118 144
f 120 118 140
f 136 120 140
f 122 120 136
f 135 122 136
f 124 122 135
f 138 124 135
f 126 124 138
f 127 138 142
f 127 126 138
f 28 142 29
f 28 127 142
f 162 25 26
f 128 25 162
f 158 128 162
f 125 128 158
f 123 158 157
f 123 125 158
f 121 157 156
f 121 123 157
f 119 156 159
f 119 121 156
f 165 119 159
f 117 119 165
f 168 117 165
f 115 117 168
f 170 115 168
f 113 115 170
f 112 170 172
f 112 113 170
f 110 172 154
f 110 112 172
f 108 154 155
f 108 110 154
f 4 155 2
f 4 108 155
