# FreeCAD v0.16 build6712 (Git) Arch module
# http://www.freecadweb.org
o Part__Feature025
v -50.857243 182.53234 503.510421
v -50.499933 181.49484 504.010421
v -50.375088 182.399954 504.010421
v -50.999924 181.497925 503.510421
v -50.451697 183.494581 503.510421
v -50.020235 183.241914 504.010421
v -49.810924 184.319071 503.510421
v -49.459559 183.963343 504.010421
v -48.978591 184.949622 503.510421
v -48.731268 184.515076 504.010421
v -48.011421 185.343265 503.510421
v -47.884993 184.859513 504.010421
v -46.975324 185.473172 503.510421
v -46.978408 184.973182 504.010421
v -45.940908 185.330491 503.510421
v -46.073294 184.848336 504.010421
v -44.978668 184.924946 503.510421
v -45.231334 184.493484 504.010421
v -44.154178 184.284173 503.510421
v -44.509906 183.932807 504.010421
v -43.958173 183.204516 504.010421
v -43.523626 183.45184 503.510421
v -43.129983 182.484669 503.510421
v -43.613736 182.358242 504.010421
v -43.000076 181.448572 503.510421
v -43.500067 181.451656 504.010421
v -43.613736 182.358242 8.010421
v -43.000076 181.448572 8.510421
v -43.500067 181.451656 8.010421
v -43.129983 182.484669 8.510421
v -43.958173 183.204516 8.010421
v -43.523626 183.45184 8.510421
v -44.509906 183.932807 8.010421
v -44.154178 184.284173 8.510421
v -45.231334 184.493484 8.010421
v -44.978668 184.924946 8.510421
v -45.940908 185.330491 8.510421
v -46.073294 184.848336 8.010421
v -46.975324 185.473172 8.510421
v -46.978408 184.973182 8.010421
v -48.011421 185.343265 8.510421
v -47.884993 184.859513 8.010421
v -48.978591 184.949622 8.510421
v -48.731268 184.515076 8.010421
v -49.810924 184.319071 8.510421
v -49.459559 183.963343 8.010421
v -50.451697 183.494581 8.510421
v -50.020235 183.241914 8.010421
v -50.857243 182.53234 8.510421
v -50.375088 182.399954 8.010421
v -50.999924 181.497925 8.510421
v -50.499933 181.49484 8.010421
v -48.596382 181.056037 492.510421
v -48.649969 181.483427 492.510421
v -48.649969 181.483427 504.010421
v -48.434004 180.657079 492.510421
v -48.596382 181.056037 504.010421
v -48.173902 180.313742 492.510421
v -48.434004 180.657079 504.010421
v -47.8338 180.049423 492.510421
v -48.173902 180.313742 504.010421
v -47.8338 180.049423 504.010421
v -47.436875 179.882136 492.510421
v -47.436875 179.882136 504.010421
v -47.010179 179.82328 492.510421
v -47.010179 179.82328 504.010421
v -46.582789 179.876867 492.510421
v -46.582789 179.876867 504.010421
v -46.183831 180.039244 492.510421
v -46.183831 180.039244 504.010421
v -45.840494 180.299347 492.510421
v -45.840494 180.299347 504.010421
v -45.576175 180.639449 492.510421
v -45.576175 180.639449 504.010421
v -45.408887 181.036373 492.510421
v -45.408887 181.036373 504.010421
v -45.350031 181.463069 492.510421
v -45.350031 181.463069 504.010421
v -47.0 181.473248 491.519001
v -45.408887 181.036373 19.510421
v -45.350031 181.463069 19.510421
v -45.350031 181.463069 8.010421
v -45.576175 180.639449 19.510421
v -45.408887 181.036373 8.010421
v -45.840494 180.299347 19.510421
v -45.576175 180.639449 8.010421
v -46.183831 180.039244 19.510421
v -45.840494 180.299347 8.010421
v -46.183831 180.039244 8.010421
v -46.582789 179.876867 19.510421
v -46.582789 179.876867 8.010421
v -47.010179 179.82328 19.510421
v -47.010179 179.82328 8.010421
v -47.436875 179.882136 19.510421
v -47.436875 179.882136 8.010421
v -47.8338 180.049423 19.510421
v -47.8338 180.049423 8.010421
v -48.173902 180.313742 19.510421
v -48.173902 180.313742 8.010421
v -48.434004 180.657079 19.510421
v -48.434004 180.657079 8.010421
v -48.596382 181.056037 19.510421
v -48.596382 181.056037 8.010421
v -48.649969 181.483427 19.510421
v -48.649969 181.483427 8.010421
v -47.0 181.473248 20.501841
v -50.870017 180.461828 8.510421
v -50.870017 180.461828 503.510421
v -50.476374 179.494657 8.510421
v -50.476374 179.494657 503.510421
v -49.845822 178.662324 8.510421
v -49.845822 178.662324 503.510421
v -49.021332 178.021551 503.510421
v -49.021332 178.021551 8.510421
v -48.059092 177.616005 503.510421
v -48.059092 177.616005 8.510421
v -47.024676 177.473325 503.510421
v -47.024676 177.473325 8.510421
v -45.988579 177.603232 503.510421
v -45.988579 177.603232 8.510421
v -45.021409 177.996874 503.510421
v -45.021409 177.996874 8.510421
v -44.189076 178.627426 503.510421
v -44.189076 178.627426 8.510421
v -43.548303 179.451916 503.510421
v -43.548303 179.451916 8.510421
v -43.142757 180.414156 8.510421
v -43.142757 180.414156 503.510421
v -50.386264 180.588255 8.010421
v -50.041827 179.741981 8.010421
v -46.563125 183.064361 8.010421
v -43.979765 179.704583 8.010421
v -44.540441 178.983154 8.010421
v -45.268732 178.431421 8.010421
v -46.989821 183.123217 8.010421
v -48.591113 181.910124 8.010421
v -48.423825 182.307048 8.010421
v -43.624912 180.546543 8.010421
v -46.115007 178.086984 8.010421
v -47.417211 183.06963 8.010421
v -48.159506 182.64715 8.010421
v -47.021592 177.973315 8.010421
v -47.816169 182.907253 8.010421
v -47.926706 178.098161 8.010421
v -48.768666 178.453013 8.010421
v -45.403618 181.890459 8.010421
v -45.565996 182.289417 8.010421
v -49.490094 179.01369 8.010421
v -45.826098 182.632755 8.010421
v -46.1662 182.897074 8.010421
v -50.041827 179.741981 504.010421
v -50.386264 180.588255 504.010421
v -46.563125 183.064361 504.010421
v -46.989821 183.123217 504.010421
v -44.540441 178.983154 504.010421
v -43.979765 179.704583 504.010421
v -48.591113 181.910124 504.010421
v -45.268732 178.431421 504.010421
v -47.417211 183.06963 504.010421
v -46.115007 178.086984 504.010421
v -48.423825 182.307048 504.010421
v -43.624912 180.546543 504.010421
v -48.159506 182.64715 504.010421
v -47.926706 178.098161 504.010421
v -47.021592 177.973315 504.010421
v -47.816169 182.907253 504.010421
v -48.768666 178.453013 504.010421
v -45.403618 181.890459 504.010421
v -45.565996 182.289417 504.010421
v -49.490094 179.01369 504.010421
v -45.826098 182.632755 504.010421
v -46.1662 182.897074 504.010421
v -48.591113 181.910124 19.510421
v -48.423825 182.307048 19.510421
v -48.159506 182.64715 19.510421
v -47.816169 182.907253 19.510421
v -47.417211 183.06963 19.510421
v -46.989821 183.123217 19.510421
v -46.563125 183.064361 19.510421
v -46.1662 182.897074 19.510421
v -45.826098 182.632755 19.510421
v -45.565996 182.289417 19.510421
v -45.403618 181.890459 19.510421
v -45.403618 181.890459 492.510421
v -45.565996 182.289417 492.510421
v -45.826098 182.632755 492.510421
v -46.1662 182.897074 492.510421
v -46.563125 183.064361 492.510421
v -46.989821 183.123217 492.510421
v -47.417211 183.06963 492.510421
v -47.816169 182.907253 492.510421
v -48.159506 182.64715 492.510421
v -48.423825 182.307048 492.510421
v -48.591113 181.910124 492.510421
f 1 2 3
f 1 4 2
f 5 3 6
f 5 1 3
f 7 6 8
f 7 5 6
f 9 8 10
f 9 7 8
f 11 10 12
f 11 9 10
f 13 12 14
f 13 11 12
f 15 14 16
f 15 13 14
f 17 16 18
f 17 15 16
f 19 18 20
f 19 17 18
f 21 19 20
f 22 19 21
f 23 21 24
f 23 22 21
f 25 24 26
f 25 23 24
f 27 28 29
f 30 28 27
f 31 30 27
f 32 30 31
f 33 32 31
f 34 32 33
f 35 34 33
f 36 34 35
f 37 35 38
f 37 36 35
f 39 38 40
f 39 37 38
f 41 40 42
f 41 39 40
f 43 42 44
f 43 41 42
f 45 44 46
f 45 43 44
f 47 46 48
f 47 45 46
f 49 48 50
f 49 47 48
f 51 50 52
f 51 49 50
f 53 54 55
f 56 53 57
f 53 55 57
f 58 56 59
f 56 57 59
f 60 58 61
f 58 59 61
f 60 61 62
f 63 60 64
f 60 62 64
f 65 63 66
f 63 64 66
f 67 65 68
f 69 67 68
f 65 66 68
f 69 68 70
f 71 69 72
f 73 71 72
f 69 70 72
f 73 72 74
f 75 73 76
f 73 74 76
f 77 75 78
f 75 76 78
f 79 54 53
f 79 53 56
f 79 56 58
f 79 58 60
f 79 60 63
f 79 63 65
f 79 65 67
f 79 67 69
f 79 69 71
f 79 71 73
f 79 73 75
f 79 75 77
f 80 81 82
f 83 80 84
f 80 82 84
f 85 83 86
f 83 84 86
f 87 85 88
f 85 86 88
f 87 88 89
f 90 87 91
f 87 89 91
f 92 90 93
f 90 91 93
f 94 92 95
f 96 94 95
f 92 93 95
f 96 95 97
f 98 96 99
f 100 98 99
f 96 97 99
f 100 99 101
f 102 100 103
f 100 101 103
f 104 102 105
f 102 103 105
f 106 81 80
f 106 80 83
f 106 83 85
f 106 85 87
f 106 87 90
f 106 90 92
f 106 92 94
f 106 94 96
f 106 96 98
f 106 98 100
f 106 100 102
f 106 102 104
f 23 28 30
f 23 25 28
f 22 30 32
f 22 23 30
f 19 32 34
f 19 22 32
f 17 34 36
f 17 36 37
f 17 19 34
f 15 37 39
f 15 17 37
f 13 39 41
f 13 15 39
f 11 41 43
f 11 13 41
f 9 43 45
f 9 11 43
f 7 45 47
f 7 9 45
f 5 47 49
f 5 7 47
f 1 49 51
f 1 5 49
f 4 1 51
f 4 51 107
f 108 107 109
f 108 4 107
f 110 109 111
f 110 108 109
f 112 110 111
f 113 111 114
f 113 112 111
f 115 114 116
f 115 113 114
f 117 116 118
f 117 115 116
f 119 118 120
f 119 117 118
f 121 120 122
f 121 119 120
f 123 122 124
f 123 121 122
f 125 124 126
f 125 126 127
f 125 123 124
f 128 127 28
f 128 125 127
f 25 128 28
f 129 101 130
f 129 103 101
f 38 35 131
f 88 132 133
f 52 103 129
f 52 105 103
f 40 38 131
f 89 133 134
f 40 131 135
f 89 88 133
f 50 136 105
f 50 137 136
f 86 138 132
f 86 132 88
f 50 105 52
f 91 134 139
f 42 135 140
f 42 40 135
f 91 89 134
f 48 137 50
f 84 29 138
f 48 141 137
f 84 138 86
f 93 139 142
f 44 140 143
f 93 142 144
f 44 42 140
f 93 91 139
f 46 143 141
f 46 141 48
f 46 44 143
f 82 29 84
f 95 144 145
f 95 93 144
f 146 27 29
f 146 29 82
f 97 95 145
f 147 31 27
f 147 27 146
f 148 97 145
f 99 97 148
f 149 31 147
f 33 31 149
f 150 33 149
f 130 99 148
f 130 101 99
f 35 33 150
f 35 150 131
f 151 59 152
f 57 55 152
f 59 57 152
f 153 18 16
f 154 153 16
f 155 156 72
f 152 55 2
f 55 157 2
f 158 155 70
f 154 16 14
f 155 72 70
f 154 14 12
f 159 154 12
f 72 156 74
f 160 158 68
f 158 70 68
f 2 157 3
f 157 161 3
f 156 162 76
f 161 163 6
f 74 156 76
f 3 161 6
f 164 165 66
f 165 160 66
f 166 159 10
f 160 68 66
f 159 12 10
f 163 166 8
f 162 26 78
f 166 10 8
f 6 163 8
f 76 162 78
f 167 164 64
f 164 66 64
f 26 24 168
f 78 26 168
f 167 64 62
f 24 21 169
f 168 24 169
f 167 62 170
f 170 62 61
f 169 21 171
f 171 21 20
f 171 20 172
f 170 61 151
f 61 59 151
f 172 20 18
f 153 172 18
f 106 104 173
f 106 173 174
f 106 174 175
f 106 175 176
f 106 176 177
f 106 177 178
f 106 178 179
f 106 179 180
f 106 180 181
f 106 181 182
f 106 182 183
f 106 183 81
f 173 104 105
f 173 105 136
f 174 173 137
f 173 136 137
f 175 174 141
f 174 137 141
f 176 175 143
f 177 176 143
f 175 141 143
f 178 177 140
f 177 143 140
f 178 140 135
f 179 178 131
f 178 135 131
f 180 179 150
f 179 131 150
f 181 180 149
f 182 181 149
f 180 150 149
f 183 182 147
f 182 149 147
f 81 183 146
f 183 147 146
f 81 146 82
f 79 77 184
f 79 184 185
f 79 185 186
f 79 186 187
f 79 187 188
f 79 188 189
f 79 189 190
f 79 190 191
f 79 191 192
f 79 192 193
f 79 193 194
f 79 194 54
f 184 77 78
f 184 78 168
f 185 184 169
f 184 168 169
f 186 185 171
f 185 169 171
f 187 186 172
f 188 187 172
f 186 171 172
f 189 188 153
f 188 172 153
f 189 153 154
f 190 189 159
f 189 154 159
f 191 190 166
f 190 159 166
f 192 191 163
f 193 192 163
f 191 166 163
f 194 193 161
f 193 163 161
f 54 194 157
f 194 161 157
f 54 157 55
f 107 51 52
f 107 52 129
f 109 129 130
f 109 107 129
f 111 130 148
f 111 109 130
f 114 148 145
f 114 111 148
f 144 114 145
f 116 114 144
f 142 116 144
f 118 116 142
f 139 118 142
f 120 118 139
f 134 120 139
f 122 120 134
f 133 122 134
f 124 122 133
f 132 124 133
f 126 124 132
f 127 132 138
f 127 126 132
f 28 138 29
f 28 127 138
f 162 25 26
f 128 25 162
f 156 128 162
f 125 128 156
f 123 156 155
f 123 125 156
f 121 155 158
f 121 123 155
f 119 158 160
f 119 121 158
f 165 119 160
f 117 119 165
f 164 117 165
f 115 117 164
f 167 115 164
f 113 115 167
f 112 167 170
f 112 113 167
f 110 170 151
f 110 112 170
f 108 151 152
f 108 110 151
f 4 152 2
f 4 108 152
