# Created by FreeCAD <http://www.freecadweb.org>
v -53.405800 534.496948 179.128403
v -53.405800 541.496948 179.128403
v -53.405800 535.996948 176.628403
v -53.405800 539.996948 176.628403
v -53.405800 539.996948 168.628403
v -53.405800 541.496948 166.128403
v -53.405800 535.996948 168.628403
v -53.405800 534.496948 166.128403
v -53.205799 534.696960 179.128403
v -48.905800 534.496948 179.128403
v -48.905800 534.696960 179.128403
v -53.205799 541.296936 179.128403
v -48.905800 541.296936 179.128403
v -48.905800 541.496948 179.128403
v -50.905800 541.496948 172.878403
v -50.888763 541.496948 173.007813
v -48.422836 541.496948 178.757813
v -48.655800 541.496948 179.061417
v -48.552246 541.496948 178.981949
v -48.472786 541.496948 178.878403
v -48.776390 541.496948 179.111359
v -48.405800 541.496948 178.628403
v -49.155800 541.496948 170.128403
v -48.905800 541.496948 171.878403
v -48.405800 541.496948 171.378403
v -49.155800 541.496948 177.628403
v -50.405800 541.496948 171.878403
v -50.655800 541.496948 177.628403
v -50.655800 541.496948 170.128403
v -50.888763 541.496948 172.248993
v -50.838814 541.496948 172.128403
v -50.759354 541.496948 172.024841
v -50.655800 541.496948 171.945389
v -49.155800 541.496948 175.128403
v -50.535210 541.496948 171.895432
v -48.405800 541.496948 173.878403
v -48.405800 541.496948 166.628403
v -49.155800 541.496948 167.628403
v -48.776390 541.496948 173.395432
v -48.422836 541.496948 173.748993
v -48.472786 541.496948 173.628403
v -48.552246 541.496948 173.524841
v -48.655800 541.496948 173.445389
v -48.776390 541.496948 166.145432
v -48.422836 541.496948 166.498993
v -48.472786 541.496948 166.378403
v -48.552246 541.496948 166.274841
v -48.655800 541.496948 166.195389
v -50.655800 541.496948 175.128403
v -48.905800 541.496948 166.128403
v -48.905800 541.496948 173.378403
v -50.655800 541.496948 167.628403
v -50.905800 541.496948 172.378403
v -48.776390 541.496948 171.861359
v -48.655800 541.496948 171.811417
v -48.552246 541.496948 171.731949
v -48.422836 541.496948 171.507813
v -48.472786 541.496948 171.628403
v -50.405800 541.496948 173.378403
v -50.535210 541.496948 173.361359
v -50.655800 541.496948 173.311417
v -50.759354 541.496948 173.231949
v -50.838814 541.496948 173.128403
v -53.205799 541.296936 166.128403
v -48.905800 541.296936 166.128403
v -53.205799 534.696960 166.128403
v -48.905800 534.696960 166.128403
v -48.905800 534.496948 166.128403
v -48.422836 534.496948 166.498993
v -48.655800 534.496948 166.195389
v -48.552246 534.496948 166.274841
v -48.472786 534.496948 166.378403
v -48.776390 534.496948 166.145432
v -48.405800 534.496948 166.628403
v -49.155800 534.496948 175.128403
v -50.405800 534.496948 173.378403
v -48.905800 534.496948 173.378403
v -48.405800 534.496948 173.878403
v -49.155800 534.496948 167.628403
v -50.655800 534.496948 167.628403
v -50.655800 534.496948 175.128403
v -50.888763 534.496948 173.007813
v -50.838814 534.496948 173.128403
v -49.155800 534.496948 170.128403
v -50.759354 534.496948 173.231949
v -50.655800 534.496948 173.311417
v -50.535210 534.496948 173.361359
v -48.405800 534.496948 171.378403
v -48.405800 534.496948 178.628403
v -49.155800 534.496948 177.628403
v -48.552246 534.496948 171.731949
v -48.422836 534.496948 171.507813
v -48.472786 534.496948 171.628403
v -48.776390 534.496948 171.861359
v -48.655800 534.496948 171.811417
v -48.776390 534.496948 179.111359
v -48.422836 534.496948 178.757813
v -48.472786 534.496948 178.878403
v -48.552246 534.496948 178.981949
v -48.655800 534.496948 179.061417
v -50.655800 534.496948 170.128403
v -48.905800 534.496948 171.878403
v -50.655800 534.496948 177.628403
v -50.905800 534.496948 172.878403
v -50.905800 534.496948 172.378403
v -48.422836 534.496948 173.748993
v -48.655800 534.496948 173.445389
v -48.552246 534.496948 173.524841
v -48.472786 534.496948 173.628403
v -50.405800 534.496948 171.878403
v -48.776390 534.496948 173.395432
v -50.535210 534.496948 171.895432
v -50.655800 534.496948 171.945389
v -50.759354 534.496948 172.024841
v -50.838814 534.496948 172.128403
v -50.888763 534.496948 172.248993
v -53.205799 535.996948 168.628403
v -53.205799 535.996948 176.628403
v -53.205799 539.996948 168.628403
v -53.205799 539.996948 176.628403
v -48.422836 541.296936 178.757813
v -48.405800 541.296936 178.628403
v -48.472786 541.296936 178.878403
v -48.552246 541.296936 178.981949
v -48.655800 541.296936 179.061417
v -48.776390 541.296936 179.111359
v -49.155800 541.296936 177.628403
v -48.905800 541.296936 171.878403
v -50.405800 541.296936 171.878403
v -49.155800 541.296936 170.128403
v -50.655800 541.296936 177.628403
v -48.405800 541.296936 171.378403
v -50.838814 541.296936 172.128403
v -50.888763 541.296936 172.248993
v -50.655800 541.296936 170.128403
v -50.759354 541.296936 172.024841
v -50.655800 541.296936 171.945389
v -49.155800 541.296936 175.128403
v -50.535210 541.296936 171.895432
v -48.405800 541.296936 173.878403
v -48.405800 541.296936 166.628403
v -49.155800 541.296936 167.628403
v -48.472786 541.296936 173.628403
v -48.422836 541.296936 173.748993
v -48.552246 541.296936 173.524841
v -48.472786 541.296936 166.378403
v -48.422836 541.296936 166.498993
v -48.552246 541.296936 166.274841
v -48.655800 541.296936 173.445389
v -48.776390 541.296936 173.395432
v -48.655800 541.296936 166.195389
v -48.776390 541.296936 166.145432
v -50.655800 541.296936 175.128403
v -48.905800 541.296936 173.378403
v -50.655800 541.296936 167.628403
v -50.905800 541.296936 172.378403
v -50.905800 541.296936 172.878403
v -48.552246 541.296936 171.731949
v -48.655800 541.296936 171.811417
v -48.776390 541.296936 171.861359
v -48.472786 541.296936 171.628403
v -48.422836 541.296936 171.507813
v -50.405800 541.296936 173.378403
v -50.535210 541.296936 173.361359
v -50.655800 541.296936 173.311417
v -50.759354 541.296936 173.231949
v -50.838814 541.296936 173.128403
v -50.888763 541.296936 173.007813
v -50.888763 534.696960 173.007813
v -50.905800 534.696960 172.878403
v -48.655800 534.696960 179.061417
v -48.552246 534.696960 178.981949
v -48.472786 534.696960 178.878403
v -48.776390 534.696960 179.111359
v -48.422836 534.696960 178.757813
v -48.405800 534.696960 178.628403
v -48.905800 534.696960 171.878403
v -48.405800 534.696960 171.378403
v -49.155800 534.696960 170.128403
v -49.155800 534.696960 177.628403
v -50.405800 534.696960 171.878403
v -50.655800 534.696960 177.628403
v -50.535210 534.696960 171.895432
v -50.655800 534.696960 170.128403
v -50.655800 534.696960 171.945389
v -50.759354 534.696960 172.024841
v -50.838814 534.696960 172.128403
v -50.888763 534.696960 172.248993
v -49.155800 534.696960 175.128403
v -48.405800 534.696960 173.878403
v -48.405800 534.696960 166.628403
v -49.155800 534.696960 167.628403
v -48.422836 534.696960 173.748993
v -48.472786 534.696960 173.628403
v -48.422836 534.696960 166.498993
v -48.472786 534.696960 166.378403
v -48.552246 534.696960 166.274841
v -48.655800 534.696960 166.195389
v -48.552246 534.696960 173.524841
v -48.655800 534.696960 173.445389
v -48.776390 534.696960 173.395432
v -48.776390 534.696960 166.145432
v -50.655800 534.696960 175.128403
v -48.905800 534.696960 173.378403
v -50.655800 534.696960 167.628403
v -50.905800 534.696960 172.378403
v -48.552246 534.696960 171.731949
v -48.472786 534.696960 171.628403
v -48.655800 534.696960 171.811417
v -48.776390 534.696960 171.861359
v -48.422836 534.696960 171.507813
v -50.405800 534.696960 173.378403
v -50.535210 534.696960 173.361359
v -50.655800 534.696960 173.311417
v -50.759354 534.696960 173.231949
v -50.838814 534.696960 173.128403
f 1 2 3
f 2 4 3
f 4 2 5
f 5 2 6
f 1 3 7
f 7 5 8
f 1 7 8
f 5 6 8
f 9 10 11
f 1 10 9
f 12 13 14
f 2 12 14
f 2 1 9
f 2 9 12
f 15 2 16
f 17 18 19
f 17 19 20
f 14 21 18
f 22 18 17
f 22 14 18
f 23 24 25
f 26 14 22
f 23 27 24
f 28 14 26
f 29 30 31
f 29 31 32
f 29 32 33
f 34 26 22
f 29 33 35
f 29 35 27
f 29 27 23
f 2 14 28
f 36 34 22
f 37 23 25
f 37 38 23
f 39 40 41
f 39 41 42
f 39 42 43
f 44 37 45
f 44 45 46
f 44 46 47
f 44 47 48
f 49 2 28
f 50 38 37
f 51 36 40
f 50 37 44
f 51 34 36
f 51 40 39
f 52 38 50
f 6 53 30
f 6 30 29
f 6 52 50
f 6 29 52
f 6 2 15
f 6 15 53
f 54 55 56
f 57 56 58
f 59 49 34
f 59 34 51
f 25 56 57
f 25 24 54
f 25 54 56
f 60 49 59
f 61 49 60
f 62 49 61
f 63 49 62
f 16 49 63
f 16 2 49
f 64 6 50
f 64 50 65
f 66 67 68
f 8 66 68
f 8 6 64
f 8 64 66
f 69 70 71
f 69 71 72
f 68 73 70
f 74 70 69
f 74 68 70
f 75 76 77
f 75 77 78
f 79 68 74
f 80 68 79
f 81 76 75
f 81 82 83
f 84 79 74
f 81 83 85
f 81 85 86
f 81 86 87
f 81 87 76
f 8 68 80
f 88 84 74
f 89 75 78
f 89 90 75
f 91 92 93
f 94 91 95
f 96 97 98
f 96 98 99
f 96 99 100
f 94 92 91
f 101 8 80
f 10 89 97
f 102 88 92
f 10 90 89
f 10 97 96
f 102 84 88
f 102 92 94
f 103 90 10
f 1 82 81
f 1 104 82
f 1 81 103
f 1 103 10
f 1 8 105
f 1 105 104
f 106 107 108
f 106 108 109
f 110 101 84
f 110 84 102
f 77 107 106
f 77 111 107
f 78 77 106
f 112 101 110
f 113 101 112
f 114 101 113
f 115 101 114
f 116 101 115
f 116 8 101
f 105 8 116
f 117 7 3
f 118 117 3
f 119 5 7
f 117 119 7
f 120 4 5
f 119 120 5
f 118 3 4
f 120 118 4
f 121 122 22
f 121 17 20
f 121 22 17
f 123 121 20
f 124 20 19
f 124 123 20
f 125 18 21
f 125 19 18
f 125 124 19
f 126 21 14
f 126 125 21
f 13 126 14
f 124 125 121
f 123 124 121
f 121 125 126
f 126 13 122
f 121 126 122
f 122 13 127
f 128 129 130
f 127 13 131
f 132 128 130
f 133 134 135
f 136 133 135
f 137 136 135
f 122 127 138
f 139 137 135
f 129 139 135
f 130 129 135
f 131 13 12
f 122 138 140
f 132 130 141
f 130 142 141
f 143 144 145
f 146 147 148
f 149 145 150
f 151 148 152
f 145 144 150
f 147 141 65
f 131 12 153
f 141 142 65
f 152 148 65
f 144 140 154
f 148 147 65
f 65 142 155
f 140 138 154
f 150 144 154
f 134 156 64
f 135 134 64
f 155 135 64
f 65 155 64
f 157 12 64
f 156 157 64
f 158 159 160
f 161 158 162
f 158 160 162
f 162 160 132
f 160 128 132
f 138 153 163
f 154 138 163
f 163 153 164
f 164 153 165
f 165 153 166
f 166 153 167
f 167 153 168
f 153 12 168
f 168 12 157
f 9 118 12
f 12 118 120
f 117 118 66
f 118 9 66
f 119 117 64
f 120 119 64
f 12 120 64
f 117 66 64
f 9 169 170
f 171 172 173
f 171 173 174
f 173 175 176
f 11 174 176
f 174 173 176
f 177 178 179
f 11 176 180
f 181 177 179
f 11 180 182
f 183 181 184
f 185 183 184
f 186 185 184
f 187 186 184
f 188 187 184
f 180 176 189
f 181 179 184
f 11 182 9
f 189 176 190
f 179 178 191
f 192 179 191
f 190 193 194
f 195 196 197
f 191 195 198
f 195 197 198
f 199 200 201
f 194 199 201
f 198 202 67
f 192 191 67
f 9 182 203
f 191 198 67
f 189 190 204
f 190 194 204
f 192 67 205
f 9 170 66
f 194 201 204
f 170 206 66
f 206 188 66
f 188 184 66
f 184 205 66
f 205 67 66
f 207 208 209
f 210 209 211
f 209 208 211
f 210 211 177
f 203 189 212
f 189 204 212
f 177 211 178
f 203 212 213
f 203 213 214
f 203 214 215
f 203 215 216
f 203 216 169
f 9 203 169
f 97 89 176
f 97 176 175
f 98 175 173
f 98 173 172
f 98 97 175
f 99 98 172
f 100 172 171
f 100 171 174
f 100 99 172
f 96 174 11
f 96 100 174
f 10 96 11
f 45 37 141
f 45 141 147
f 46 147 146
f 46 146 148
f 46 45 147
f 47 46 148
f 48 148 151
f 48 151 152
f 48 47 148
f 44 48 152
f 50 152 65
f 50 44 152
f 141 37 25
f 141 25 132
f 162 57 58
f 162 25 57
f 162 132 25
f 161 162 58
f 158 58 56
f 158 161 58
f 159 56 55
f 159 158 56
f 160 54 24
f 160 55 54
f 160 159 55
f 128 160 24
f 128 24 129
f 24 27 129
f 30 53 156
f 30 156 134
f 31 30 133
f 30 134 133
f 32 31 136
f 33 32 136
f 31 133 136
f 33 136 137
f 35 33 139
f 33 137 139
f 27 35 129
f 35 139 129
f 15 157 156
f 15 156 53
f 59 163 164
f 60 59 164
f 61 60 165
f 62 61 165
f 60 164 165
f 62 165 166
f 63 62 167
f 62 166 167
f 16 63 168
f 15 16 168
f 63 167 168
f 15 168 157
f 154 163 51
f 163 59 51
f 154 51 39
f 150 39 43
f 150 154 39
f 149 150 43
f 145 43 42
f 145 149 43
f 143 42 41
f 143 145 42
f 144 40 36
f 144 41 40
f 144 143 41
f 140 144 36
f 140 36 22
f 140 22 122
f 138 34 49
f 138 49 153
f 131 153 28
f 153 49 28
f 26 127 28
f 127 131 28
f 26 34 138
f 127 26 138
f 38 52 155
f 142 38 155
f 29 135 155
f 29 155 52
f 23 130 29
f 130 135 29
f 23 38 142
f 130 23 142
f 195 191 74
f 195 69 72
f 195 74 69
f 196 195 72
f 197 72 71
f 197 196 72
f 198 70 73
f 198 71 70
f 198 197 71
f 202 73 68
f 202 198 73
f 67 202 68
f 111 204 201
f 111 77 204
f 107 201 200
f 107 111 201
f 108 200 199
f 108 199 194
f 108 107 200
f 109 194 193
f 109 108 194
f 106 109 193
f 78 193 190
f 78 106 193
f 76 212 204
f 77 76 204
f 212 76 87
f 214 213 87
f 213 212 87
f 214 87 86
f 216 215 85
f 215 214 85
f 214 86 85
f 216 85 83
f 169 216 82
f 216 83 82
f 170 169 104
f 169 82 104
f 170 104 206
f 104 105 206
f 206 105 116
f 187 188 116
f 188 206 116
f 186 187 115
f 187 116 115
f 186 115 114
f 183 185 113
f 185 186 113
f 186 114 113
f 183 113 112
f 181 183 110
f 183 112 110
f 102 177 110
f 177 181 110
f 88 178 211
f 92 211 208
f 92 88 211
f 93 92 208
f 91 208 207
f 91 207 209
f 91 93 208
f 95 91 209
f 94 209 210
f 94 210 177
f 94 95 209
f 102 94 177
f 74 191 178
f 74 178 88
f 78 190 176
f 78 176 89
f 90 103 182
f 180 90 182
f 103 81 182
f 81 203 182
f 75 189 81
f 189 203 81
f 90 180 75
f 180 189 75
f 84 101 184
f 179 84 184
f 101 80 205
f 184 101 205
f 79 192 80
f 192 205 80
f 84 179 79
f 179 192 79
