# FreeCAD v0.16 build6712 (Git) Arch module
# http://www.freecadweb.org
o Part__Feature030
v -57.5 249.48367 234.504248
v -58.0 249.48367 235.004248
v -58.0 250.040131 234.930988
v -57.5 249.910721 234.448025
v -57.5 250.30867 234.28319
v -57.5 250.650396 234.020974
v -58.0 250.55867 234.716202
v -57.5 250.912611 233.679248
v -58.0 251.003949 234.374527
v -58.0 251.345624 233.929248
v -57.5 251.077447 233.281299
v -58.0 251.56041 233.410709
v -57.5 251.13367 232.854248
v -58.0 251.63367 232.854248
v -57.5 251.077447 232.427196
v -58.0 251.56041 232.297787
v -57.5 250.912611 232.029248
v -57.5 250.650396 231.687522
v -58.0 251.345624 231.779248
v -57.5 250.30867 231.425306
v -58.0 251.003949 231.333968
v -57.5 249.910721 231.26047
v -58.0 250.55867 230.992293
v -57.5 249.48367 231.204248
v -58.0 250.040131 230.777507
v -58.0 249.48367 230.704248
v -57.5 249.48367 250.504248
v -58.0 249.48367 251.004248
v -58.0 250.040131 250.930988
v -57.5 249.910721 250.448025
v -57.5 250.30867 250.28319
v -57.5 250.650396 250.020974
v -58.0 250.55867 250.716202
v -57.5 250.912611 249.679248
v -58.0 251.003949 250.374527
v -57.5 251.077447 249.281299
v -58.0 251.345624 249.929248
v -57.5 251.13367 248.854248
v -58.0 251.56041 249.410709
v -58.0 251.63367 248.854248
v -57.5 251.077447 248.427196
v -58.0 251.56041 248.297787
v -57.5 250.912611 248.029248
v -57.5 250.650396 247.687522
v -58.0 251.345624 247.779248
v -57.5 250.30867 247.425306
v -58.0 251.003949 247.333968
v -57.5 249.910721 247.26047
v -58.0 250.55867 246.992293
v -57.5 249.48367 247.204248
v -58.0 250.040131 246.777507
v -58.0 249.48367 246.704248
v -57.5 273.48367 250.504248
v -58.0 273.48367 251.004248
v -58.0 274.040131 250.930988
v -57.5 273.910721 250.448025
v -57.5 274.30867 250.28319
v -57.5 274.650396 250.020974
v -58.0 274.55867 250.716202
v -57.5 274.912611 249.679248
v -58.0 275.003949 250.374527
v -57.5 275.077447 249.281299
v -58.0 275.345624 249.929248
v -57.5 275.13367 248.854248
v -58.0 275.56041 249.410709
v -58.0 275.63367 248.854248
v -57.5 275.077447 248.427196
v -58.0 275.56041 248.297787
v -57.5 274.912611 248.029248
v -57.5 274.650396 247.687522
v -58.0 275.345624 247.779248
v -57.5 274.30867 247.425306
v -58.0 275.003949 247.333968
v -57.5 273.910721 247.26047
v -58.0 274.55867 246.992293
v -57.5 273.48367 247.204248
v -58.0 274.040131 246.777507
v -58.0 273.48367 246.704248
v -57.5 273.48367 234.504248
v -58.0 273.48367 235.004248
v -58.0 274.040131 234.930988
v -57.5 273.910721 234.448025
v -57.5 274.30867 234.28319
v -57.5 274.650396 234.020974
v -58.0 274.55867 234.716202
v -57.5 274.912611 233.679248
v -58.0 275.003949 234.374527
v -58.0 275.345624 233.929248
v -57.5 275.077447 233.281299
v -58.0 275.56041 233.410709
v -57.5 275.13367 232.854248
v -58.0 275.63367 232.854248
v -57.5 275.077447 232.427196
v -58.0 275.56041 232.297787
v -57.5 274.912611 232.029248
v -57.5 274.650396 231.687522
v -58.0 275.345624 231.779248
v -57.5 274.30867 231.425306
v -58.0 275.003949 231.333968
v -57.5 273.910721 231.26047
v -58.0 274.55867 230.992293
v -57.5 273.48367 231.204248
v -58.0 274.040131 230.777507
v -58.0 273.48367 230.704248
v -41.5 249.910721 231.26047
v -41.5 249.48367 231.204248
v -41.0 249.48367 230.704248
v -41.5 250.30867 231.425306
v -41.0 250.040131 230.777507
v -41.5 250.650396 231.687522
v -41.0 250.55867 230.992293
v -41.5 250.912611 232.029248
v -41.0 251.003949 231.333968
v -41.5 251.077447 232.427196
v -41.0 251.345624 231.779248
v -41.5 251.13367 232.854248
v -41.0 251.56041 232.297787
v -41.5 251.077447 233.281299
v -41.0 251.63367 232.854248
v -41.5 250.912611 233.679248
v -41.0 251.56041 233.410709
v -41.5 250.650396 234.020974
v -41.0 251.345624 233.929248
v -41.5 250.30867 234.28319
v -41.0 251.003949 234.374527
v -41.5 249.910721 234.448025
v -41.0 250.55867 234.716202
v -41.5 249.48367 234.504248
v -41.0 250.040131 234.930988
v -41.0 249.48367 235.004248
v -41.5 249.910721 247.26047
v -41.5 249.48367 247.204248
v -41.0 249.48367 246.704248
v -41.5 250.30867 247.425306
v -41.0 250.040131 246.777507
v -41.5 250.650396 247.687522
v -41.0 250.55867 246.992293
v -41.5 250.912611 248.029248
v -41.0 251.003949 247.333968
v -41.5 251.077447 248.427196
v -41.0 251.345624 247.779248
v -41.5 251.13367 248.854248
v -41.0 251.56041 248.297787
v -41.5 251.077447 249.281299
v -41.0 251.63367 248.854248
v -41.5 250.912611 249.679248
v -41.0 251.56041 249.410709
v -41.5 250.650396 250.020974
v -41.0 251.345624 249.929248
v -41.5 250.30867 250.28319
v -41.0 251.003949 250.374527
v -41.0 250.55867 250.716202
v -41.5 249.910721 250.448025
v -41.0 250.040131 250.930988
v -41.5 249.48367 250.504248
v -41.0 249.48367 251.004248
v -41.5 273.48367 247.204248
v -41.0 273.48367 246.704248
v -41.0 274.040131 246.777507
v -41.5 273.910721 247.26047
v -41.5 274.30867 247.425306
v -41.0 274.55867 246.992293
v -41.5 274.650396 247.687522
v -41.0 275.003949 247.333968
v -41.5 274.912611 248.029248
v -41.0 275.345624 247.779248
v -41.5 275.077447 248.427196
v -41.0 275.56041 248.297787
v -41.5 275.13367 248.854248
v -41.0 275.63367 248.854248
v -41.5 275.077447 249.281299
v -41.0 275.56041 249.410709
v -41.5 274.912611 249.679248
v -41.5 274.650396 250.020974
v -41.0 275.345624 249.929248
v -41.5 274.30867 250.28319
v -41.0 275.003949 250.374527
v -41.5 273.910721 250.448025
v -41.0 274.55867 250.716202
v -41.5 273.48367 250.504248
v -41.0 274.040131 250.930988
v -41.0 273.48367 251.004248
v -41.5 273.48367 231.204248
v -41.0 273.48367 230.704248
v -41.0 274.040131 230.777507
v -41.5 273.910721 231.26047
v -41.5 274.30867 231.425306
v -41.0 274.55867 230.992293
v -41.5 274.650396 231.687522
v -41.0 275.003949 231.333968
v -41.5 274.912611 232.029248
v -41.0 275.345624 231.779248
v -41.5 275.077447 232.427196
v -41.0 275.56041 232.297787
v -41.5 275.13367 232.854248
v -41.0 275.63367 232.854248
v -41.5 275.077447 233.281299
v -41.0 275.56041 233.410709
v -41.5 274.912611 233.679248
v -41.5 274.650396 234.020974
v -41.0 275.345624 233.929248
v -41.5 274.30867 234.28319
v -41.0 275.003949 234.374527
v -41.5 273.910721 234.448025
v -41.0 274.55867 234.716202
v -41.5 273.48367 234.504248
v -41.0 274.040131 234.930988
v -41.0 273.48367 235.004248
v -41.857699 255.344893 228.854248
v -41.343146 255.816394 228.854248
v -41.857699 255.344893 227.854248
v -41.343146 255.816394 227.854248
v -39.749538 264.854194 228.854248
v -40.071797 265.473248 227.854248
v -39.749538 264.854194 227.854248
v -39.482459 264.20941 227.854248
v -42.411389 254.920032 228.854248
v -42.411389 254.920032 227.854248
v -39.482459 264.20941 228.854248
v -43.0 254.545045 227.854248
v -39.272593 263.543801 227.854248
v -43.0 254.545045 228.854248
v -39.272593 263.543801 228.854248
v -47.0 269.473248 228.854248
v -47.0 269.473248 227.854248
v -46.302754 269.442806 227.854248
v -43.619054 254.222786 227.854248
v -39.121538 262.862434 227.854248
v -46.302754 269.442806 228.854248
v -44.263839 253.955707 228.854248
v -43.619054 254.222786 228.854248
v -44.263839 253.955707 227.854248
v -39.121538 262.862434 228.854248
v -44.929448 253.745842 228.854248
v -45.610815 269.35171 228.854248
v -45.610815 269.35171 227.854248
v -44.929448 253.745842 227.854248
v -39.030442 262.170494 227.854248
v -39.0 261.473248 228.854248
v -39.030442 262.170494 228.854248
v -45.610815 253.594786 228.854248
v -45.610815 253.594786 227.854248
v -44.929448 269.200655 228.854248
v -44.929448 269.200655 227.854248
v -46.302754 253.503691 227.854248
v -46.302754 253.503691 228.854248
v -39.0 261.473248 227.854248
v -47.0 253.473248 227.854248
v -47.0 253.473248 228.854248
v -44.263839 268.990789 227.854248
v -39.030442 260.776002 228.854248
v -39.030442 260.776002 227.854248
v -44.263839 268.990789 228.854248
v -43.619054 268.723711 227.854248
v -39.272593 259.402696 228.854248
v -39.121538 260.084063 228.854248
v -39.121538 260.084063 227.854248
v -43.619054 268.723711 228.854248
v -43.0 268.401452 227.854248
v -39.272593 259.402696 227.854248
v -43.0 268.401452 228.854248
v -42.411389 268.026465 227.854248
v -39.482459 258.737087 228.854248
v -39.482459 258.737087 227.854248
v -42.411389 268.026465 228.854248
v -39.749538 258.092302 227.854248
v -41.857699 267.601604 227.854248
v -39.749538 258.092302 228.854248
v -41.857699 267.601604 228.854248
v -40.446784 256.884637 228.854248
v -40.071797 257.473248 228.854248
v -40.071797 257.473248 227.854248
v -41.343146 267.130103 227.854248
v -41.343146 267.130103 228.854248
v -40.446784 256.884637 227.854248
v -40.871644 266.615549 227.854248
v -40.871644 266.615549 228.854248
v -40.871644 256.330948 228.854248
v -40.871644 256.330948 227.854248
v -40.446784 266.06186 227.854248
v -40.071797 265.473248 228.854248
v -40.446784 266.06186 228.854248
v -40.071797 257.473248 252.854248
v -40.071797 257.473248 253.854248
v -39.749538 258.092302 253.854248
v -41.343146 267.130103 252.854248
v -41.343146 267.130103 253.854248
v -41.857699 267.601604 253.854248
v -39.749538 258.092302 252.854248
v -42.411389 268.026465 252.854248
v -41.857699 267.601604 252.854248
v -42.411389 268.026465 253.854248
v -39.482459 258.737087 253.854248
v -39.482459 258.737087 252.854248
v -43.0 268.401452 252.854248
v -43.0 268.401452 253.854248
v -39.272593 259.402696 253.854248
v -39.272593 259.402696 252.854248
v -43.619054 268.723711 253.854248
v -47.0 253.473248 252.854248
v -47.0 253.473248 253.854248
v -46.302754 253.503691 253.854248
v -46.302754 253.503691 252.854248
v -43.619054 268.723711 252.854248
v -45.610815 253.594786 252.854248
v -39.121538 260.084063 253.854248
v -39.121538 260.084063 252.854248
v -44.263839 268.990789 253.854248
v -44.263839 268.990789 252.854248
v -44.929448 253.745842 252.854248
v -45.610815 253.594786 253.854248
v -39.030442 260.776002 253.854248
v -44.929448 269.200655 252.854248
v -44.929448 269.200655 253.854248
v -39.030442 260.776002 252.854248
v -45.610815 269.35171 253.854248
v -45.610815 269.35171 252.854248
v -39.0 261.473248 253.854248
v -39.0 261.473248 252.854248
v -44.929448 253.745842 253.854248
v -46.302754 269.442806 253.854248
v -46.302754 269.442806 252.854248
v -44.263839 253.955707 252.854248
v -44.263839 253.955707 253.854248
v -47.0 269.473248 253.854248
v -47.0 269.473248 252.854248
v -39.030442 262.170494 252.854248
v -39.030442 262.170494 253.854248
v -39.121538 262.862434 252.854248
v -43.619054 254.222786 253.854248
v -39.121538 262.862434 253.854248
v -43.619054 254.222786 252.854248
v -39.272593 263.543801 252.854248
v -39.272593 263.543801 253.854248
v -43.0 254.545045 253.854248
v -43.0 254.545045 252.854248
v -42.411389 254.920032 252.854248
v -39.482459 264.20941 252.854248
v -39.482459 264.20941 253.854248
v -39.749538 264.854194 252.854248
v -42.411389 254.920032 253.854248
v -41.857699 255.344893 253.854248
v -41.857699 255.344893 252.854248
v -39.749538 264.854194 253.854248
v -40.071797 265.473248 252.854248
v -40.071797 265.473248 253.854248
v -41.343146 255.816394 253.854248
v -41.343146 255.816394 252.854248
v -40.446784 266.06186 253.854248
v -40.446784 266.06186 252.854248
v -40.871644 266.615549 252.854248
v -40.871644 256.330948 253.854248
v -40.871644 256.330948 252.854248
v -40.446784 256.884637 253.854248
v -40.871644 266.615549 253.854248
v -40.446784 256.884637 252.854248
v -43.051759 255.09662 255.854248
v -42.48024 255.488119 255.854248
v -43.051759 255.09662 253.854248
v -40.286275 264.816286 255.854248
v -40.286275 264.816286 253.854248
v -40.006458 264.182561 253.854248
v -40.006458 264.182561 255.854248
v -42.48024 255.488119 253.854248
v -43.656962 254.759524 255.854248
v -43.656962 254.759524 253.854248
v -39.786308 263.525721 253.854248
v -39.786308 263.525721 255.854248
v -44.290688 254.479707 255.854248
v -44.290688 254.479707 253.854248
v -39.627702 262.85137 253.854248
v -39.627702 262.85137 255.854248
v -44.947528 254.259556 255.854248
v -44.947528 254.259556 253.854248
v -47.0 268.973248 255.854248
v -47.0 268.973248 253.854248
v -46.307987 268.941255 253.854248
v -46.307987 268.941255 255.854248
v -45.621879 254.10095 255.854248
v -45.621879 254.10095 253.854248
v -39.531994 262.165261 253.854248
v -39.531994 262.165261 255.854248
v -45.621879 268.845547 255.854248
v -45.621879 268.845547 253.854248
v -46.307987 254.005242 253.854248
v -46.307987 254.005242 255.854248
v -47.0 253.973248 253.854248
v -39.5 261.473248 253.854248
v -47.0 253.973248 255.854248
v -39.5 261.473248 255.854248
v -44.947528 268.686941 255.854248
v -44.947528 268.686941 253.854248
v -39.531994 260.781236 253.854248
v -39.531994 260.781236 255.854248
v -44.290688 268.46679 255.854248
v -44.290688 268.46679 253.854248
v -39.627702 260.095127 253.854248
v -39.627702 260.095127 255.854248
v -43.656962 268.186973 255.854248
v -43.656962 268.186973 253.854248
v -39.786308 259.420776 255.854248
v -39.786308 259.420776 253.854248
v -43.051759 267.849877 253.854248
v -40.006458 258.763936 255.854248
v -40.006458 258.763936 253.854248
v -43.051759 267.849877 255.854248
v -40.286275 258.130211 255.854248
v -40.286275 258.130211 253.854248
v -42.48024 267.458378 253.854248
v -42.48024 267.458378 255.854248
v -40.623371 257.525007 255.854248
v -40.623371 257.525007 253.854248
v -41.947283 267.015815 253.854248
v -41.947283 267.015815 255.854248
v -41.014871 256.953489 255.854248
v -41.014871 256.953489 253.854248
v -41.457433 266.525966 253.854248
v -41.457433 266.525966 255.854248
v -41.457433 256.420531 253.854248
v -41.457433 256.420531 255.854248
v -41.014871 265.993008 253.854248
v -41.014871 265.993008 255.854248
v -41.947283 255.930682 255.854248
v -41.947283 255.930682 253.854248
v -40.623371 265.42149 253.854248
v -40.623371 265.42149 255.854248
v -39.786308 263.525721 227.854248
v -40.006458 264.182561 227.854248
v -40.006458 264.182561 225.854248
v -44.947528 254.259556 227.854248
v -44.290688 254.479707 227.854248
v -44.290688 254.479707 225.854248
v -43.656962 254.759524 225.854248
v -39.786308 263.525721 225.854248
v -45.621879 254.10095 227.854248
v -44.947528 254.259556 225.854248
v -39.627702 262.85137 227.854248
v -46.307987 254.005242 227.854248
v -45.621879 254.10095 225.854248
v -39.627702 262.85137 225.854248
v -46.307987 254.005242 225.854248
v -47.0 253.973248 225.854248
v -39.531994 262.165261 227.854248
v -47.0 253.973248 227.854248
v -46.307987 268.941255 227.854248
v -47.0 268.973248 227.854248
v -47.0 268.973248 225.854248
v -39.531994 262.165261 225.854248
v -39.5 261.473248 227.854248
v -45.621879 268.845547 227.854248
v -46.307987 268.941255 225.854248
v -39.5 261.473248 225.854248
v -39.531994 260.781236 227.854248
v -44.947528 268.686941 227.854248
v -45.621879 268.845547 225.854248
v -39.627702 260.095127 227.854248
v -39.531994 260.781236 225.854248
v -44.290688 268.46679 227.854248
v -44.947528 268.686941 225.854248
v -39.786308 259.420776 227.854248
v -39.627702 260.095127 225.854248
v -43.656962 268.186973 227.854248
v -44.290688 268.46679 225.854248
v -40.006458 258.763936 227.854248
v -39.786308 259.420776 225.854248
v -43.656962 268.186973 225.854248
v -40.286275 258.130211 227.854248
v -40.006458 258.763936 225.854248
v -43.051759 267.849877 227.854248
v -43.051759 267.849877 225.854248
v -40.286275 258.130211 225.854248
v -40.623371 257.525007 227.854248
v -42.48024 267.458378 227.854248
v -42.48024 267.458378 225.854248
v -41.014871 256.953489 227.854248
v -40.623371 257.525007 225.854248
v -41.947283 267.015815 227.854248
v -41.014871 256.953489 225.854248
v -41.947283 267.015815 225.854248
v -41.457433 256.420531 227.854248
v -41.457433 266.525966 225.854248
v -41.947283 255.930682 227.854248
v -41.457433 256.420531 225.854248
v -41.457433 266.525966 227.854248
v -42.48024 255.488119 227.854248
v -41.947283 255.930682 225.854248
v -41.014871 265.993008 225.854248
v -40.623371 265.42149 227.854248
v -41.014871 265.993008 227.854248
v -43.051759 255.09662 227.854248
v -42.48024 255.488119 225.854248
v -40.623371 265.42149 225.854248
v -40.286275 264.816286 227.854248
v -43.656962 254.759524 227.854248
v -43.051759 255.09662 225.854248
v -40.286275 264.816286 225.854248
v -40.006458 264.182561 252.854248
v -40.286275 264.816286 228.854248
v -40.006458 264.182561 228.854248
v -43.656962 254.759524 252.854248
v -43.051759 255.09662 252.854248
v -43.656962 254.759524 228.854248
v -43.051759 255.09662 228.854248
v -39.786308 263.525721 228.854248
v -44.947528 254.259556 252.854248
v -44.290688 254.479707 252.854248
v -44.290688 254.479707 228.854248
v -39.786308 263.525721 252.854248
v -45.621879 254.10095 252.854248
v -44.947528 254.259556 228.854248
v -39.627702 262.85137 228.854248
v -46.307987 254.005242 252.854248
v -45.621879 254.10095 228.854248
v -39.531994 262.165261 252.854248
v -39.627702 262.85137 252.854248
v -46.307987 254.005242 228.854248
v -47.0 268.973248 252.854248
v -47.0 268.973248 228.854248
v -46.307987 268.941255 228.854248
v -39.531994 262.165261 228.854248
v -47.0 253.973248 228.854248
v -47.0 253.973248 252.854248
v -45.621879 268.845547 252.854248
v -46.307987 268.941255 252.854248
v -39.5 261.473248 228.854248
v -45.621879 268.845547 228.854248
v -39.5 261.473248 252.854248
v -44.290688 268.46679 252.854248
v -44.947528 268.686941 252.854248
v -44.947528 268.686941 228.854248
v -39.531994 260.781236 252.854248
v -39.531994 260.781236 228.854248
v -39.786308 259.420776 252.854248
v -39.627702 260.095127 252.854248
v -39.627702 260.095127 228.854248
v -43.656962 268.186973 252.854248
v -44.290688 268.46679 228.854248
v -43.656962 268.186973 228.854248
v -40.006458 258.763936 252.854248
v -39.786308 259.420776 228.854248
v -43.051759 267.849877 252.854248
v -40.286275 258.130211 252.854248
v -40.006458 258.763936 228.854248
v -43.051759 267.849877 228.854248
v -40.286275 258.130211 228.854248
v -40.623371 257.525007 252.854248
v -42.48024 267.458378 228.854248
v -42.48024 267.458378 252.854248
v -40.623371 257.525007 228.854248
v -41.947283 267.015815 228.854248
v -41.947283 267.015815 252.854248
v -41.014871 256.953489 252.854248
v -41.014871 256.953489 228.854248
v -41.457433 266.525966 228.854248
v -41.457433 266.525966 252.854248
v -41.947283 255.930682 252.854248
v -41.457433 256.420531 252.854248
v -41.457433 256.420531 228.854248
v -41.014871 265.993008 228.854248
v -41.014871 265.993008 252.854248
v -42.48024 255.488119 252.854248
v -41.947283 255.930682 228.854248
v -40.623371 265.42149 228.854248
v -40.286275 264.816286 252.854248
v -40.623371 265.42149 252.854248
v -42.48024 255.488119 228.854248
v -53.993542 258.763936 252.854248
v -53.713725 258.130211 228.854248
v -53.993542 258.763936 228.854248
v -54.213692 259.420776 252.854248
v -50.343038 268.186973 252.854248
v -50.948241 267.849877 252.854248
v -50.343038 268.186973 228.854248
v -50.948241 267.849877 228.854248
v -54.213692 259.420776 228.854248
v -49.709312 268.46679 252.854248
v -49.709312 268.46679 228.854248
v -54.372298 260.095127 252.854248
v -54.372298 260.095127 228.854248
v -48.378121 268.845547 252.854248
v -49.052472 268.686941 252.854248
v -49.052472 268.686941 228.854248
v -47.692013 254.005242 252.854248
v -48.378121 268.845547 228.854248
v -54.468006 260.781236 228.854248
v -47.692013 268.941255 228.854248
v -47.692013 268.941255 252.854248
v -54.468006 260.781236 252.854248
v -47.692013 254.005242 228.854248
v -54.5 261.473248 228.854248
v -54.5 261.473248 252.854248
v -48.378121 254.10095 252.854248
v -48.378121 254.10095 228.854248
v -54.372298 262.85137 252.854248
v -54.468006 262.165261 252.854248
v -54.468006 262.165261 228.854248
v -49.709312 254.479707 252.854248
v -49.052472 254.259556 252.854248
v -49.052472 254.259556 228.854248
v -54.372298 262.85137 228.854248
v -50.343038 254.759524 252.854248
v -49.709312 254.479707 228.854248
v -54.213692 263.525721 228.854248
v -53.993542 264.182561 252.854248
v -54.213692 263.525721 252.854248
v -50.343038 254.759524 228.854248
v -50.948241 255.09662 252.854248
v -53.993542 264.182561 228.854248
v -50.948241 255.09662 228.854248
v -53.376629 265.42149 252.854248
v -53.713725 264.816286 252.854248
v -53.713725 264.816286 228.854248
v -51.51976 255.488119 228.854248
v -52.052717 255.930682 252.854248
v -51.51976 255.488119 252.854248
v -53.376629 265.42149 228.854248
v -52.052717 255.930682 228.854248
v -52.985129 265.993008 252.854248
v -52.985129 265.993008 228.854248
v -52.542567 256.420531 228.854248
v -52.985129 256.953489 252.854248
v -52.542567 256.420531 252.854248
v -52.542567 266.525966 252.854248
v -52.542567 266.525966 228.854248
v -52.985129 256.953489 228.854248
v -51.51976 267.458378 252.854248
v -52.052717 267.015815 252.854248
v -52.052717 267.015815 228.854248
v -53.376629 257.525007 228.854248
v -53.376629 257.525007 252.854248
v -51.51976 267.458378 228.854248
v -53.713725 258.130211 252.854248
v -50.948241 267.849877 227.854248
v -51.51976 267.458378 225.854248
v -50.948241 267.849877 225.854248
v -53.713725 258.130211 227.854248
v -53.713725 258.130211 225.854248
v -53.993542 258.763936 225.854248
v -54.213692 259.420776 227.854248
v -53.993542 258.763936 227.854248
v -50.343038 268.186973 227.854248
v -50.343038 268.186973 225.854248
v -54.213692 259.420776 225.854248
v -54.372298 260.095127 227.854248
v -49.709312 268.46679 227.854248
v -49.709312 268.46679 225.854248
v -54.372298 260.095127 225.854248
v -48.378121 268.845547 227.854248
v -49.052472 268.686941 227.854248
v -49.052472 268.686941 225.854248
v -47.692013 254.005242 227.854248
v -54.468006 260.781236 227.854248
v -48.378121 268.845547 225.854248
v -54.468006 260.781236 225.854248
v -47.692013 268.941255 225.854248
v -47.692013 268.941255 227.854248
v -47.692013 254.005242 225.854248
v -54.5 261.473248 225.854248
v -48.378121 254.10095 227.854248
v -48.378121 254.10095 225.854248
v -54.5 261.473248 227.854248
v -54.468006 262.165261 227.854248
v -54.468006 262.165261 225.854248
v -49.709312 254.479707 227.854248
v -49.052472 254.259556 227.854248
v -49.052472 254.259556 225.854248
v -54.372298 262.85137 227.854248
v -54.372298 262.85137 225.854248
v -49.709312 254.479707 225.854248
v -50.343038 254.759524 225.854248
v -53.993542 264.182561 227.854248
v -54.213692 263.525721 227.854248
v -54.213692 263.525721 225.854248
v -50.343038 254.759524 227.854248
v -50.948241 255.09662 225.854248
v -53.993542 264.182561 225.854248
v -51.51976 255.488119 227.854248
v -50.948241 255.09662 227.854248
v -53.713725 264.816286 227.854248
v -53.713725 264.816286 225.854248
v -51.51976 255.488119 225.854248
v -53.376629 265.42149 225.854248
v -52.985129 265.993008 227.854248
v -53.376629 265.42149 227.854248
v -52.052717 255.930682 225.854248
v -52.052717 255.930682 227.854248
v -52.985129 265.993008 225.854248
v -52.542567 256.420531 225.854248
v -52.985129 256.953489 227.854248
v -52.542567 256.420531 227.854248
v -52.542567 266.525966 227.854248
v -52.542567 266.525966 225.854248
v -52.985129 256.953489 225.854248
v -52.052717 267.015815 227.854248
v -52.052717 267.015815 225.854248
v -53.376629 257.525007 225.854248
v -53.376629 257.525007 227.854248
v -51.51976 267.458378 227.854248
v -58.0 255.223248 255.854248
v -58.0 248.927209 234.930988
v -58.0 248.927209 246.777507
v -58.0 248.40867 234.716202
v -58.0 248.40867 246.992293
v -58.0 244.473248 255.854248
v -58.0 247.96339 234.374527
v -58.0 247.96339 247.333968
v -58.0 248.927209 250.930988
v -58.0 247.621715 233.929248
v -58.0 247.621715 247.779248
v -58.0 255.223248 225.854248
v -58.0 248.40867 250.716202
v -58.0 247.96339 250.374527
v -58.0 247.621715 249.929248
v -58.0 247.406929 249.410709
v -58.0 244.473248 225.854248
v -58.0 247.406929 233.410709
v -58.0 247.33367 232.854248
v -58.0 247.33367 248.854248
v -58.0 247.406929 232.297787
v -58.0 247.621715 231.779248
v -58.0 247.96339 231.333968
v -58.0 248.40867 230.992293
v -58.0 248.927209 230.777507
v -58.0 247.406929 248.297787
v -49.052472 268.686941 255.854248
v -51.5 278.473248 255.854248
v -49.709312 268.46679 255.854248
v -36.0 257.973248 255.854248
v -50.343038 268.186973 255.854248
v -50.948241 267.849877 255.854248
v -41.0 269.973248 255.854248
v -36.0 264.973248 255.854248
v -41.0 252.973248 255.854248
v -41.0 244.973248 255.854248
v -41.5 244.473248 255.854248
v -50.948241 255.09662 255.854248
v -51.51976 255.488119 255.854248
v -57.5 255.223248 255.854248
v -52.052717 255.930682 255.854248
v -52.542567 256.420531 255.854248
v -52.985129 256.953489 255.854248
v -53.376629 257.525007 255.854248
v -53.713725 258.130211 255.854248
v -53.993542 258.763936 255.854248
v -54.213692 259.420776 255.854248
v -41.0 277.973248 255.854248
v -41.5 278.473248 255.854248
v -53.713725 264.816286 255.854248
v -53.376629 265.42149 255.854248
v -57.5 267.723248 255.854248
v -52.985129 265.993008 255.854248
v -52.542567 266.525966 255.854248
v -52.052717 267.015815 255.854248
v -51.51976 267.458378 255.854248
v -47.692013 254.005242 255.854248
v -51.5 244.473248 255.854248
v -48.378121 254.10095 255.854248
v -58.0 278.473248 255.854248
v -49.052472 254.259556 255.854248
v -49.709312 254.479707 255.854248
v -50.343038 254.759524 255.854248
v -53.993542 264.182561 255.854248
v -58.0 267.723248 255.854248
v -54.213692 263.525721 255.854248
v -52.0 243.973248 255.854248
v -57.5 243.973248 255.854248
v -54.5 261.473248 255.854248
v -54.468006 260.781236 255.854248
v -47.692013 268.941255 255.854248
v -54.372298 260.095127 255.854248
v -54.468006 262.165261 255.854248
v -54.372298 262.85137 255.854248
v -52.0 278.973248 255.854248
v -57.5 278.973248 255.854248
v -48.378121 268.845547 255.854248
v -52.0 278.973248 225.854248
v -57.5 278.973248 225.854248
v -36.0 264.973248 225.854248
v -51.5 244.473248 225.854248
v -41.0 252.973248 225.854248
v -41.0 269.973248 225.854248
v -41.0 277.973248 225.854248
v -36.0 257.973248 225.854248
v -41.5 278.473248 225.854248
v -57.5 267.723248 225.854248
v -57.5 255.223248 225.854248
v -51.5 278.473248 225.854248
v -41.0 244.973248 225.854248
v -41.5 244.473248 225.854248
v -58.0 278.473248 225.854248
v -58.0 267.723248 225.854248
v -52.0 243.973248 225.854248
v -57.5 243.973248 225.854248
v -58.0 272.927209 234.930988
v -58.0 272.927209 246.777507
v -58.0 272.40867 234.716202
v -58.0 271.96339 247.333968
v -58.0 272.40867 246.992293
v -58.0 271.96339 234.374527
v -58.0 271.621715 233.929248
v -58.0 271.621715 247.779248
v -58.0 272.927209 250.930988
v -58.0 272.40867 250.716202
v -58.0 271.96339 250.374527
v -58.0 271.621715 249.929248
v -58.0 271.406929 249.410709
v -58.0 271.406929 233.410709
v -58.0 271.33367 232.854248
v -58.0 271.33367 248.854248
v -58.0 271.406929 232.297787
v -58.0 271.621715 231.779248
v -58.0 271.96339 231.333968
v -58.0 272.40867 230.992293
v -58.0 272.927209 230.777507
v -58.0 271.406929 248.297787
v -49.709312 268.46679 253.854248
v -50.343038 268.186973 253.854248
v -53.993542 258.763936 253.854248
v -54.213692 259.420776 253.854248
v -49.052472 268.686941 253.854248
v -48.378121 268.845547 253.854248
v -54.372298 260.095127 253.854248
v -47.692013 268.941255 253.854248
v -54.468006 260.781236 253.854248
v -47.692013 254.005242 253.854248
v -54.5 261.473248 253.854248
v -48.378121 254.10095 253.854248
v -54.468006 262.165261 253.854248
v -49.052472 254.259556 253.854248
v -54.372298 262.85137 253.854248
v -54.213692 263.525721 253.854248
v -49.709312 254.479707 253.854248
v -53.993542 264.182561 253.854248
v -50.343038 254.759524 253.854248
v -53.713725 264.816286 253.854248
v -50.948241 255.09662 253.854248
v -53.376629 265.42149 253.854248
v -51.51976 255.488119 253.854248
v -52.985129 265.993008 253.854248
v -52.052717 255.930682 253.854248
v -52.542567 266.525966 253.854248
v -52.542567 256.420531 253.854248
v -52.052717 267.015815 253.854248
v -52.985129 256.953489 253.854248
v -51.51976 267.458378 253.854248
v -53.376629 257.525007 253.854248
v -50.948241 267.849877 253.854248
v -53.713725 258.130211 253.854248
v -41.0 247.96339 250.374527
v -41.0 248.40867 250.716202
v -41.0 247.621715 249.929248
v -41.0 248.927209 250.930988
v -41.0 247.406929 249.410709
v -41.0 247.33367 248.854248
v -41.0 247.406929 248.297787
v -41.0 248.927209 230.777507
v -41.0 248.40867 230.992293
v -41.0 247.96339 231.333968
v -41.0 247.621715 231.779248
v -41.0 247.406929 232.297787
v -41.0 247.33367 232.854248
v -41.0 247.406929 233.410709
v -41.0 247.96339 247.333968
v -41.0 247.621715 247.779248
v -41.0 247.96339 234.374527
v -41.0 248.927209 246.777507
v -41.0 248.40867 246.992293
v -41.0 248.40867 234.716202
v -41.0 247.621715 233.929248
v -41.0 248.927209 234.930988
v -41.0 272.927209 234.930988
v -41.0 272.927209 246.777507
v -41.0 272.40867 246.992293
v -41.0 272.40867 234.716202
v -41.0 271.96339 247.333968
v -41.0 271.96339 234.374527
v -41.0 271.621715 247.779248
v -41.0 271.621715 233.929248
v -41.0 271.406929 248.297787
v -41.0 272.927209 250.930988
v -41.0 271.406929 233.410709
v -41.0 272.40867 250.716202
v -41.0 271.96339 250.374527
v -41.0 271.621715 249.929248
v -41.0 271.406929 249.410709
v -41.0 271.33367 248.854248
v -41.0 272.927209 230.777507
v -41.0 272.40867 230.992293
v -41.0 271.96339 231.333968
v -41.0 271.621715 231.779248
v -41.0 271.406929 232.297787
v -41.0 271.33367 232.854248
v -57.5 249.056618 231.26047
v -41.5 249.056618 231.26047
v -41.5 248.65867 231.425306
v -57.5 248.65867 231.425306
v -41.5 248.316943 231.687522
v -57.5 248.316943 231.687522
v -41.5 248.054728 232.029248
v -57.5 248.054728 232.029248
v -41.5 247.889892 232.427196
v -57.5 247.889892 232.427196
v -41.5 247.83367 232.854248
v -57.5 247.83367 232.854248
v -41.5 248.054728 233.679248
v -41.5 247.889892 233.281299
v -57.5 247.889892 233.281299
v -41.5 248.316943 234.020974
v -57.5 248.054728 233.679248
v -57.5 248.316943 234.020974
v -41.5 248.65867 234.28319
v -57.5 248.65867 234.28319
v -41.5 249.056618 234.448025
v -57.5 249.056618 234.448025
v -53.928203 265.473248 252.854248
v -53.928203 265.473248 253.854248
v -54.250462 264.854194 253.854248
v -52.656854 255.816394 252.854248
v -52.656854 255.816394 253.854248
v -52.142301 255.344893 253.854248
v -54.250462 264.854194 252.854248
v -51.588611 254.920032 252.854248
v -52.142301 255.344893 252.854248
v -51.588611 254.920032 253.854248
v -54.517541 264.20941 253.854248
v -54.517541 264.20941 252.854248
v -54.727407 263.543801 252.854248
v -51.0 254.545045 253.854248
v -51.0 254.545045 252.854248
v -50.380946 254.222786 252.854248
v -54.727407 263.543801 253.854248
v -47.697246 269.442806 253.854248
v -50.380946 254.222786 253.854248
v -47.697246 269.442806 252.854248
v -54.878462 262.862434 253.854248
v -54.878462 262.862434 252.854248
v -49.736161 253.955707 253.854248
v -49.736161 253.955707 252.854248
v -49.070552 253.745842 252.854248
v -48.389185 269.35171 252.854248
v -48.389185 269.35171 253.854248
v -54.969558 262.170494 253.854248
v -49.070552 253.745842 253.854248
v -54.969558 262.170494 252.854248
v -55.0 261.473248 252.854248
v -48.389185 253.594786 253.854248
v -48.389185 253.594786 252.854248
v -49.070552 269.200655 252.854248
v -49.070552 269.200655 253.854248
v -55.0 261.473248 253.854248
v -49.736161 268.990789 252.854248
v -47.697246 253.503691 253.854248
v -47.697246 253.503691 252.854248
v -54.969558 260.776002 253.854248
v -54.969558 260.776002 252.854248
v -49.736161 268.990789 253.854248
v -54.878462 260.084063 252.854248
v -54.878462 260.084063 253.854248
v -50.380946 268.723711 253.854248
v -50.380946 268.723711 252.854248
v -54.727407 259.402696 252.854248
v -54.727407 259.402696 253.854248
v -51.0 268.401452 253.854248
v -51.0 268.401452 252.854248
v -51.588611 268.026465 252.854248
v -54.517541 258.737087 253.854248
v -54.517541 258.737087 252.854248
v -51.588611 268.026465 253.854248
v -54.250462 258.092302 252.854248
v -54.250462 258.092302 253.854248
v -52.142301 267.601604 253.854248
v -52.142301 267.601604 252.854248
v -53.928203 257.473248 252.854248
v -53.928203 257.473248 253.854248
v -53.553216 256.884637 252.854248
v -52.656854 267.130103 253.854248
v -52.656854 267.130103 252.854248
v -53.128356 266.615549 253.854248
v -53.553216 256.884637 253.854248
v -53.128356 266.615549 252.854248
v -53.553216 266.06186 252.854248
v -53.128356 256.330948 252.854248
v -53.128356 256.330948 253.854248
v -53.553216 266.06186 253.854248
v -52.142301 255.344893 228.854248
v -52.656854 255.816394 228.854248
v -53.128356 256.330948 228.854248
v -51.588611 254.920032 228.854248
v -53.553216 256.884637 228.854248
v -51.0 254.545045 228.854248
v -53.928203 257.473248 228.854248
v -50.380946 254.222786 228.854248
v -54.250462 258.092302 228.854248
v -49.736161 253.955707 228.854248
v -54.517541 258.737087 228.854248
v -49.070552 253.745842 228.854248
v -54.727407 259.402696 228.854248
v -48.389185 253.594786 228.854248
v -54.878462 260.084063 228.854248
v -47.697246 253.503691 228.854248
v -54.969558 260.776002 228.854248
v -55.0 261.473248 228.854248
v -54.969558 262.170494 228.854248
v -54.878462 262.862434 228.854248
v -54.727407 263.543801 228.854248
v -54.517541 264.20941 228.854248
v -54.250462 264.854194 228.854248
v -53.928203 265.473248 228.854248
v -53.553216 266.06186 228.854248
v -53.128356 266.615549 228.854248
v -52.656854 267.130103 228.854248
v -52.142301 267.601604 228.854248
v -51.588611 268.026465 228.854248
v -51.0 268.401452 228.854248
v -50.380946 268.723711 228.854248
v -49.736161 268.990789 228.854248
v -49.070552 269.200655 228.854248
v -48.389185 269.35171 228.854248
v -47.697246 269.442806 228.854248
v -52.656854 255.816394 227.854248
v -52.142301 255.344893 227.854248
v -53.128356 256.330948 227.854248
v -51.588611 254.920032 227.854248
v -53.553216 256.884637 227.854248
v -51.0 254.545045 227.854248
v -53.928203 257.473248 227.854248
v -50.380946 254.222786 227.854248
v -54.250462 258.092302 227.854248
v -49.736161 253.955707 227.854248
v -54.517541 258.737087 227.854248
v -49.070552 253.745842 227.854248
v -54.727407 259.402696 227.854248
v -48.389185 253.594786 227.854248
v -54.878462 260.084063 227.854248
v -47.697246 253.503691 227.854248
v -54.969558 260.776002 227.854248
v -55.0 261.473248 227.854248
v -54.969558 262.170494 227.854248
v -54.878462 262.862434 227.854248
v -54.727407 263.543801 227.854248
v -54.517541 264.20941 227.854248
v -54.250462 264.854194 227.854248
v -53.928203 265.473248 227.854248
v -53.553216 266.06186 227.854248
v -53.128356 266.615549 227.854248
v -52.656854 267.130103 227.854248
v -52.142301 267.601604 227.854248
v -51.588611 268.026465 227.854248
v -51.0 268.401452 227.854248
v -50.380946 268.723711 227.854248
v -49.736161 268.990789 227.854248
v -49.070552 269.200655 227.854248
v -48.389185 269.35171 227.854248
v -47.697246 269.442806 227.854248
v -57.5 249.056618 247.26047
v -41.5 249.056618 247.26047
v -41.5 248.65867 247.425306
v -57.5 248.65867 247.425306
v -41.5 248.316943 247.687522
v -57.5 248.316943 247.687522
v -41.5 248.054728 248.029248
v -57.5 248.054728 248.029248
v -41.5 247.889892 248.427196
v -57.5 247.889892 248.427196
v -41.5 247.83367 248.854248
v -57.5 247.83367 248.854248
v -41.5 247.889892 249.281299
v -57.5 247.889892 249.281299
v -41.5 248.054728 249.679248
v -57.5 248.054728 249.679248
v -41.5 248.65867 250.28319
v -41.5 248.316943 250.020974
v -57.5 248.316943 250.020974
v -57.5 248.65867 250.28319
v -41.5 249.056618 250.448025
v -57.5 249.056618 250.448025
v -57.5 273.056618 231.26047
v -41.5 272.65867 231.425306
v -41.5 273.056618 231.26047
v -57.5 272.65867 231.425306
v -41.5 272.316943 231.687522
v -57.5 272.316943 231.687522
v -41.5 272.054728 232.029248
v -57.5 272.054728 232.029248
v -41.5 271.889892 232.427196
v -57.5 271.889892 232.427196
v -41.5 271.83367 232.854248
v -57.5 271.83367 232.854248
v -41.5 271.889892 233.281299
v -57.5 271.889892 233.281299
v -41.5 272.316943 234.020974
v -41.5 272.054728 233.679248
v -57.5 272.054728 233.679248
v -57.5 272.316943 234.020974
v -41.5 273.056618 234.448025
v -41.5 272.65867 234.28319
v -57.5 272.65867 234.28319
v -57.5 273.056618 234.448025
v -41.5 273.056618 247.26047
v -41.5 272.65867 247.425306
v -57.5 273.056618 247.26047
v -41.5 272.316943 247.687522
v -57.5 272.65867 247.425306
v -57.5 272.316943 247.687522
v -41.5 272.054728 248.029248
v -57.5 272.054728 248.029248
v -41.5 271.889892 248.427196
v -57.5 271.889892 248.427196
v -41.5 271.83367 248.854248
v -57.5 271.83367 248.854248
v -41.5 271.889892 249.281299
v -57.5 271.889892 249.281299
v -41.5 272.054728 249.679248
v -57.5 272.054728 249.679248
v -41.5 272.316943 250.020974
v -57.5 272.316943 250.020974
v -41.5 273.056618 250.448025
v -41.5 272.65867 250.28319
v -57.5 272.65867 250.28319
v -57.5 273.056618 250.448025
f 1 2 3
f 4 1 3
f 5 4 3
f 6 5 7
f 5 3 7
f 8 6 9
f 6 7 9
f 8 9 10
f 11 8 12
f 13 11 12
f 8 10 12
f 13 12 14
f 15 13 16
f 17 15 16
f 13 14 16
f 18 17 19
f 17 16 19
f 20 18 21
f 18 19 21
f 22 20 23
f 20 21 23
f 24 22 25
f 22 23 25
f 24 25 26
f 27 28 29
f 30 27 29
f 31 30 29
f 32 31 33
f 31 29 33
f 34 32 35
f 32 33 35
f 36 34 37
f 34 35 37
f 38 36 39
f 36 37 39
f 38 39 40
f 41 38 42
f 43 41 42
f 38 40 42
f 44 43 45
f 43 42 45
f 46 44 47
f 44 45 47
f 48 46 49
f 46 47 49
f 50 48 51
f 48 49 51
f 50 51 52
f 53 54 55
f 56 53 55
f 57 56 55
f 58 57 59
f 57 55 59
f 60 58 61
f 58 59 61
f 62 60 63
f 60 61 63
f 64 62 65
f 62 63 65
f 64 65 66
f 67 64 68
f 69 67 68
f 64 66 68
f 70 69 71
f 69 68 71
f 72 70 73
f 70 71 73
f 74 72 75
f 72 73 75
f 76 74 77
f 74 75 77
f 76 77 78
f 79 80 81
f 82 79 81
f 83 82 81
f 84 83 85
f 83 81 85
f 86 84 87
f 84 85 87
f 86 87 88
f 89 86 90
f 91 89 90
f 86 88 90
f 91 90 92
f 93 91 94
f 95 93 94
f 91 92 94
f 96 95 97
f 95 94 97
f 98 96 99
f 96 97 99
f 100 98 101
f 98 99 101
f 102 100 103
f 100 101 103
f 102 103 104
f 105 106 107
f 108 105 109
f 105 107 109
f 110 108 111
f 108 109 111
f 112 110 113
f 110 111 113
f 114 112 115
f 112 113 115
f 116 114 117
f 114 115 117
f 118 116 119
f 116 117 119
f 120 118 121
f 118 119 121
f 122 120 123
f 120 121 123
f 124 122 125
f 122 123 125
f 126 124 127
f 124 125 127
f 128 126 129
f 126 127 129
f 128 129 130
f 131 132 133
f 134 131 135
f 131 133 135
f 136 134 137
f 134 135 137
f 138 136 139
f 136 137 139
f 140 138 141
f 138 139 141
f 142 140 143
f 140 141 143
f 144 142 145
f 142 143 145
f 146 144 147
f 144 145 147
f 148 146 149
f 146 147 149
f 150 148 151
f 148 149 151
f 150 151 152
f 153 150 154
f 155 153 154
f 150 152 154
f 155 154 156
f 157 158 159
f 160 157 159
f 161 160 162
f 160 159 162
f 163 161 164
f 161 162 164
f 165 163 166
f 163 164 166
f 167 165 168
f 165 166 168
f 169 167 170
f 167 168 170
f 171 169 172
f 173 171 172
f 169 170 172
f 174 173 175
f 173 172 175
f 176 174 177
f 174 175 177
f 178 176 179
f 176 177 179
f 180 178 181
f 178 179 181
f 180 181 182
f 183 184 185
f 186 183 185
f 187 186 188
f 189 187 188
f 186 185 188
f 189 188 190
f 191 189 192
f 189 190 192
f 193 191 194
f 195 193 194
f 191 192 194
f 195 194 196
f 197 195 198
f 199 197 198
f 195 196 198
f 200 199 201
f 199 198 201
f 202 200 203
f 200 201 203
f 204 202 205
f 202 203 205
f 206 204 207
f 204 205 207
f 206 207 208
f 180 53 56
f 178 180 56
f 176 178 57
f 178 56 57
f 174 176 58
f 176 57 58
f 171 173 60
f 173 174 60
f 174 58 60
f 171 60 62
f 169 171 64
f 171 62 64
f 167 169 67
f 169 64 67
f 165 167 69
f 167 67 69
f 161 163 70
f 163 165 70
f 165 69 70
f 161 70 72
f 160 161 74
f 161 72 74
f 157 160 76
f 160 74 76
f 206 79 82
f 204 206 82
f 202 204 83
f 204 82 83
f 200 202 84
f 202 83 84
f 197 199 86
f 199 200 86
f 200 84 86
f 197 86 89
f 193 195 91
f 195 197 91
f 197 89 91
f 193 91 93
f 191 193 95
f 193 93 95
f 189 191 96
f 191 95 96
f 187 189 98
f 189 96 98
f 186 187 100
f 187 98 100
f 183 186 102
f 186 100 102
f 153 155 27
f 150 153 30
f 153 27 30
f 150 30 31
f 148 150 32
f 150 31 32
f 144 146 34
f 146 148 34
f 148 32 34
f 144 34 36
f 142 144 38
f 144 36 38
f 140 142 41
f 142 38 41
f 138 140 43
f 140 41 43
f 136 138 44
f 138 43 44
f 134 136 46
f 136 44 46
f 131 134 48
f 134 46 48
f 132 131 50
f 131 48 50
f 209 210 211
f 210 212 211
f 213 214 215
f 213 215 216
f 217 209 218
f 209 211 218
f 219 213 216
f 217 218 220
f 219 216 221
f 222 217 220
f 223 219 221
f 224 225 226
f 222 220 227
f 223 221 228
f 229 224 226
f 230 231 227
f 231 222 227
f 230 227 232
f 233 223 228
f 234 230 232
f 235 229 236
f 234 232 237
f 229 226 236
f 233 228 238
f 239 240 238
f 240 233 238
f 241 234 242
f 234 237 242
f 243 235 244
f 241 242 245
f 235 236 244
f 246 241 245
f 239 238 247
f 246 245 248
f 249 246 248
f 243 244 250
f 251 239 252
f 253 243 250
f 239 247 252
f 253 250 254
f 255 256 257
f 256 251 257
f 251 252 257
f 258 253 254
f 258 254 259
f 255 257 260
f 261 258 259
f 261 259 262
f 263 255 264
f 255 260 264
f 265 261 262
f 263 264 266
f 265 262 267
f 268 263 266
f 269 265 267
f 270 271 272
f 271 268 272
f 268 266 272
f 269 267 273
f 274 269 273
f 270 272 275
f 274 273 276
f 277 274 276
f 278 270 279
f 270 275 279
f 277 276 280
f 281 282 280
f 282 277 280
f 210 278 212
f 278 279 212
f 281 280 214
f 213 281 214
f 283 284 285
f 286 287 288
f 289 283 285
f 290 291 292
f 289 285 293
f 294 289 293
f 291 288 292
f 295 290 296
f 294 293 297
f 298 294 297
f 290 292 296
f 295 296 299
f 300 301 302
f 303 300 302
f 304 295 299
f 305 303 302
f 298 297 306
f 307 298 306
f 304 299 308
f 309 304 308
f 310 305 311
f 307 306 312
f 305 302 311
f 313 309 314
f 315 307 312
f 309 308 314
f 313 314 316
f 317 313 316
f 315 312 318
f 319 315 318
f 310 311 320
f 317 316 321
f 322 317 321
f 323 310 324
f 322 321 325
f 326 322 325
f 327 319 328
f 319 318 328
f 329 327 328
f 310 320 324
f 323 324 330
f 329 328 331
f 332 323 330
f 333 329 334
f 332 330 335
f 336 332 335
f 337 336 335
f 329 331 334
f 338 333 339
f 340 338 339
f 333 334 339
f 337 335 341
f 337 341 342
f 343 337 342
f 340 339 344
f 345 340 346
f 343 342 347
f 348 343 347
f 340 344 346
f 345 346 349
f 350 345 349
f 351 350 349
f 348 347 352
f 353 348 352
f 353 352 354
f 351 349 355
f 356 353 354
f 286 351 287
f 356 354 284
f 351 355 287
f 283 356 284
f 291 286 288
f 126 128 1
f 124 126 4
f 126 1 4
f 124 4 5
f 120 122 6
f 122 124 6
f 124 5 6
f 118 120 8
f 120 6 8
f 118 8 11
f 114 116 13
f 116 118 13
f 118 11 13
f 114 13 15
f 112 114 17
f 114 15 17
f 110 112 18
f 112 17 18
f 108 110 20
f 110 18 20
f 105 108 22
f 108 20 22
f 106 105 24
f 105 22 24
f 357 358 359
f 360 361 362
f 363 360 362
f 358 364 359
f 365 357 366
f 363 362 367
f 368 363 367
f 357 359 366
f 369 365 370
f 368 367 371
f 372 368 371
f 365 366 370
f 373 369 374
f 375 376 377
f 378 375 377
f 369 370 374
f 379 373 380
f 372 371 381
f 382 372 381
f 373 374 380
f 383 378 384
f 379 380 385
f 386 379 385
f 378 377 384
f 386 385 387
f 382 381 388
f 389 386 387
f 390 382 388
f 391 383 392
f 390 388 393
f 383 384 392
f 394 390 393
f 395 391 396
f 394 393 397
f 398 394 397
f 391 392 396
f 399 395 400
f 401 398 402
f 398 397 402
f 395 396 400
f 399 400 403
f 404 401 405
f 406 399 403
f 401 402 405
f 407 404 408
f 406 403 409
f 410 406 409
f 404 405 408
f 411 407 412
f 410 409 413
f 414 410 413
f 407 408 412
f 415 411 416
f 414 413 417
f 418 414 417
f 411 412 416
f 415 416 419
f 420 415 419
f 418 417 421
f 422 418 421
f 423 420 424
f 422 421 425
f 426 422 425
f 420 419 424
f 358 423 364
f 426 425 361
f 360 426 361
f 423 424 364
f 427 428 429
f 430 431 432
f 431 433 432
f 427 429 434
f 435 430 436
f 430 432 436
f 437 427 434
f 438 435 439
f 435 436 439
f 437 434 440
f 438 439 441
f 438 441 442
f 443 437 440
f 444 438 442
f 445 446 447
f 443 440 448
f 449 443 448
f 450 445 451
f 445 447 451
f 449 448 452
f 453 449 452
f 454 450 455
f 450 451 455
f 456 453 457
f 453 452 457
f 458 454 459
f 454 455 459
f 460 456 461
f 456 457 461
f 462 458 463
f 464 460 465
f 458 459 463
f 460 461 465
f 462 463 466
f 467 464 468
f 464 465 468
f 469 462 466
f 469 466 470
f 467 468 471
f 472 467 471
f 473 469 470
f 473 470 474
f 475 472 476
f 472 471 476
f 477 473 474
f 475 476 478
f 477 474 479
f 480 475 478
f 477 479 481
f 482 480 483
f 480 478 483
f 484 477 481
f 485 482 486
f 482 483 486
f 484 481 487
f 488 489 487
f 489 484 487
f 490 485 491
f 485 486 491
f 488 487 492
f 493 488 492
f 494 490 495
f 490 491 495
f 493 492 496
f 428 493 496
f 431 494 433
f 428 496 429
f 494 495 433
f 497 498 499
f 500 501 502
f 501 503 502
f 497 499 504
f 505 506 507
f 506 500 507
f 500 502 507
f 508 497 504
f 509 505 510
f 505 507 510
f 508 504 511
f 512 509 513
f 514 515 511
f 509 510 513
f 515 508 511
f 512 513 516
f 517 518 519
f 514 511 520
f 512 516 521
f 522 512 521
f 523 524 519
f 524 517 519
f 514 520 525
f 523 519 526
f 527 514 525
f 528 529 530
f 531 527 532
f 529 523 530
f 527 525 532
f 523 526 530
f 533 534 535
f 534 531 535
f 531 532 535
f 536 528 537
f 528 530 537
f 536 537 538
f 539 533 540
f 533 535 540
f 541 536 538
f 542 539 543
f 541 538 544
f 539 540 543
f 542 543 545
f 546 542 545
f 541 544 547
f 548 541 547
f 546 545 549
f 548 547 550
f 551 548 550
f 552 546 553
f 546 549 553
f 551 550 554
f 555 551 554
f 556 557 558
f 557 552 558
f 552 553 558
f 555 554 559
f 560 555 559
f 561 556 562
f 556 558 562
f 560 559 563
f 564 565 563
f 501 561 566
f 565 560 563
f 561 562 566
f 564 563 498
f 497 564 498
f 501 566 503
f 567 568 569
f 570 567 569
f 571 572 573
f 572 574 573
f 570 569 575
f 576 571 577
f 578 570 575
f 571 573 577
f 578 575 579
f 580 581 582
f 581 576 582
f 576 577 582
f 583 522 521
f 580 582 584
f 578 579 585
f 580 584 586
f 587 580 586
f 587 586 518
f 588 578 585
f 583 521 589
f 517 587 518
f 588 585 590
f 591 588 590
f 592 583 593
f 583 589 593
f 594 595 596
f 595 591 596
f 591 590 596
f 597 598 599
f 598 592 599
f 592 593 599
f 594 596 600
f 601 597 602
f 597 599 602
f 594 600 603
f 604 605 603
f 605 594 603
f 601 602 606
f 607 601 606
f 604 603 608
f 607 606 609
f 610 611 612
f 611 604 612
f 604 608 612
f 607 609 613
f 614 615 613
f 615 607 613
f 610 612 616
f 614 613 617
f 618 610 619
f 610 616 619
f 614 617 620
f 621 622 620
f 622 614 620
f 623 618 624
f 618 619 624
f 621 620 625
f 626 627 628
f 627 623 628
f 623 624 628
f 621 625 629
f 630 621 629
f 572 626 631
f 626 628 631
f 630 629 568
f 567 632 568
f 632 630 568
f 572 631 574
f 633 634 635
f 636 637 638
f 639 640 638
f 640 636 638
f 641 633 642
f 633 635 642
f 639 638 643
f 644 639 643
f 645 641 646
f 641 642 646
f 644 643 647
f 648 649 650
f 651 444 442
f 649 645 650
f 645 646 650
f 652 644 647
f 648 650 653
f 652 647 654
f 648 653 655
f 656 648 655
f 651 442 657
f 656 655 447
f 446 656 447
f 652 654 658
f 659 651 660
f 651 657 660
f 661 652 658
f 662 661 663
f 664 665 666
f 665 659 666
f 661 658 663
f 659 660 666
f 667 662 668
f 662 663 668
f 664 666 669
f 664 669 670
f 671 672 673
f 672 667 673
f 667 668 673
f 674 664 670
f 674 670 675
f 671 673 676
f 677 678 675
f 678 674 675
f 679 671 680
f 671 676 680
f 677 675 681
f 679 680 682
f 683 684 682
f 684 679 682
f 677 681 685
f 686 677 685
f 683 682 687
f 686 685 688
f 689 690 688
f 690 686 688
f 691 683 692
f 683 687 692
f 689 688 693
f 694 691 695
f 691 692 695
f 689 693 696
f 697 689 696
f 633 698 634
f 698 694 634
f 694 695 634
f 697 696 637
f 636 697 637
f 2 52 51
f 2 51 3
f 37 35 699
f 33 699 35
f 700 52 2
f 39 37 699
f 700 701 52
f 29 699 33
f 40 39 699
f 702 703 701
f 702 701 700
f 28 699 29
f 704 699 28
f 705 703 702
f 705 706 703
f 707 704 28
f 708 706 705
f 708 709 706
f 42 40 699
f 710 12 699
f 710 23 21
f 710 21 19
f 710 19 16
f 710 16 14
f 710 14 12
f 25 23 710
f 711 704 707
f 712 704 711
f 26 25 710
f 713 704 712
f 714 704 713
f 715 716 717
f 718 704 714
f 715 717 719
f 715 719 720
f 715 26 710
f 715 720 721
f 715 721 722
f 715 722 723
f 715 723 26
f 724 704 718
f 715 704 716
f 716 704 708
f 708 704 724
f 708 724 709
f 9 49 47
f 9 47 45
f 10 45 42
f 10 9 45
f 7 49 9
f 12 10 42
f 12 42 699
f 3 51 49
f 3 49 7
f 725 726 727
f 728 401 404
f 727 726 729
f 728 404 407
f 729 726 730
f 418 731 414
f 728 407 411
f 732 731 422
f 731 418 422
f 414 731 410
f 732 422 426
f 728 411 415
f 410 731 406
f 733 379 734
f 406 731 399
f 732 426 360
f 732 360 363
f 399 731 395
f 732 363 368
f 734 379 735
f 379 386 735
f 386 389 735
f 395 731 391
f 415 420 733
f 420 423 733
f 423 358 733
f 736 737 738
f 358 357 733
f 737 739 738
f 728 415 733
f 739 740 738
f 740 741 738
f 732 368 372
f 741 742 738
f 742 743 738
f 743 744 738
f 744 745 738
f 391 731 383
f 731 746 383
f 746 747 383
f 733 357 365
f 748 749 750
f 749 751 750
f 383 747 378
f 751 752 750
f 752 753 750
f 753 754 750
f 754 730 750
f 389 755 756
f 755 757 756
f 726 758 750
f 732 372 382
f 757 759 756
f 730 726 750
f 759 760 756
f 760 761 756
f 748 750 762
f 761 736 756
f 735 389 756
f 378 747 375
f 736 738 756
f 747 726 375
f 732 382 390
f 733 365 369
f 750 758 763
f 732 390 728
f 762 750 764
f 765 756 766
f 733 369 373
f 756 738 704
f 766 756 704
f 738 699 704
f 767 750 738
f 768 767 738
f 375 726 769
f 770 768 738
f 745 770 738
f 771 750 767
f 772 750 771
f 764 750 772
f 728 390 394
f 733 373 379
f 726 773 758
f 773 774 758
f 769 726 775
f 728 394 398
f 728 398 401
f 775 726 725
f 776 777 773
f 773 777 774
f 778 429 496
f 669 779 670
f 670 779 675
f 778 496 492
f 778 492 487
f 483 780 486
f 781 455 782
f 783 780 478
f 780 483 478
f 486 780 491
f 783 478 476
f 491 780 495
f 783 476 471
f 495 780 433
f 782 455 784
f 783 471 468
f 451 447 784
f 455 451 784
f 433 780 432
f 676 673 785
f 474 470 781
f 680 676 785
f 479 474 781
f 682 680 785
f 687 682 785
f 481 479 781
f 692 687 785
f 487 481 781
f 783 468 465
f 695 692 785
f 778 487 781
f 634 695 785
f 635 634 785
f 432 780 436
f 781 470 466
f 783 465 461
f 681 675 786
f 784 447 787
f 685 681 786
f 635 785 787
f 688 685 786
f 436 780 439
f 642 635 787
f 693 688 786
f 646 642 787
f 696 693 786
f 650 646 787
f 637 696 786
f 653 650 787
f 779 715 786
f 655 653 787
f 780 788 439
f 447 655 787
f 675 779 786
f 788 789 439
f 783 461 457
f 781 466 463
f 637 786 638
f 439 789 441
f 787 785 790
f 785 791 790
f 786 715 710
f 776 787 790
f 638 786 643
f 783 457 452
f 776 790 777
f 658 786 785
f 441 789 442
f 663 658 785
f 668 663 785
f 781 463 459
f 673 668 785
f 654 786 658
f 789 779 442
f 647 786 654
f 643 786 647
f 783 452 778
f 781 459 455
f 779 792 793
f 778 452 448
f 442 779 657
f 779 793 715
f 778 448 440
f 657 779 660
f 778 440 434
f 660 779 666
f 778 434 429
f 666 779 669
f 778 732 783
f 732 728 783
f 765 766 793
f 792 765 793
f 794 795 80
f 59 758 61
f 63 61 758
f 796 795 794
f 65 63 758
f 55 758 59
f 796 797 798
f 796 798 795
f 66 65 758
f 54 758 55
f 799 797 796
f 68 66 758
f 800 797 799
f 800 801 797
f 763 54 802
f 763 758 54
f 790 103 101
f 790 101 99
f 790 99 97
f 790 97 94
f 790 94 92
f 803 763 802
f 790 92 90
f 790 90 758
f 104 103 790
f 804 763 803
f 805 763 804
f 806 763 805
f 791 807 808
f 809 763 806
f 791 808 810
f 791 810 811
f 791 811 812
f 791 812 813
f 791 813 814
f 791 814 104
f 791 104 790
f 791 763 807
f 807 763 800
f 815 763 809
f 800 763 815
f 800 815 801
f 88 73 71
f 88 87 73
f 85 77 75
f 85 75 73
f 85 73 87
f 90 71 68
f 90 68 758
f 90 88 71
f 81 77 85
f 80 77 81
f 80 78 77
f 80 795 78
f 725 727 816
f 727 817 816
f 745 818 819
f 775 725 820
f 770 745 819
f 725 816 820
f 775 820 821
f 769 775 821
f 770 819 822
f 768 770 822
f 769 821 823
f 375 769 823
f 755 389 387
f 375 823 376
f 768 822 824
f 767 768 824
f 757 755 825
f 767 824 826
f 755 387 825
f 771 767 826
f 759 757 827
f 771 826 828
f 772 771 828
f 757 825 827
f 760 759 829
f 772 828 830
f 764 772 830
f 759 827 829
f 762 764 831
f 761 760 832
f 764 830 831
f 760 829 832
f 748 762 833
f 736 761 834
f 762 831 833
f 761 832 834
f 749 748 835
f 736 834 836
f 737 736 836
f 748 833 835
f 751 749 837
f 737 836 838
f 739 737 838
f 749 835 837
f 752 751 839
f 739 838 840
f 751 837 839
f 740 739 840
f 752 839 841
f 753 752 841
f 740 840 842
f 741 740 842
f 754 753 843
f 753 841 843
f 741 842 844
f 742 741 844
f 730 754 845
f 754 843 845
f 742 844 846
f 743 742 846
f 729 730 847
f 730 845 847
f 743 846 848
f 744 743 848
f 727 729 817
f 744 848 818
f 729 847 817
f 745 744 818
f 728 733 783
f 733 780 783
f 135 130 129
f 734 849 850
f 137 135 127
f 135 129 127
f 849 734 851
f 734 850 852
f 139 137 125
f 137 127 125
f 851 734 853
f 853 734 854
f 733 734 156
f 141 139 123
f 734 852 156
f 139 125 123
f 733 156 154
f 143 141 121
f 854 734 855
f 141 123 121
f 733 154 152
f 733 152 151
f 107 856 788
f 856 857 788
f 857 858 788
f 858 859 788
f 859 860 788
f 860 861 788
f 733 151 149
f 861 862 788
f 733 149 147
f 733 147 145
f 119 117 780
f 117 115 780
f 115 113 780
f 113 111 780
f 111 109 780
f 109 107 780
f 107 788 780
f 855 734 788
f 862 855 788
f 145 780 733
f 143 780 145
f 119 780 143
f 121 119 143
f 863 864 865
f 866 867 868
f 867 863 868
f 863 865 868
f 864 855 869
f 865 864 869
f 869 855 862
f 866 868 870
f 135 133 130
f 133 866 130
f 866 870 130
f 735 756 789
f 789 756 779
f 756 765 779
f 779 765 792
f 734 735 788
f 788 735 789
f 787 726 747
f 787 747 784
f 208 207 158
f 175 746 177
f 871 208 158
f 871 158 872
f 871 872 873
f 179 177 746
f 181 179 746
f 874 871 873
f 172 746 175
f 874 873 875
f 170 746 172
f 182 746 731
f 876 874 875
f 182 181 746
f 876 875 877
f 168 746 170
f 878 876 877
f 878 877 879
f 880 182 731
f 881 878 879
f 882 880 731
f 782 198 196
f 782 196 194
f 782 194 192
f 782 192 190
f 782 190 188
f 782 188 185
f 782 185 184
f 883 882 731
f 884 883 731
f 885 884 731
f 886 885 731
f 781 184 887
f 781 887 888
f 781 888 889
f 781 889 890
f 781 890 891
f 781 891 892
f 781 782 184
f 782 746 168
f 782 168 198
f 731 781 892
f 731 892 881
f 731 881 886
f 886 881 879
f 205 164 162
f 205 203 164
f 201 166 164
f 201 164 203
f 207 162 159
f 207 159 158
f 207 205 162
f 198 168 166
f 198 166 201
f 781 731 732
f 778 781 732
f 747 746 784
f 784 746 782
f 773 787 776
f 726 787 773
f 786 710 699
f 738 786 699
f 738 750 786
f 750 785 786
f 750 763 785
f 763 791 785
f 106 24 893
f 894 106 893
f 895 894 896
f 894 893 896
f 897 895 898
f 895 896 898
f 899 897 900
f 897 898 900
f 901 899 902
f 899 900 902
f 903 901 904
f 901 902 904
f 905 906 907
f 906 903 907
f 903 904 907
f 908 905 909
f 905 907 909
f 908 909 910
f 911 908 912
f 908 910 912
f 913 911 914
f 911 912 914
f 128 913 1
f 913 914 1
f 915 916 917
f 918 919 920
f 921 915 917
f 922 923 924
f 921 917 925
f 926 921 925
f 927 926 925
f 923 920 924
f 922 924 928
f 929 922 928
f 930 929 928
f 927 925 931
f 326 325 932
f 930 928 933
f 934 326 932
f 927 931 935
f 936 927 935
f 930 933 937
f 938 930 937
f 939 938 937
f 940 934 941
f 936 935 942
f 939 937 943
f 944 936 942
f 945 944 942
f 934 932 941
f 939 943 946
f 947 939 946
f 948 940 949
f 945 942 950
f 951 948 949
f 947 946 952
f 953 947 952
f 940 941 949
f 953 952 301
f 300 953 301
f 945 950 954
f 955 945 954
f 951 949 956
f 957 955 958
f 951 956 959
f 960 951 959
f 955 954 958
f 961 957 962
f 960 959 963
f 964 960 963
f 957 958 962
f 965 964 963
f 961 962 966
f 967 961 966
f 965 963 968
f 969 967 970
f 965 968 971
f 967 966 970
f 972 965 971
f 973 969 974
f 975 973 974
f 972 971 976
f 969 970 974
f 977 972 976
f 977 976 978
f 975 974 979
f 980 977 978
f 981 980 978
f 982 975 983
f 975 979 983
f 981 978 984
f 918 982 919
f 981 984 916
f 982 983 919
f 915 981 916
f 923 918 920
f 557 348 353
f 556 343 348
f 556 348 557
f 552 353 356
f 552 557 353
f 561 337 343
f 561 343 556
f 501 336 337
f 501 337 561
f 546 356 283
f 546 552 356
f 500 332 336
f 500 336 501
f 542 283 289
f 542 546 283
f 506 323 332
f 506 332 500
f 539 289 294
f 539 542 289
f 505 310 323
f 505 323 506
f 533 294 298
f 533 539 294
f 509 305 310
f 509 310 505
f 534 298 307
f 534 533 298
f 512 303 305
f 512 305 509
f 531 307 315
f 531 534 307
f 522 303 512
f 522 300 303
f 527 531 315
f 527 315 319
f 327 527 319
f 953 300 522
f 583 953 522
f 514 527 327
f 329 514 327
f 947 953 583
f 592 947 583
f 515 514 329
f 333 515 329
f 939 947 592
f 598 939 592
f 508 515 333
f 338 508 333
f 938 939 598
f 597 938 598
f 497 508 338
f 340 497 338
f 930 938 597
f 601 930 597
f 564 497 340
f 345 564 340
f 929 930 601
f 607 929 601
f 565 564 345
f 350 565 345
f 922 929 607
f 615 922 607
f 560 565 350
f 351 560 350
f 923 922 615
f 614 923 615
f 555 560 351
f 286 555 351
f 918 923 614
f 622 918 614
f 551 555 286
f 291 551 286
f 982 918 622
f 621 982 622
f 548 551 291
f 290 548 291
f 975 982 621
f 630 975 621
f 541 548 290
f 295 541 290
f 973 975 630
f 632 973 630
f 536 541 295
f 304 536 295
f 969 973 632
f 567 969 632
f 528 536 304
f 309 528 304
f 967 969 567
f 570 967 567
f 529 528 309
f 313 529 309
f 961 967 570
f 578 961 570
f 523 529 313
f 317 523 313
f 957 961 578
f 588 957 578
f 524 523 317
f 322 524 317
f 955 957 588
f 591 955 588
f 517 524 322
f 945 955 591
f 326 517 322
f 944 591 595
f 944 945 591
f 934 587 517
f 934 517 326
f 936 595 594
f 936 944 595
f 940 580 587
f 940 587 934
f 948 581 580
f 948 580 940
f 927 594 605
f 927 936 594
f 951 576 581
f 951 581 948
f 926 605 604
f 926 927 605
f 960 571 576
f 960 576 951
f 921 604 611
f 921 926 604
f 964 572 571
f 964 571 960
f 915 921 611
f 915 611 610
f 965 626 572
f 965 572 964
f 981 915 610
f 981 610 618
f 972 626 965
f 972 627 626
f 980 981 618
f 980 618 623
f 977 627 972
f 977 980 623
f 977 623 627
f 347 342 424
f 352 347 419
f 347 424 419
f 354 352 416
f 352 419 416
f 342 341 364
f 424 342 364
f 284 354 412
f 354 416 412
f 341 335 359
f 364 341 359
f 335 330 366
f 359 335 366
f 285 284 408
f 284 412 408
f 330 324 370
f 366 330 370
f 293 285 405
f 285 408 405
f 324 320 374
f 370 324 374
f 297 293 402
f 293 405 402
f 320 311 380
f 374 320 380
f 306 297 397
f 297 402 397
f 311 302 385
f 380 311 385
f 312 306 393
f 306 397 393
f 385 302 387
f 302 301 387
f 312 393 388
f 318 312 388
f 318 388 328
f 387 301 952
f 387 952 825
f 328 388 381
f 328 381 331
f 825 952 946
f 825 946 827
f 331 381 371
f 331 371 334
f 827 946 943
f 827 943 829
f 334 371 367
f 334 367 339
f 829 943 937
f 829 937 832
f 339 367 362
f 339 362 344
f 832 937 933
f 832 933 834
f 344 362 361
f 344 361 346
f 834 933 928
f 834 928 836
f 346 361 425
f 346 425 349
f 836 928 924
f 836 924 838
f 349 425 421
f 349 421 355
f 838 924 920
f 838 920 840
f 355 421 417
f 355 417 287
f 840 920 919
f 840 919 842
f 287 417 413
f 287 413 288
f 842 919 983
f 842 983 844
f 288 413 409
f 288 409 292
f 844 983 979
f 844 979 846
f 292 409 403
f 292 403 296
f 846 979 974
f 846 974 848
f 296 403 400
f 296 400 299
f 848 974 970
f 848 970 818
f 299 400 396
f 299 396 308
f 818 970 966
f 818 966 819
f 308 396 392
f 308 392 314
f 819 966 962
f 819 962 822
f 314 392 384
f 314 384 316
f 822 962 958
f 822 958 824
f 316 384 377
f 316 377 321
f 824 958 954
f 824 954 826
f 321 377 376
f 826 954 950
f 321 376 325
f 828 826 942
f 826 950 942
f 376 823 932
f 325 376 932
f 823 821 941
f 932 823 941
f 830 828 935
f 828 942 935
f 821 820 949
f 941 821 949
f 831 830 931
f 830 935 931
f 833 831 925
f 831 931 925
f 820 816 956
f 949 820 956
f 835 833 917
f 833 925 917
f 816 817 959
f 956 816 959
f 817 847 963
f 959 817 963
f 835 917 916
f 837 835 916
f 839 837 984
f 837 916 984
f 847 845 968
f 963 847 968
f 845 843 971
f 968 845 971
f 839 984 978
f 841 839 978
f 971 843 976
f 841 978 976
f 843 841 976
f 617 985 986
f 620 617 986
f 620 986 987
f 613 985 617
f 613 988 985
f 625 987 989
f 625 620 987
f 609 990 988
f 609 988 613
f 629 989 991
f 629 625 989
f 606 992 990
f 606 990 609
f 568 991 993
f 568 629 991
f 602 994 992
f 602 992 606
f 569 568 993
f 569 993 995
f 599 994 602
f 599 996 994
f 575 995 997
f 575 569 995
f 593 996 599
f 593 998 996
f 579 997 999
f 579 575 997
f 589 1000 998
f 589 998 593
f 585 999 1001
f 585 579 999
f 521 1000 589
f 521 249 1000
f 590 585 1001
f 590 1001 1002
f 246 249 521
f 1003 590 1002
f 516 246 521
f 596 590 1003
f 241 246 516
f 1004 596 1003
f 513 241 516
f 600 596 1004
f 234 241 513
f 1005 600 1004
f 510 234 513
f 603 600 1005
f 230 234 510
f 1006 603 1005
f 507 230 510
f 608 603 1006
f 231 230 507
f 1007 608 1006
f 502 231 507
f 612 608 1007
f 222 231 502
f 1008 612 1007
f 503 222 502
f 616 612 1008
f 217 222 503
f 1009 616 1008
f 566 217 503
f 619 616 1009
f 209 217 566
f 1010 619 1009
f 562 209 566
f 624 619 1010
f 210 209 562
f 1011 624 1010
f 558 210 562
f 628 624 1011
f 278 210 558
f 1012 628 1011
f 553 278 558
f 631 628 1012
f 270 278 553
f 1013 631 1012
f 549 270 553
f 574 631 1013
f 271 270 549
f 1014 574 1013
f 545 271 549
f 573 574 1014
f 268 271 545
f 1015 573 1014
f 577 573 1015
f 543 268 545
f 263 268 543
f 1016 577 1015
f 540 263 543
f 582 577 1016
f 255 263 540
f 1017 582 1016
f 535 255 540
f 584 582 1017
f 256 255 535
f 1018 584 1017
f 586 584 1018
f 532 256 535
f 251 256 532
f 1019 586 1018
f 518 586 1019
f 525 251 532
f 239 251 525
f 224 518 1019
f 240 239 525
f 240 525 520
f 229 519 518
f 229 518 224
f 233 240 520
f 233 520 511
f 235 526 519
f 235 519 229
f 223 233 511
f 223 511 504
f 243 530 526
f 243 526 235
f 219 223 504
f 219 504 499
f 253 537 530
f 253 530 243
f 213 219 499
f 213 499 498
f 258 538 537
f 258 537 253
f 281 213 498
f 281 498 563
f 261 544 538
f 261 538 258
f 282 281 563
f 282 563 559
f 265 544 261
f 265 547 544
f 277 282 559
f 277 559 554
f 269 547 265
f 269 550 547
f 274 277 554
f 274 550 269
f 274 554 550
f 1020 1021 686
f 1020 686 690
f 1022 1020 690
f 686 1021 677
f 1021 1023 677
f 1024 1022 689
f 1022 690 689
f 1023 1025 678
f 677 1023 678
f 1026 1024 697
f 1024 689 697
f 1025 1027 674
f 678 1025 674
f 1028 1026 636
f 1026 697 636
f 1027 1029 664
f 674 1027 664
f 1028 636 640
f 1030 1028 640
f 664 1029 665
f 1029 1031 665
f 1032 1030 639
f 1030 640 639
f 1031 1033 659
f 665 1031 659
f 1034 1032 644
f 1032 639 644
f 1033 1035 651
f 659 1033 651
f 1034 644 652
f 1036 1034 652
f 651 1035 444
f 1035 248 444
f 1036 652 661
f 1037 1036 661
f 444 248 245
f 1037 661 1038
f 444 245 438
f 1038 661 662
f 438 245 242
f 1038 662 1039
f 438 242 435
f 1039 662 667
f 435 242 237
f 1039 667 1040
f 435 237 430
f 1040 667 672
f 430 237 232
f 1040 672 1041
f 430 232 431
f 1041 672 671
f 431 232 227
f 1041 671 1042
f 431 227 494
f 1042 671 679
f 494 227 220
f 1042 679 1043
f 494 220 490
f 1043 679 684
f 490 220 218
f 1043 684 1044
f 490 218 485
f 1044 684 683
f 485 218 211
f 1044 683 1045
f 485 211 482
f 1045 683 691
f 482 211 212
f 1045 691 1046
f 482 212 480
f 1046 691 694
f 480 212 279
f 1046 694 1047
f 480 279 475
f 1047 694 698
f 475 279 275
f 1047 698 1048
f 475 275 472
f 1048 698 633
f 472 275 272
f 1048 633 1049
f 472 272 467
f 1049 633 641
f 467 272 266
f 1049 641 1050
f 1050 641 645
f 467 266 464
f 464 266 264
f 1050 645 1051
f 464 264 460
f 1051 645 649
f 460 264 260
f 1051 649 1052
f 460 260 456
f 1052 649 648
f 456 260 257
f 1052 648 1053
f 1053 648 656
f 456 257 453
f 453 257 252
f 1053 656 1054
f 1054 656 446
f 453 252 449
f 449 252 247
f 1054 446 225
f 449 247 238
f 443 449 238
f 446 445 226
f 225 446 226
f 443 238 228
f 437 443 228
f 445 450 236
f 226 445 236
f 437 228 221
f 427 437 221
f 450 454 244
f 236 450 244
f 427 221 216
f 428 427 216
f 454 458 250
f 244 454 250
f 428 216 215
f 493 428 215
f 458 462 254
f 250 458 254
f 493 215 214
f 488 493 214
f 462 469 259
f 254 462 259
f 488 214 280
f 489 488 280
f 259 469 262
f 469 473 262
f 489 280 276
f 484 489 276
f 262 473 267
f 473 477 267
f 484 276 273
f 267 477 273
f 477 484 273
f 1013 1012 1047
f 1012 1011 1047
f 991 1026 1028
f 1011 1046 1047
f 993 991 1028
f 993 1028 1030
f 1013 1047 1048
f 995 993 1030
f 1013 1048 1049
f 995 1030 1032
f 1014 1013 1049
f 249 248 1035
f 1014 1049 1050
f 997 995 1032
f 1000 249 1035
f 997 1032 1034
f 1015 1014 1050
f 1015 1050 1051
f 1001 999 1034
f 999 997 1034
f 1016 1015 1051
f 998 1000 1033
f 1000 1035 1033
f 1016 1051 1052
f 1001 1034 1036
f 1018 1017 1052
f 1017 1016 1052
f 1018 1052 1053
f 1001 1036 1037
f 1019 1018 1053
f 996 998 1031
f 998 1033 1031
f 1019 1053 1054
f 1002 1001 1037
f 1019 1054 225
f 224 1019 225
f 996 1031 1029
f 1003 1002 1038
f 994 996 1029
f 1002 1037 1038
f 994 1029 1027
f 1004 1003 1039
f 1003 1038 1039
f 992 994 1027
f 992 1027 1025
f 1005 1004 1040
f 1004 1039 1040
f 990 992 1025
f 1005 1040 1041
f 990 1025 1023
f 1006 1005 1041
f 988 990 1023
f 988 1023 1021
f 1008 1007 1042
f 1007 1006 1042
f 1006 1041 1042
f 985 988 1021
f 1009 1008 1043
f 1008 1042 1043
f 985 1021 1020
f 986 985 1020
f 1009 1043 1044
f 986 1020 1022
f 989 987 1022
f 987 986 1022
f 1010 1009 1045
f 1009 1044 1045
f 989 1022 1024
f 989 1024 1026
f 1011 1010 1046
f 1010 1045 1046
f 991 989 1026
f 715 766 704
f 793 766 715
f 758 777 790
f 774 777 758
f 132 50 1055
f 1056 132 1055
f 1057 1056 1058
f 1056 1055 1058
f 1059 1057 1060
f 1057 1058 1060
f 1061 1059 1062
f 1059 1060 1062
f 1063 1061 1064
f 1061 1062 1064
f 1065 1063 1066
f 1063 1064 1066
f 1067 1065 1068
f 1065 1066 1068
f 1069 1067 1070
f 1067 1068 1070
f 1071 1072 1073
f 1072 1069 1073
f 1069 1070 1073
f 1071 1073 1074
f 1075 1071 1076
f 1071 1074 1076
f 155 1075 27
f 1075 1076 27
f 183 102 1077
f 1078 1079 1077
f 1079 183 1077
f 1078 1077 1080
f 1081 1078 1082
f 1078 1080 1082
f 1083 1081 1084
f 1081 1082 1084
f 1085 1083 1086
f 1083 1084 1086
f 1087 1085 1088
f 1085 1086 1088
f 1089 1087 1090
f 1087 1088 1090
f 1091 1092 1093
f 1092 1089 1093
f 1089 1090 1093
f 1091 1093 1094
f 1095 1096 1097
f 1096 1091 1097
f 1091 1094 1097
f 206 1095 1098
f 1095 1097 1098
f 206 1098 79
f 1099 157 76
f 1100 1099 1101
f 1099 76 1101
f 1102 1100 1103
f 1100 1101 1103
f 1102 1103 1104
f 1105 1102 1106
f 1102 1104 1106
f 1107 1105 1108
f 1105 1106 1108
f 1109 1107 1110
f 1107 1108 1110
f 1111 1109 1112
f 1109 1110 1112
f 1113 1111 1114
f 1111 1112 1114
f 1115 1113 1116
f 1113 1114 1116
f 1117 1118 1119
f 1118 1115 1119
f 1115 1116 1119
f 180 1117 1120
f 1117 1119 1120
f 180 1120 53
f 1095 206 208
f 1096 1095 871
f 1095 208 871
f 1091 1096 874
f 1096 871 874
f 1092 1091 876
f 1091 874 876
f 1089 1092 878
f 1092 876 878
f 1087 1089 881
f 1089 878 881
f 1085 1087 892
f 1087 881 892
f 1083 1085 891
f 1085 892 891
f 1081 1083 890
f 1083 891 890
f 1078 1081 889
f 1081 890 889
f 1079 1078 888
f 1078 889 888
f 183 1079 887
f 1079 888 887
f 183 887 184
f 1117 180 182
f 1118 1117 880
f 1117 182 880
f 1115 1118 882
f 1118 880 882
f 1113 1115 883
f 1115 882 883
f 1111 1113 884
f 1113 883 884
f 1109 1111 885
f 1111 884 885
f 1107 1109 886
f 1109 885 886
f 1105 1107 879
f 1107 886 879
f 1102 1105 877
f 1105 879 877
f 1100 1102 875
f 1102 877 875
f 1099 1100 873
f 1100 875 873
f 1099 873 872
f 157 1099 158
f 1099 872 158
f 155 156 852
f 1075 155 852
f 1071 1075 852
f 1071 852 850
f 1072 1071 849
f 1071 850 849
f 1069 1072 851
f 1072 849 851
f 1067 1069 853
f 1069 851 853
f 1065 1067 854
f 1067 853 854
f 1063 1065 855
f 1061 1063 855
f 1065 854 855
f 1059 1061 864
f 1061 855 864
f 1057 1059 863
f 1059 864 863
f 1056 1057 867
f 1057 863 867
f 132 1056 866
f 1056 867 866
f 132 866 133
f 913 128 130
f 913 130 870
f 911 913 868
f 913 870 868
f 908 911 865
f 911 868 865
f 905 908 869
f 908 865 869
f 906 905 862
f 905 869 862
f 903 906 861
f 901 903 861
f 906 862 861
f 899 901 860
f 901 861 860
f 897 899 859
f 899 860 859
f 895 897 858
f 897 859 858
f 894 895 857
f 895 858 857
f 106 894 856
f 894 857 856
f 106 856 107
f 1077 102 104
f 1080 1077 814
f 1077 104 814
f 1082 1080 813
f 1080 814 813
f 1084 1082 812
f 1082 813 812
f 1086 1084 811
f 1084 812 811
f 1088 1086 810
f 1086 811 810
f 1088 810 808
f 1090 1088 807
f 1088 808 807
f 1093 1090 800
f 1090 807 800
f 1094 1093 799
f 1097 1094 799
f 1093 800 799
f 1097 799 796
f 1098 1097 794
f 1097 796 794
f 79 1098 80
f 1098 794 80
f 1101 76 78
f 1103 1101 795
f 1101 78 795
f 1104 1103 798
f 1103 795 798
f 1106 1104 797
f 1104 798 797
f 1108 1106 801
f 1106 797 801
f 1110 1108 815
f 1108 801 815
f 1110 815 809
f 1112 1110 806
f 1110 809 806
f 1114 1112 805
f 1112 806 805
f 1116 1114 804
f 1114 805 804
f 1119 1116 803
f 1120 1119 803
f 1116 804 803
f 1120 803 802
f 53 1120 54
f 1120 802 54
f 1055 50 52
f 1058 1055 701
f 1055 52 701
f 1060 1058 703
f 1058 701 703
f 1062 1060 706
f 1060 703 706
f 1064 1062 709
f 1062 706 709
f 1066 1064 724
f 1064 709 724
f 1066 724 718
f 1068 1066 714
f 1066 718 714
f 1070 1068 713
f 1068 714 713
f 1073 1070 712
f 1070 713 712
f 1074 1073 711
f 1076 1074 711
f 1073 712 711
f 1076 711 707
f 27 1076 28
f 1076 707 28
f 893 24 26
f 896 893 723
f 893 26 723
f 898 896 722
f 896 723 722
f 900 898 721
f 898 722 721
f 902 900 720
f 900 721 720
f 904 902 719
f 902 720 719
f 904 719 717
f 907 904 716
f 909 907 716
f 904 717 716
f 909 716 708
f 910 909 705
f 909 708 705
f 912 910 702
f 910 705 702
f 914 912 700
f 912 702 700
f 1 914 2
f 914 700 2
