# Created by FreeCAD <http://www.freecadweb.org>
v 24.108761 544.200012 104.206650
v 24.293354 544.200012 104.391235
v 24.207108 544.200012 104.292892
v 22.433012 544.200012 109.750000
v 24.500000 544.200012 111.000000
v 22.482964 544.200012 109.629410
v 18.750000 544.200012 106.066986
v 18.870590 544.200012 106.017036
v 17.500000 544.200012 104.000000
v 16.500000 544.200012 111.000000
v 18.517036 544.200012 109.629410
v 18.500000 544.200012 109.500000
v 18.566988 544.200012 109.750000
v 18.646446 544.200012 109.853554
v 24.423880 544.200012 104.617317
v 24.366026 544.200012 104.500000
v 22.353554 544.200012 109.853554
v 16.500000 544.200012 105.000000
v 17.500000 544.200012 112.000000
v 16.792892 544.200012 104.292892
v 17.241180 544.200012 104.034073
v 16.891239 544.200012 104.206650
v 23.882683 544.200012 104.076118
v 24.000000 544.200012 104.133972
v 18.750000 544.200012 109.933014
v 18.870590 544.200012 109.982964
v 19.000000 544.200012 110.000000
v 23.500000 544.200012 112.000000
v 17.369474 544.200012 111.991447
v 24.465925 544.200012 104.741180
v 18.646446 544.200012 106.146446
v 17.241180 544.200012 111.965927
v 16.508554 544.200012 111.130524
v 16.534075 544.200012 111.258820
v 17.117317 544.200012 111.923882
v 23.630526 544.200012 104.008553
v 23.758820 544.200012 104.034073
v 24.500000 544.200012 105.000000
v 24.491446 544.200012 104.869476
v 16.633974 544.200012 111.500000
v 16.576120 544.200012 111.382683
v 16.891239 544.200012 111.793350
v 24.108761 544.200012 111.793350
v 24.366026 544.200012 111.500000
v 24.465925 544.200012 111.258820
v 23.500000 544.200012 104.000000
v 24.207108 544.200012 111.707108
v 24.293354 544.200012 111.608765
v 17.000000 544.200012 111.866028
v 16.706646 544.200012 111.608765
v 22.353554 544.200012 106.146446
v 16.792892 544.200012 111.707108
v 22.433012 544.200012 106.250000
v 22.250000 544.200012 106.066986
v 22.482964 544.200012 106.370590
v 22.129410 544.200012 106.017036
v 16.633974 544.200012 104.500000
v 17.369474 544.200012 104.008553
v 16.706646 544.200012 104.391235
v 22.500000 544.200012 106.500000
v 22.000000 544.200012 106.000000
v 23.882683 544.200012 111.923882
v 24.000000 544.200012 111.866028
v 16.534075 544.200012 104.741180
v 16.576120 544.200012 104.617317
v 24.491446 544.200012 111.130524
v 23.758820 544.200012 111.965927
v 22.500000 544.200012 109.500000
v 23.630526 544.200012 111.991447
v 19.000000 544.200012 106.000000
v 22.129410 544.200012 109.982964
v 22.000000 544.200012 110.000000
v 22.250000 544.200012 109.933014
v 18.566988 544.200012 106.250000
v 18.517036 544.200012 106.370590
v 17.000000 544.200012 104.133972
v 17.117317 544.200012 104.076118
v 18.500000 544.200012 106.500000
v 16.508554 544.200012 104.869476
v 24.423880 544.200012 111.382683
v 18.500000 544.190002 109.500000
v 18.517036 544.190002 109.629410
v 18.566988 544.190002 109.750000
v 18.646446 544.190002 109.853554
v 18.750000 544.190002 109.933014
v 18.870590 544.190002 109.982964
v 19.000000 544.190002 110.000000
v 18.500000 544.190002 106.500000
v 19.000000 544.190002 106.000000
v 18.870590 544.190002 106.017036
v 18.750000 544.190002 106.066986
v 18.646446 544.190002 106.146446
v 18.566988 544.190002 106.250000
v 18.517036 544.190002 106.370590
v 22.000000 544.190002 106.000000
v 22.500000 544.190002 106.500000
v 22.482964 544.190002 106.370590
v 22.433012 544.190002 106.250000
v 22.353554 544.190002 106.146446
v 22.250000 544.190002 106.066986
v 22.129410 544.190002 106.017036
v 22.500000 544.190002 109.500000
v 22.000000 544.190002 110.000000
v 22.129410 544.190002 109.982964
v 22.250000 544.190002 109.933014
v 22.353554 544.190002 109.853554
v 22.433012 544.190002 109.750000
v 22.482964 544.190002 109.629410
v 26.116026 544.190002 102.750000
v 26.043354 544.190002 102.641235
v 25.957108 544.190002 102.542892
v 25.750000 544.190002 102.383972
v 25.858761 544.190002 102.456650
v 25.632683 544.190002 102.326118
v 26.173880 544.190002 102.867317
v 25.508820 544.190002 102.284073
v 25.250000 544.190002 102.250000
v 25.380526 544.190002 102.258553
v 26.250000 544.190002 103.250000
v 26.241446 544.190002 103.119476
v 26.215925 544.190002 102.991180
v 24.207108 544.190002 104.292892
v 24.293354 544.190002 104.391235
v 24.108761 544.190002 104.206650
v 24.366026 544.190002 104.500000
v 24.000000 544.190002 104.133972
v 24.423880 544.190002 104.617317
v 23.882683 544.190002 104.076118
v 24.465925 544.190002 104.741180
v 23.758820 544.190002 104.034073
v 24.491446 544.190002 104.869476
v 23.630526 544.190002 104.008553
v 24.500000 544.190002 105.000000
v 23.500000 544.190002 104.000000
v 15.750000 544.190002 102.250000
v 17.500000 544.190002 104.000000
v 26.250000 544.190002 112.750000
v 24.500000 544.190002 111.000000
v 17.369474 544.190002 104.008553
v 24.491446 544.190002 111.130524
v 17.241180 544.190002 104.034073
v 24.465925 544.190002 111.258820
v 17.117317 544.190002 104.076118
v 15.367316 544.190002 102.326118
v 15.619473 544.190002 102.258553
v 15.491181 544.190002 102.284073
v 26.173880 544.190002 113.132683
v 26.215925 544.190002 113.008820
v 26.241446 544.190002 112.880524
v 24.423880 544.190002 111.382683
v 17.000000 544.190002 104.133972
v 15.250000 544.190002 102.383972
v 26.116026 544.190002 113.250000
v 24.366026 544.190002 111.500000
v 16.891239 544.190002 104.206650
v 15.141238 544.190002 102.456650
v 26.043354 544.190002 113.358765
v 24.293354 544.190002 111.608765
v 16.792892 544.190002 104.292892
v 24.207108 544.190002 111.707108
v 14.956647 544.190002 102.641235
v 15.042893 544.190002 102.542892
v 25.858761 544.190002 113.543350
v 25.957108 544.190002 113.457108
v 14.826120 544.190002 102.867317
v 14.883975 544.190002 102.750000
v 25.632683 544.190002 113.673882
v 25.750000 544.190002 113.616028
v 14.784074 544.190002 102.991180
v 25.508820 544.190002 113.715927
v 14.758555 544.190002 103.119476
v 14.750000 544.190002 103.250000
v 16.706646 544.190002 104.391235
v 16.633974 544.190002 104.500000
v 16.576120 544.190002 104.617317
v 16.534075 544.190002 104.741180
v 16.508554 544.190002 104.869476
v 25.250000 544.190002 113.750000
v 23.758820 544.190002 111.965927
v 23.630526 544.190002 111.991447
v 23.882683 544.190002 111.923882
v 24.000000 544.190002 111.866028
v 24.108761 544.190002 111.793350
v 25.380526 544.190002 113.741447
v 16.500000 544.190002 105.000000
v 23.500000 544.190002 112.000000
v 14.750000 544.190002 112.750000
v 16.500000 544.190002 111.000000
v 16.508554 544.190002 111.130524
v 16.534075 544.190002 111.258820
v 16.576120 544.190002 111.382683
v 16.633974 544.190002 111.500000
v 16.706646 544.190002 111.608765
v 16.792892 544.190002 111.707108
v 15.750000 544.190002 113.750000
v 17.500000 544.190002 112.000000
v 16.891239 544.190002 111.793350
v 17.000000 544.190002 111.866028
v 17.117317 544.190002 111.923882
v 17.241180 544.190002 111.965927
v 17.369474 544.190002 111.991447
v 14.758555 544.190002 112.880524
v 15.367316 544.190002 113.673882
v 15.491181 544.190002 113.715927
v 15.619473 544.190002 113.741447
v 14.883975 544.190002 113.250000
v 14.784074 544.190002 113.008820
v 14.826120 544.190002 113.132683
v 15.250000 544.190002 113.616028
v 15.042893 544.190002 113.457108
v 14.956647 544.190002 113.358765
v 15.141238 544.190002 113.543350
v 25.957108 544.099976 102.542892
v 26.043354 544.099976 102.641235
v 25.858761 544.099976 102.456650
v 25.750000 544.099976 113.616028
v 25.632683 544.099976 113.673882
v 25.380526 544.099976 113.741447
v 25.508820 544.099976 113.715927
v 14.784074 544.099976 102.991180
v 14.826120 544.099976 102.867317
v 14.758555 544.099976 103.119476
v 26.116026 544.099976 102.750000
v 26.250000 544.099976 112.750000
v 26.043354 544.099976 113.358765
v 25.250000 544.099976 113.750000
v 26.250000 544.099976 103.250000
v 15.750000 544.099976 102.250000
v 25.250000 544.099976 102.250000
v 14.750000 544.099976 103.250000
v 14.750000 544.099976 112.750000
v 15.750000 544.099976 113.750000
v 25.750000 544.099976 102.383972
v 26.241446 544.099976 103.119476
v 26.173880 544.099976 102.867317
v 26.215925 544.099976 102.991180
v 14.784074 544.099976 113.008820
v 25.380526 544.099976 102.258553
v 25.508820 544.099976 102.284073
v 25.632683 544.099976 102.326118
v 14.758555 544.099976 112.880524
v 15.367316 544.099976 113.673882
v 15.619473 544.099976 113.741447
v 15.491181 544.099976 113.715927
v 14.826120 544.099976 113.132683
v 14.883975 544.099976 113.250000
v 14.956647 544.099976 113.358765
v 26.241446 544.099976 112.880524
v 26.215925 544.099976 113.008820
v 15.250000 544.099976 113.616028
v 15.042893 544.099976 113.457108
v 15.141238 544.099976 113.543350
v 26.173880 544.099976 113.132683
v 26.116026 544.099976 113.250000
v 15.367316 544.099976 102.326118
v 15.491181 544.099976 102.284073
v 15.250000 544.099976 102.383972
v 15.141238 544.099976 102.456650
v 15.042893 544.099976 102.542892
v 25.957108 544.099976 113.457108
v 25.858761 544.099976 113.543350
v 14.883975 544.099976 102.750000
v 14.956647 544.099976 102.641235
v 15.619473 544.099976 102.258553
f 1 2 3
f 4 5 6
f 7 8 9
f 10 11 12
f 10 13 11
f 10 14 13
f 15 16 2
f 17 5 4
f 10 12 18
f 19 14 10
f 20 21 22
f 23 1 24
f 19 25 14
f 19 26 25
f 19 27 26
f 19 28 27
f 29 19 10
f 30 2 1
f 30 15 2
f 31 7 9
f 30 1 23
f 32 29 10
f 32 10 33
f 34 32 33
f 35 32 34
f 36 23 37
f 38 39 30
f 40 34 41
f 42 35 34
f 43 44 45
f 46 38 30
f 42 34 40
f 43 47 48
f 46 23 36
f 42 49 35
f 43 48 44
f 46 30 23
f 50 42 40
f 51 38 46
f 52 42 50
f 53 38 51
f 54 51 46
f 55 38 53
f 56 54 46
f 57 21 20
f 57 9 58
f 57 58 21
f 57 20 59
f 60 38 55
f 61 56 46
f 62 63 43
f 64 9 57
f 64 57 65
f 45 66 5
f 67 62 43
f 68 38 60
f 69 45 5
f 69 43 45
f 68 5 38
f 69 67 43
f 70 61 46
f 28 71 72
f 28 73 71
f 28 17 73
f 28 5 17
f 70 46 9
f 28 69 5
f 18 74 31
f 18 75 74
f 76 21 77
f 18 78 75
f 18 31 9
f 18 9 64
f 18 64 79
f 44 80 45
f 6 5 68
f 8 70 9
f 12 78 18
f 27 28 72
f 22 21 76
f 81 12 11
f 82 81 11
f 83 82 11
f 84 83 13
f 83 11 13
f 85 84 14
f 84 13 14
f 86 85 25
f 85 14 25
f 86 25 26
f 87 86 27
f 86 26 27
f 81 88 12
f 88 78 12
f 89 70 8
f 90 89 8
f 91 90 8
f 92 91 7
f 91 8 7
f 92 7 31
f 93 92 74
f 94 93 74
f 92 31 74
f 88 94 75
f 94 74 75
f 88 75 78
f 61 70 89
f 95 61 89
f 96 60 55
f 97 96 55
f 98 97 53
f 99 98 53
f 97 55 53
f 100 99 51
f 99 53 51
f 101 100 54
f 100 51 54
f 95 101 56
f 101 54 56
f 95 56 61
f 96 102 60
f 102 68 60
f 103 72 71
f 104 103 71
f 105 104 71
f 105 71 73
f 106 105 17
f 107 106 17
f 105 73 17
f 108 107 4
f 107 17 4
f 108 4 6
f 102 108 68
f 108 6 68
f 72 103 27
f 103 87 27
f 92 93 91
f 91 93 94
f 91 94 90
f 94 88 89
f 90 94 89
f 89 88 81
f 81 82 84
f 82 83 84
f 100 101 99
f 101 95 99
f 99 95 98
f 81 84 85
f 98 95 97
f 85 86 87
f 95 89 87
f 89 81 87
f 81 85 87
f 97 95 96
f 95 87 103
f 96 95 102
f 95 103 102
f 102 103 108
f 103 104 105
f 108 103 105
f 108 105 107
f 107 105 106
f 109 110 111
f 112 109 111
f 112 111 113
f 114 109 112
f 114 115 109
f 116 115 114
f 117 115 116
f 117 116 118
f 119 115 117
f 119 120 121
f 119 121 115
f 122 119 117
f 123 119 122
f 124 122 117
f 125 119 123
f 126 124 117
f 127 119 125
f 128 126 117
f 129 119 127
f 130 128 117
f 131 119 129
f 132 130 117
f 133 119 131
f 134 132 117
f 135 136 134
f 135 134 117
f 137 133 138
f 137 119 133
f 139 136 135
f 140 137 138
f 141 139 135
f 142 137 140
f 143 141 135
f 144 145 146
f 147 148 149
f 150 137 142
f 151 143 135
f 152 145 144
f 153 149 137
f 153 147 149
f 154 137 150
f 155 151 135
f 156 135 145
f 156 145 152
f 157 153 137
f 158 137 154
f 159 155 135
f 160 137 158
f 161 156 162
f 163 164 157
f 165 161 166
f 167 163 157
f 167 157 137
f 167 168 163
f 169 135 156
f 169 156 161
f 169 161 165
f 170 167 137
f 171 135 169
f 172 173 159
f 172 174 173
f 172 175 174
f 172 176 175
f 172 177 176
f 172 135 171
f 172 159 135
f 178 137 160
f 178 170 137
f 178 179 180
f 178 181 179
f 178 182 181
f 178 183 182
f 178 160 183
f 178 184 170
f 185 177 172
f 186 178 180
f 187 188 185
f 187 189 188
f 187 190 189
f 187 191 190
f 187 192 191
f 187 193 192
f 187 194 193
f 187 185 172
f 195 186 196
f 195 197 194
f 195 198 197
f 195 199 198
f 195 200 199
f 195 201 200
f 195 196 201
f 195 178 186
f 195 194 187
f 202 195 187
f 203 204 205
f 206 202 207
f 206 207 208
f 209 203 205
f 209 205 195
f 209 195 202
f 209 202 206
f 210 209 206
f 210 206 211
f 210 212 209
f 33 10 188
f 33 188 189
f 34 189 190
f 34 33 189
f 41 190 191
f 41 34 190
f 40 191 192
f 40 41 191
f 50 192 193
f 50 40 192
f 52 193 194
f 52 50 193
f 42 194 197
f 42 52 194
f 49 197 198
f 49 42 197
f 35 198 199
f 35 49 198
f 32 199 200
f 32 35 199
f 29 200 201
f 29 32 200
f 19 201 196
f 19 29 201
f 10 18 185
f 188 10 185
f 58 9 136
f 58 136 139
f 21 139 141
f 21 141 143
f 21 58 139
f 77 143 151
f 77 21 143
f 76 151 155
f 76 77 151
f 22 76 155
f 20 155 159
f 20 159 173
f 20 22 155
f 59 20 173
f 57 173 174
f 57 59 173
f 65 174 175
f 65 175 176
f 65 57 174
f 64 176 177
f 64 65 176
f 79 177 185
f 79 64 177
f 18 79 185
f 136 46 134
f 9 46 136
f 38 133 131
f 39 38 131
f 30 131 129
f 30 39 131
f 15 129 127
f 15 127 125
f 15 30 129
f 16 15 125
f 2 125 123
f 2 123 122
f 2 16 125
f 3 2 122
f 1 122 124
f 1 124 126
f 1 3 122
f 24 126 128
f 24 1 126
f 23 24 128
f 37 128 130
f 37 130 132
f 37 23 128
f 36 37 132
f 46 132 134
f 46 36 132
f 138 133 38
f 5 138 38
f 69 28 186
f 69 186 180
f 67 180 179
f 67 69 180
f 62 179 181
f 62 67 179
f 63 181 182
f 63 182 183
f 63 62 181
f 43 63 183
f 47 183 160
f 47 160 158
f 47 43 183
f 48 47 158
f 44 158 154
f 44 48 158
f 80 154 150
f 80 150 142
f 80 44 154
f 45 142 140
f 45 80 142
f 66 140 138
f 66 45 140
f 5 66 138
f 28 19 196
f 28 196 186
f 213 214 215
f 216 217 218
f 217 219 218
f 220 221 222
f 215 214 223
f 224 225 226
f 225 216 226
f 216 218 226
f 227 224 226
f 228 229 230
f 222 221 230
f 221 228 230
f 227 226 231
f 230 229 231
f 226 232 231
f 229 227 231
f 233 215 234
f 223 235 234
f 235 236 234
f 215 223 234
f 231 232 237
f 238 239 229
f 239 240 229
f 241 231 237
f 240 233 229
f 234 227 229
f 237 232 242
f 232 243 242
f 243 244 242
f 233 234 229
f 245 237 246
f 237 242 247
f 246 237 247
f 224 248 249
f 242 250 251
f 250 252 251
f 247 242 251
f 249 253 254
f 224 249 254
f 255 256 257
f 224 254 225
f 257 256 258
f 258 256 259
f 225 260 216
f 260 261 216
f 262 263 221
f 263 259 221
f 259 256 221
f 256 264 221
f 264 228 221
f 248 224 137
f 248 149 148
f 248 137 149
f 249 148 147
f 249 248 148
f 253 147 153
f 253 249 147
f 254 253 153
f 225 153 157
f 225 254 153
f 260 164 163
f 260 157 164
f 260 225 157
f 261 163 168
f 261 260 163
f 216 168 167
f 216 261 168
f 217 167 170
f 217 216 167
f 219 217 170
f 218 170 184
f 218 219 170
f 226 184 178
f 226 218 184
f 243 232 195
f 243 195 205
f 244 205 204
f 244 243 205
f 242 204 203
f 242 244 204
f 250 209 212
f 250 203 209
f 250 242 203
f 252 250 212
f 251 212 210
f 251 252 212
f 247 210 211
f 247 251 210
f 246 211 206
f 246 247 211
f 245 206 208
f 245 246 206
f 237 208 207
f 237 245 208
f 241 202 187
f 241 207 202
f 241 237 207
f 231 241 187
f 226 178 232
f 232 178 195
f 222 230 172
f 222 172 171
f 220 171 169
f 220 222 171
f 221 169 165
f 221 220 169
f 262 165 166
f 262 221 165
f 263 166 161
f 263 262 166
f 259 161 162
f 259 263 161
f 258 162 156
f 258 259 162
f 257 156 152
f 257 258 156
f 255 144 146
f 255 152 144
f 255 257 152
f 256 146 145
f 256 255 146
f 264 145 135
f 264 256 145
f 228 264 135
f 172 230 231
f 172 231 187
f 229 117 118
f 238 118 116
f 238 229 118
f 239 116 114
f 239 238 116
f 240 114 112
f 240 239 114
f 233 112 113
f 233 240 112
f 215 113 111
f 215 233 113
f 213 111 110
f 213 215 111
f 214 213 110
f 223 109 115
f 223 110 109
f 223 214 110
f 235 115 121
f 235 223 115
f 236 121 120
f 236 235 121
f 234 236 120
f 227 120 119
f 227 234 120
f 117 229 135
f 229 228 135
f 227 119 224
f 224 119 137
