# Created by FreeCAD <http://www.freecadweb.org>
v 22.389999 531.861267 -5.115991
v 22.400000 531.861267 -5.115991
v 22.400000 532.000000 -5.120533
v 22.389999 532.000000 -5.120533
v 22.389999 530.316895 -4.290508
v 22.400000 530.316895 -4.290508
v 22.400000 530.404968 -4.397824
v 22.389999 532.138733 -5.115991
v 22.389999 530.404968 -4.397824
v 22.389999 533.683105 -4.290508
v 22.400000 533.595032 -4.397824
v 22.400000 533.683105 -4.290508
v 22.389999 532.276917 -5.102384
v 22.400000 532.138733 -5.115991
v 22.400000 530.499878 -4.499151
v 22.389999 530.499878 -4.499151
v 22.400000 533.763977 -4.177661
v 22.389999 533.763977 -4.177661
v 22.400000 532.276917 -5.102384
v 22.389999 529.882996 -3.137756
v 22.389999 529.878479 -2.999001
v 22.400000 529.878479 -2.999001
v 22.400000 530.601196 -4.594053
v 22.389999 530.601196 -4.594053
v 22.400000 533.837280 -4.059767
v 22.389999 533.837280 -4.059767
v 22.400000 532.413879 -5.079769
v 22.389999 532.413879 -5.079769
v 22.389999 532.549072 -5.048244
v 22.400000 529.882996 -3.137756
v 22.389999 529.896606 -3.275916
v 22.389999 530.708496 -4.682126
v 22.400000 530.708496 -4.682126
v 22.400000 533.902771 -3.937331
v 22.389999 533.902771 -3.937331
v 22.389999 533.960022 -3.810876
v 22.400000 532.549072 -5.048244
v 22.389999 532.681946 -5.007944
v 22.400000 529.896606 -3.275916
v 22.400000 533.960022 -3.810876
v 22.389999 530.821350 -4.762990
v 22.400000 530.821350 -4.762990
v 22.400000 532.681946 -5.007944
v 22.400000 534.008972 -3.680945
v 22.400000 529.919250 -3.412891
v 22.389999 534.008972 -3.680945
v 22.389999 529.919250 -3.412891
v 22.389999 529.950745 -3.548094
v 22.389999 530.939209 -4.836302
v 22.400000 530.939209 -4.836302
v 22.389999 531.061646 -4.901746
v 22.400000 534.049255 -3.548094
v 22.400000 532.811890 -4.959042
v 22.389999 534.049255 -3.548094
v 22.389999 532.811890 -4.959042
v 22.389999 532.938354 -4.901746
v 22.400000 529.950745 -3.548094
v 22.400000 534.080750 -3.412891
v 22.389999 534.080750 -3.412891
v 22.389999 534.103394 -3.275916
v 22.400000 531.061646 -4.901746
v 22.400000 532.938354 -4.901746
v 22.400000 534.103394 -3.275916
v 22.400000 529.991028 -3.680945
v 22.400000 534.117004 -3.137756
v 22.389999 529.991028 -3.680945
v 22.389999 534.117004 -3.137756
v 22.389999 531.188110 -4.959042
v 22.400000 531.188110 -4.959042
v 22.400000 534.121521 -2.999001
v 22.389999 534.121521 -2.999001
v 22.400000 533.060791 -4.836302
v 22.389999 533.060791 -4.836302
v 22.400000 530.039978 -3.810876
v 22.389999 530.039978 -3.810876
v 22.389999 531.318054 -5.007944
v 22.400000 531.318054 -5.007944
v 22.389999 531.450928 -5.048244
v 22.400000 533.178650 -4.762990
v 22.389999 533.178650 -4.762990
v 22.389999 533.291504 -4.682126
v 22.400000 530.097229 -3.937331
v 22.389999 530.097229 -3.937331
v 22.389999 530.162720 -4.059767
v 22.400000 533.291504 -4.682126
v 22.400000 531.450928 -5.048244
v 22.389999 533.398804 -4.594053
v 22.400000 530.162720 -4.059767
v 22.389999 531.586121 -5.079769
v 22.400000 531.586121 -5.079769
v 22.400000 533.398804 -4.594053
v 22.400000 530.236023 -4.177661
v 22.389999 531.723083 -5.102384
v 22.400000 531.723083 -5.102384
v 22.389999 530.236023 -4.177661
v 22.400000 533.500122 -4.499151
v 22.389999 533.500122 -4.499151
v 22.389999 533.595032 -4.397824
v 22.400000 534.995605 -2.836584
v 22.389999 535.000000 -2.999001
v 22.389999 534.995605 -2.836584
v 22.400000 535.000000 -2.999001
v 22.400000 534.982422 -2.674644
v 22.389999 534.982422 -2.674644
v 22.389999 534.960449 -2.513655
v 22.400000 534.960449 -2.513655
v 22.400000 534.929871 -2.354089
v 22.389999 534.929871 -2.354089
v 22.400000 534.890625 -2.196416
v 22.389999 534.890625 -2.196416
v 22.389999 534.842957 -2.041096
v 22.400000 534.842957 -2.041096
v 22.389999 534.786926 -1.888586
v 22.400000 534.786926 -1.888586
v 22.400000 534.722717 -1.739334
v 22.389999 534.722717 -1.739334
v 22.400000 534.650513 -1.593775
v 22.389999 534.650513 -1.593775
v 22.389999 534.570557 -1.452339
v 22.400000 534.570557 -1.452339
v 22.389999 534.483093 -1.315440
v 22.400000 534.483093 -1.315440
v 22.400000 534.388306 -1.183478
v 22.389999 534.388306 -1.183478
v 22.400000 534.286499 -1.056842
v 22.389999 534.286499 -1.056842
v 22.389999 534.177979 -0.935902
v 22.400000 534.177979 -0.935902
v 22.389999 534.063110 -0.821014
v 22.400000 534.063110 -0.821014
v 22.400000 533.942139 -0.712515
v 22.389999 533.942139 -0.712515
v 22.400000 533.815552 -0.610722
v 22.389999 533.815552 -0.610722
v 22.400000 533.683533 -0.515934
v 22.389999 533.683533 -0.515934
v 22.389999 533.546692 -0.428429
v 22.400000 533.546692 -0.428429
v 22.389999 533.405212 -0.348465
v 22.400000 533.405212 -0.348465
v 22.400000 533.259644 -0.276275
v 22.389999 533.259644 -0.276275
v 22.400000 533.110413 -0.212071
v 22.389999 533.110413 -0.212071
v 22.400000 532.957886 -0.156041
v 22.389999 532.957886 -0.156041
v 22.389999 532.802612 -0.108351
v 22.400000 532.802612 -0.108351
v 22.400000 532.644897 -0.069139
v 22.389999 532.644897 -0.069139
v 22.400000 532.485352 -0.038521
v 22.389999 532.485352 -0.038521
v 22.389999 532.324341 -0.016587
v 22.400000 532.324341 -0.016587
v 22.400000 532.162415 -0.003401
v 22.389999 532.162415 -0.003401
v 22.400000 532.000000 0.000999
v 22.389999 532.000000 0.000999
v 22.389999 531.837585 -0.003401
v 22.400000 531.837585 -0.003401
v 22.400000 531.675659 -0.016587
v 22.389999 531.675659 -0.016587
v 22.389999 531.514648 -0.038521
v 22.400000 531.514648 -0.038521
v 22.389999 531.355103 -0.069139
v 22.400000 531.355103 -0.069139
v 22.400000 531.197388 -0.108351
v 22.389999 531.197388 -0.108351
v 22.389999 531.042114 -0.156041
v 22.400000 531.042114 -0.156041
v 22.400000 530.889587 -0.212071
v 22.389999 530.889587 -0.212071
v 22.400000 530.740356 -0.276275
v 22.389999 530.740356 -0.276275
v 22.389999 530.594788 -0.348465
v 22.400000 530.594788 -0.348465
v 22.400000 530.453308 -0.428429
v 22.389999 530.453308 -0.428429
v 22.389999 530.316467 -0.515934
v 22.400000 530.316467 -0.515934
v 22.389999 530.184448 -0.610722
v 22.400000 530.184448 -0.610722
v 22.389999 530.057861 -0.712515
v 22.400000 530.057861 -0.712515
v 22.400000 529.936890 -0.821014
v 22.389999 529.936890 -0.821014
v 22.389999 529.822021 -0.935902
v 22.400000 529.822021 -0.935902
v 22.389999 529.713501 -1.056842
v 22.400000 529.713501 -1.056842
v 22.389999 529.611694 -1.183478
v 22.400000 529.611694 -1.183478
v 22.389999 529.516907 -1.315440
v 22.400000 529.516907 -1.315440
v 22.400000 529.429443 -1.452339
v 22.389999 529.429443 -1.452339
v 22.400000 529.349487 -1.593775
v 22.389999 529.349487 -1.593775
v 22.389999 529.277283 -1.739334
v 22.400000 529.277283 -1.739334
v 22.389999 529.213074 -1.888586
v 22.400000 529.213074 -1.888586
v 22.400000 529.157043 -2.041096
v 22.389999 529.157043 -2.041096
v 22.389999 529.109375 -2.196416
v 22.400000 529.109375 -2.196416
v 22.389999 529.070129 -2.354089
v 22.400000 529.070129 -2.354089
v 22.389999 529.039551 -2.513655
v 22.400000 529.039551 -2.513655
v 22.400000 529.017578 -2.674644
v 22.389999 529.017578 -2.674644
v 22.389999 529.004395 -2.836584
v 22.400000 529.004395 -2.836584
v 22.400000 529.000000 -2.999001
v 22.389999 529.000000 -2.999001
v 22.400000 529.004395 -3.161417
v 22.389999 529.004395 -3.161417
v 22.400000 529.017578 -3.323358
v 22.389999 529.017578 -3.323358
v 22.400000 529.039551 -3.484347
v 22.389999 529.039551 -3.484347
v 22.389999 529.070129 -3.643912
v 22.400000 529.070129 -3.643912
v 22.389999 529.109375 -3.801586
v 22.400000 529.109375 -3.801586
v 22.400000 529.157043 -3.956905
v 22.389999 529.157043 -3.956905
v 22.400000 529.213074 -4.109415
v 22.389999 529.213074 -4.109415
v 22.400000 529.277283 -4.258668
v 22.389999 529.277283 -4.258668
v 22.400000 529.349487 -4.404226
v 22.389999 529.349487 -4.404226
v 22.389999 529.429443 -4.545662
v 22.400000 529.429443 -4.545662
v 22.389999 529.516907 -4.682562
v 22.400000 529.516907 -4.682562
v 22.400000 529.611694 -4.814523
v 22.389999 529.611694 -4.814523
v 22.389999 529.713501 -4.941160
v 22.400000 529.713501 -4.941160
v 22.400000 529.822021 -5.062099
v 22.389999 529.822021 -5.062099
v 22.400000 529.936890 -5.176987
v 22.389999 529.936890 -5.176987
v 22.400000 530.057861 -5.285487
v 22.389999 530.057861 -5.285487
v 22.400000 530.184448 -5.387280
v 22.389999 530.184448 -5.387280
v 22.400000 530.316467 -5.482068
v 22.389999 530.316467 -5.482068
v 22.400000 530.453308 -5.569572
v 22.389999 530.453308 -5.569572
v 22.389999 530.594788 -5.649537
v 22.400000 530.594788 -5.649537
v 22.400000 530.740356 -5.721727
v 22.389999 530.740356 -5.721727
v 22.400000 530.889587 -5.785931
v 22.389999 530.889587 -5.785931
v 22.400000 531.042114 -5.841960
v 22.389999 531.042114 -5.841960
v 22.389999 531.197388 -5.889651
v 22.400000 531.197388 -5.889651
v 22.389999 531.355103 -5.928863
v 22.400000 531.355103 -5.928863
v 22.400000 531.514648 -5.959480
v 22.389999 531.514648 -5.959480
v 22.400000 531.675659 -5.981415
v 22.389999 531.675659 -5.981415
v 22.400000 531.837585 -5.994601
v 22.389999 531.837585 -5.994601
v 22.400000 532.000000 -5.999001
v 22.389999 532.000000 -5.999001
v 22.400000 532.162415 -5.994601
v 22.389999 532.162415 -5.994601
v 22.389999 532.324341 -5.981415
v 22.400000 532.324341 -5.981415
v 22.400000 532.485352 -5.959480
v 22.389999 532.485352 -5.959480
v 22.400000 532.644897 -5.928863
v 22.389999 532.644897 -5.928863
v 22.400000 532.802612 -5.889651
v 22.389999 532.802612 -5.889651
v 22.389999 532.957886 -5.841960
v 22.400000 532.957886 -5.841960
v 22.400000 533.110413 -5.785931
v 22.389999 533.110413 -5.785931
v 22.389999 533.259644 -5.721727
v 22.400000 533.259644 -5.721727
v 22.400000 533.405212 -5.649537
v 22.389999 533.405212 -5.649537
v 22.400000 533.546692 -5.569572
v 22.389999 533.546692 -5.569572
v 22.400000 533.683533 -5.482068
v 22.389999 533.683533 -5.482068
v 22.389999 533.815552 -5.387280
v 22.400000 533.815552 -5.387280
v 22.389999 533.942139 -5.285487
v 22.400000 533.942139 -5.285487
v 22.400000 534.063110 -5.176987
v 22.389999 534.063110 -5.176987
v 22.400000 534.177979 -5.062099
v 22.389999 534.177979 -5.062099
v 22.389999 534.286499 -4.941160
v 22.400000 534.286499 -4.941160
v 22.400000 534.388306 -4.814523
v 22.389999 534.388306 -4.814523
v 22.389999 534.483093 -4.682562
v 22.400000 534.483093 -4.682562
v 22.400000 534.570557 -4.545662
v 22.389999 534.570557 -4.545662
v 22.400000 534.650513 -4.404226
v 22.389999 534.650513 -4.404226
v 22.400000 534.722717 -4.258668
v 22.389999 534.722717 -4.258668
v 22.389999 534.786926 -4.109415
v 22.400000 534.786926 -4.109415
v 22.400000 534.842957 -3.956905
v 22.389999 534.842957 -3.956905
v 22.389999 534.890625 -3.801586
v 22.400000 534.890625 -3.801586
v 22.400000 534.929871 -3.643912
v 22.389999 534.929871 -3.643912
v 22.400000 534.960449 -3.484347
v 22.389999 534.960449 -3.484347
v 22.400000 534.982422 -3.323358
v 22.389999 534.982422 -3.323358
v 22.400000 534.995605 -3.161417
v 22.389999 534.995605 -3.161417
v 22.389999 531.318054 -0.990058
v 22.389999 531.188110 -1.038960
v 22.389999 531.450928 -0.949758
v 22.389999 531.586121 -0.918233
v 22.389999 531.723083 -0.895618
v 22.389999 531.861267 -0.882010
v 22.389999 532.000000 -0.877468
v 22.389999 532.138733 -0.882010
v 22.389999 534.117004 -2.860246
v 22.389999 532.276917 -0.895618
v 22.389999 534.103394 -2.722085
v 22.389999 534.080750 -2.585110
v 22.389999 532.413879 -0.918233
v 22.389999 534.049255 -2.449908
v 22.389999 532.549072 -0.949758
v 22.389999 534.008972 -2.317056
v 22.389999 532.681946 -0.990058
v 22.389999 532.811890 -1.038960
v 22.389999 533.960022 -2.187125
v 22.389999 532.938354 -1.096256
v 22.389999 533.902771 -2.060671
v 22.389999 533.837280 -1.938234
v 22.389999 533.060791 -1.161700
v 22.389999 533.763977 -1.820340
v 22.389999 533.178650 -1.235011
v 22.389999 533.683105 -1.707494
v 22.389999 533.291504 -1.315876
v 22.389999 533.398804 -1.403948
v 22.389999 533.595032 -1.600177
v 22.389999 533.500122 -1.498851
v 22.389999 529.882996 -2.860246
v 22.389999 529.896606 -2.722085
v 22.389999 529.919250 -2.585110
v 22.389999 529.950745 -2.449908
v 22.389999 529.991028 -2.317056
v 22.389999 530.039978 -2.187125
v 22.389999 530.097229 -2.060671
v 22.389999 530.162720 -1.938234
v 22.389999 530.236023 -1.820340
v 22.389999 530.316895 -1.707494
v 22.389999 530.404968 -1.600177
v 22.389999 530.499878 -1.498851
v 22.389999 530.601196 -1.403948
v 22.389999 530.708496 -1.315876
v 22.389999 530.821350 -1.235011
v 22.389999 530.939209 -1.161700
v 22.389999 531.061646 -1.096256
v 22.400000 531.188110 -1.038960
v 22.400000 531.318054 -0.990058
v 22.400000 531.450928 -0.949758
v 22.400000 531.586121 -0.918233
v 22.400000 531.723083 -0.895618
v 22.400000 531.861267 -0.882010
v 22.400000 532.000000 -0.877468
v 22.400000 532.138733 -0.882010
v 22.400000 534.117004 -2.860246
v 22.400000 532.276917 -0.895618
v 22.400000 534.103394 -2.722085
v 22.400000 534.080750 -2.585110
v 22.400000 532.413879 -0.918233
v 22.400000 534.049255 -2.449908
v 22.400000 532.549072 -0.949758
v 22.400000 534.008972 -2.317056
v 22.400000 532.681946 -0.990058
v 22.400000 532.811890 -1.038960
v 22.400000 533.960022 -2.187125
v 22.400000 532.938354 -1.096256
v 22.400000 533.902771 -2.060671
v 22.400000 533.837280 -1.938234
v 22.400000 533.060791 -1.161700
v 22.400000 533.763977 -1.820340
v 22.400000 533.178650 -1.235011
v 22.400000 533.683105 -1.707494
v 22.400000 533.291504 -1.315876
v 22.400000 533.398804 -1.403948
v 22.400000 533.595032 -1.600177
v 22.400000 533.500122 -1.498851
v 22.400000 529.882996 -2.860246
v 22.400000 529.896606 -2.722085
v 22.400000 529.919250 -2.585110
v 22.400000 529.950745 -2.449908
v 22.400000 529.991028 -2.317056
v 22.400000 530.039978 -2.187125
v 22.400000 530.097229 -2.060671
v 22.400000 530.162720 -1.938234
v 22.400000 530.236023 -1.820340
v 22.400000 530.316895 -1.707494
v 22.400000 530.404968 -1.600177
v 22.400000 530.499878 -1.498851
v 22.400000 530.601196 -1.403948
v 22.400000 530.708496 -1.315876
v 22.400000 530.821350 -1.235011
v 22.400000 530.939209 -1.161700
v 22.400000 531.061646 -1.096256
f 1 2 3
f 4 1 3
f 5 6 7
f 8 4 3
f 9 5 7
f 10 11 12
f 13 8 14
f 9 7 15
f 16 9 15
f 10 12 17
f 8 3 14
f 18 10 17
f 13 14 19
f 20 21 22
f 16 15 23
f 24 16 23
f 18 17 25
f 26 18 25
f 13 19 27
f 28 13 27
f 29 28 27
f 20 22 30
f 31 20 30
f 32 24 33
f 26 25 34
f 24 23 33
f 35 26 34
f 36 35 34
f 29 27 37
f 38 29 37
f 31 30 39
f 36 34 40
f 41 32 42
f 32 33 42
f 38 37 43
f 36 40 44
f 31 39 45
f 46 36 44
f 47 31 45
f 48 47 45
f 49 41 50
f 51 49 50
f 46 44 52
f 38 43 53
f 54 46 52
f 55 38 53
f 56 55 53
f 41 42 50
f 48 45 57
f 54 52 58
f 59 54 58
f 60 59 58
f 51 50 61
f 56 53 62
f 60 58 63
f 48 57 64
f 60 63 65
f 66 48 64
f 67 60 65
f 68 51 69
f 67 65 70
f 71 67 70
f 56 62 72
f 73 56 72
f 51 61 69
f 66 64 74
f 75 66 74
f 76 68 77
f 78 76 77
f 73 72 79
f 80 73 79
f 81 80 79
f 68 69 77
f 75 74 82
f 83 75 82
f 84 83 82
f 81 79 85
f 78 77 86
f 87 81 85
f 84 82 88
f 89 78 90
f 87 85 91
f 78 86 90
f 84 88 92
f 93 89 94
f 95 84 92
f 87 91 96
f 97 87 96
f 89 90 94
f 1 93 2
f 95 92 6
f 5 95 6
f 97 96 11
f 98 97 11
f 93 94 2
f 10 98 11
f 99 100 101
f 99 102 100
f 103 101 104
f 103 104 105
f 103 99 101
f 106 103 105
f 107 105 108
f 107 106 105
f 109 108 110
f 109 110 111
f 109 107 108
f 112 111 113
f 112 109 111
f 114 112 113
f 115 113 116
f 115 114 113
f 117 116 118
f 117 118 119
f 117 115 116
f 120 119 121
f 120 117 119
f 122 120 121
f 123 121 124
f 123 122 121
f 125 124 126
f 125 126 127
f 125 123 124
f 128 127 129
f 128 125 127
f 130 128 129
f 131 130 129
f 131 129 132
f 133 132 134
f 133 131 132
f 135 133 134
f 135 134 136
f 135 136 137
f 138 137 139
f 138 135 137
f 140 138 139
f 141 140 139
f 141 139 142
f 143 141 142
f 143 142 144
f 145 144 146
f 145 146 147
f 145 143 144
f 148 145 147
f 149 147 150
f 149 148 147
f 151 150 152
f 151 152 153
f 151 149 150
f 154 151 153
f 155 153 156
f 155 154 153
f 157 156 158
f 157 158 159
f 157 155 156
f 160 157 159
f 161 159 162
f 161 162 163
f 161 160 159
f 164 163 165
f 164 161 163
f 166 164 165
f 167 165 168
f 167 168 169
f 167 166 165
f 170 167 169
f 171 169 172
f 171 170 169
f 173 172 174
f 173 174 175
f 173 171 172
f 176 173 175
f 177 175 178
f 177 178 179
f 177 176 175
f 180 179 181
f 180 177 179
f 182 181 183
f 182 180 181
f 184 182 183
f 185 184 183
f 185 183 186
f 185 186 187
f 188 185 187
f 188 187 189
f 190 188 189
f 190 189 191
f 192 190 191
f 192 191 193
f 194 192 193
f 195 194 193
f 195 193 196
f 197 195 196
f 197 196 198
f 197 198 199
f 200 197 199
f 200 199 201
f 202 200 201
f 203 202 201
f 203 201 204
f 203 204 205
f 206 203 205
f 206 205 207
f 208 206 207
f 208 207 209
f 210 208 209
f 211 210 209
f 211 209 212
f 211 212 213
f 214 211 213
f 215 214 213
f 215 213 216
f 217 215 216
f 217 216 218
f 219 218 220
f 219 217 218
f 221 220 222
f 221 222 223
f 221 219 220
f 224 223 225
f 224 221 223
f 226 224 225
f 227 225 228
f 227 226 225
f 229 228 230
f 229 227 228
f 231 230 232
f 231 229 230
f 233 232 234
f 233 234 235
f 233 231 232
f 236 235 237
f 236 233 235
f 238 236 237
f 239 237 240
f 239 240 241
f 239 238 237
f 242 239 241
f 243 241 244
f 243 242 241
f 245 244 246
f 245 243 244
f 247 246 248
f 247 245 246
f 249 248 250
f 249 247 248
f 251 250 252
f 251 249 250
f 253 251 252
f 253 252 254
f 253 254 255
f 256 253 255
f 257 256 255
f 257 255 258
f 259 257 258
f 259 258 260
f 261 260 262
f 261 262 263
f 261 259 260
f 264 263 265
f 264 261 263
f 266 264 265
f 267 265 268
f 267 266 265
f 269 268 270
f 269 267 268
f 271 270 272
f 271 269 270
f 273 272 274
f 273 271 272
f 275 274 276
f 275 276 277
f 275 273 274
f 278 275 277
f 279 277 280
f 279 278 277
f 281 280 282
f 281 279 280
f 283 282 284
f 283 284 285
f 283 281 282
f 286 283 285
f 287 285 288
f 287 288 289
f 287 286 285
f 290 287 289
f 291 289 292
f 291 290 289
f 293 292 294
f 293 291 292
f 295 294 296
f 295 296 297
f 295 293 294
f 298 295 297
f 298 297 299
f 300 298 299
f 301 300 299
f 301 299 302
f 303 301 302
f 303 302 304
f 303 304 305
f 306 303 305
f 307 306 305
f 307 305 308
f 307 308 309
f 310 307 309
f 311 310 309
f 311 309 312
f 313 311 312
f 313 312 314
f 315 313 314
f 315 314 316
f 315 316 317
f 318 315 317
f 319 318 317
f 319 317 320
f 319 320 321
f 322 319 321
f 323 322 321
f 323 321 324
f 325 323 324
f 325 324 326
f 327 325 326
f 327 326 328
f 329 327 328
f 329 328 330
f 102 329 330
f 102 330 100
f 316 36 317
f 36 46 317
f 331 332 172
f 332 174 172
f 317 46 320
f 331 172 169
f 46 54 321
f 320 46 321
f 331 169 168
f 333 331 168
f 321 54 324
f 54 59 324
f 333 168 165
f 334 333 165
f 324 59 326
f 59 60 326
f 334 165 163
f 335 334 163
f 326 60 328
f 60 67 328
f 336 335 162
f 335 163 162
f 246 244 16
f 328 67 330
f 67 71 330
f 246 16 24
f 248 246 24
f 337 336 159
f 336 162 159
f 16 244 9
f 244 241 9
f 248 24 32
f 250 248 32
f 252 250 32
f 337 159 158
f 240 237 5
f 241 240 5
f 9 241 5
f 252 32 41
f 254 252 41
f 330 71 100
f 338 337 156
f 337 158 156
f 71 339 101
f 237 235 95
f 5 237 95
f 100 71 101
f 255 254 49
f 254 41 49
f 340 338 153
f 338 156 153
f 339 341 104
f 235 234 84
f 95 235 84
f 255 49 51
f 101 339 104
f 258 255 51
f 341 342 105
f 84 234 83
f 104 341 105
f 234 232 83
f 343 340 152
f 340 153 152
f 342 344 108
f 260 258 68
f 105 342 108
f 258 51 68
f 343 152 150
f 345 343 150
f 232 230 75
f 344 346 110
f 83 232 75
f 262 260 76
f 263 262 76
f 108 344 110
f 345 150 147
f 260 68 76
f 347 345 147
f 228 225 66
f 230 228 66
f 75 230 66
f 347 147 146
f 263 76 78
f 110 346 111
f 265 263 78
f 348 347 144
f 347 146 144
f 346 349 113
f 225 223 48
f 66 225 48
f 111 346 113
f 348 144 142
f 268 265 89
f 350 348 142
f 265 78 89
f 349 351 116
f 48 223 47
f 113 349 116
f 351 352 118
f 223 222 47
f 116 351 118
f 350 142 139
f 268 89 93
f 270 268 93
f 353 350 139
f 352 354 119
f 118 352 119
f 47 222 31
f 353 139 137
f 355 353 137
f 222 220 31
f 354 356 121
f 119 354 121
f 355 137 136
f 272 270 1
f 357 355 136
f 270 93 1
f 121 356 124
f 357 136 134
f 31 220 20
f 358 357 132
f 357 134 132
f 220 218 20
f 356 359 126
f 272 1 4
f 124 356 126
f 274 272 4
f 360 358 129
f 276 274 4
f 358 132 129
f 359 360 127
f 126 359 127
f 20 218 21
f 360 129 127
f 216 213 21
f 218 216 21
f 276 4 8
f 277 276 8
f 21 213 361
f 213 212 361
f 277 8 13
f 280 277 13
f 361 212 362
f 212 209 362
f 280 13 28
f 282 280 28
f 209 207 363
f 362 209 363
f 282 28 29
f 284 282 29
f 207 205 364
f 363 207 364
f 284 29 38
f 285 284 38
f 288 285 38
f 204 201 365
f 205 204 365
f 364 205 365
f 288 38 55
f 289 288 55
f 201 199 366
f 365 201 366
f 289 55 56
f 292 289 56
f 199 198 367
f 366 199 367
f 292 56 73
f 294 292 73
f 198 196 368
f 367 198 368
f 294 73 80
f 296 294 80
f 196 193 369
f 368 196 369
f 297 296 81
f 296 80 81
f 193 191 370
f 369 193 370
f 297 81 299
f 370 191 189
f 299 81 87
f 370 189 371
f 299 87 302
f 371 189 187
f 302 87 97
f 371 187 372
f 302 97 304
f 372 187 186
f 304 97 98
f 372 186 373
f 304 98 305
f 373 186 183
f 305 98 10
f 373 183 374
f 305 10 308
f 374 183 181
f 308 10 309
f 10 18 309
f 375 374 179
f 374 181 179
f 309 18 312
f 18 26 312
f 376 375 178
f 375 179 178
f 312 26 314
f 26 35 314
f 377 376 175
f 376 178 175
f 314 35 316
f 35 36 316
f 332 377 174
f 377 175 174
f 318 40 315
f 318 44 40
f 171 378 379
f 171 173 378
f 319 44 318
f 170 171 379
f 322 52 44
f 322 44 319
f 167 170 379
f 167 379 380
f 323 52 322
f 323 58 52
f 166 167 380
f 166 380 381
f 325 58 323
f 325 63 58
f 164 166 381
f 164 381 382
f 327 63 325
f 327 65 63
f 161 382 383
f 161 164 382
f 15 243 245
f 329 65 327
f 329 70 65
f 23 15 245
f 23 245 247
f 160 383 384
f 160 161 383
f 7 243 15
f 7 242 243
f 33 23 247
f 33 247 249
f 33 249 251
f 157 160 384
f 6 238 239
f 6 239 242
f 6 242 7
f 42 33 251
f 42 251 253
f 102 70 329
f 155 384 385
f 155 157 384
f 99 386 70
f 92 236 238
f 92 238 6
f 99 70 102
f 50 253 256
f 50 42 253
f 154 385 387
f 154 155 385
f 103 388 386
f 88 233 236
f 88 236 92
f 61 50 256
f 103 386 99
f 61 256 257
f 106 389 388
f 82 233 88
f 106 388 103
f 82 231 233
f 151 387 390
f 151 154 387
f 107 391 389
f 69 257 259
f 107 389 106
f 69 61 257
f 149 151 390
f 149 390 392
f 74 229 231
f 109 393 391
f 74 231 82
f 77 259 261
f 77 261 264
f 109 391 107
f 148 149 392
f 77 69 259
f 148 392 394
f 64 226 227
f 64 227 229
f 64 229 74
f 145 148 394
f 86 77 264
f 112 393 109
f 86 264 266
f 143 394 395
f 143 145 394
f 114 396 393
f 57 224 226
f 57 226 64
f 114 393 112
f 141 143 395
f 90 266 267
f 141 395 397
f 90 86 266
f 115 398 396
f 45 224 57
f 115 396 114
f 117 399 398
f 45 221 224
f 117 398 115
f 140 141 397
f 94 90 267
f 94 267 269
f 140 397 400
f 120 401 399
f 120 399 117
f 39 221 45
f 138 140 400
f 138 400 402
f 39 219 221
f 122 403 401
f 122 401 120
f 135 138 402
f 2 269 271
f 135 402 404
f 2 94 269
f 123 403 122
f 133 135 404
f 30 219 39
f 131 404 405
f 131 133 404
f 30 217 219
f 125 406 403
f 3 2 271
f 125 403 123
f 3 271 273
f 130 405 407
f 3 273 275
f 130 131 405
f 128 407 406
f 128 406 125
f 22 217 30
f 128 130 407
f 22 214 215
f 22 215 217
f 14 3 275
f 14 275 278
f 408 214 22
f 408 211 214
f 19 14 278
f 19 278 279
f 409 211 408
f 409 210 211
f 27 19 279
f 27 279 281
f 410 208 210
f 410 210 409
f 37 27 281
f 37 281 283
f 411 206 208
f 411 208 410
f 43 37 283
f 43 283 286
f 43 286 287
f 412 202 203
f 412 203 206
f 412 206 411
f 53 43 287
f 53 287 290
f 413 200 202
f 413 202 412
f 62 53 290
f 62 290 291
f 414 197 200
f 414 200 413
f 72 62 291
f 72 291 293
f 415 195 197
f 415 197 414
f 79 72 293
f 79 293 295
f 416 194 195
f 416 195 415
f 85 295 298
f 85 79 295
f 417 192 194
f 417 194 416
f 300 85 298
f 190 192 417
f 91 85 300
f 418 190 417
f 301 91 300
f 188 190 418
f 96 91 301
f 419 188 418
f 303 96 301
f 185 188 419
f 11 96 303
f 420 185 419
f 306 11 303
f 184 185 420
f 12 11 306
f 421 184 420
f 307 12 306
f 182 184 421
f 310 12 307
f 310 17 12
f 180 421 422
f 180 182 421
f 311 17 310
f 311 25 17
f 177 422 423
f 177 180 422
f 313 25 311
f 313 34 25
f 176 423 424
f 176 177 423
f 315 34 313
f 315 40 34
f 173 424 378
f 173 176 424
f 337 338 384
f 359 403 406
f 371 418 417
f 370 371 417
f 337 384 383
f 336 337 383
f 335 336 383
f 359 406 407
f 370 417 416
f 360 359 407
f 369 370 416
f 335 383 382
f 334 335 382
f 369 416 415
f 358 360 405
f 360 407 405
f 368 369 415
f 334 382 381
f 71 70 386
f 368 415 414
f 357 358 404
f 339 71 386
f 355 357 404
f 341 339 386
f 367 368 414
f 366 367 414
f 358 405 404
f 334 381 380
f 333 334 380
f 366 414 413
f 341 386 388
f 355 404 402
f 342 341 388
f 353 355 402
f 333 380 379
f 331 333 379
f 332 331 379
f 366 413 412
f 365 366 412
f 342 388 389
f 350 353 400
f 365 412 411
f 332 379 378
f 364 365 411
f 363 364 411
f 353 402 400
f 363 411 410
f 342 389 391
f 344 342 391
f 346 344 391
f 332 378 424
f 363 410 409
f 362 363 409
f 377 332 424
f 350 400 397
f 362 409 408
f 361 362 408
f 348 350 395
f 346 391 393
f 349 346 393
f 361 408 22
f 377 424 423
f 21 361 22
f 376 377 423
f 375 376 423
f 350 397 395
f 347 348 394
f 345 347 394
f 349 393 396
f 375 423 422
f 348 395 394
f 343 345 392
f 349 396 398
f 351 349 398
f 375 422 421
f 374 375 421
f 345 394 392
f 340 343 390
f 351 398 399
f 352 351 399
f 374 421 420
f 354 352 399
f 343 392 390
f 373 374 420
f 372 373 420
f 354 399 401
f 372 420 419
f 340 390 387
f 371 372 419
f 338 340 385
f 354 401 403
f 356 354 403
f 371 419 418
f 359 356 403
f 340 387 385
f 338 385 384
