# Created by FreeCAD <http://www.freecadweb.org>
v 8.000000 519.609985 65.925003
v 7.864288 519.609985 65.929443
v 8.000000 519.599976 65.925003
v 6.353792 519.609985 66.736824
v 6.353792 519.599976 66.736824
v 6.439933 519.599976 66.631859
v 6.439933 519.609985 66.631859
v 6.532753 519.609985 66.532753
v 9.646208 519.609985 66.736824
v 9.560067 519.599976 66.631859
v 9.646208 519.599976 66.736824
v 8.135712 519.599976 65.929443
v 8.135712 519.609985 65.929443
v 8.270842 519.609985 65.942749
v 6.532753 519.599976 66.532753
v 6.631858 519.609985 66.439934
v 9.725299 519.599976 66.847191
v 9.725299 519.609985 66.847191
v 8.270842 519.599976 65.942749
v 6.631858 519.599976 66.439934
v 5.929443 519.609985 67.864288
v 5.925000 519.609985 68.000000
v 5.925000 519.599976 68.000000
v 9.797003 519.599976 66.962502
v 9.797003 519.609985 66.962502
v 8.404813 519.599976 65.964874
v 8.404813 519.609985 65.964874
v 6.736820 519.609985 66.353790
v 6.736820 519.599976 66.353790
v 5.929443 519.599976 67.864288
v 5.942752 519.609985 67.729156
v 9.861011 519.599976 67.082253
v 9.861011 519.609985 67.082253
v 9.917049 519.609985 67.205933
v 8.537049 519.599976 65.995705
v 8.537049 519.609985 65.995705
v 8.666986 519.609985 66.035118
v 9.917049 519.599976 67.205933
v 6.847192 519.609985 66.274704
v 6.847192 519.599976 66.274704
v 5.942752 519.599976 67.729156
v 8.666986 519.599976 66.035118
v 9.964880 519.599976 67.333015
v 9.964880 519.609985 67.333015
v 5.964871 519.599976 67.595184
v 6.962500 519.609985 66.202995
v 6.962500 519.599976 66.202995
v 5.964871 519.609985 67.595184
v 7.082251 519.609985 66.138992
v 5.995704 519.609985 67.462952
v 10.004295 519.599976 67.462952
v 10.004295 519.609985 67.462952
v 8.794068 519.599976 66.082947
v 8.794068 519.609985 66.082947
v 8.917748 519.609985 66.138992
v 10.035130 519.599976 67.595184
v 5.995704 519.599976 67.462952
v 10.035130 519.609985 67.595184
v 10.057248 519.609985 67.729156
v 7.082251 519.599976 66.138992
v 6.035120 519.609985 67.333015
v 10.057248 519.599976 67.729156
v 8.917748 519.599976 66.138992
v 10.070557 519.599976 67.864288
v 10.070557 519.609985 67.864288
v 7.205932 519.609985 66.082947
v 7.205932 519.599976 66.082947
v 6.035120 519.599976 67.333015
v 10.075000 519.609985 68.000000
v 10.075000 519.599976 68.000000
v 9.037499 519.599976 66.202995
v 9.037499 519.609985 66.202995
v 7.333013 519.609985 66.035118
v 7.333013 519.599976 66.035118
v 7.462951 519.609985 65.995705
v 6.082950 519.599976 67.205933
v 6.082950 519.609985 67.205933
v 9.152808 519.599976 66.274704
v 9.152808 519.609985 66.274704
v 9.263180 519.609985 66.353790
v 6.138989 519.599976 67.082253
v 6.138989 519.609985 67.082253
v 6.202998 519.609985 66.962502
v 9.263180 519.599976 66.353790
v 7.462951 519.599976 65.995705
v 9.368142 519.609985 66.439934
v 7.595188 519.609985 65.964874
v 7.595188 519.599976 65.964874
v 7.729158 519.609985 65.942749
v 6.202998 519.599976 66.962502
v 6.274701 519.609985 66.847191
v 9.368142 519.599976 66.439934
v 7.729158 519.599976 65.942749
v 6.274701 519.599976 66.847191
v 9.467246 519.599976 66.532753
v 9.467246 519.609985 66.532753
v 7.864288 519.599976 65.929443
v 9.560067 519.609985 66.631859
v 10.995601 519.599976 68.162415
v 11.000000 519.609985 68.000000
v 10.995601 519.609985 68.162415
v 11.000000 519.599976 68.000000
v 10.982414 519.599976 68.324356
v 10.982414 519.609985 68.324356
v 10.960480 519.599976 68.485344
v 10.960480 519.609985 68.485344
v 10.929862 519.599976 68.644913
v 10.929862 519.609985 68.644913
v 10.890650 519.609985 68.802582
v 10.890650 519.599976 68.802582
v 10.842959 519.609985 68.957901
v 10.842959 519.599976 68.957901
v 10.786930 519.609985 69.110413
v 10.786930 519.599976 69.110413
v 10.722726 519.599976 69.259666
v 10.722726 519.609985 69.259666
v 10.650537 519.599976 69.405228
v 10.650537 519.609985 69.405228
v 10.570572 519.599976 69.546661
v 10.570572 519.609985 69.546661
v 10.483067 519.599976 69.683563
v 10.483067 519.609985 69.683563
v 10.388279 519.599976 69.815521
v 10.388279 519.609985 69.815521
v 10.286487 519.609985 69.942162
v 10.286487 519.599976 69.942162
v 10.177986 519.609985 70.063095
v 10.177986 519.599976 70.063095
v 10.063098 519.599976 70.177986
v 10.063098 519.609985 70.177986
v 9.942159 519.599976 70.286484
v 9.942159 519.609985 70.286484
v 9.815522 519.599976 70.388283
v 9.815522 519.609985 70.388283
v 9.683561 519.599976 70.483070
v 9.683561 519.609985 70.483070
v 9.546661 519.609985 70.570572
v 9.546661 519.599976 70.570572
v 9.405226 519.599976 70.650536
v 9.405226 519.609985 70.650536
v 9.259667 519.599976 70.722725
v 9.259667 519.609985 70.722725
v 9.110415 519.599976 70.786934
v 9.110415 519.609985 70.786934
v 8.957905 519.599976 70.842957
v 8.957905 519.609985 70.842957
v 8.802585 519.599976 70.890648
v 8.802585 519.609985 70.890648
v 8.644912 519.599976 70.929863
v 8.644912 519.609985 70.929863
v 8.485346 519.609985 70.960480
v 8.485346 519.599976 70.960480
v 8.324357 519.609985 70.982414
v 8.324357 519.599976 70.982414
v 8.162416 519.599976 70.995598
v 8.162416 519.609985 70.995598
v 8.000000 519.599976 71.000000
v 8.000000 519.609985 71.000000
v 7.837583 519.599976 70.995598
v 7.837583 519.609985 70.995598
v 7.675643 519.609985 70.982414
v 7.675643 519.599976 70.982414
v 7.514654 519.609985 70.960480
v 7.514654 519.599976 70.960480
v 7.355089 519.609985 70.929863
v 7.355089 519.599976 70.929863
v 7.197415 519.609985 70.890648
v 7.197415 519.599976 70.890648
v 7.042095 519.609985 70.842957
v 7.042095 519.599976 70.842957
v 6.889585 519.609985 70.786934
v 6.889585 519.599976 70.786934
v 6.740333 519.599976 70.722725
v 6.740333 519.609985 70.722725
v 6.594775 519.609985 70.650536
v 6.594775 519.599976 70.650536
v 6.453339 519.599976 70.570572
v 6.453339 519.609985 70.570572
v 6.316439 519.609985 70.483070
v 6.316439 519.599976 70.483070
v 6.184477 519.609985 70.388283
v 6.184477 519.599976 70.388283
v 6.057841 519.609985 70.286484
v 6.057841 519.599976 70.286484
v 5.936902 519.599976 70.177986
v 5.936902 519.609985 70.177986
v 5.822013 519.609985 70.063095
v 5.822013 519.599976 70.063095
v 5.713514 519.609985 69.942162
v 5.713514 519.599976 69.942162
v 5.611721 519.599976 69.815521
v 5.611721 519.609985 69.815521
v 5.516933 519.599976 69.683563
v 5.516933 519.609985 69.683563
v 5.429429 519.599976 69.546661
v 5.429429 519.609985 69.546661
v 5.349464 519.599976 69.405228
v 5.349464 519.609985 69.405228
v 5.277274 519.609985 69.259666
v 5.277274 519.599976 69.259666
v 5.213070 519.609985 69.110413
v 5.213070 519.599976 69.110413
v 5.157041 519.599976 68.957901
v 5.157041 519.609985 68.957901
v 5.109350 519.609985 68.802582
v 5.109350 519.599976 68.802582
v 5.070138 519.599976 68.644913
v 5.070138 519.609985 68.644913
v 5.039520 519.609985 68.485344
v 5.039520 519.599976 68.485344
v 5.017586 519.599976 68.324356
v 5.017586 519.609985 68.324356
v 5.004400 519.599976 68.162415
v 5.004400 519.609985 68.162415
v 5.000000 519.609985 68.000000
v 5.000000 519.599976 68.000000
v 5.004400 519.609985 67.837585
v 5.004400 519.599976 67.837585
v 5.017586 519.609985 67.675644
v 5.017586 519.599976 67.675644
v 5.039520 519.609985 67.514656
v 5.039520 519.599976 67.514656
v 5.070138 519.609985 67.355087
v 5.070138 519.599976 67.355087
v 5.109350 519.599976 67.197418
v 5.109350 519.609985 67.197418
v 5.157041 519.599976 67.042099
v 5.157041 519.609985 67.042099
v 5.213070 519.599976 66.889587
v 5.213070 519.609985 66.889587
v 5.277274 519.599976 66.740334
v 5.277274 519.609985 66.740334
v 5.349464 519.599976 66.594772
v 5.349464 519.609985 66.594772
v 5.429429 519.609985 66.453339
v 5.429429 519.599976 66.453339
v 5.516933 519.609985 66.316437
v 5.516933 519.599976 66.316437
v 5.611721 519.599976 66.184479
v 5.611721 519.609985 66.184479
v 5.713514 519.599976 66.057838
v 5.713514 519.609985 66.057838
v 5.822013 519.609985 65.936905
v 5.822013 519.599976 65.936905
v 5.936902 519.609985 65.822014
v 5.936902 519.599976 65.822014
v 6.057841 519.599976 65.713516
v 6.057841 519.609985 65.713516
v 6.184477 519.599976 65.611717
v 6.184477 519.609985 65.611717
v 6.316439 519.599976 65.516930
v 6.316439 519.609985 65.516930
v 6.453339 519.599976 65.429428
v 6.453339 519.609985 65.429428
v 6.594775 519.609985 65.349464
v 6.594775 519.599976 65.349464
v 6.740333 519.599976 65.277275
v 6.740333 519.609985 65.277275
v 6.889585 519.599976 65.213066
v 6.889585 519.609985 65.213066
v 7.042095 519.599976 65.157043
v 7.042095 519.609985 65.157043
v 7.197415 519.609985 65.109352
v 7.197415 519.599976 65.109352
v 7.355089 519.599976 65.070137
v 7.355089 519.609985 65.070137
v 7.514654 519.599976 65.039520
v 7.514654 519.609985 65.039520
v 7.675643 519.599976 65.017586
v 7.675643 519.609985 65.017586
v 7.837583 519.599976 65.004402
v 7.837583 519.609985 65.004402
v 8.000000 519.599976 65.000000
v 8.000000 519.609985 65.000000
v 8.162416 519.609985 65.004402
v 8.162416 519.599976 65.004402
v 8.324357 519.609985 65.017586
v 8.324357 519.599976 65.017586
v 8.485346 519.599976 65.039520
v 8.485346 519.609985 65.039520
v 8.644912 519.599976 65.070137
v 8.644912 519.609985 65.070137
v 8.802585 519.609985 65.109352
v 8.802585 519.599976 65.109352
v 8.957905 519.609985 65.157043
v 8.957905 519.599976 65.157043
v 9.110415 519.599976 65.213066
v 9.110415 519.609985 65.213066
v 9.259667 519.609985 65.277275
v 9.259667 519.599976 65.277275
v 9.405226 519.599976 65.349464
v 9.405226 519.609985 65.349464
v 9.546661 519.609985 65.429428
v 9.546661 519.599976 65.429428
v 9.683561 519.599976 65.516930
v 9.683561 519.609985 65.516930
v 9.815522 519.609985 65.611717
v 9.815522 519.599976 65.611717
v 9.942159 519.609985 65.713516
v 9.942159 519.599976 65.713516
v 10.063098 519.609985 65.822014
v 10.063098 519.599976 65.822014
v 10.177986 519.609985 65.936905
v 10.177986 519.599976 65.936905
v 10.286487 519.599976 66.057838
v 10.286487 519.609985 66.057838
v 10.388279 519.609985 66.184479
v 10.388279 519.599976 66.184479
v 10.483067 519.599976 66.316437
v 10.483067 519.609985 66.316437
v 10.570572 519.599976 66.453339
v 10.570572 519.609985 66.453339
v 10.650537 519.599976 66.594772
v 10.650537 519.609985 66.594772
v 10.722726 519.599976 66.740334
v 10.722726 519.609985 66.740334
v 10.786930 519.609985 66.889587
v 10.786930 519.599976 66.889587
v 10.842959 519.599976 67.042099
v 10.842959 519.609985 67.042099
v 10.890650 519.609985 67.197418
v 10.890650 519.599976 67.197418
v 10.929862 519.599976 67.355087
v 10.929862 519.609985 67.355087
v 10.960480 519.599976 67.514656
v 10.960480 519.609985 67.514656
v 10.982414 519.599976 67.675644
v 10.982414 519.609985 67.675644
v 10.995601 519.609985 67.837585
v 10.995601 519.599976 67.837585
v 7.333013 519.609985 69.964882
v 7.462951 519.609985 70.004295
v 7.595188 519.609985 70.035126
v 7.729158 519.609985 70.057251
v 7.864288 519.609985 70.070557
v 8.000000 519.609985 70.074997
v 10.070557 519.609985 68.135712
v 8.135712 519.609985 70.070557
v 8.270842 519.609985 70.057251
v 10.057248 519.609985 68.270844
v 10.035130 519.609985 68.404816
v 8.404813 519.609985 70.035126
v 8.537049 519.609985 70.004295
v 10.004295 519.609985 68.537048
v 9.964880 519.609985 68.666985
v 8.666986 519.609985 69.964882
v 9.917049 519.609985 68.794067
v 8.794068 519.609985 69.917053
v 9.861011 519.609985 68.917747
v 8.917748 519.609985 69.861008
v 9.797003 519.609985 69.037498
v 9.037499 519.609985 69.797005
v 9.152808 519.609985 69.725296
v 9.725299 519.609985 69.152809
v 9.646208 519.609985 69.263176
v 9.263180 519.609985 69.646210
v 9.560067 519.609985 69.368141
v 9.368142 519.609985 69.560066
v 9.467246 519.609985 69.467247
v 5.929443 519.609985 68.135712
v 5.942752 519.609985 68.270844
v 5.964871 519.609985 68.404816
v 5.995704 519.609985 68.537048
v 6.035120 519.609985 68.666985
v 6.082950 519.609985 68.794067
v 6.138989 519.609985 68.917747
v 6.202998 519.609985 69.037498
v 6.274701 519.609985 69.152809
v 6.353792 519.609985 69.263176
v 6.439933 519.609985 69.368141
v 6.532753 519.609985 69.467247
v 6.631858 519.609985 69.560066
v 6.736820 519.609985 69.646210
v 6.847192 519.609985 69.725296
v 6.962500 519.609985 69.797005
v 7.082251 519.609985 69.861008
v 7.205932 519.609985 69.917053
v 7.333013 519.599976 69.964882
v 7.462951 519.599976 70.004295
v 7.595188 519.599976 70.035126
v 7.729158 519.599976 70.057251
v 7.864288 519.599976 70.070557
v 8.000000 519.599976 70.074997
v 10.070557 519.599976 68.135712
v 8.135712 519.599976 70.070557
v 8.270842 519.599976 70.057251
v 10.057248 519.599976 68.270844
v 10.035130 519.599976 68.404816
v 8.404813 519.599976 70.035126
v 8.537049 519.599976 70.004295
v 10.004295 519.599976 68.537048
v 9.964880 519.599976 68.666985
v 8.666986 519.599976 69.964882
v 9.917049 519.599976 68.794067
v 8.794068 519.599976 69.917053
v 9.861011 519.599976 68.917747
v 8.917748 519.599976 69.861008
v 9.797003 519.599976 69.037498
v 9.037499 519.599976 69.797005
v 9.152808 519.599976 69.725296
v 9.725299 519.599976 69.152809
v 9.646208 519.599976 69.263176
v 9.263180 519.599976 69.646210
v 9.560067 519.599976 69.368141
v 9.368142 519.599976 69.560066
v 9.467246 519.599976 69.467247
v 5.929443 519.599976 68.135712
v 5.942752 519.599976 68.270844
v 5.964871 519.599976 68.404816
v 5.995704 519.599976 68.537048
v 6.035120 519.599976 68.666985
v 6.082950 519.599976 68.794067
v 6.138989 519.599976 68.917747
v 6.202998 519.599976 69.037498
v 6.274701 519.599976 69.152809
v 6.353792 519.599976 69.263176
v 6.439933 519.599976 69.368141
v 6.532753 519.599976 69.467247
v 6.631858 519.599976 69.560066
v 6.736820 519.599976 69.646210
v 6.847192 519.599976 69.725296
v 6.962500 519.599976 69.797005
v 7.082251 519.599976 69.861008
v 7.205932 519.599976 69.917053
f 1 2 3
f 4 5 6
f 7 4 6
f 8 7 6
f 9 10 11
f 1 3 12
f 13 1 12
f 14 13 12
f 8 6 15
f 16 8 15
f 9 11 17
f 18 9 17
f 14 12 19
f 16 15 20
f 21 22 23
f 18 17 24
f 25 18 24
f 14 19 26
f 27 14 26
f 28 16 29
f 21 23 30
f 31 21 30
f 25 24 32
f 16 20 29
f 33 25 32
f 34 33 32
f 27 26 35
f 36 27 35
f 37 36 35
f 34 32 38
f 39 28 40
f 31 30 41
f 28 29 40
f 37 35 42
f 34 38 43
f 44 34 43
f 31 41 45
f 46 39 47
f 48 31 45
f 49 46 47
f 50 48 45
f 44 43 51
f 52 44 51
f 37 42 53
f 54 37 53
f 55 54 53
f 39 40 47
f 52 51 56
f 50 45 57
f 58 52 56
f 59 58 56
f 49 47 60
f 61 50 57
f 59 56 62
f 55 53 63
f 59 62 64
f 65 59 64
f 66 49 67
f 61 57 68
f 69 65 64
f 69 64 70
f 55 63 71
f 72 55 71
f 49 60 67
f 73 66 74
f 75 73 74
f 61 68 76
f 77 61 76
f 72 71 78
f 79 72 78
f 66 67 74
f 80 79 78
f 77 76 81
f 82 77 81
f 83 82 81
f 80 78 84
f 75 74 85
f 86 80 84
f 87 75 88
f 89 87 88
f 83 81 90
f 91 83 90
f 86 84 92
f 75 85 88
f 89 88 93
f 91 90 94
f 86 92 95
f 96 86 95
f 2 89 97
f 91 94 5
f 4 91 5
f 96 95 10
f 89 93 97
f 98 96 10
f 9 98 10
f 2 97 3
f 99 100 101
f 99 102 100
f 103 101 104
f 103 99 101
f 105 104 106
f 105 103 104
f 107 106 108
f 107 108 109
f 107 105 106
f 110 109 111
f 110 107 109
f 112 111 113
f 112 110 111
f 114 112 113
f 115 113 116
f 115 114 113
f 117 116 118
f 117 115 116
f 119 118 120
f 119 117 118
f 121 120 122
f 121 119 120
f 123 122 124
f 123 124 125
f 123 121 122
f 126 125 127
f 126 123 125
f 128 126 127
f 129 127 130
f 129 128 127
f 131 130 132
f 131 129 130
f 133 132 134
f 133 131 132
f 135 134 136
f 135 136 137
f 135 133 134
f 138 135 137
f 139 138 137
f 139 137 140
f 141 139 140
f 141 140 142
f 143 141 142
f 143 142 144
f 145 143 144
f 145 144 146
f 147 145 146
f 147 146 148
f 149 148 150
f 149 150 151
f 149 147 148
f 152 151 153
f 152 149 151
f 154 152 153
f 155 153 156
f 155 154 153
f 157 156 158
f 157 155 156
f 159 158 160
f 159 160 161
f 159 157 158
f 162 161 163
f 162 159 161
f 164 163 165
f 164 162 163
f 166 165 167
f 166 164 165
f 168 167 169
f 168 166 167
f 170 169 171
f 170 168 169
f 172 170 171
f 173 171 174
f 173 174 175
f 173 172 171
f 176 173 175
f 177 175 178
f 177 178 179
f 177 176 175
f 180 177 179
f 180 179 181
f 182 181 183
f 182 180 181
f 184 182 183
f 185 184 183
f 185 183 186
f 185 186 187
f 188 185 187
f 188 187 189
f 190 188 189
f 191 190 189
f 191 189 192
f 193 191 192
f 193 192 194
f 195 193 194
f 195 194 196
f 197 195 196
f 197 196 198
f 197 198 199
f 200 197 199
f 200 199 201
f 202 200 201
f 203 202 201
f 203 201 204
f 203 204 205
f 206 203 205
f 207 206 205
f 207 205 208
f 207 208 209
f 210 207 209
f 211 210 209
f 211 209 212
f 213 211 212
f 213 212 214
f 213 214 215
f 216 213 215
f 216 215 217
f 218 217 219
f 218 216 217
f 220 219 221
f 220 218 219
f 222 221 223
f 222 220 221
f 224 222 223
f 225 223 226
f 225 224 223
f 227 226 228
f 227 225 226
f 229 228 230
f 229 227 228
f 231 230 232
f 231 229 230
f 233 232 234
f 233 234 235
f 233 231 232
f 236 235 237
f 236 233 235
f 238 236 237
f 239 237 240
f 239 238 237
f 241 240 242
f 241 242 243
f 241 239 240
f 244 243 245
f 244 241 243
f 246 244 245
f 247 246 245
f 247 245 248
f 249 248 250
f 249 247 248
f 251 249 250
f 251 250 252
f 253 251 252
f 253 252 254
f 253 254 255
f 256 253 255
f 257 256 255
f 257 255 258
f 259 257 258
f 259 258 260
f 261 260 262
f 261 262 263
f 261 259 260
f 264 261 263
f 265 263 266
f 265 264 263
f 267 266 268
f 267 265 266
f 269 268 270
f 269 267 268
f 271 270 272
f 271 269 270
f 273 272 274
f 273 274 275
f 273 271 272
f 276 275 277
f 276 273 275
f 278 276 277
f 279 277 280
f 279 278 277
f 281 280 282
f 281 282 283
f 281 279 280
f 284 283 285
f 284 281 283
f 286 284 285
f 287 285 288
f 287 288 289
f 287 286 285
f 290 287 289
f 291 289 292
f 291 292 293
f 291 290 289
f 294 291 293
f 295 293 296
f 295 296 297
f 295 294 293
f 298 295 297
f 298 297 299
f 300 299 301
f 300 298 299
f 302 300 301
f 302 301 303
f 304 302 303
f 305 304 303
f 305 303 306
f 305 306 307
f 308 305 307
f 309 308 307
f 309 307 310
f 311 309 310
f 311 310 312
f 313 311 312
f 313 312 314
f 315 313 314
f 315 314 316
f 315 316 317
f 318 315 317
f 319 318 317
f 319 317 320
f 319 320 321
f 322 319 321
f 323 322 321
f 323 321 324
f 325 323 324
f 325 324 326
f 327 325 326
f 327 326 328
f 327 328 329
f 330 327 329
f 330 329 100
f 102 330 100
f 317 44 320
f 331 171 169
f 44 52 321
f 320 44 321
f 331 169 167
f 332 331 167
f 321 52 324
f 52 58 324
f 332 167 165
f 333 332 165
f 58 59 326
f 324 58 326
f 333 165 163
f 334 333 163
f 326 59 328
f 59 65 328
f 335 334 161
f 334 163 161
f 245 243 8
f 328 65 329
f 65 69 329
f 245 8 16
f 336 335 160
f 248 245 16
f 335 161 160
f 8 243 7
f 243 242 7
f 250 248 28
f 252 250 28
f 248 16 28
f 240 237 4
f 242 240 4
f 7 242 4
f 254 252 39
f 329 69 100
f 252 28 39
f 336 160 158
f 69 337 101
f 237 235 91
f 100 69 101
f 4 237 91
f 255 254 46
f 254 39 46
f 336 158 156
f 338 336 156
f 91 235 83
f 339 338 153
f 338 156 153
f 337 340 104
f 235 234 83
f 101 337 104
f 255 46 49
f 258 255 49
f 340 341 106
f 104 340 106
f 234 232 82
f 342 339 151
f 83 234 82
f 339 153 151
f 260 258 66
f 342 151 150
f 258 49 66
f 343 342 150
f 341 344 108
f 232 230 77
f 82 232 77
f 106 341 108
f 344 345 109
f 260 66 73
f 262 260 73
f 263 262 73
f 108 344 109
f 77 230 61
f 346 343 148
f 343 150 148
f 228 226 61
f 230 228 61
f 263 73 75
f 346 148 146
f 266 263 75
f 61 226 50
f 109 345 111
f 345 347 113
f 226 223 50
f 111 345 113
f 266 75 87
f 268 266 87
f 348 346 144
f 346 146 144
f 347 349 116
f 50 223 48
f 113 347 116
f 348 144 142
f 223 221 48
f 268 87 89
f 350 348 142
f 270 268 89
f 349 351 118
f 48 221 31
f 116 349 118
f 350 142 140
f 221 219 31
f 352 350 140
f 352 140 137
f 353 352 137
f 351 354 120
f 270 89 2
f 272 270 2
f 118 351 120
f 354 355 122
f 31 219 21
f 120 354 122
f 356 353 136
f 219 217 21
f 353 137 136
f 356 136 134
f 272 2 1
f 122 355 124
f 274 272 1
f 275 274 1
f 355 357 125
f 124 355 125
f 356 134 132
f 358 356 132
f 21 217 22
f 357 359 127
f 125 357 127
f 215 214 22
f 217 215 22
f 275 1 13
f 358 132 130
f 359 358 130
f 127 359 130
f 277 275 13
f 22 214 360
f 214 212 360
f 277 13 14
f 280 277 14
f 360 212 361
f 212 209 361
f 280 14 27
f 282 280 27
f 209 208 362
f 361 209 362
f 282 27 36
f 283 282 36
f 208 205 363
f 362 208 363
f 283 36 37
f 285 283 37
f 288 285 37
f 204 201 364
f 205 204 364
f 363 205 364
f 288 37 54
f 289 288 54
f 201 199 365
f 364 201 365
f 289 54 55
f 292 289 55
f 199 198 366
f 365 199 366
f 292 55 72
f 293 292 72
f 198 196 367
f 366 198 367
f 293 72 79
f 296 293 79
f 196 194 368
f 367 196 368
f 296 79 80
f 297 296 80
f 368 194 369
f 194 192 369
f 297 80 299
f 369 192 189
f 299 80 86
f 369 189 370
f 299 86 301
f 370 189 187
f 301 86 96
f 370 187 371
f 301 96 303
f 371 187 186
f 303 96 98
f 371 186 372
f 303 98 306
f 372 186 183
f 306 98 9
f 372 183 373
f 306 9 307
f 373 183 181
f 307 9 310
f 9 18 310
f 374 373 179
f 373 181 179
f 310 18 312
f 18 25 312
f 375 374 178
f 374 179 178
f 312 25 314
f 25 33 314
f 376 375 175
f 375 178 175
f 314 33 316
f 33 34 316
f 377 376 174
f 376 175 174
f 316 34 317
f 34 44 317
f 331 377 171
f 377 174 171
f 319 43 318
f 170 172 378
f 322 51 43
f 322 43 319
f 168 170 378
f 168 378 379
f 323 51 322
f 323 56 51
f 166 168 379
f 166 379 380
f 325 62 56
f 325 56 323
f 164 166 380
f 164 380 381
f 327 62 325
f 327 64 62
f 162 381 382
f 162 164 381
f 15 244 246
f 330 64 327
f 330 70 64
f 20 15 246
f 159 382 383
f 20 246 247
f 159 162 382
f 6 244 15
f 6 241 244
f 29 247 249
f 29 249 251
f 29 20 247
f 5 238 239
f 5 239 241
f 5 241 6
f 40 251 253
f 102 70 330
f 40 29 251
f 157 159 383
f 99 384 70
f 94 236 238
f 99 70 102
f 94 238 5
f 47 253 256
f 47 40 253
f 155 157 383
f 155 383 385
f 90 236 94
f 154 385 386
f 154 155 385
f 103 387 384
f 90 233 236
f 103 384 99
f 60 47 256
f 60 256 257
f 105 388 387
f 105 387 103
f 81 231 233
f 152 386 389
f 81 233 90
f 152 154 386
f 67 257 259
f 149 152 389
f 67 60 257
f 149 389 390
f 107 391 388
f 76 229 231
f 76 231 81
f 107 388 105
f 110 392 391
f 74 67 259
f 74 259 261
f 74 261 264
f 110 391 107
f 68 229 76
f 147 390 393
f 147 149 390
f 68 225 227
f 68 227 229
f 85 74 264
f 145 147 393
f 85 264 265
f 57 225 68
f 112 392 110
f 114 394 392
f 57 224 225
f 114 392 112
f 88 85 265
f 88 265 267
f 143 393 395
f 143 145 393
f 115 396 394
f 45 224 57
f 115 394 114
f 141 143 395
f 45 222 224
f 93 88 267
f 141 395 397
f 93 267 269
f 117 398 396
f 41 222 45
f 117 396 115
f 139 141 397
f 41 220 222
f 139 397 399
f 138 139 399
f 138 399 400
f 119 401 398
f 97 93 269
f 97 269 271
f 119 398 117
f 121 402 401
f 30 220 41
f 121 401 119
f 135 400 403
f 30 218 220
f 135 138 400
f 133 135 403
f 3 97 271
f 123 402 121
f 3 271 273
f 3 273 276
f 126 404 402
f 126 402 123
f 131 133 403
f 131 403 405
f 23 218 30
f 128 406 404
f 128 404 126
f 23 213 216
f 23 216 218
f 12 3 276
f 129 131 405
f 129 405 406
f 129 406 128
f 12 276 278
f 407 213 23
f 407 211 213
f 19 12 278
f 19 278 279
f 408 211 407
f 408 210 211
f 26 19 279
f 26 279 281
f 409 207 210
f 409 210 408
f 35 26 281
f 35 281 284
f 410 206 207
f 410 207 409
f 42 35 284
f 42 284 286
f 42 286 287
f 411 202 203
f 411 203 206
f 411 206 410
f 53 42 287
f 53 287 290
f 412 200 202
f 412 202 411
f 63 53 290
f 63 290 291
f 413 197 200
f 413 200 412
f 71 63 291
f 71 291 294
f 414 195 197
f 414 197 413
f 78 71 294
f 78 294 295
f 415 193 195
f 415 195 414
f 84 78 295
f 84 295 298
f 416 193 415
f 416 191 193
f 300 84 298
f 190 191 416
f 92 84 300
f 417 190 416
f 302 92 300
f 188 190 417
f 95 92 302
f 418 188 417
f 304 95 302
f 185 188 418
f 10 95 304
f 419 185 418
f 305 10 304
f 184 185 419
f 11 10 305
f 420 184 419
f 308 11 305
f 182 184 420
f 309 11 308
f 309 17 11
f 180 420 421
f 180 182 420
f 311 17 309
f 311 24 17
f 177 421 422
f 177 180 421
f 313 24 311
f 313 32 24
f 176 422 423
f 176 177 422
f 315 32 313
f 315 38 32
f 173 423 424
f 173 176 423
f 318 38 315
f 318 43 38
f 172 424 378
f 172 173 424
f 336 338 383
f 355 402 404
f 357 355 404
f 369 417 416
f 368 369 416
f 336 383 382
f 335 336 382
f 357 404 406
f 368 416 415
f 359 357 406
f 358 359 406
f 367 368 415
f 335 382 381
f 334 335 381
f 333 334 381
f 367 415 414
f 358 406 405
f 337 69 70
f 356 358 405
f 366 367 414
f 332 333 380
f 366 414 413
f 337 70 384
f 340 337 384
f 365 366 413
f 333 381 380
f 356 405 403
f 332 380 379
f 365 413 412
f 331 332 379
f 353 356 400
f 340 384 387
f 352 353 400
f 365 412 411
f 331 379 378
f 364 365 411
f 356 403 400
f 363 364 411
f 377 331 378
f 340 387 388
f 363 411 410
f 352 400 399
f 341 340 388
f 350 352 399
f 377 378 424
f 363 410 409
f 362 363 409
f 361 362 409
f 341 388 391
f 344 341 391
f 361 409 408
f 377 424 423
f 376 377 423
f 361 408 407
f 350 399 397
f 360 361 407
f 22 360 407
f 348 350 395
f 22 407 23
f 344 391 392
f 345 344 392
f 376 423 422
f 347 345 392
f 375 376 422
f 374 375 422
f 350 397 395
f 346 348 393
f 347 392 394
f 374 422 421
f 349 347 394
f 348 395 393
f 343 346 390
f 349 394 396
f 374 421 420
f 373 374 420
f 346 393 390
f 342 343 389
f 339 342 389
f 349 396 398
f 351 349 398
f 373 420 419
f 354 351 398
f 343 390 389
f 372 373 419
f 371 372 419
f 354 398 401
f 355 354 401
f 371 419 418
f 339 389 386
f 338 339 385
f 355 401 402
f 371 418 417
f 339 386 385
f 370 371 417
f 369 370 417
f 338 385 383
