# Created by FreeCAD <http://www.freecadweb.org>
v 8.000000 519.609985 81.879463
v 7.861245 519.599976 81.884010
v 8.000000 519.599976 81.879463
v 6.404947 519.609985 82.602173
v 6.316875 519.599976 82.709496
v 6.404947 519.599976 82.602173
v 6.499850 519.609985 82.500847
v 9.683125 519.609985 82.709496
v 9.595053 519.599976 82.602173
v 9.683125 519.599976 82.709496
v 8.138755 519.599976 81.884010
v 8.138755 519.609985 81.884010
v 8.276916 519.609985 81.897614
v 6.499850 519.599976 82.500847
v 9.763990 519.599976 82.822342
v 6.601176 519.609985 82.405945
v 9.763990 519.609985 82.822342
v 8.276916 519.599976 81.897614
v 6.601176 519.599976 82.405945
v 9.837301 519.599976 82.940231
v 5.883010 519.609985 83.862244
v 5.878468 519.609985 84.000999
v 5.878468 519.599976 84.000999
v 9.837301 519.609985 82.940231
v 9.902745 519.609985 83.062668
v 8.413891 519.599976 81.920235
v 8.413891 519.609985 81.920235
v 8.549093 519.609985 81.951759
v 6.708493 519.609985 82.317871
v 6.708493 519.599976 82.317871
v 9.902745 519.599976 83.062668
v 5.883010 519.599976 83.862244
v 5.896617 519.609985 83.724083
v 9.960041 519.609985 83.189125
v 8.549093 519.599976 81.951759
v 8.681944 519.609985 81.992058
v 9.960041 519.599976 83.189125
v 6.821340 519.609985 82.237007
v 6.821340 519.599976 82.237007
v 5.896617 519.599976 83.724083
v 8.681944 519.599976 81.992058
v 10.008944 519.599976 83.319054
v 10.008944 519.609985 83.319054
v 5.919232 519.599976 83.587112
v 6.939234 519.609985 82.163696
v 6.939234 519.599976 82.163696
v 10.049243 519.599976 83.451904
v 7.061670 519.609985 82.098251
v 5.919232 519.609985 83.587112
v 5.950757 519.609985 83.451904
v 10.049243 519.609985 83.451904
v 8.811875 519.599976 82.040962
v 8.811875 519.609985 82.040962
v 8.938330 519.609985 82.098251
v 10.080768 519.599976 83.587112
v 10.080768 519.609985 83.587112
v 5.950757 519.599976 83.451904
v 7.061670 519.599976 82.098251
v 8.938330 519.599976 82.098251
v 10.103383 519.599976 83.724083
v 10.103383 519.609985 83.724083
v 10.116990 519.599976 83.862244
v 10.116990 519.609985 83.862244
v 10.121532 519.609985 84.000999
v 7.188125 519.609985 82.040962
v 7.188125 519.599976 82.040962
v 5.991057 519.599976 83.319054
v 5.991057 519.609985 83.319054
v 10.121532 519.599976 84.000999
v 9.060766 519.599976 82.163696
v 9.060766 519.609985 82.163696
v 7.318056 519.609985 81.992058
v 7.318056 519.599976 81.992058
v 7.450907 519.609985 81.951759
v 6.039959 519.599976 83.189125
v 9.178660 519.599976 82.237007
v 6.039959 519.609985 83.189125
v 9.178660 519.609985 82.237007
v 9.291508 519.609985 82.317871
v 6.097255 519.599976 83.062668
v 9.291508 519.599976 82.317871
v 6.097255 519.609985 83.062668
v 6.162699 519.609985 82.940231
v 7.450907 519.599976 81.951759
v 9.398824 519.609985 82.405945
v 7.586110 519.609985 81.920235
v 7.586110 519.599976 81.920235
v 6.162699 519.599976 82.940231
v 9.398824 519.599976 82.405945
v 6.236010 519.609985 82.822342
v 7.723084 519.609985 81.897614
v 7.723084 519.599976 81.897614
v 6.236010 519.599976 82.822342
v 9.500150 519.599976 82.500847
v 6.316875 519.609985 82.709496
v 9.500150 519.609985 82.500847
v 7.861245 519.609985 81.884010
v 9.595053 519.609985 82.602173
v 10.995601 519.599976 84.163414
v 11.000000 519.609985 84.000999
v 10.995601 519.609985 84.163414
v 11.000000 519.599976 84.000999
v 10.982414 519.599976 84.325356
v 10.982414 519.609985 84.325356
v 10.960480 519.599976 84.486343
v 10.960480 519.609985 84.486343
v 10.929862 519.599976 84.645912
v 10.929862 519.609985 84.645912
v 10.890650 519.609985 84.803581
v 10.890650 519.599976 84.803581
v 10.842959 519.609985 84.958900
v 10.842959 519.599976 84.958900
v 10.786930 519.609985 85.111412
v 10.786930 519.599976 85.111412
v 10.722726 519.599976 85.260666
v 10.722726 519.609985 85.260666
v 10.650537 519.599976 85.406227
v 10.650537 519.609985 85.406227
v 10.570572 519.599976 85.547661
v 10.570572 519.609985 85.547661
v 10.483067 519.599976 85.684563
v 10.483067 519.609985 85.684563
v 10.388279 519.609985 85.816521
v 10.388279 519.599976 85.816521
v 10.286487 519.609985 85.943161
v 10.286487 519.599976 85.943161
v 10.177986 519.599976 86.064095
v 10.177986 519.609985 86.064095
v 10.063098 519.599976 86.178986
v 10.063098 519.609985 86.178986
v 9.942159 519.599976 86.287483
v 9.942159 519.609985 86.287483
v 9.815522 519.609985 86.389282
v 9.815522 519.599976 86.389282
v 9.683561 519.599976 86.484070
v 9.683561 519.609985 86.484070
v 9.546661 519.609985 86.571571
v 9.546661 519.599976 86.571571
v 9.405226 519.609985 86.651535
v 9.405226 519.599976 86.651535
v 9.259667 519.599976 86.723724
v 9.259667 519.609985 86.723724
v 9.110415 519.599976 86.787926
v 9.110415 519.609985 86.787926
v 8.957905 519.599976 86.843956
v 8.957905 519.609985 86.843956
v 8.802585 519.599976 86.891647
v 8.802585 519.609985 86.891647
v 8.644912 519.599976 86.930862
v 8.644912 519.609985 86.930862
v 8.485346 519.609985 86.961479
v 8.485346 519.599976 86.961479
v 8.324357 519.609985 86.983414
v 8.324357 519.599976 86.983414
v 8.162416 519.599976 86.996597
v 8.162416 519.609985 86.996597
v 8.000000 519.599976 87.000999
v 8.000000 519.609985 87.000999
v 7.837583 519.599976 86.996597
v 7.837583 519.609985 86.996597
v 7.675643 519.609985 86.983414
v 7.675643 519.599976 86.983414
v 7.514654 519.609985 86.961479
v 7.514654 519.599976 86.961479
v 7.355089 519.609985 86.930862
v 7.355089 519.599976 86.930862
v 7.197415 519.609985 86.891647
v 7.197415 519.599976 86.891647
v 7.042095 519.599976 86.843956
v 7.042095 519.609985 86.843956
v 6.889585 519.609985 86.787926
v 6.889585 519.599976 86.787926
v 6.740333 519.599976 86.723724
v 6.740333 519.609985 86.723724
v 6.594775 519.599976 86.651535
v 6.594775 519.609985 86.651535
v 6.453339 519.599976 86.571571
v 6.453339 519.609985 86.571571
v 6.316439 519.609985 86.484070
v 6.316439 519.599976 86.484070
v 6.184477 519.599976 86.389282
v 6.184477 519.609985 86.389282
v 6.057841 519.599976 86.287483
v 6.057841 519.609985 86.287483
v 5.936902 519.599976 86.178986
v 5.936902 519.609985 86.178986
v 5.822013 519.609985 86.064095
v 5.822013 519.599976 86.064095
v 5.713514 519.609985 85.943161
v 5.713514 519.599976 85.943161
v 5.611721 519.599976 85.816521
v 5.611721 519.609985 85.816521
v 5.516933 519.599976 85.684563
v 5.516933 519.609985 85.684563
v 5.429429 519.599976 85.547661
v 5.429429 519.609985 85.547661
v 5.349464 519.609985 85.406227
v 5.349464 519.599976 85.406227
v 5.277274 519.599976 85.260666
v 5.277274 519.609985 85.260666
v 5.213070 519.609985 85.111412
v 5.213070 519.599976 85.111412
v 5.157041 519.599976 84.958900
v 5.157041 519.609985 84.958900
v 5.109350 519.609985 84.803581
v 5.109350 519.599976 84.803581
v 5.070138 519.609985 84.645912
v 5.070138 519.599976 84.645912
v 5.039520 519.609985 84.486343
v 5.039520 519.599976 84.486343
v 5.017586 519.599976 84.325356
v 5.017586 519.609985 84.325356
v 5.004400 519.599976 84.163414
v 5.004400 519.609985 84.163414
v 5.000000 519.609985 84.000999
v 5.000000 519.599976 84.000999
v 5.004400 519.599976 83.838585
v 5.004400 519.609985 83.838585
v 5.017586 519.599976 83.676643
v 5.017586 519.609985 83.676643
v 5.039520 519.599976 83.515656
v 5.039520 519.609985 83.515656
v 5.070138 519.609985 83.356087
v 5.070138 519.599976 83.356087
v 5.109350 519.599976 83.198418
v 5.109350 519.609985 83.198418
v 5.157041 519.599976 83.043098
v 5.157041 519.609985 83.043098
v 5.213070 519.599976 82.890587
v 5.213070 519.609985 82.890587
v 5.277274 519.599976 82.741333
v 5.277274 519.609985 82.741333
v 5.349464 519.599976 82.595772
v 5.349464 519.609985 82.595772
v 5.429429 519.609985 82.454338
v 5.429429 519.599976 82.454338
v 5.516933 519.609985 82.317436
v 5.516933 519.599976 82.317436
v 5.611721 519.609985 82.185478
v 5.611721 519.599976 82.185478
v 5.713514 519.599976 82.058838
v 5.713514 519.609985 82.058838
v 5.822013 519.609985 81.937904
v 5.822013 519.599976 81.937904
v 5.936902 519.609985 81.823013
v 5.936902 519.599976 81.823013
v 6.057841 519.599976 81.714516
v 6.057841 519.609985 81.714516
v 6.184477 519.599976 81.612717
v 6.184477 519.609985 81.612717
v 6.316439 519.599976 81.517929
v 6.316439 519.609985 81.517929
v 6.453339 519.599976 81.430428
v 6.453339 519.609985 81.430428
v 6.594775 519.609985 81.350464
v 6.594775 519.599976 81.350464
v 6.740333 519.599976 81.278275
v 6.740333 519.609985 81.278275
v 6.889585 519.599976 81.214066
v 6.889585 519.609985 81.214066
v 7.042095 519.599976 81.158043
v 7.042095 519.609985 81.158043
v 7.197415 519.609985 81.110352
v 7.197415 519.599976 81.110352
v 7.355089 519.599976 81.071136
v 7.355089 519.609985 81.071136
v 7.514654 519.599976 81.040520
v 7.514654 519.609985 81.040520
v 7.675643 519.599976 81.018585
v 7.675643 519.609985 81.018585
v 7.837583 519.599976 81.005402
v 7.837583 519.609985 81.005402
v 8.000000 519.599976 81.000999
v 8.000000 519.609985 81.000999
v 8.162416 519.609985 81.005402
v 8.162416 519.599976 81.005402
v 8.324357 519.609985 81.018585
v 8.324357 519.599976 81.018585
v 8.485346 519.599976 81.040520
v 8.485346 519.609985 81.040520
v 8.644912 519.599976 81.071136
v 8.644912 519.609985 81.071136
v 8.802585 519.609985 81.110352
v 8.802585 519.599976 81.110352
v 8.957905 519.609985 81.158043
v 8.957905 519.599976 81.158043
v 9.110415 519.599976 81.214066
v 9.110415 519.609985 81.214066
v 9.259667 519.609985 81.278275
v 9.259667 519.599976 81.278275
v 9.405226 519.599976 81.350464
v 9.405226 519.609985 81.350464
v 9.546661 519.609985 81.430428
v 9.546661 519.599976 81.430428
v 9.683561 519.599976 81.517929
v 9.683561 519.609985 81.517929
v 9.815522 519.609985 81.612717
v 9.815522 519.599976 81.612717
v 9.942159 519.609985 81.714516
v 9.942159 519.599976 81.714516
v 10.063098 519.609985 81.823013
v 10.063098 519.599976 81.823013
v 10.177986 519.609985 81.937904
v 10.177986 519.599976 81.937904
v 10.286487 519.599976 82.058838
v 10.286487 519.609985 82.058838
v 10.388279 519.609985 82.185478
v 10.388279 519.599976 82.185478
v 10.483067 519.599976 82.317436
v 10.483067 519.609985 82.317436
v 10.570572 519.599976 82.454338
v 10.570572 519.609985 82.454338
v 10.650537 519.599976 82.595772
v 10.650537 519.609985 82.595772
v 10.722726 519.599976 82.741333
v 10.722726 519.609985 82.741333
v 10.786930 519.609985 82.890587
v 10.786930 519.599976 82.890587
v 10.842959 519.599976 83.043098
v 10.842959 519.609985 83.043098
v 10.890650 519.609985 83.198418
v 10.890650 519.599976 83.198418
v 10.929862 519.599976 83.356087
v 10.929862 519.609985 83.356087
v 10.960480 519.599976 83.515656
v 10.960480 519.609985 83.515656
v 10.982414 519.599976 83.676643
v 10.982414 519.609985 83.676643
v 10.995601 519.609985 83.838585
v 10.995601 519.599976 83.838585
v 7.318056 519.609985 86.009941
v 7.188125 519.609985 85.961037
v 7.450907 519.609985 86.050240
v 7.586110 519.609985 86.081764
v 7.723084 519.609985 86.104385
v 7.861245 519.609985 86.117989
v 8.000000 519.609985 86.122536
v 8.138755 519.609985 86.117989
v 10.116990 519.609985 84.139755
v 8.276916 519.609985 86.104385
v 10.103383 519.609985 84.277916
v 8.413891 519.609985 86.081764
v 10.080768 519.609985 84.414886
v 8.549093 519.609985 86.050240
v 10.049243 519.609985 84.550095
v 8.681944 519.609985 86.009941
v 10.008944 519.609985 84.682945
v 8.811875 519.609985 85.961037
v 9.960041 519.609985 84.812874
v 8.938330 519.609985 85.903748
v 9.902745 519.609985 84.939331
v 9.837301 519.609985 85.061768
v 9.060766 519.609985 85.838303
v 9.763990 519.609985 85.179657
v 9.178660 519.609985 85.764992
v 9.291508 519.609985 85.684128
v 9.683125 519.609985 85.292503
v 9.398824 519.609985 85.596054
v 9.595053 519.609985 85.399826
v 9.500150 519.609985 85.501152
v 5.883010 519.609985 84.139755
v 5.896617 519.609985 84.277916
v 5.919232 519.609985 84.414886
v 5.950757 519.609985 84.550095
v 5.991057 519.609985 84.682945
v 6.039959 519.609985 84.812874
v 6.097255 519.609985 84.939331
v 6.162699 519.609985 85.061768
v 6.236010 519.609985 85.179657
v 6.316875 519.609985 85.292503
v 6.404947 519.609985 85.399826
v 6.499850 519.609985 85.501152
v 6.601176 519.609985 85.596054
v 6.708493 519.609985 85.684128
v 6.821340 519.609985 85.764992
v 6.939234 519.609985 85.838303
v 7.061670 519.609985 85.903748
v 7.188125 519.599976 85.961037
v 7.318056 519.599976 86.009941
v 7.450907 519.599976 86.050240
v 7.586110 519.599976 86.081764
v 7.723084 519.599976 86.104385
v 7.861245 519.599976 86.117989
v 8.000000 519.599976 86.122536
v 8.138755 519.599976 86.117989
v 10.116990 519.599976 84.139755
v 8.276916 519.599976 86.104385
v 10.103383 519.599976 84.277916
v 8.413891 519.599976 86.081764
v 10.080768 519.599976 84.414886
v 8.549093 519.599976 86.050240
v 10.049243 519.599976 84.550095
v 8.681944 519.599976 86.009941
v 10.008944 519.599976 84.682945
v 8.811875 519.599976 85.961037
v 9.960041 519.599976 84.812874
v 8.938330 519.599976 85.903748
v 9.902745 519.599976 84.939331
v 9.837301 519.599976 85.061768
v 9.060766 519.599976 85.838303
v 9.763990 519.599976 85.179657
v 9.178660 519.599976 85.764992
v 9.291508 519.599976 85.684128
v 9.683125 519.599976 85.292503
v 9.398824 519.599976 85.596054
v 9.595053 519.599976 85.399826
v 9.500150 519.599976 85.501152
v 5.883010 519.599976 84.139755
v 5.896617 519.599976 84.277916
v 5.919232 519.599976 84.414886
v 5.950757 519.599976 84.550095
v 5.991057 519.599976 84.682945
v 6.039959 519.599976 84.812874
v 6.097255 519.599976 84.939331
v 6.162699 519.599976 85.061768
v 6.236010 519.599976 85.179657
v 6.316875 519.599976 85.292503
v 6.404947 519.599976 85.399826
v 6.499850 519.599976 85.501152
v 6.601176 519.599976 85.596054
v 6.708493 519.599976 85.684128
v 6.821340 519.599976 85.764992
v 6.939234 519.599976 85.838303
v 7.061670 519.599976 85.903748
f 1 2 3
f 4 5 6
f 7 4 6
f 8 9 10
f 1 3 11
f 12 1 11
f 13 12 11
f 7 6 14
f 8 10 15
f 16 7 14
f 17 8 15
f 13 11 18
f 16 14 19
f 17 15 20
f 21 22 23
f 24 17 20
f 25 24 20
f 13 18 26
f 27 13 26
f 28 27 26
f 29 16 30
f 25 20 31
f 21 23 32
f 33 21 32
f 16 19 30
f 34 25 31
f 28 26 35
f 36 28 35
f 34 31 37
f 38 29 39
f 33 32 40
f 36 35 41
f 29 30 39
f 34 37 42
f 43 34 42
f 33 40 44
f 45 38 46
f 43 42 47
f 48 45 46
f 49 33 44
f 50 49 44
f 51 43 47
f 36 41 52
f 53 36 52
f 54 53 52
f 38 39 46
f 51 47 55
f 56 51 55
f 50 44 57
f 48 46 58
f 54 52 59
f 56 55 60
f 61 56 60
f 61 60 62
f 63 61 62
f 64 63 62
f 65 48 66
f 50 57 67
f 68 50 67
f 64 62 69
f 54 59 70
f 71 54 70
f 48 58 66
f 72 65 73
f 74 72 73
f 68 67 75
f 71 70 76
f 77 68 75
f 78 71 76
f 79 78 76
f 65 66 73
f 77 75 80
f 79 76 81
f 82 77 80
f 83 82 80
f 74 73 84
f 85 79 81
f 86 74 87
f 83 80 88
f 85 81 89
f 90 83 88
f 74 84 87
f 91 86 92
f 90 88 93
f 85 89 94
f 95 90 93
f 96 85 94
f 86 87 92
f 97 91 2
f 1 97 2
f 95 93 5
f 96 94 9
f 4 95 5
f 98 96 9
f 91 92 2
f 8 98 9
f 99 100 101
f 99 102 100
f 103 101 104
f 103 99 101
f 105 104 106
f 105 103 104
f 107 106 108
f 107 108 109
f 107 105 106
f 110 109 111
f 110 107 109
f 112 111 113
f 112 110 111
f 114 112 113
f 115 113 116
f 115 114 113
f 117 116 118
f 117 115 116
f 119 118 120
f 119 117 118
f 121 120 122
f 121 122 123
f 121 119 120
f 124 123 125
f 124 121 123
f 126 124 125
f 127 125 128
f 127 126 125
f 129 128 130
f 129 127 128
f 131 130 132
f 131 132 133
f 131 129 130
f 134 131 133
f 135 134 133
f 135 133 136
f 135 136 137
f 138 137 139
f 138 135 137
f 140 138 139
f 141 140 139
f 141 139 142
f 143 141 142
f 143 142 144
f 145 143 144
f 145 144 146
f 147 146 148
f 147 145 146
f 149 148 150
f 149 150 151
f 149 147 148
f 152 151 153
f 152 149 151
f 154 152 153
f 155 153 156
f 155 154 153
f 157 156 158
f 157 155 156
f 159 158 160
f 159 160 161
f 159 157 158
f 162 161 163
f 162 159 161
f 164 163 165
f 164 162 163
f 166 165 167
f 166 164 165
f 168 166 167
f 169 167 170
f 169 170 171
f 169 168 167
f 172 169 171
f 173 171 174
f 173 172 171
f 175 174 176
f 175 173 174
f 177 176 178
f 177 178 179
f 177 175 176
f 180 177 179
f 181 179 182
f 181 180 179
f 183 181 182
f 183 182 184
f 185 183 184
f 185 184 186
f 185 186 187
f 188 185 187
f 188 187 189
f 190 188 189
f 191 190 189
f 191 189 192
f 193 191 192
f 193 192 194
f 195 193 194
f 195 194 196
f 195 196 197
f 198 195 197
f 199 198 197
f 199 197 200
f 199 200 201
f 202 199 201
f 203 202 201
f 203 201 204
f 203 204 205
f 206 203 205
f 206 205 207
f 208 206 207
f 208 207 209
f 210 208 209
f 211 210 209
f 211 209 212
f 213 211 212
f 213 212 214
f 213 214 215
f 216 213 215
f 217 216 215
f 217 215 218
f 219 218 220
f 219 217 218
f 221 220 222
f 221 222 223
f 221 219 220
f 224 221 223
f 225 223 226
f 225 224 223
f 227 226 228
f 227 225 226
f 229 228 230
f 229 227 228
f 231 230 232
f 231 229 230
f 233 232 234
f 233 234 235
f 233 231 232
f 236 235 237
f 236 233 235
f 238 237 239
f 238 236 237
f 240 238 239
f 241 239 242
f 241 242 243
f 241 240 239
f 244 243 245
f 244 241 243
f 246 244 245
f 247 246 245
f 247 245 248
f 249 248 250
f 249 247 248
f 251 249 250
f 251 250 252
f 253 251 252
f 253 252 254
f 253 254 255
f 256 253 255
f 257 256 255
f 257 255 258
f 259 257 258
f 259 258 260
f 261 260 262
f 261 262 263
f 261 259 260
f 264 261 263
f 265 263 266
f 265 264 263
f 267 266 268
f 267 265 266
f 269 268 270
f 269 267 268
f 271 270 272
f 271 269 270
f 273 272 274
f 273 274 275
f 273 271 272
f 276 273 275
f 276 275 277
f 278 276 277
f 279 277 280
f 279 278 277
f 281 280 282
f 281 282 283
f 281 279 280
f 284 283 285
f 284 281 283
f 286 284 285
f 287 285 288
f 287 288 289
f 287 286 285
f 290 287 289
f 291 289 292
f 291 292 293
f 291 290 289
f 294 291 293
f 295 293 296
f 295 296 297
f 295 294 293
f 298 295 297
f 298 297 299
f 300 299 301
f 300 298 299
f 302 300 301
f 302 301 303
f 304 302 303
f 305 304 303
f 305 303 306
f 305 306 307
f 308 305 307
f 309 308 307
f 309 307 310
f 311 309 310
f 311 310 312
f 313 311 312
f 313 312 314
f 315 313 314
f 315 314 316
f 315 316 317
f 318 315 317
f 319 318 317
f 319 317 320
f 319 320 321
f 322 319 321
f 323 322 321
f 323 321 324
f 325 323 324
f 325 324 326
f 327 325 326
f 327 326 328
f 327 328 329
f 330 327 329
f 330 329 100
f 102 330 100
f 316 34 317
f 34 43 317
f 331 332 171
f 332 174 171
f 317 43 320
f 331 171 170
f 43 51 321
f 320 43 321
f 331 170 167
f 333 331 167
f 321 51 324
f 51 56 324
f 333 167 165
f 334 333 165
f 324 56 326
f 56 61 326
f 334 165 163
f 335 334 163
f 326 61 328
f 61 63 328
f 336 335 161
f 335 163 161
f 245 243 7
f 328 63 329
f 63 64 329
f 245 7 16
f 248 245 16
f 337 336 160
f 336 161 160
f 7 243 4
f 243 242 4
f 248 16 29
f 250 248 29
f 252 250 29
f 337 160 158
f 239 237 95
f 242 239 95
f 4 242 95
f 252 29 38
f 254 252 38
f 329 64 100
f 338 337 156
f 237 235 90
f 337 158 156
f 95 237 90
f 64 339 101
f 255 254 45
f 100 64 101
f 254 38 45
f 340 338 153
f 338 156 153
f 235 234 83
f 339 341 104
f 90 235 83
f 255 45 48
f 258 255 48
f 101 339 104
f 83 234 82
f 342 340 151
f 234 232 82
f 340 153 151
f 341 343 106
f 260 258 65
f 104 341 106
f 342 151 150
f 258 48 65
f 344 342 150
f 343 345 108
f 232 230 77
f 82 232 77
f 262 260 72
f 263 262 72
f 106 343 108
f 344 150 148
f 260 65 72
f 346 344 148
f 77 230 68
f 345 347 109
f 228 226 68
f 230 228 68
f 108 345 109
f 263 72 74
f 266 263 74
f 346 148 146
f 68 226 50
f 109 347 111
f 226 223 50
f 266 74 86
f 348 346 144
f 268 266 86
f 346 146 144
f 347 349 113
f 50 223 49
f 111 347 113
f 348 144 142
f 223 222 49
f 350 348 142
f 349 351 116
f 268 86 91
f 113 349 116
f 270 268 91
f 351 352 118
f 116 351 118
f 49 222 33
f 350 142 139
f 222 220 33
f 353 350 139
f 352 354 120
f 118 352 120
f 270 91 97
f 353 139 137
f 272 270 97
f 355 353 137
f 355 137 136
f 356 355 136
f 33 220 21
f 354 357 122
f 220 218 21
f 120 354 122
f 272 97 1
f 122 357 123
f 274 272 1
f 275 274 1
f 356 136 133
f 21 218 22
f 358 356 132
f 356 133 132
f 357 359 125
f 123 357 125
f 215 214 22
f 218 215 22
f 360 358 130
f 358 132 130
f 359 360 128
f 125 359 128
f 360 130 128
f 275 1 12
f 277 275 12
f 22 214 361
f 214 212 361
f 277 12 13
f 280 277 13
f 361 212 362
f 212 209 362
f 280 13 27
f 282 280 27
f 209 207 363
f 362 209 363
f 282 27 28
f 283 282 28
f 207 205 364
f 363 207 364
f 283 28 36
f 285 283 36
f 288 285 36
f 204 201 365
f 205 204 365
f 364 205 365
f 288 36 53
f 289 288 53
f 201 200 366
f 365 201 366
f 289 53 54
f 292 289 54
f 366 200 367
f 200 197 367
f 292 54 71
f 293 292 71
f 197 196 368
f 367 197 368
f 293 71 78
f 296 293 78
f 196 194 369
f 368 196 369
f 297 296 79
f 296 78 79
f 194 192 370
f 369 194 370
f 297 79 299
f 370 192 189
f 299 79 85
f 370 189 371
f 299 85 301
f 371 189 187
f 301 85 96
f 371 187 372
f 301 96 303
f 372 187 186
f 303 96 98
f 372 186 373
f 303 98 306
f 373 186 184
f 306 98 8
f 373 184 374
f 306 8 307
f 374 184 182
f 307 8 310
f 8 17 310
f 375 374 179
f 374 182 179
f 310 17 312
f 17 24 312
f 376 375 178
f 375 179 178
f 312 24 314
f 24 25 314
f 377 376 176
f 376 178 176
f 314 25 316
f 25 34 316
f 332 377 174
f 377 176 174
f 318 37 315
f 318 42 37
f 172 378 379
f 172 173 378
f 319 42 318
f 169 172 379
f 322 47 42
f 322 42 319
f 168 169 379
f 168 379 380
f 323 47 322
f 323 55 47
f 166 168 380
f 166 380 381
f 325 55 323
f 325 60 55
f 164 166 381
f 164 381 382
f 327 60 325
f 327 62 60
f 162 382 383
f 162 164 382
f 14 244 246
f 330 62 327
f 330 69 62
f 19 14 246
f 19 246 247
f 159 383 384
f 159 162 383
f 6 244 14
f 6 241 244
f 30 19 247
f 30 247 249
f 30 249 251
f 157 159 384
f 5 238 240
f 5 240 241
f 5 241 6
f 39 30 251
f 39 251 253
f 102 69 330
f 155 384 385
f 93 236 238
f 155 157 384
f 93 238 5
f 99 386 69
f 46 253 256
f 99 69 102
f 46 39 253
f 154 385 387
f 154 155 385
f 88 233 236
f 103 388 386
f 88 236 93
f 58 46 256
f 58 256 257
f 103 386 99
f 80 233 88
f 152 387 389
f 80 231 233
f 152 154 387
f 105 390 388
f 66 257 259
f 105 388 103
f 149 152 389
f 66 58 257
f 149 389 391
f 107 392 390
f 75 229 231
f 75 231 80
f 73 259 261
f 73 261 264
f 107 390 105
f 147 149 391
f 73 66 259
f 147 391 393
f 67 229 75
f 110 394 392
f 67 225 227
f 67 227 229
f 110 392 107
f 84 73 264
f 84 264 265
f 145 147 393
f 57 225 67
f 112 394 110
f 57 224 225
f 87 84 265
f 143 393 395
f 87 265 267
f 143 145 393
f 114 396 394
f 44 224 57
f 114 394 112
f 141 143 395
f 44 221 224
f 141 395 397
f 115 398 396
f 92 87 267
f 115 396 114
f 92 267 269
f 117 399 398
f 117 398 115
f 40 221 44
f 140 141 397
f 40 219 221
f 140 397 400
f 119 401 399
f 119 399 117
f 2 92 269
f 138 140 400
f 2 269 271
f 138 400 402
f 135 138 402
f 135 402 403
f 32 219 40
f 121 404 401
f 32 217 219
f 121 401 119
f 3 2 271
f 124 404 121
f 3 271 273
f 3 273 276
f 134 135 403
f 23 217 32
f 131 403 405
f 131 134 403
f 126 406 404
f 126 404 124
f 23 213 216
f 23 216 217
f 129 405 407
f 129 131 405
f 127 407 406
f 127 406 126
f 127 129 407
f 11 3 276
f 11 276 278
f 408 213 23
f 408 211 213
f 18 11 278
f 18 278 279
f 409 211 408
f 409 210 211
f 26 18 279
f 26 279 281
f 410 208 210
f 410 210 409
f 35 26 281
f 35 281 284
f 411 206 208
f 411 208 410
f 41 35 284
f 41 284 286
f 41 286 287
f 412 202 203
f 412 203 206
f 412 206 411
f 52 41 287
f 52 287 290
f 413 199 202
f 413 202 412
f 59 52 290
f 59 290 291
f 414 199 413
f 414 198 199
f 70 59 291
f 70 291 294
f 415 195 198
f 415 198 414
f 76 70 294
f 76 294 295
f 416 193 195
f 416 195 415
f 81 295 298
f 81 76 295
f 417 191 193
f 417 193 416
f 300 81 298
f 190 191 417
f 89 81 300
f 418 190 417
f 302 89 300
f 188 190 418
f 94 89 302
f 419 188 418
f 304 94 302
f 185 188 419
f 9 94 304
f 420 185 419
f 305 9 304
f 183 185 420
f 10 9 305
f 421 183 420
f 308 10 305
f 181 183 421
f 309 10 308
f 309 15 10
f 180 421 422
f 180 181 421
f 311 15 309
f 311 20 15
f 177 422 423
f 177 180 422
f 313 20 311
f 313 31 20
f 175 423 424
f 175 177 423
f 315 31 313
f 315 37 31
f 173 424 378
f 173 175 424
f 338 385 384
f 337 338 384
f 336 337 384
f 370 418 417
f 359 404 406
f 369 370 417
f 336 384 383
f 369 417 416
f 359 406 407
f 368 369 416
f 360 359 407
f 358 360 407
f 336 383 382
f 335 336 382
f 334 335 382
f 368 416 415
f 367 368 415
f 358 407 405
f 334 382 381
f 333 334 381
f 367 415 414
f 64 69 386
f 366 367 414
f 339 64 386
f 356 358 403
f 341 339 386
f 355 356 403
f 333 381 380
f 358 405 403
f 366 414 413
f 331 333 380
f 341 386 388
f 355 403 402
f 353 355 402
f 366 413 412
f 365 366 412
f 331 380 379
f 332 331 379
f 365 412 411
f 341 388 390
f 364 365 411
f 343 341 390
f 363 364 411
f 350 353 400
f 332 379 378
f 363 411 410
f 362 363 410
f 353 402 400
f 362 410 409
f 343 390 392
f 361 362 409
f 345 343 392
f 332 378 424
f 377 332 424
f 361 409 408
f 22 361 408
f 350 400 397
f 22 408 23
f 348 350 395
f 345 392 394
f 377 424 423
f 347 345 394
f 349 347 394
f 376 377 423
f 375 376 423
f 350 397 395
f 346 348 393
f 349 394 396
f 375 423 422
f 348 395 393
f 344 346 391
f 342 344 391
f 349 396 398
f 351 349 398
f 375 422 421
f 374 375 421
f 346 393 391
f 340 342 389
f 374 421 420
f 351 398 399
f 352 351 399
f 354 352 399
f 373 374 420
f 342 391 389
f 372 373 420
f 354 399 401
f 372 420 419
f 371 372 419
f 340 389 387
f 338 340 385
f 371 419 418
f 354 401 404
f 357 354 404
f 359 357 404
f 370 371 418
f 340 387 385
