# Created by FreeCAD <http://www.freecadweb.org>
v -68.019852 273.483673 232.323669
v -67.949997 273.483673 232.854248
v -67.949997 275.483673 232.854248
v -68.224648 273.483673 231.829254
v -68.019852 275.483673 232.323669
v -68.224648 275.483673 231.829254
v -68.550430 273.483673 231.404678
v -68.550430 275.483673 231.404678
v -68.974998 273.483673 231.078903
v -68.974998 275.483673 231.078903
v -69.469421 273.483673 230.874100
v -69.469421 275.483673 230.874100
v -70.000000 273.483673 230.804245
v -70.000000 275.483673 230.804245
v -70.530579 273.483673 230.874100
v -70.530579 275.483673 230.874100
v -71.025002 273.483673 231.078903
v -71.025002 275.483673 231.078903
v -71.449570 273.483673 231.404678
v -71.449570 275.483673 231.404678
v -71.775352 273.483673 231.829254
v -71.775352 275.483673 231.829254
v -71.980148 273.483673 232.323669
v -72.050003 273.483673 232.854248
v -71.980148 275.483673 232.323669
v -72.050003 275.483673 232.854248
v -59.950001 273.483673 232.854248
v -59.950001 275.483673 232.854248
v -60.019852 275.483673 232.323669
v -60.019852 273.483673 232.323669
v -60.224648 273.483673 231.829254
v -60.224648 275.483673 231.829254
v -60.550430 273.483673 231.404678
v -60.550430 275.483673 231.404678
v -60.974998 273.483673 231.078903
v -60.974998 275.483673 231.078903
v -61.469421 273.483673 230.874100
v -61.469421 275.483673 230.874100
v -62.000000 273.483673 230.804245
v -62.000000 275.483673 230.804245
v -62.530579 273.483673 230.874100
v -62.530579 275.483673 230.874100
v -63.025002 273.483673 231.078903
v -63.025002 275.483673 231.078903
v -63.449570 273.483673 231.404678
v -63.449570 275.483673 231.404678
v -63.775352 273.483673 231.829254
v -63.775352 275.483673 231.829254
v -63.980148 273.483673 232.323669
v -63.980148 275.483673 232.323669
v -64.050003 273.483673 232.854248
v -64.050003 275.483673 232.854248
v -76.019852 273.483673 232.323669
v -75.949997 273.483673 232.854248
v -75.949997 275.483673 232.854248
v -76.019852 275.483673 232.323669
v -76.224648 273.483673 231.829254
v -76.224648 275.483673 231.829254
v -76.550430 273.483673 231.404678
v -76.550430 275.483673 231.404678
v -76.974998 273.483673 231.078903
v -76.974998 275.483673 231.078903
v -77.469421 273.483673 230.874100
v -77.469421 275.483673 230.874100
v -78.000000 273.483673 230.804245
v -78.000000 275.483673 230.804245
v -78.530579 273.483673 230.874100
v -78.530579 275.483673 230.874100
v -79.025002 273.483673 231.078903
v -79.025002 275.483673 231.078903
v -79.449570 273.483673 231.404678
v -79.449570 275.483673 231.404678
v -79.775352 273.483673 231.829254
v -79.775352 275.483673 231.829254
v -79.980148 273.483673 232.323669
v -80.050003 273.483673 232.854248
v -79.980148 275.483673 232.323669
v -80.050003 275.483673 232.854248
v -68.019852 273.483673 240.323669
v -67.949997 273.483673 240.854248
v -67.949997 275.483673 240.854248
v -68.224648 273.483673 239.829254
v -68.019852 275.483673 240.323669
v -68.224648 275.483673 239.829254
v -68.550430 273.483673 239.404678
v -68.550430 275.483673 239.404678
v -68.974998 273.483673 239.078903
v -68.974998 275.483673 239.078903
v -69.469421 273.483673 238.874100
v -69.469421 275.483673 238.874100
v -70.000000 273.483673 238.804245
v -70.000000 275.483673 238.804245
v -70.530579 273.483673 238.874100
v -70.530579 275.483673 238.874100
v -71.025002 273.483673 239.078903
v -71.449570 273.483673 239.404678
v -71.025002 275.483673 239.078903
v -71.449570 275.483673 239.404678
v -71.775352 273.483673 239.829254
v -71.775352 275.483673 239.829254
v -71.980148 273.483673 240.323669
v -71.980148 275.483673 240.323669
v -72.050003 273.483673 240.854248
v -72.050003 275.483673 240.854248
v -68.019852 273.483673 248.323669
v -67.949997 273.483673 248.854248
v -67.949997 275.483673 248.854248
v -68.224648 273.483673 247.829254
v -68.019852 275.483673 248.323669
v -68.224648 275.483673 247.829254
v -68.550430 273.483673 247.404678
v -68.550430 275.483673 247.404678
v -68.974998 273.483673 247.078903
v -68.974998 275.483673 247.078903
v -69.469421 273.483673 246.874100
v -69.469421 275.483673 246.874100
v -70.000000 273.483673 246.804245
v -70.000000 275.483673 246.804245
v -70.530579 273.483673 246.874100
v -70.530579 275.483673 246.874100
v -71.025002 273.483673 247.078903
v -71.025002 275.483673 247.078903
v -71.449570 273.483673 247.404678
v -71.449570 275.483673 247.404678
v -71.775352 273.483673 247.829254
v -71.775352 275.483673 247.829254
v -71.980148 273.483673 248.323669
v -71.980148 275.483673 248.323669
v -72.050003 273.483673 248.854248
v -72.050003 275.483673 248.854248
v -59.950001 273.483673 240.854248
v -59.950001 275.483673 240.854248
v -60.019852 275.483673 240.323669
v -60.019852 273.483673 240.323669
v -60.224648 273.483673 239.829254
v -60.224648 275.483673 239.829254
v -60.550430 273.483673 239.404678
v -60.550430 275.483673 239.404678
v -60.974998 273.483673 239.078903
v -60.974998 275.483673 239.078903
v -61.469421 273.483673 238.874100
v -61.469421 275.483673 238.874100
v -62.000000 273.483673 238.804245
v -62.000000 275.483673 238.804245
v -62.530579 273.483673 238.874100
v -62.530579 275.483673 238.874100
v -63.025002 273.483673 239.078903
v -63.025002 275.483673 239.078903
v -63.449570 273.483673 239.404678
v -63.449570 275.483673 239.404678
v -63.775352 273.483673 239.829254
v -63.775352 275.483673 239.829254
v -63.980148 273.483673 240.323669
v -63.980148 275.483673 240.323669
v -64.050003 273.483673 240.854248
v -64.050003 275.483673 240.854248
v -59.950001 273.483673 248.854248
v -59.950001 275.483673 248.854248
v -60.019852 275.483673 248.323669
v -60.019852 273.483673 248.323669
v -60.224648 273.483673 247.829254
v -60.224648 275.483673 247.829254
v -60.550430 273.483673 247.404678
v -60.550430 275.483673 247.404678
v -60.974998 273.483673 247.078903
v -60.974998 275.483673 247.078903
v -61.469421 273.483673 246.874100
v -61.469421 275.483673 246.874100
v -62.000000 273.483673 246.804245
v -62.000000 275.483673 246.804245
v -62.530579 273.483673 246.874100
v -62.530579 275.483673 246.874100
v -63.025002 273.483673 247.078903
v -63.025002 275.483673 247.078903
v -63.449570 273.483673 247.404678
v -63.449570 275.483673 247.404678
v -63.775352 273.483673 247.829254
v -63.775352 275.483673 247.829254
v -63.980148 273.483673 248.323669
v -63.980148 275.483673 248.323669
v -64.050003 273.483673 248.854248
v -64.050003 275.483673 248.854248
v -76.019852 273.483673 248.323669
v -75.949997 273.483673 248.854248
v -75.949997 275.483673 248.854248
v -76.019852 275.483673 248.323669
v -76.224648 273.483673 247.829254
v -76.224648 275.483673 247.829254
v -76.550430 273.483673 247.404678
v -76.550430 275.483673 247.404678
v -76.974998 273.483673 247.078903
v -76.974998 275.483673 247.078903
v -77.469421 273.483673 246.874100
v -77.469421 275.483673 246.874100
v -78.000000 273.483673 246.804245
v -78.000000 275.483673 246.804245
v -78.530579 273.483673 246.874100
v -78.530579 275.483673 246.874100
v -79.025002 273.483673 247.078903
v -79.025002 275.483673 247.078903
v -79.449570 273.483673 247.404678
v -79.449570 275.483673 247.404678
v -79.775352 273.483673 247.829254
v -79.775352 275.483673 247.829254
v -79.980148 273.483673 248.323669
v -79.980148 275.483673 248.323669
v -80.050003 273.483673 248.854248
v -80.050003 275.483673 248.854248
v -76.019852 273.483673 240.323669
v -75.949997 273.483673 240.854248
v -75.949997 275.483673 240.854248
v -76.019852 275.483673 240.323669
v -76.224648 273.483673 239.829254
v -76.224648 275.483673 239.829254
v -76.550430 273.483673 239.404678
v -76.550430 275.483673 239.404678
v -76.974998 273.483673 239.078903
v -76.974998 275.483673 239.078903
v -77.469421 273.483673 238.874100
v -77.469421 275.483673 238.874100
v -78.000000 273.483673 238.804245
v -78.000000 275.483673 238.804245
v -78.530579 273.483673 238.874100
v -78.530579 275.483673 238.874100
v -79.025002 273.483673 239.078903
v -79.025002 275.483673 239.078903
v -79.449570 273.483673 239.404678
v -79.449570 275.483673 239.404678
v -79.775352 273.483673 239.829254
v -79.775352 275.483673 239.829254
v -79.980148 273.483673 240.323669
v -79.980148 275.483673 240.323669
v -80.050003 273.483673 240.854248
v -80.050003 275.483673 240.854248
v -84.000000 288.014252 246.874100
v -84.000000 287.483673 246.804245
v -82.000000 287.483673 246.804245
v -82.000000 288.014252 246.874100
v -84.000000 288.508667 247.078903
v -82.000000 288.508667 247.078903
v -84.000000 288.933228 247.404678
v -82.000000 288.933228 247.404678
v -84.000000 289.259033 247.829254
v -82.000000 289.259033 247.829254
v -84.000000 289.463806 248.323669
v -82.000000 289.463806 248.323669
v -84.000000 289.533661 248.854248
v -82.000000 289.533661 248.854248
v -84.000000 289.463806 249.384827
v -82.000000 289.463806 249.384827
v -84.000000 289.259033 249.879242
v -82.000000 289.259033 249.879242
v -84.000000 288.933228 250.303818
v -82.000000 288.933228 250.303818
v -84.000000 288.508667 250.629593
v -82.000000 288.508667 250.629593
v -84.000000 288.014252 250.834396
v -82.000000 288.014252 250.834396
v -84.000000 287.483673 250.904251
v -82.000000 287.483673 250.904251
v -84.000000 280.014252 246.874100
v -84.000000 279.483673 246.804245
v -82.000000 279.483673 246.804245
v -82.000000 280.014252 246.874100
v -84.000000 280.508667 247.078903
v -82.000000 280.508667 247.078903
v -84.000000 280.933228 247.404678
v -82.000000 280.933228 247.404678
v -84.000000 281.259033 247.829254
v -82.000000 281.259033 247.829254
v -84.000000 281.463806 248.323669
v -82.000000 281.463806 248.323669
v -84.000000 281.533661 248.854248
v -82.000000 281.533661 248.854248
v -84.000000 281.463806 249.384827
v -84.000000 281.259033 249.879242
v -82.000000 281.463806 249.384827
v -84.000000 280.933228 250.303818
v -82.000000 281.259033 249.879242
v -82.000000 280.933228 250.303818
v -84.000000 280.508667 250.629593
v -82.000000 280.508667 250.629593
v -84.000000 280.014252 250.834396
v -82.000000 280.014252 250.834396
v -84.000000 279.483673 250.904251
v -82.000000 279.483673 250.904251
v -84.000000 296.014252 246.874100
v -84.000000 295.483673 246.804245
v -82.000000 295.483673 246.804245
v -82.000000 296.014252 246.874100
v -84.000000 296.508667 247.078903
v -82.000000 296.508667 247.078903
v -84.000000 296.933228 247.404678
v -82.000000 296.933228 247.404678
v -84.000000 297.259033 247.829254
v -82.000000 297.259033 247.829254
v -84.000000 297.463806 248.323669
v -82.000000 297.463806 248.323669
v -84.000000 297.533661 248.854248
v -82.000000 297.533661 248.854248
v -84.000000 297.463806 249.384827
v -82.000000 297.463806 249.384827
v -84.000000 297.259033 249.879242
v -82.000000 297.259033 249.879242
v -84.000000 296.933228 250.303818
v -82.000000 296.933228 250.303818
v -84.000000 296.508667 250.629593
v -82.000000 296.508667 250.629593
v -84.000000 296.014252 250.834396
v -82.000000 296.014252 250.834396
v -84.000000 295.483673 250.904251
v -82.000000 295.483673 250.904251
v -84.000000 288.014252 238.874100
v -84.000000 287.483673 238.804245
v -82.000000 287.483673 238.804245
v -82.000000 288.014252 238.874100
v -84.000000 288.508667 239.078903
v -82.000000 288.508667 239.078903
v -84.000000 288.933228 239.404678
v -82.000000 288.933228 239.404678
v -84.000000 289.259033 239.829254
v -82.000000 289.259033 239.829254
v -84.000000 289.463806 240.323669
v -82.000000 289.463806 240.323669
v -84.000000 289.533661 240.854248
v -82.000000 289.533661 240.854248
v -84.000000 289.463806 241.384827
v -84.000000 289.259033 241.879242
v -82.000000 289.463806 241.384827
v -84.000000 288.933228 242.303818
v -82.000000 289.259033 241.879242
v -84.000000 288.508667 242.629593
v -82.000000 288.933228 242.303818
v -82.000000 288.508667 242.629593
v -84.000000 288.014252 242.834396
v -82.000000 288.014252 242.834396
v -84.000000 287.483673 242.904251
v -82.000000 287.483673 242.904251
v -84.000000 280.014252 238.874100
v -84.000000 279.483673 238.804245
v -82.000000 279.483673 238.804245
v -82.000000 280.014252 238.874100
v -84.000000 280.508667 239.078903
v -82.000000 280.508667 239.078903
v -84.000000 280.933228 239.404678
v -82.000000 280.933228 239.404678
v -84.000000 281.259033 239.829254
v -82.000000 281.259033 239.829254
v -84.000000 281.463806 240.323669
v -82.000000 281.463806 240.323669
v -84.000000 281.533661 240.854248
v -82.000000 281.533661 240.854248
v -84.000000 281.463806 241.384827
v -82.000000 281.463806 241.384827
v -84.000000 281.259033 241.879242
v -82.000000 281.259033 241.879242
v -84.000000 280.933228 242.303818
v -82.000000 280.933228 242.303818
v -84.000000 280.508667 242.629593
v -82.000000 280.508667 242.629593
v -84.000000 280.014252 242.834396
v -82.000000 280.014252 242.834396
v -84.000000 279.483673 242.904251
v -82.000000 279.483673 242.904251
v -84.000000 288.014252 230.874100
v -84.000000 287.483673 230.804245
v -82.000000 287.483673 230.804245
v -82.000000 288.014252 230.874100
v -84.000000 288.508667 231.078903
v -82.000000 288.508667 231.078903
v -84.000000 288.933228 231.404678
v -82.000000 288.933228 231.404678
v -84.000000 289.259033 231.829254
v -82.000000 289.259033 231.829254
v -84.000000 289.463806 232.323669
v -82.000000 289.463806 232.323669
v -84.000000 289.533661 232.854248
v -82.000000 289.533661 232.854248
v -84.000000 289.463806 233.384827
v -82.000000 289.463806 233.384827
v -84.000000 289.259033 233.879242
v -84.000000 288.933228 234.303818
v -82.000000 289.259033 233.879242
v -82.000000 288.933228 234.303818
v -84.000000 288.508667 234.629593
v -82.000000 288.508667 234.629593
v -84.000000 288.014252 234.834396
v -82.000000 288.014252 234.834396
v -84.000000 287.483673 234.904251
v -82.000000 287.483673 234.904251
v -84.000000 280.014252 230.874100
v -84.000000 279.483673 230.804245
v -82.000000 279.483673 230.804245
v -82.000000 280.014252 230.874100
v -84.000000 280.508667 231.078903
v -82.000000 280.508667 231.078903
v -84.000000 280.933228 231.404678
v -82.000000 280.933228 231.404678
v -84.000000 281.259033 231.829254
v -82.000000 281.259033 231.829254
v -84.000000 281.463806 232.323669
v -82.000000 281.463806 232.323669
v -84.000000 281.533661 232.854248
v -82.000000 281.533661 232.854248
v -84.000000 281.463806 233.384827
v -84.000000 281.259033 233.879242
v -82.000000 281.463806 233.384827
v -82.000000 281.259033 233.879242
v -84.000000 280.933228 234.303818
v -82.000000 280.933228 234.303818
v -84.000000 280.508667 234.629593
v -82.000000 280.508667 234.629593
v -84.000000 280.014252 234.834396
v -82.000000 280.014252 234.834396
v -84.000000 279.483673 234.904251
v -82.000000 279.483673 234.904251
v -84.000000 296.014252 230.874100
v -84.000000 295.483673 230.804245
v -82.000000 295.483673 230.804245
v -82.000000 296.014252 230.874100
v -84.000000 296.508667 231.078903
v -82.000000 296.508667 231.078903
v -84.000000 296.933228 231.404678
v -82.000000 296.933228 231.404678
v -84.000000 297.259033 231.829254
v -82.000000 297.259033 231.829254
v -84.000000 297.463806 232.323669
v -82.000000 297.463806 232.323669
v -84.000000 297.533661 232.854248
v -82.000000 297.533661 232.854248
v -84.000000 297.463806 233.384827
v -82.000000 297.463806 233.384827
v -84.000000 297.259033 233.879242
v -82.000000 297.259033 233.879242
v -84.000000 296.933228 234.303818
v -82.000000 296.933228 234.303818
v -84.000000 296.508667 234.629593
v -82.000000 296.508667 234.629593
v -84.000000 296.014252 234.834396
v -82.000000 296.014252 234.834396
v -84.000000 295.483673 234.904251
v -82.000000 295.483673 234.904251
v -84.000000 296.014252 238.874100
v -84.000000 295.483673 238.804245
v -82.000000 295.483673 238.804245
v -82.000000 296.014252 238.874100
v -84.000000 296.508667 239.078903
v -82.000000 296.508667 239.078903
v -84.000000 296.933228 239.404678
v -82.000000 296.933228 239.404678
v -84.000000 297.259033 239.829254
v -82.000000 297.259033 239.829254
v -84.000000 297.463806 240.323669
v -82.000000 297.463806 240.323669
v -84.000000 297.533661 240.854248
v -82.000000 297.533661 240.854248
v -84.000000 297.463806 241.384827
v -82.000000 297.463806 241.384827
v -84.000000 297.259033 241.879242
v -82.000000 297.259033 241.879242
v -84.000000 296.933228 242.303818
v -82.000000 296.933228 242.303818
v -84.000000 296.508667 242.629593
v -82.000000 296.508667 242.629593
v -84.000000 296.014252 242.834396
v -82.000000 296.014252 242.834396
v -84.000000 295.483673 242.904251
v -82.000000 295.483673 242.904251
v -84.000000 299.483673 228.854248
v -84.000000 299.483673 252.854248
v -82.000000 299.483673 228.854248
v -82.000000 299.483673 252.854248
v -84.000000 294.034088 239.404678
v -84.000000 294.034088 234.303818
v -84.000000 273.483673 228.854248
v -84.000000 278.034088 231.404678
v -84.000000 278.458679 231.078903
v -84.000000 277.708313 231.829254
v -84.000000 277.503510 232.323669
v -84.000000 278.953094 230.874100
v -84.000000 286.458679 242.629593
v -84.000000 286.034088 242.303818
v -84.000000 286.458679 247.078903
v -84.000000 286.034088 247.404678
v -84.000000 277.433655 232.854248
v -84.000000 285.708313 247.829254
v -84.000000 293.708313 239.829254
v -84.000000 277.503510 233.384827
v -84.000000 294.458679 234.629593
v -84.000000 294.458679 239.078903
v -84.000000 285.503510 248.323669
v -84.000000 286.953094 246.874100
v -84.000000 286.953094 242.834396
v -84.000000 294.953094 238.874100
v -84.000000 294.953094 234.834396
v -84.000000 293.503510 240.323669
v -84.000000 285.433655 248.854248
v -84.000000 278.034088 234.303818
v -84.000000 277.708313 233.879242
v -84.000000 278.034088 239.404678
v -84.000000 293.433655 240.854248
v -84.000000 286.034088 231.404678
v -84.000000 285.503510 249.384827
v -84.000000 277.708313 239.829254
v -84.000000 278.458679 234.629593
v -84.000000 278.458679 239.078903
v -84.000000 286.458679 231.078903
v -84.000000 285.708313 231.829254
v -84.000000 293.503510 241.384827
v -84.000000 278.953094 234.834396
v -84.000000 278.953094 238.874100
v -84.000000 285.708313 249.879242
v -84.000000 277.503510 240.323669
v -84.000000 285.503510 232.323669
v -84.000000 293.708313 241.879242
v -84.000000 286.953094 230.874100
v -84.000000 286.034088 250.303818
v -84.000000 277.433655 240.854248
v -84.000000 294.034088 242.303818
v -84.000000 285.433655 232.854248
v -84.000000 286.458679 250.629593
v -84.000000 285.503510 233.384827
v -84.000000 286.953094 250.834396
v -84.000000 285.708313 233.879242
v -84.000000 286.034088 234.303818
v -84.000000 294.034088 247.404678
v -84.000000 293.708313 247.829254
v -84.000000 294.458679 247.078903
v -84.000000 294.458679 242.629593
v -84.000000 293.503510 248.323669
v -84.000000 294.953094 246.874100
v -84.000000 294.953094 242.834396
v -84.000000 293.433655 248.854248
v -84.000000 293.503510 249.384827
v -84.000000 278.034088 242.303818
v -84.000000 277.708313 241.879242
v -84.000000 278.034088 247.404678
v -84.000000 286.034088 239.404678
v -84.000000 293.708313 249.879242
v -84.000000 294.034088 250.303818
v -84.000000 278.458679 247.078903
v -84.000000 278.458679 242.629593
v -84.000000 277.503510 241.384827
v -84.000000 277.708313 247.829254
v -84.000000 285.708313 239.829254
v -84.000000 294.458679 250.629593
v -84.000000 286.458679 239.078903
v -84.000000 286.458679 234.629593
v -84.000000 294.034088 231.404678
v -84.000000 294.458679 231.078903
v -84.000000 294.953094 250.834396
v -84.000000 293.708313 231.829254
v -84.000000 277.503510 248.323669
v -84.000000 278.953094 246.874100
v -84.000000 278.953094 242.834396
v -84.000000 286.953094 234.834396
v -84.000000 286.953094 238.874100
v -84.000000 285.503510 240.323669
v -84.000000 273.483673 252.854248
v -84.000000 294.953094 230.874100
v -84.000000 293.503510 232.323669
v -84.000000 285.433655 240.854248
v -84.000000 293.433655 232.854248
v -84.000000 277.433655 248.854248
v -84.000000 277.503510 249.384827
v -84.000000 285.503510 241.384827
v -84.000000 293.503510 233.384827
v -84.000000 277.708313 249.879242
v -84.000000 285.708313 241.879242
v -84.000000 293.708313 233.879242
v -84.000000 278.034088 250.303818
v -84.000000 278.458679 250.629593
v -84.000000 278.953094 250.834396
v -58.000000 273.483673 228.854248
v -68.550430 273.483673 242.303818
v -68.974998 273.483673 242.629593
v -60.019852 273.483673 233.384827
v -76.550430 273.483673 234.303818
v -76.974998 273.483673 234.629593
v -69.469421 273.483673 242.834396
v -77.469421 273.483673 234.834396
v -70.000000 273.483673 242.904251
v -78.000000 273.483673 234.904251
v -68.019852 273.483673 249.384827
v -63.980148 273.483673 249.384827
v -63.775352 273.483673 249.879242
v -60.550430 273.483673 234.303818
v -60.224648 273.483673 233.879242
v -70.530579 273.483673 242.834396
v -78.530579 273.483673 234.834396
v -60.974998 273.483673 234.629593
v -76.019852 273.483673 241.384827
v -71.980148 273.483673 241.384827
v -68.224648 273.483673 249.879242
v -71.025002 273.483673 242.629593
v -79.025002 273.483673 234.629593
v -61.469421 273.483673 234.834396
v -76.224648 273.483673 241.879242
v -71.775352 273.483673 241.879242
v -68.550430 273.483673 250.303818
v -63.449570 273.483673 250.303818
v -71.449570 273.483673 242.303818
v -79.449570 273.483673 234.303818
v -62.000000 273.483673 234.904251
v -76.550430 273.483673 242.303818
v -68.974998 273.483673 250.629593
v -63.025002 273.483673 250.629593
v -62.530579 273.483673 250.834396
v -79.775352 273.483673 233.879242
v -62.530579 273.483673 234.834396
v -68.019852 273.483673 233.384827
v -63.980148 273.483673 233.384827
v -69.469421 273.483673 250.834396
v -58.000000 273.483673 252.854248
v -79.980148 273.483673 233.384827
v -63.025002 273.483673 234.629593
v -63.775352 273.483673 233.879242
v -68.224648 273.483673 233.879242
v -63.449570 273.483673 234.303818
v -68.550430 273.483673 234.303818
v -76.974998 273.483673 242.629593
v -77.469421 273.483673 242.834396
v -71.980148 273.483673 249.384827
v -78.000000 273.483673 242.904251
v -76.019852 273.483673 249.384827
v -71.775352 273.483673 249.879242
v -60.550430 273.483673 242.303818
v -60.224648 273.483673 241.879242
v -78.530579 273.483673 242.834396
v -76.224648 273.483673 249.879242
v -71.449570 273.483673 250.303818
v -79.025002 273.483673 242.629593
v -76.550430 273.483673 250.303818
v -71.025002 273.483673 250.629593
v -60.019852 273.483673 241.384827
v -79.449570 273.483673 242.303818
v -60.974998 273.483673 242.629593
v -79.775352 273.483673 241.879242
v -76.974998 273.483673 250.629593
v -68.974998 273.483673 234.629593
v -79.980148 273.483673 241.384827
v -70.530579 273.483673 250.834396
v -77.469421 273.483673 250.834396
v -61.469421 273.483673 242.834396
v -79.980148 273.483673 249.384827
v -79.775352 273.483673 249.879242
v -79.449570 273.483673 250.303818
v -79.025002 273.483673 250.629593
v -78.530579 273.483673 250.834396
v -78.000000 273.483673 250.904251
v -69.469421 273.483673 234.834396
v -70.000000 273.483673 250.904251
v -62.000000 273.483673 242.904251
v -63.980148 273.483673 241.384827
v -70.000000 273.483673 234.904251
v -71.980148 273.483673 233.384827
v -62.530579 273.483673 242.834396
v -63.775352 273.483673 241.879242
v -68.019852 273.483673 241.384827
v -70.530579 273.483673 234.834396
v -76.019852 273.483673 233.384827
v -63.025002 273.483673 242.629593
v -68.224648 273.483673 241.879242
v -71.025002 273.483673 234.629593
v -71.775352 273.483673 233.879242
v -76.224648 273.483673 233.879242
v -71.449570 273.483673 234.303818
v -60.224648 273.483673 249.879242
v -60.019852 273.483673 249.384827
v -63.449570 273.483673 242.303818
v -60.550430 273.483673 250.303818
v -60.974998 273.483673 250.629593
v -61.469421 273.483673 250.834396
v -62.000000 273.483673 250.904251
v -58.000000 275.483673 228.854248
v -58.000000 275.483673 252.854248
v -62.530579 275.483673 234.834396
v -63.025002 275.483673 234.629593
v -82.000000 275.483673 228.854248
v -71.025002 275.483673 242.629593
v -70.530579 275.483673 242.834396
v -62.000000 275.483673 234.904251
v -79.980148 275.483673 233.384827
v -70.000000 275.483673 242.904251
v -61.469421 275.483673 234.834396
v -69.469421 275.483673 242.834396
v -60.974998 275.483673 234.629593
v -63.980148 275.483673 241.384827
v -68.019852 275.483673 241.384827
v -71.980148 275.483673 249.384827
v -76.019852 275.483673 249.384827
v -76.224648 275.483673 249.879242
v -79.025002 275.483673 234.629593
v -79.449570 275.483673 234.303818
v -68.974998 275.483673 242.629593
v -60.550430 275.483673 234.303818
v -63.775352 275.483673 241.879242
v -68.224648 275.483673 241.879242
v -71.775352 275.483673 249.879242
v -78.530579 275.483673 234.834396
v -68.550430 275.483673 242.303818
v -79.775352 275.483673 233.879242
v -60.224648 275.483673 233.879242
v -63.449570 275.483673 242.303818
v -71.449570 275.483673 250.303818
v -76.550430 275.483673 250.303818
v -76.974998 275.483673 250.629593
v -78.000000 275.483673 234.904251
v -60.019852 275.483673 233.384827
v -71.025002 275.483673 250.629593
v -77.469421 275.483673 250.834396
v -77.469421 275.483673 234.834396
v -76.019852 275.483673 233.384827
v -76.224648 275.483673 233.879242
v -71.980148 275.483673 233.384827
v -70.530579 275.483673 250.834396
v -76.974998 275.483673 234.629593
v -71.775352 275.483673 233.879242
v -76.550430 275.483673 234.303818
v -71.449570 275.483673 234.303818
v -63.025002 275.483673 242.629593
v -62.530579 275.483673 242.834396
v -62.000000 275.483673 242.904251
v -68.019852 275.483673 249.384827
v -61.469421 275.483673 242.834396
v -63.980148 275.483673 249.384827
v -60.974998 275.483673 242.629593
v -68.224648 275.483673 249.879242
v -68.550430 275.483673 250.303818
v -63.775352 275.483673 249.879242
v -60.550430 275.483673 242.303818
v -60.224648 275.483673 241.879242
v -63.449570 275.483673 250.303818
v -71.025002 275.483673 234.629593
v -68.974998 275.483673 250.629593
v -63.025002 275.483673 250.629593
v -60.019852 275.483673 241.384827
v -79.025002 275.483673 242.629593
v -79.449570 275.483673 242.303818
v -62.530579 275.483673 250.834396
v -69.469421 275.483673 250.834396
v -70.530579 275.483673 234.834396
v -79.775352 275.483673 241.879242
v -62.000000 275.483673 250.904251
v -61.469421 275.483673 250.834396
v -60.974998 275.483673 250.629593
v -60.550430 275.483673 250.303818
v -78.530579 275.483673 242.834396
v -60.224648 275.483673 249.879242
v -60.019852 275.483673 249.384827
v -70.000000 275.483673 250.904251
v -82.000000 275.483673 252.854248
v -70.000000 275.483673 234.904251
v -79.980148 275.483673 241.384827
v -78.000000 275.483673 242.904251
v -69.469421 275.483673 234.834396
v -77.469421 275.483673 242.834396
v -68.019852 275.483673 233.384827
v -63.980148 275.483673 233.384827
v -76.019852 275.483673 241.384827
v -76.224648 275.483673 241.879242
v -71.980148 275.483673 241.384827
v -68.974998 275.483673 234.629593
v -76.974998 275.483673 242.629593
v -68.224648 275.483673 233.879242
v -63.775352 275.483673 233.879242
v -71.775352 275.483673 241.879242
v -68.550430 275.483673 234.303818
v -76.550430 275.483673 242.303818
v -63.449570 275.483673 234.303818
v -71.449570 275.483673 242.303818
v -79.980148 275.483673 249.384827
v -79.775352 275.483673 249.879242
v -79.449570 275.483673 250.303818
v -79.025002 275.483673 250.629593
v -78.530579 275.483673 250.834396
v -78.000000 275.483673 250.904251
v -82.000000 293.503510 233.384827
v -82.000000 285.503510 241.384827
v -82.000000 285.433655 240.854248
v -82.000000 293.433655 232.854248
v -82.000000 294.953094 250.834396
v -82.000000 285.503510 240.323669
v -82.000000 293.503510 232.323669
v -82.000000 293.708313 231.829254
v -82.000000 286.953094 234.834396
v -82.000000 286.953094 238.874100
v -82.000000 278.953094 246.874100
v -82.000000 278.953094 242.834396
v -82.000000 286.458679 234.629593
v -82.000000 286.458679 239.078903
v -82.000000 278.458679 247.078903
v -82.000000 278.458679 242.629593
v -82.000000 293.708313 249.879242
v -82.000000 294.034088 250.303818
v -82.000000 285.708313 239.829254
v -82.000000 286.034088 239.404678
v -82.000000 294.034088 231.404678
v -82.000000 286.034088 234.303818
v -82.000000 278.034088 242.303818
v -82.000000 294.458679 250.629593
v -82.000000 278.034088 247.404678
v -82.000000 293.503510 249.384827
v -82.000000 294.458679 231.078903
v -82.000000 277.708313 247.829254
v -82.000000 277.708313 241.879242
v -82.000000 293.433655 248.854248
v -82.000000 294.953094 230.874100
v -82.000000 277.503510 241.384827
v -82.000000 277.503510 248.323669
v -82.000000 293.503510 248.323669
v -82.000000 294.953094 242.834396
v -82.000000 294.953094 246.874100
v -82.000000 293.708313 247.829254
v -82.000000 294.458679 242.629593
v -82.000000 294.458679 247.078903
v -82.000000 294.034088 247.404678
v -82.000000 294.034088 242.303818
v -82.000000 285.708313 233.879242
v -82.000000 285.503510 233.384827
v -82.000000 285.433655 232.854248
v -82.000000 278.953094 238.874100
v -82.000000 278.953094 234.834396
v -82.000000 285.503510 232.323669
v -82.000000 285.708313 231.829254
v -82.000000 278.458679 234.629593
v -82.000000 278.458679 239.078903
v -82.000000 278.034088 234.303818
v -82.000000 278.034088 239.404678
v -82.000000 286.034088 231.404678
v -82.000000 286.458679 231.078903
v -82.000000 277.708313 233.879242
v -82.000000 277.708313 239.829254
v -82.000000 293.708313 241.879242
v -82.000000 286.034088 250.303818
v -82.000000 286.458679 250.629593
v -82.000000 285.708313 249.879242
v -82.000000 277.503510 240.323669
v -82.000000 277.503510 233.384827
v -82.000000 286.953094 230.874100
v -82.000000 285.503510 249.384827
v -82.000000 277.433655 232.854248
v -82.000000 277.503510 232.323669
v -82.000000 277.708313 231.829254
v -82.000000 278.034088 231.404678
v -82.000000 278.458679 231.078903
v -82.000000 278.953094 230.874100
v -82.000000 277.433655 240.854248
v -82.000000 293.503510 241.384827
v -82.000000 293.433655 240.854248
v -82.000000 286.953094 250.834396
v -82.000000 285.433655 248.854248
v -82.000000 285.503510 248.323669
v -82.000000 294.953094 238.874100
v -82.000000 294.953094 234.834396
v -82.000000 286.953094 246.874100
v -82.000000 286.953094 242.834396
v -82.000000 293.503510 240.323669
v -82.000000 293.708313 239.829254
v -82.000000 285.708313 247.829254
v -82.000000 294.458679 239.078903
v -82.000000 294.458679 234.629593
v -82.000000 286.458679 247.078903
v -82.000000 286.458679 242.629593
v -82.000000 286.034088 247.404678
v -82.000000 294.034088 239.404678
v -82.000000 294.034088 234.303818
v -82.000000 278.953094 250.834396
v -82.000000 278.458679 250.629593
v -82.000000 286.034088 242.303818
v -82.000000 278.034088 250.303818
v -82.000000 277.708313 249.879242
v -82.000000 277.503510 249.384827
v -82.000000 277.433655 248.854248
v -82.000000 293.708313 233.879242
v -82.000000 285.708313 241.879242
f 1 2 3
f 4 1 5
f 1 3 5
f 4 5 6
f 7 4 8
f 4 6 8
f 9 7 10
f 7 8 10
f 11 9 12
f 9 10 12
f 13 11 14
f 11 12 14
f 15 13 16
f 17 15 16
f 13 14 16
f 17 16 18
f 19 17 20
f 17 18 20
f 21 19 22
f 23 21 22
f 19 20 22
f 24 23 25
f 23 22 25
f 24 25 26
f 27 28 29
f 30 27 29
f 31 30 32
f 30 29 32
f 33 31 34
f 35 33 34
f 31 32 34
f 35 34 36
f 37 35 38
f 35 36 38
f 39 37 40
f 41 39 40
f 37 38 40
f 41 40 42
f 43 41 44
f 45 43 44
f 41 42 44
f 45 44 46
f 47 45 48
f 45 46 48
f 49 47 50
f 51 49 50
f 47 48 50
f 51 50 52
f 53 54 55
f 53 55 56
f 57 53 58
f 53 56 58
f 59 57 60
f 61 59 60
f 57 58 60
f 61 60 62
f 63 61 64
f 61 62 64
f 65 63 66
f 63 64 66
f 67 65 68
f 69 67 68
f 65 66 68
f 69 68 70
f 71 69 72
f 69 70 72
f 73 71 74
f 75 73 74
f 71 72 74
f 76 75 77
f 75 74 77
f 76 77 78
f 79 80 81
f 82 79 83
f 79 81 83
f 82 83 84
f 85 82 86
f 82 84 86
f 87 85 88
f 85 86 88
f 89 87 90
f 87 88 90
f 91 89 92
f 89 90 92
f 93 91 94
f 95 93 94
f 91 92 94
f 96 95 97
f 95 94 97
f 96 97 98
f 99 96 100
f 101 99 100
f 96 98 100
f 101 100 102
f 103 101 104
f 101 102 104
f 105 106 107
f 108 105 109
f 105 107 109
f 108 109 110
f 111 108 112
f 108 110 112
f 113 111 114
f 111 112 114
f 115 113 116
f 113 114 116
f 117 115 118
f 115 116 118
f 119 117 120
f 121 119 120
f 117 118 120
f 121 120 122
f 123 121 124
f 121 122 124
f 125 123 126
f 127 125 126
f 123 124 126
f 127 126 128
f 129 127 130
f 127 128 130
f 131 132 133
f 134 131 133
f 135 134 136
f 134 133 136
f 137 135 138
f 135 136 138
f 139 137 140
f 137 138 140
f 141 139 142
f 139 140 142
f 143 141 144
f 145 143 144
f 141 142 144
f 145 144 146
f 147 145 148
f 149 147 148
f 145 146 148
f 149 148 150
f 151 149 152
f 149 150 152
f 153 151 154
f 155 153 154
f 151 152 154
f 155 154 156
f 157 158 159
f 160 157 159
f 161 160 162
f 160 159 162
f 163 161 164
f 161 162 164
f 165 163 166
f 163 164 166
f 167 165 168
f 165 166 168
f 169 167 170
f 171 169 170
f 167 168 170
f 171 170 172
f 173 171 174
f 175 173 174
f 171 172 174
f 175 174 176
f 177 175 178
f 175 176 178
f 179 177 180
f 181 179 180
f 177 178 180
f 181 180 182
f 183 184 185
f 183 185 186
f 187 183 188
f 183 186 188
f 189 187 190
f 187 188 190
f 191 189 192
f 189 190 192
f 193 191 194
f 191 192 194
f 195 193 196
f 193 194 196
f 197 195 198
f 199 197 198
f 195 196 198
f 199 198 200
f 201 199 202
f 199 200 202
f 203 201 204
f 205 203 204
f 201 202 204
f 205 204 206
f 207 205 208
f 205 206 208
f 209 210 211
f 209 211 212
f 213 209 214
f 215 213 214
f 209 212 214
f 215 214 216
f 217 215 218
f 215 216 218
f 219 217 220
f 217 218 220
f 221 219 222
f 219 220 222
f 223 221 224
f 225 223 224
f 221 222 224
f 225 224 226
f 227 225 228
f 225 226 228
f 229 227 230
f 231 229 230
f 227 228 230
f 231 230 232
f 233 231 234
f 231 232 234
f 235 236 237
f 235 237 238
f 239 235 240
f 241 239 240
f 235 238 240
f 241 240 242
f 243 241 244
f 245 243 244
f 241 242 244
f 245 244 246
f 247 245 248
f 249 247 248
f 245 246 248
f 249 248 250
f 251 249 252
f 249 250 252
f 253 251 254
f 251 252 254
f 255 253 256
f 253 254 256
f 257 255 258
f 259 257 258
f 255 256 258
f 259 258 260
f 261 262 263
f 261 263 264
f 265 261 266
f 267 265 266
f 261 264 266
f 267 266 268
f 269 267 270
f 271 269 270
f 267 268 270
f 271 270 272
f 273 271 274
f 275 273 274
f 271 272 274
f 276 275 277
f 275 274 277
f 278 276 279
f 276 277 279
f 278 279 280
f 281 278 282
f 278 280 282
f 283 281 284
f 285 283 284
f 281 282 284
f 285 284 286
f 287 288 289
f 287 289 290
f 291 287 292
f 293 291 292
f 287 290 292
f 293 292 294
f 295 293 296
f 297 295 296
f 293 294 296
f 297 296 298
f 299 297 300
f 301 299 300
f 297 298 300
f 301 300 302
f 303 301 304
f 301 302 304
f 305 303 306
f 303 304 306
f 307 305 308
f 305 306 308
f 309 307 310
f 311 309 310
f 307 308 310
f 311 310 312
f 313 314 315
f 313 315 316
f 317 313 318
f 319 317 318
f 313 316 318
f 319 318 320
f 321 319 322
f 323 321 322
f 319 320 322
f 323 322 324
f 325 323 326
f 327 325 326
f 323 324 326
f 328 327 329
f 327 326 329
f 330 328 331
f 328 329 331
f 332 330 333
f 330 331 333
f 332 333 334
f 335 332 336
f 337 335 336
f 332 334 336
f 337 336 338
f 339 340 341
f 339 341 342
f 343 339 344
f 345 343 344
f 339 342 344
f 345 344 346
f 347 345 348
f 349 347 348
f 345 346 348
f 349 348 350
f 351 349 352
f 353 351 352
f 349 350 352
f 353 352 354
f 355 353 356
f 353 354 356
f 357 355 358
f 355 356 358
f 359 357 360
f 361 359 360
f 357 358 360
f 361 360 362
f 363 361 364
f 361 362 364
f 365 366 367
f 365 367 368
f 369 365 370
f 371 369 370
f 365 368 370
f 371 370 372
f 373 371 374
f 375 373 374
f 371 372 374
f 375 374 376
f 377 375 378
f 375 376 378
f 379 377 380
f 381 379 380
f 377 378 380
f 382 381 383
f 381 380 383
f 382 383 384
f 385 382 386
f 382 384 386
f 387 385 388
f 389 387 388
f 385 386 388
f 389 388 390
f 391 392 393
f 391 393 394
f 395 391 396
f 397 395 396
f 391 394 396
f 397 396 398
f 399 397 400
f 401 399 400
f 397 398 400
f 401 400 402
f 403 401 404
f 405 403 404
f 401 402 404
f 406 405 407
f 405 404 407
f 406 407 408
f 409 406 410
f 406 408 410
f 411 409 412
f 409 410 412
f 413 411 414
f 415 413 414
f 411 412 414
f 415 414 416
f 417 418 419
f 417 419 420
f 421 417 422
f 423 421 422
f 417 420 422
f 423 422 424
f 425 423 426
f 427 425 426
f 423 424 426
f 427 426 428
f 429 427 430
f 431 429 430
f 427 428 430
f 431 430 432
f 433 431 434
f 435 433 434
f 431 432 434
f 435 434 436
f 437 435 438
f 435 436 438
f 439 437 440
f 441 439 440
f 437 438 440
f 441 440 442
f 443 444 445
f 443 445 446
f 447 443 448
f 449 447 448
f 443 446 448
f 449 448 450
f 451 449 452
f 453 451 452
f 449 450 452
f 453 452 454
f 455 453 456
f 457 455 456
f 453 454 456
f 457 456 458
f 459 457 460
f 461 459 460
f 457 458 460
f 461 460 462
f 463 461 464
f 461 462 464
f 465 463 466
f 467 465 466
f 463 464 466
f 467 466 468
f 469 470 471
f 470 472 471
f 382 319 473
f 474 382 473
f 475 476 477
f 319 321 473
f 476 475 478
f 478 475 479
f 475 477 480
f 481 482 483
f 482 484 483
f 479 475 485
f 484 267 486
f 267 269 486
f 475 480 392
f 475 392 391
f 473 321 487
f 485 475 488
f 489 474 490
f 474 473 490
f 269 271 491
f 271 273 491
f 486 269 491
f 481 483 492
f 493 481 492
f 489 490 494
f 495 489 494
f 487 321 496
f 321 323 496
f 493 492 236
f 337 493 236
f 491 273 497
f 495 494 444
f 441 495 444
f 498 499 500
f 496 323 501
f 323 325 501
f 395 397 502
f 397 399 502
f 497 273 503
f 273 275 503
f 275 276 503
f 500 499 504
f 499 488 504
f 337 236 235
f 505 498 506
f 335 337 235
f 441 444 443
f 498 500 506
f 395 502 507
f 391 395 507
f 439 441 443
f 502 399 508
f 501 325 509
f 325 327 509
f 510 505 511
f 503 276 512
f 276 278 512
f 505 506 511
f 488 475 513
f 335 235 239
f 504 488 513
f 332 335 239
f 399 401 514
f 509 327 515
f 508 399 514
f 327 328 515
f 475 391 516
f 439 443 447
f 391 507 516
f 437 439 447
f 512 278 517
f 278 281 517
f 513 475 518
f 415 510 340
f 332 239 241
f 330 332 241
f 510 511 340
f 515 328 519
f 328 330 519
f 475 516 366
f 401 403 520
f 437 447 449
f 435 437 449
f 514 401 520
f 517 281 521
f 413 415 339
f 415 340 339
f 520 403 522
f 403 405 522
f 435 449 451
f 433 435 451
f 281 283 523
f 521 281 523
f 413 339 343
f 411 413 343
f 433 451 453
f 522 405 524
f 431 433 453
f 469 431 453
f 405 406 524
f 409 411 345
f 411 343 345
f 469 453 455
f 524 406 525
f 406 409 525
f 330 241 526
f 519 330 526
f 241 243 527
f 243 245 527
f 526 241 527
f 519 526 528
f 529 519 528
f 527 245 530
f 529 528 531
f 532 529 531
f 532 531 288
f 467 532 288
f 530 245 533
f 245 247 533
f 247 249 534
f 533 247 534
f 535 536 537
f 467 288 287
f 465 467 287
f 409 345 538
f 525 409 538
f 249 251 539
f 534 249 539
f 463 465 291
f 465 287 291
f 251 253 540
f 253 255 540
f 539 251 540
f 535 537 541
f 461 463 293
f 542 535 541
f 536 543 544
f 463 291 293
f 537 536 544
f 538 345 545
f 459 461 295
f 345 347 545
f 347 349 545
f 461 293 295
f 540 255 546
f 525 538 547
f 548 525 547
f 457 459 297
f 459 295 297
f 371 549 550
f 255 257 551
f 369 371 550
f 546 255 551
f 549 371 552
f 371 373 552
f 544 543 553
f 542 541 554
f 555 542 554
f 556 548 557
f 548 547 557
f 457 297 470
f 455 457 470
f 551 257 470
f 349 351 558
f 469 455 470
f 311 551 470
f 297 299 470
f 299 301 470
f 545 349 558
f 301 303 470
f 303 305 470
f 305 307 470
f 307 309 470
f 309 311 470
f 285 559 470
f 283 285 470
f 365 369 560
f 259 283 470
f 257 259 470
f 523 283 259
f 369 550 560
f 552 373 561
f 373 375 561
f 555 554 262
f 363 555 262
f 558 351 562
f 389 556 314
f 556 557 314
f 375 377 563
f 561 375 563
f 543 518 559
f 564 553 559
f 553 543 559
f 518 475 559
f 363 262 261
f 361 363 261
f 564 559 565
f 389 314 313
f 387 389 313
f 351 353 566
f 562 351 566
f 377 379 567
f 563 377 567
f 565 559 568
f 359 361 265
f 361 261 265
f 353 355 569
f 355 357 569
f 566 353 569
f 387 313 317
f 385 387 317
f 379 381 570
f 567 379 570
f 568 559 571
f 359 265 267
f 357 359 267
f 569 357 482
f 382 385 319
f 385 317 319
f 366 365 469
f 365 560 469
f 475 366 469
f 560 418 469
f 418 417 469
f 417 421 469
f 570 381 474
f 381 382 474
f 469 421 423
f 571 559 572
f 469 423 425
f 572 559 573
f 469 425 427
f 573 559 285
f 469 427 429
f 469 429 431
f 482 357 484
f 357 267 484
f 33 574 31
f 574 33 35
f 177 179 108
f 111 177 108
f 575 111 113
f 31 574 30
f 574 35 37
f 576 575 113
f 30 574 27
f 574 37 39
f 96 99 213
f 99 101 213
f 215 96 213
f 27 574 577
f 578 215 217
f 574 39 41
f 579 578 217
f 108 179 105
f 179 181 105
f 576 113 115
f 580 576 115
f 213 101 209
f 579 217 219
f 581 579 219
f 105 181 106
f 580 115 117
f 582 580 117
f 209 101 210
f 101 103 210
f 581 219 221
f 583 581 221
f 106 181 584
f 181 585 584
f 585 586 584
f 587 588 137
f 582 117 119
f 589 582 119
f 45 47 7
f 583 221 223
f 590 583 223
f 591 587 139
f 210 103 592
f 587 137 139
f 103 593 592
f 588 577 135
f 137 588 135
f 584 586 594
f 41 43 9
f 43 45 9
f 45 7 9
f 589 119 121
f 47 49 4
f 595 589 121
f 7 47 4
f 590 223 225
f 596 590 225
f 597 591 141
f 591 139 141
f 592 593 598
f 593 599 598
f 577 574 134
f 135 577 134
f 594 586 600
f 586 601 600
f 49 51 1
f 4 49 1
f 595 121 123
f 602 595 123
f 574 41 11
f 41 9 11
f 603 596 227
f 596 225 227
f 604 597 143
f 597 141 143
f 598 599 605
f 134 574 131
f 599 602 605
f 600 601 606
f 1 51 2
f 601 607 606
f 607 608 606
f 574 11 13
f 609 603 229
f 610 604 145
f 603 227 229
f 604 143 145
f 2 51 611
f 51 612 611
f 606 608 613
f 608 614 613
f 609 229 231
f 615 609 231
f 475 615 231
f 616 610 147
f 610 145 147
f 612 617 618
f 475 231 233
f 611 612 618
f 619 616 149
f 616 147 149
f 617 619 620
f 618 617 620
f 123 125 189
f 602 123 189
f 605 602 189
f 125 127 187
f 189 125 187
f 605 189 191
f 621 605 191
f 187 127 183
f 621 191 193
f 622 621 193
f 183 127 184
f 127 129 184
f 129 623 184
f 622 193 195
f 624 622 195
f 184 623 625
f 623 626 625
f 624 195 197
f 627 628 163
f 629 624 197
f 625 626 630
f 626 631 630
f 620 619 85
f 619 149 85
f 629 197 199
f 632 629 199
f 630 631 633
f 19 21 59
f 631 634 633
f 632 199 201
f 628 635 161
f 163 628 161
f 636 632 201
f 636 201 203
f 637 627 165
f 627 163 165
f 638 636 203
f 633 634 639
f 85 149 82
f 149 151 82
f 151 153 82
f 638 203 205
f 640 620 87
f 641 638 205
f 620 85 87
f 634 642 643
f 639 634 643
f 19 59 61
f 17 19 61
f 21 23 57
f 59 21 57
f 161 635 160
f 637 165 167
f 644 637 167
f 82 153 79
f 641 205 559
f 207 645 559
f 645 646 559
f 646 647 559
f 647 648 559
f 648 649 559
f 649 650 559
f 475 233 559
f 651 640 89
f 205 207 559
f 233 641 559
f 640 87 89
f 652 614 559
f 642 652 559
f 643 642 559
f 650 643 559
f 613 614 652
f 23 24 53
f 57 23 53
f 15 17 63
f 17 61 63
f 653 644 169
f 644 167 169
f 155 654 80
f 153 155 80
f 79 153 80
f 655 651 91
f 651 89 91
f 24 656 54
f 53 24 54
f 657 653 171
f 653 169 171
f 654 658 659
f 80 654 659
f 660 655 93
f 655 91 93
f 54 656 661
f 657 171 173
f 662 657 173
f 659 658 663
f 664 660 95
f 660 93 95
f 656 665 666
f 665 667 666
f 661 656 666
f 635 131 614
f 131 574 614
f 668 669 614
f 669 157 614
f 157 160 614
f 160 635 614
f 662 173 175
f 670 662 175
f 668 614 671
f 667 664 96
f 664 95 96
f 663 658 575
f 658 670 575
f 666 667 578
f 671 614 672
f 672 614 673
f 574 13 475
f 13 15 475
f 63 65 475
f 65 67 475
f 67 69 475
f 69 71 475
f 71 73 475
f 73 75 475
f 15 63 475
f 673 614 674
f 475 75 76
f 674 614 608
f 475 76 615
f 575 670 111
f 670 175 111
f 175 177 111
f 667 96 215
f 578 667 215
f 675 676 574
f 676 614 574
f 677 678 148
f 678 150 148
f 150 84 152
f 72 679 74
f 679 72 70
f 680 124 122
f 681 680 122
f 74 679 77
f 679 70 68
f 124 190 126
f 679 68 66
f 190 188 126
f 77 679 78
f 682 677 146
f 679 66 64
f 677 148 146
f 78 679 683
f 84 83 154
f 152 84 154
f 126 188 128
f 186 185 128
f 188 186 128
f 681 122 120
f 684 681 120
f 682 146 144
f 685 682 144
f 154 83 156
f 83 81 156
f 128 185 130
f 684 120 118
f 686 684 118
f 685 144 142
f 687 685 142
f 156 81 688
f 81 689 688
f 130 185 690
f 62 60 20
f 691 692 690
f 185 691 690
f 686 118 116
f 693 694 228
f 695 686 116
f 687 142 140
f 696 687 140
f 60 58 22
f 20 60 22
f 688 689 697
f 689 698 697
f 62 20 18
f 690 692 699
f 693 228 226
f 700 693 226
f 695 116 114
f 701 695 114
f 694 702 230
f 228 694 230
f 703 696 138
f 58 56 25
f 696 140 138
f 22 58 25
f 679 64 16
f 697 698 704
f 64 62 16
f 698 701 704
f 62 18 16
f 699 692 705
f 683 679 232
f 706 707 705
f 702 683 232
f 692 706 705
f 230 702 232
f 708 700 224
f 701 114 112
f 704 701 112
f 700 226 224
f 703 138 136
f 25 56 26
f 709 703 136
f 56 55 26
f 679 16 14
f 705 707 710
f 707 711 710
f 712 708 222
f 709 136 133
f 708 224 222
f 232 679 234
f 675 709 133
f 713 714 715
f 55 713 715
f 26 55 715
f 710 711 716
f 717 712 220
f 675 133 132
f 712 222 220
f 715 714 718
f 714 719 718
f 719 717 218
f 717 220 218
f 718 719 720
f 719 218 216
f 720 719 216
f 721 704 176
f 704 112 176
f 722 721 174
f 721 176 174
f 110 109 178
f 112 110 178
f 176 112 178
f 722 174 172
f 723 722 172
f 178 109 180
f 107 724 182
f 109 107 182
f 180 109 182
f 723 172 170
f 725 723 170
f 182 724 726
f 727 725 168
f 725 170 168
f 728 729 730
f 724 728 730
f 726 724 730
f 731 727 166
f 727 168 166
f 8 6 46
f 10 8 46
f 732 731 164
f 731 166 164
f 730 729 733
f 734 720 98
f 720 216 98
f 729 735 736
f 733 729 736
f 737 732 162
f 732 164 162
f 738 739 202
f 736 735 740
f 735 741 740
f 737 162 159
f 46 6 48
f 10 46 44
f 216 214 100
f 98 216 100
f 742 734 97
f 734 98 97
f 202 739 204
f 132 737 676
f 739 743 204
f 737 159 676
f 744 740 676
f 738 202 200
f 745 744 676
f 746 745 676
f 747 746 676
f 748 738 200
f 749 747 676
f 750 749 676
f 158 750 676
f 159 158 676
f 675 132 676
f 751 752 676
f 741 751 676
f 740 741 676
f 6 5 50
f 716 752 751
f 711 752 716
f 48 6 50
f 12 10 42
f 10 44 42
f 212 211 102
f 214 212 102
f 100 214 102
f 753 742 94
f 742 97 94
f 204 743 206
f 743 754 206
f 748 200 198
f 755 748 198
f 5 3 52
f 50 5 52
f 102 211 104
f 756 753 92
f 753 94 92
f 755 198 196
f 757 755 196
f 3 758 759
f 52 3 759
f 760 761 762
f 211 760 762
f 104 211 762
f 763 756 90
f 756 92 90
f 757 196 194
f 764 757 194
f 758 765 766
f 759 758 766
f 762 761 767
f 768 763 88
f 763 90 88
f 764 194 192
f 769 764 192
f 765 768 770
f 766 765 770
f 761 769 771
f 767 761 771
f 770 768 86
f 768 88 86
f 14 12 675
f 36 34 675
f 38 36 675
f 40 38 675
f 42 40 675
f 679 14 675
f 12 42 675
f 769 192 190
f 771 769 190
f 234 679 752
f 772 208 752
f 773 772 752
f 774 773 752
f 208 206 752
f 754 234 752
f 206 754 752
f 675 34 32
f 774 752 775
f 675 32 29
f 775 752 776
f 675 29 28
f 776 752 777
f 675 28 709
f 777 752 711
f 678 770 150
f 770 86 150
f 86 84 150
f 771 190 124
f 680 771 124
f 318 316 388
f 306 472 308
f 472 306 304
f 778 383 380
f 308 472 310
f 266 264 362
f 360 266 362
f 472 304 302
f 779 356 354
f 472 302 300
f 780 779 354
f 310 472 312
f 778 380 378
f 472 300 298
f 781 778 378
f 312 472 782
f 388 316 390
f 316 315 390
f 362 264 364
f 264 263 364
f 783 780 352
f 780 354 352
f 781 378 376
f 784 781 376
f 785 784 376
f 390 315 786
f 315 787 786
f 263 788 789
f 364 263 789
f 783 352 350
f 785 376 374
f 786 787 790
f 787 791 790
f 296 294 462
f 788 792 793
f 789 788 793
f 794 795 254
f 783 350 348
f 796 783 348
f 797 796 348
f 294 292 464
f 785 374 372
f 798 785 372
f 462 294 464
f 298 296 460
f 296 462 460
f 790 791 799
f 791 797 799
f 793 792 800
f 795 801 256
f 254 795 256
f 792 802 800
f 794 254 252
f 803 794 252
f 797 348 346
f 798 372 370
f 292 290 466
f 804 798 370
f 464 292 466
f 472 298 458
f 298 460 458
f 782 472 258
f 801 782 258
f 802 805 806
f 256 801 258
f 800 802 806
f 807 803 250
f 804 370 368
f 803 252 250
f 471 808 368
f 808 804 368
f 472 458 456
f 806 805 809
f 805 810 809
f 290 289 468
f 466 290 468
f 258 472 260
f 807 250 248
f 811 807 248
f 471 368 367
f 468 289 812
f 289 813 812
f 811 248 246
f 814 811 246
f 812 813 815
f 813 816 815
f 814 246 244
f 817 814 244
f 815 816 818
f 816 817 818
f 817 244 242
f 799 797 410
f 797 346 410
f 819 799 408
f 799 410 408
f 346 344 412
f 410 346 412
f 344 342 414
f 412 344 414
f 819 408 407
f 820 819 407
f 821 820 407
f 342 341 416
f 414 342 416
f 821 407 404
f 341 822 823
f 416 341 823
f 821 404 402
f 824 821 402
f 825 824 402
f 823 822 826
f 822 827 826
f 825 402 400
f 826 827 828
f 827 829 828
f 452 450 436
f 825 400 398
f 830 825 398
f 817 242 333
f 831 830 398
f 828 829 832
f 818 817 333
f 829 833 832
f 834 818 333
f 831 398 396
f 835 836 280
f 837 835 280
f 833 838 839
f 832 833 839
f 840 831 394
f 831 396 394
f 450 448 438
f 436 450 438
f 454 452 434
f 452 436 434
f 242 240 334
f 333 242 334
f 834 333 331
f 280 836 282
f 840 394 679
f 367 840 679
f 471 367 679
f 841 837 279
f 842 839 679
f 843 842 679
f 844 843 679
f 845 844 679
f 837 280 279
f 846 845 679
f 847 846 679
f 393 847 679
f 394 393 679
f 848 752 679
f 838 848 679
f 839 838 679
f 809 752 848
f 810 752 809
f 448 446 440
f 438 448 440
f 454 434 432
f 334 240 336
f 240 238 336
f 834 331 329
f 849 834 329
f 850 849 329
f 836 851 284
f 282 836 284
f 852 841 277
f 841 279 277
f 446 445 442
f 440 446 442
f 238 237 338
f 336 238 338
f 850 329 326
f 853 852 274
f 852 277 274
f 445 854 855
f 442 445 855
f 237 856 857
f 338 237 857
f 850 326 324
f 858 850 324
f 859 858 324
f 860 853 272
f 853 274 272
f 854 861 862
f 855 854 862
f 859 324 322
f 856 863 864
f 857 856 864
f 865 860 270
f 860 272 270
f 861 866 867
f 862 861 867
f 456 454 471
f 454 432 471
f 426 424 471
f 428 426 471
f 430 428 471
f 432 430 471
f 472 456 471
f 851 260 752
f 868 286 752
f 869 868 752
f 286 284 752
f 284 851 752
f 260 472 752
f 863 865 870
f 864 863 870
f 859 322 320
f 866 859 320
f 865 270 268
f 869 752 871
f 471 424 422
f 871 752 872
f 471 422 420
f 872 752 873
f 471 420 419
f 873 752 874
f 471 419 808
f 874 752 810
f 866 320 384
f 867 866 384
f 875 867 384
f 865 268 358
f 876 870 358
f 870 865 358
f 875 384 383
f 778 875 383
f 384 320 386
f 320 318 386
f 876 358 356
f 779 876 356
f 268 266 360
f 358 268 360
f 386 318 388
f 559 752 470
f 752 559 614
f 470 752 472
f 752 614 676
f 469 679 475
f 574 475 679
f 471 679 469
f 675 574 679
f 467 468 812
f 532 467 812
f 529 532 812
f 529 812 815
f 519 529 818
f 529 815 818
f 515 519 834
f 519 818 834
f 509 515 849
f 501 509 849
f 515 834 849
f 501 849 850
f 496 501 858
f 501 850 858
f 487 496 859
f 496 858 859
f 473 487 866
f 490 473 866
f 487 859 866
f 490 866 861
f 494 490 854
f 490 861 854
f 444 494 445
f 494 854 445
f 441 442 855
f 495 441 855
f 489 495 855
f 474 489 862
f 489 855 862
f 570 474 867
f 474 862 867
f 570 867 875
f 567 570 778
f 563 567 778
f 570 875 778
f 563 778 781
f 561 563 784
f 552 561 784
f 563 781 784
f 552 784 785
f 549 552 798
f 550 549 798
f 552 785 798
f 550 798 804
f 560 550 808
f 550 804 808
f 418 560 419
f 560 808 419
f 415 416 823
f 510 415 823
f 505 510 823
f 505 823 826
f 498 505 828
f 505 826 828
f 499 498 832
f 498 828 832
f 488 499 839
f 485 488 839
f 499 832 839
f 485 839 842
f 479 485 843
f 478 479 843
f 485 842 843
f 478 843 844
f 476 478 845
f 477 476 845
f 478 844 845
f 477 845 846
f 480 477 847
f 392 480 847
f 477 846 847
f 392 847 393
f 389 390 786
f 556 389 786
f 548 556 786
f 548 786 790
f 525 548 799
f 548 790 799
f 524 525 819
f 525 799 819
f 522 524 820
f 524 819 820
f 520 522 821
f 522 820 821
f 514 520 824
f 520 821 824
f 508 514 825
f 514 824 825
f 502 508 830
f 507 502 830
f 508 825 830
f 507 830 831
f 516 507 840
f 366 516 840
f 507 831 840
f 366 840 367
f 363 364 789
f 555 363 789
f 542 555 789
f 535 542 793
f 542 789 793
f 536 535 800
f 535 793 800
f 536 800 806
f 543 536 809
f 518 543 809
f 536 806 809
f 518 809 848
f 513 518 838
f 518 848 838
f 504 513 833
f 500 504 833
f 513 838 833
f 506 500 829
f 500 833 829
f 511 506 827
f 506 829 827
f 340 511 822
f 511 827 822
f 340 822 341
f 337 338 857
f 493 337 857
f 481 493 857
f 482 481 864
f 481 857 864
f 482 864 870
f 569 482 876
f 566 569 876
f 482 870 876
f 562 566 779
f 566 876 779
f 562 779 780
f 558 562 783
f 545 558 783
f 562 780 783
f 538 545 796
f 545 783 796
f 538 796 797
f 547 538 791
f 538 797 791
f 557 547 787
f 314 557 787
f 547 791 787
f 314 787 315
f 311 312 782
f 551 311 782
f 546 551 782
f 540 546 801
f 546 782 801
f 540 801 795
f 539 540 794
f 540 795 794
f 534 539 803
f 533 534 803
f 539 794 803
f 533 803 807
f 530 533 811
f 533 807 811
f 527 530 814
f 530 811 814
f 526 527 817
f 528 526 817
f 527 814 817
f 531 528 816
f 528 817 816
f 288 531 813
f 531 816 813
f 288 813 289
f 285 286 868
f 573 285 868
f 572 573 868
f 572 868 869
f 571 572 871
f 572 869 871
f 568 571 872
f 565 568 872
f 571 871 872
f 564 565 873
f 565 872 873
f 564 873 874
f 553 564 810
f 544 553 810
f 564 874 810
f 537 544 805
f 544 810 805
f 537 805 802
f 541 537 792
f 537 802 792
f 554 541 788
f 262 554 788
f 541 792 788
f 262 788 263
f 259 260 851
f 523 259 851
f 521 523 851
f 521 851 836
f 517 521 835
f 521 836 835
f 512 517 837
f 517 835 837
f 503 512 841
f 497 503 841
f 512 837 841
f 497 841 852
f 491 497 853
f 486 491 853
f 497 852 853
f 484 486 860
f 486 853 860
f 484 860 865
f 483 484 863
f 484 865 863
f 492 483 856
f 236 492 856
f 483 863 856
f 236 856 237
f 641 233 234
f 641 234 754
f 638 641 743
f 641 754 743
f 636 638 739
f 632 636 739
f 638 743 739
f 632 739 738
f 629 632 748
f 624 629 748
f 632 738 748
f 622 624 755
f 624 748 755
f 622 755 757
f 621 622 764
f 622 757 764
f 605 621 769
f 621 764 769
f 598 605 761
f 605 769 761
f 592 598 760
f 598 761 760
f 210 592 211
f 592 760 211
f 207 208 772
f 645 207 772
f 646 645 773
f 645 772 773
f 647 646 774
f 648 647 774
f 646 773 774
f 649 648 775
f 648 774 775
f 650 649 776
f 649 775 776
f 650 776 777
f 643 650 711
f 650 777 711
f 639 643 707
f 643 711 707
f 633 639 706
f 639 707 706
f 630 633 692
f 633 706 692
f 625 630 691
f 630 692 691
f 184 625 185
f 625 691 185
f 181 182 726
f 585 181 726
f 586 585 730
f 601 586 730
f 585 726 730
f 607 601 733
f 601 730 733
f 607 733 736
f 608 607 740
f 674 608 740
f 607 736 740
f 674 740 744
f 673 674 745
f 674 744 745
f 672 673 746
f 671 672 746
f 673 745 746
f 668 671 747
f 671 746 747
f 669 668 749
f 668 747 749
f 669 749 750
f 157 669 158
f 669 750 158
f 155 156 688
f 654 155 688
f 658 654 697
f 670 658 697
f 654 688 697
f 662 670 704
f 670 697 704
f 662 704 721
f 657 662 722
f 653 657 722
f 662 721 722
f 653 722 723
f 644 653 725
f 637 644 725
f 653 723 725
f 627 637 727
f 637 725 727
f 627 727 731
f 628 627 732
f 627 731 732
f 635 628 737
f 628 732 737
f 131 635 132
f 635 737 132
f 129 130 690
f 623 129 690
f 626 623 699
f 623 690 699
f 631 626 705
f 634 631 705
f 626 699 705
f 634 705 710
f 642 634 716
f 634 710 716
f 652 642 751
f 613 652 751
f 642 716 751
f 613 751 741
f 606 613 735
f 600 606 735
f 613 741 735
f 594 600 729
f 600 735 729
f 594 729 728
f 584 594 724
f 594 728 724
f 106 584 107
f 584 724 107
f 103 104 762
f 593 103 762
f 599 593 762
f 599 762 767
f 602 599 771
f 595 602 771
f 599 767 771
f 589 595 680
f 595 771 680
f 582 589 681
f 589 680 681
f 580 582 684
f 582 681 684
f 580 684 686
f 576 580 695
f 575 576 695
f 580 686 695
f 575 695 701
f 663 575 698
f 575 701 698
f 659 663 689
f 80 659 689
f 663 698 689
f 80 689 81
f 76 78 683
f 615 76 683
f 609 615 683
f 609 683 702
f 603 609 694
f 596 603 694
f 609 702 694
f 590 596 693
f 596 694 693
f 590 693 700
f 583 590 708
f 590 700 708
f 581 583 712
f 583 708 712
f 579 581 717
f 578 579 717
f 581 712 717
f 578 717 719
f 666 578 714
f 578 719 714
f 661 666 713
f 666 714 713
f 54 661 55
f 661 713 55
f 612 51 52
f 612 52 759
f 617 612 766
f 619 617 766
f 612 759 766
f 616 619 770
f 619 766 770
f 616 770 678
f 610 616 677
f 616 678 677
f 604 610 682
f 610 677 682
f 597 604 685
f 591 597 685
f 604 682 685
f 587 591 687
f 591 685 687
f 587 687 696
f 588 587 703
f 587 696 703
f 577 588 709
f 588 703 709
f 27 577 28
f 577 709 28
f 24 26 715
f 656 24 715
f 665 656 715
f 665 715 718
f 667 665 720
f 664 667 720
f 665 718 720
f 660 664 734
f 664 720 734
f 660 734 742
f 655 660 753
f 651 655 753
f 660 742 753
f 651 753 756
f 640 651 763
f 620 640 763
f 651 756 763
f 620 763 768
f 618 620 765
f 620 768 765
f 611 618 758
f 618 765 758
f 2 611 3
f 611 758 3
