# Created by FreeCAD <http://www.freecadweb.org>
v -25.417475 536.884766 178.314957
v -21.970129 536.884766 178.314957
v -21.970129 536.874756 178.314957
v -25.470373 534.684753 178.314957
v -25.593801 535.384766 178.314957
v -23.943802 534.684753 178.314957
v -25.593801 535.884766 178.314957
v -23.943802 534.584778 178.314957
v -22.943802 534.684753 178.314957
v -22.943802 534.584778 178.314957
v -21.470129 536.874756 178.314957
v -21.293802 535.884766 178.314957
v -21.293802 535.384766 178.314957
v -21.417231 534.684753 178.314957
v -21.470129 536.884766 178.314957
v -23.684271 536.884766 179.168030
v -23.687609 536.884766 179.170227
v -23.692787 536.884766 179.179626
v -23.693127 536.884766 179.183411
v -24.218462 536.884766 179.205856
v -24.224447 536.884766 179.223190
v -23.678112 536.884766 179.165726
v -23.902132 536.884766 179.521866
v -23.900019 536.884766 179.524719
v -23.897579 536.884766 179.526794
v -23.670036 536.884766 179.164917
v -24.837572 536.884766 180.131592
v -25.417475 536.884766 181.014954
v -24.837572 536.884766 180.148254
v -23.659794 536.884766 179.164917
v -23.903595 536.884766 179.518311
v -22.694721 536.884766 180.109421
v -22.765348 536.884766 180.131592
v -22.765348 536.884766 180.148254
v -22.676163 536.884766 180.127243
v -22.709585 536.884766 180.088425
v -22.654381 536.884766 180.140915
v -24.806843 536.884766 180.124847
v -24.812983 536.884766 180.130051
v -24.810709 536.884766 180.128906
v -24.808552 536.884766 180.127136
v -22.720406 536.884766 180.065063
v -22.800505 536.884766 180.110153
v -24.805639 536.884766 180.122253
v -24.816238 536.884766 180.131012
v -22.628157 536.884766 180.150055
v -24.804665 536.884766 180.118561
v -21.970129 536.884766 181.014954
v -24.804352 536.884766 180.115845
v -24.822989 536.884766 180.131592
v -24.804237 536.884766 180.113098
v -23.870905 536.884766 179.548248
v -23.868162 536.884766 179.757324
v -23.842138 536.884766 179.747009
v -23.826113 536.884766 179.743759
v -22.729933 536.884766 180.032089
v -24.739046 536.884766 180.148254
v -23.954239 536.884766 179.548248
v -24.192406 536.884766 179.225586
v -24.179888 536.884766 179.276062
v -24.139824 536.884766 179.302460
v -24.193127 536.884766 179.236710
v -24.715555 536.884766 180.147110
v -22.627111 536.884766 180.130539
v -22.654015 536.884766 180.111252
v -22.641520 536.884766 180.122467
v -23.904238 536.884766 179.513092
v -23.894817 536.884766 179.528397
v -23.890863 536.884766 179.529999
v -22.594082 536.884766 180.153809
v -23.885117 536.884766 179.531265
v -22.609806 536.884766 180.135635
v -22.665642 536.884766 180.094803
v -23.879238 536.884766 179.531586
v -24.837572 536.884766 179.764923
v -22.591825 536.884766 180.137146
v -24.479803 536.884766 180.115326
v -24.620104 536.884766 180.100861
v -24.638605 536.884766 180.118362
v -24.190493 536.884766 179.214615
v -22.574831 536.884766 180.152054
v -24.463598 536.884766 180.130936
v -24.665178 536.884766 180.134186
v -23.870905 536.884766 179.531586
v -24.209383 536.884766 179.189926
v -24.497643 536.884766 180.091217
v -24.601292 536.884766 180.072617
v -24.444866 536.884766 180.143387
v -24.692348 536.884766 180.143280
v -22.556299 536.884766 180.146576
v -24.804237 536.884766 179.783417
v -24.824203 536.884766 179.764923
v -24.820913 536.884766 179.765030
v -24.837572 536.884766 179.748260
v -24.804634 536.884766 179.778168
v -24.817642 536.884766 179.765381
v -23.526720 536.884766 179.148773
v -23.659794 536.884766 179.148254
v -23.587572 536.884766 179.798248
v -23.705177 536.884766 179.803146
v -23.700665 536.884766 179.819550
v -22.926720 536.884766 179.748779
v -23.365349 536.884766 179.531586
v -23.138613 536.884766 179.744522
v -24.814289 536.884766 179.766190
v -23.699160 536.884766 179.830292
v -23.698683 536.884766 179.841141
v -23.702435 536.884766 179.871567
v -24.805988 536.884766 179.773651
v -23.828457 536.884766 179.548248
v -23.809793 536.884766 179.742691
v -22.534182 536.884766 180.133972
v -24.811899 536.884766 179.767181
v -24.807940 536.884766 179.770355
v -22.538122 536.884766 180.118484
v -22.572643 536.884766 180.135086
v -22.554399 536.884766 180.128845
v -24.809713 536.884766 179.768570
v -23.237051 536.884766 180.135925
v -23.415350 536.884766 180.148254
v -23.237051 536.884766 180.149994
v -23.415350 536.884766 180.131592
v -24.423780 536.884766 180.151199
v -23.587572 536.884766 179.781586
v -23.736788 536.884766 179.761475
v -23.722786 536.884766 179.774170
v -23.712645 536.884766 179.787842
v -22.524220 536.884766 180.105087
v -22.677540 536.884766 180.067444
v -24.512848 536.884766 180.061096
v -24.585951 536.884766 180.030045
v -24.193611 536.884766 179.171249
v -24.401461 536.884766 180.153809
v -22.889481 536.884766 179.737137
v -23.489481 536.884766 179.137146
v -23.739395 536.884766 179.148254
v -23.814655 536.884766 179.548248
v -24.523071 536.884766 180.028931
v -24.387434 536.884766 180.152908
v -23.333145 536.884766 180.028122
v -23.482016 536.884766 180.094528
v -22.511496 536.884766 180.112213
v -23.333145 536.884766 180.016403
v -24.529957 536.884766 179.988251
v -22.512686 536.884766 180.089600
v -22.490631 536.884766 180.079514
v -24.576460 536.884766 179.940094
v -22.500937 536.884766 180.066711
v -23.520905 536.884766 179.818832
v -23.712996 536.884766 179.900375
v -23.520905 536.884766 180.095047
v -22.494917 536.884766 180.049393
v -22.687059 536.884766 180.028809
v -23.544689 536.884766 179.798248
v -23.541159 536.884766 179.798416
v -24.165276 536.884766 179.172012
v -24.173578 536.884766 179.179672
v -24.179388 536.884766 179.188049
v -22.711254 536.884766 179.826492
v -22.730291 536.884766 179.879868
v -22.490610 536.884766 180.031586
v -22.693127 536.884766 179.949463
v -24.532015 536.884766 179.947037
v -24.578384 536.884766 179.900894
v -23.537651 536.884766 179.798813
v -22.476460 536.884766 180.038788
v -24.175884 536.884766 179.157791
v -23.533346 536.884766 179.799957
v -23.521587 536.884766 179.812943
v -22.684958 536.884766 179.787262
v -23.526003 536.884766 179.804886
v -23.523388 536.884766 179.808487
v -23.529381 536.884766 179.801987
v -22.659185 536.884766 179.764420
v -24.154644 536.884766 179.166016
v -24.523602 536.884766 179.866806
v -24.585045 536.884766 179.862213
v -22.633654 536.884766 179.751297
v -24.511225 536.884766 179.828369
v -24.611179 536.884766 179.804794
v -24.595390 536.884766 179.832260
v -23.765348 536.884766 179.548248
v -23.781836 536.884766 179.744644
v -23.754778 536.884766 179.751831
v -22.609011 536.884766 179.744720
v -24.489584 536.884766 179.789917
v -24.632992 536.884766 179.781830
v -22.589481 536.884766 179.759369
v -22.609224 536.884766 179.761719
v -22.625843 536.884766 179.768356
v -22.639093 536.884766 179.777512
v -22.650309 536.884766 179.789093
v -24.466972 536.884766 179.765778
v -24.659443 536.884766 179.764435
v -24.157106 536.884766 179.149261
v -22.490610 536.884766 179.848251
v -22.675724 536.884766 179.836823
v -22.686031 536.884766 179.873566
v -22.571430 536.884766 179.760773
v -24.446064 536.884766 179.752396
v -24.691616 536.884766 179.752853
v -23.180750 536.884766 180.124878
v -23.187716 536.884766 180.131180
v -23.183714 536.884766 180.128326
v -22.583578 536.884766 179.742691
v -23.178331 536.884766 180.119904
v -24.237572 536.884766 179.948257
v -24.270905 536.884766 179.947037
v -24.281130 536.884766 180.036713
v -22.476460 536.884766 179.843658
v -23.195210 536.884766 180.134216
v -24.136747 536.884766 179.160965
v -23.765348 536.884766 179.531586
v -22.510336 536.884766 179.804688
v -24.237572 536.884766 179.931580
v -24.273109 536.884766 179.906021
v -22.659588 536.884766 179.802277
v -24.280413 536.884766 179.865616
v -22.524857 536.884766 179.785660
v -22.538387 536.884766 179.773880
v -22.553999 536.884766 179.765610
v -23.176954 536.884766 180.114960
v -23.176331 536.884766 180.110229
v -23.176113 536.884766 180.105453
v -23.211269 536.884766 180.135925
v -23.926460 536.884766 180.148254
v -24.135017 536.884766 179.144211
v -24.296820 536.884766 180.079086
v -24.314869 536.884766 180.107773
v -24.332022 536.884766 180.126556
v -22.499653 536.884766 179.747269
v -22.508739 536.884766 179.752838
v -22.504271 536.884766 179.750931
v -24.352272 536.884766 180.141220
v -24.373665 536.884766 180.150070
v -23.926460 536.884766 180.119354
v -22.495905 536.884766 179.742691
v -22.552629 536.884766 179.747864
v -22.521946 536.884766 179.754410
v -24.116131 536.884766 179.159363
v -23.752676 536.884766 179.951385
v -23.829393 536.884766 180.029953
v -23.707102 536.884766 180.048248
v -23.898682 536.884766 180.114914
v -23.760836 536.884766 180.114914
v -23.693127 536.884766 180.048248
v -23.707275 536.884766 180.148254
v -23.587572 536.884766 180.131592
v -23.615870 536.884766 179.505890
v -23.693127 536.884766 179.513092
v -23.400505 536.884766 179.510147
v -24.012571 536.884766 179.142700
v -24.004238 536.884766 179.238007
v -23.954239 536.884766 179.164917
v -23.736616 536.884766 179.211014
v -23.732016 536.884766 179.211014
v -23.732016 536.884766 179.513092
v -23.976460 536.884766 179.948257
v -23.899637 536.884766 179.217957
v -23.904238 536.884766 179.217957
v -23.920904 536.884766 179.513092
v -23.920904 536.884766 179.183411
v -23.993126 536.884766 179.445740
v -23.875170 536.884766 180.049789
v -23.994547 536.884766 179.426712
v -23.999184 536.884766 179.408218
v -24.010799 536.884766 179.385040
v -23.810575 536.884766 179.450592
v -23.815350 536.884766 179.450592
v -23.880541 536.884766 179.148254
v -23.482016 536.884766 179.742691
v -23.015869 536.884766 180.105896
v -23.075333 536.884766 180.028122
v -23.976460 536.884766 179.931580
v -23.075333 536.884766 180.014053
v -22.735897 536.884766 179.990982
v -22.737572 536.884766 179.949463
v -23.735075 536.884766 179.524963
v -23.739597 536.884766 179.528946
v -23.736872 536.884766 179.527069
v -23.739679 536.884766 180.109787
v -23.748260 536.884766 180.113281
v -24.098499 536.884766 179.160538
v -23.731861 536.884766 180.104340
v -24.015869 536.884766 179.242691
v -24.096512 536.884766 179.323517
v -24.046329 536.884766 179.350418
v -24.024376 536.884766 179.368546
v -23.725233 536.884766 180.097504
v -23.719860 536.884766 180.089630
v -23.816130 536.884766 179.986542
v -23.714417 536.884766 180.078156
v -23.915154 536.884766 179.865814
v -23.912081 536.884766 179.869293
v -23.135859 536.884766 180.120483
v -23.133085 536.884766 180.125122
v -23.129549 536.884766 180.128662
v -23.125330 536.884766 180.131332
v -23.906830 536.884766 179.872894
v -24.112398 536.884766 179.142700
v -23.917479 536.884766 179.861633
v -23.733400 536.884766 179.521637
v -23.743706 536.884766 179.530579
v -23.901035 536.884766 179.875076
v -23.919476 536.884766 179.855576
v -23.709946 536.884766 180.063400
v -23.920626 536.884766 179.848618
v -23.137793 536.884766 180.114304
v -23.119169 536.884766 180.133881
v -23.732449 536.884766 179.518402
v -23.892607 536.884766 179.876038
v -24.212572 536.884766 179.553802
v -24.322603 536.884766 179.779007
v -24.309269 536.884766 179.797012
v -23.732103 536.884766 179.515762
v -24.401461 536.884766 179.742691
v -24.379175 536.884766 179.744873
v -24.357916 536.884766 179.751892
v -24.338854 536.884766 179.763611
v -23.889305 536.884766 179.875885
v -24.081335 536.884766 179.164719
v -23.920904 536.884766 179.841568
v -23.753456 536.884766 179.531586
v -23.886053 536.884766 179.875412
v -23.495289 536.884766 179.749191
v -23.536533 536.884766 179.778381
v -23.522545 536.884766 179.773514
v -23.510115 536.884766 179.765900
v -23.499491 536.884766 179.755325
v -23.881413 536.884766 179.873871
v -23.878267 536.884766 179.872025
v -23.138613 536.884766 180.105453
v -23.111389 536.884766 180.135468
v -23.103456 536.884766 180.135925
v -24.037539 536.884766 179.201294
v -24.052084 536.884766 179.183014
v -24.065748 536.884766 179.172058
v -23.491652 536.884766 179.742691
v -23.565956 536.884766 179.781586
v -23.918198 536.884766 179.816833
v -23.082363 536.884766 180.135925
v -24.182190 536.884766 179.537140
v -24.189869 536.884766 179.538574
v -24.201582 536.884766 179.545654
v -23.690857 536.884766 179.522369
v -23.688852 536.884766 179.525101
v -23.686476 536.884766 179.527145
v -23.587572 536.884766 180.148254
v -23.692415 536.884766 179.518616
v -23.683765 536.884766 179.528732
v -23.659794 536.884766 179.548248
v -24.169510 536.884766 179.538956
v -23.886629 536.884766 179.819489
v -23.884390 536.884766 179.826706
v -23.880997 536.884766 179.832565
v -23.679888 536.884766 179.530289
v -23.675013 536.884766 179.531311
v -23.176113 536.884766 180.028122
v -23.771425 536.884766 179.930252
v -23.873461 536.884766 179.866165
v -23.875364 536.884766 179.869156
v -23.670036 536.884766 179.531586
v -24.157301 536.884766 179.542892
v -23.648682 536.884766 179.548248
v -23.887310 536.884766 179.811966
v -23.048683 536.884766 180.148254
v -23.082363 536.884766 180.149994
v -23.887020 536.884766 179.807007
v -23.659794 536.884766 179.531586
v -23.648682 536.884766 179.531586
v -24.133018 536.884766 179.551102
v -23.048683 536.884766 180.131592
v -24.020628 536.884766 179.153839
v -24.029560 536.884766 179.158508
v -24.024900 536.884766 179.156708
v -23.740490 536.884766 179.939331
v -23.883556 536.884766 179.793701
v -23.886326 536.884766 179.802094
v -24.017086 536.884766 179.150131
v -24.036356 536.884766 179.159363
v -24.232016 536.884766 179.436356
v -24.424303 536.884766 179.745041
v -23.878082 536.884766 179.784622
v -24.107536 536.884766 179.553802
v -23.912354 536.884766 179.799667
v -24.014643 536.884766 179.146530
v -24.049191 536.884766 179.157166
v -23.729324 536.884766 179.926346
v -24.086470 536.884766 179.145325
v -24.061596 536.884766 179.153137
v -23.754738 536.884766 179.898392
v -23.871742 536.884766 179.861084
v -23.872103 536.884766 179.778259
v -23.527487 536.884766 180.118042
v -23.536896 536.884766 180.125992
v -23.531319 536.884766 180.122177
v -23.621212 536.884766 179.521225
v -23.628828 536.884766 179.528259
v -23.624449 536.884766 179.525055
v -23.021212 536.884766 180.121231
v -23.028828 536.884766 180.128250
v -23.024448 536.884766 180.125061
v -24.089579 536.884766 179.552887
v -23.618860 536.884766 179.516785
v -23.524057 536.884766 180.112122
v -23.641651 536.884766 179.531586
v -23.635017 536.884766 179.530792
v -23.018862 536.884766 180.116791
v -23.522079 536.884766 180.106110
v -23.041651 536.884766 180.131592
v -23.035019 536.884766 180.130783
v -23.546261 536.884766 180.129486
v -23.857742 536.884766 179.768341
v -23.872370 536.884766 179.845474
v -23.617081 536.884766 179.511414
v -23.017082 536.884766 180.111420
v -23.521229 536.884766 180.100601
v -24.071852 536.884766 179.549866
v -23.902412 536.884766 179.783875
v -23.746323 536.884766 179.872757
v -23.870905 536.884766 179.853119
v -23.566130 536.884766 180.131592
v -23.841923 536.884766 179.762177
v -24.053061 536.884766 179.543427
v -23.592075 536.884766 179.522293
v -23.589758 536.884766 179.525467
v -23.586660 536.884766 179.528076
v -23.477831 536.884766 180.113586
v -23.474096 536.884766 180.119019
v -23.469568 536.884766 180.123154
v -22.992077 536.884766 180.122299
v -22.989759 536.884766 180.125473
v -22.986660 536.884766 180.128082
v -23.464336 536.884766 180.126328
v -23.565262 536.884766 179.548248
v -22.982679 536.884766 180.130005
v -23.743126 536.884766 179.845993
v -23.871290 536.884766 179.849213
v -23.582680 536.884766 179.530014
v -23.594278 536.884766 179.516907
v -22.994278 536.884766 180.116913
v -23.480896 536.884766 180.105316
v -23.458677 536.884766 180.128647
v -23.577543 536.884766 179.531174
v -22.977543 536.884766 180.131165
v -23.943995 536.884766 179.164917
v -23.818821 536.884766 179.759369
v -23.448631 536.884766 180.130905
v -23.138613 536.884766 180.028122
v -23.438353 536.884766 180.131592
v -23.938044 536.884766 179.165192
v -23.595541 536.884766 179.507431
v -23.572294 536.884766 179.531586
v -22.995541 536.884766 180.107437
v -22.972294 536.884766 180.131592
v -23.805832 536.884766 179.760071
v -23.954239 536.884766 179.148254
v -23.932192 536.884766 179.166290
v -23.746424 536.884766 179.814285
v -23.921488 536.884766 179.177750
v -23.565262 536.884766 179.531586
v -22.965261 536.884766 180.131592
v -24.044661 536.884766 179.511658
v -24.065329 536.884766 179.528732
v -24.053675 536.884766 179.520981
v -23.793056 536.884766 179.762512
v -23.928976 536.884766 179.167572
v -23.922810 536.884766 179.173828
v -23.926762 536.884766 179.168930
v -23.751350 536.884766 179.799103
v -23.924673 536.884766 179.170914
v -23.593388 536.884766 179.488449
v -22.993387 536.884766 180.088440
v -23.760136 536.884766 179.784058
v -23.769211 536.884766 179.774643
v -23.780447 536.884766 179.767227
v -22.867952 536.884766 180.148254
v -22.965261 536.884766 180.148254
v -23.467953 536.884766 179.548248
v -24.037712 536.884766 179.500702
v -24.082958 536.884766 179.534836
v -22.867952 536.884766 180.131592
v -23.467953 536.884766 179.531586
v -24.032604 536.884766 179.488770
v -24.105886 536.884766 179.537140
v -24.204691 536.884766 179.305786
v -24.218040 536.884766 179.431580
v -24.212858 536.884766 179.295898
v -24.184603 536.884766 179.321259
v -24.020332 536.884766 179.518677
v -24.035894 536.884766 179.533432
v -23.889124 536.884766 179.770767
v -24.220551 536.884766 179.280380
v -24.028461 536.884766 179.471985
v -23.440380 536.884766 179.523300
v -23.445885 536.884766 179.529282
v -23.443304 536.884766 179.527512
v -23.441574 536.884766 179.525558
v -24.225147 536.884766 179.261139
v -24.733578 536.884766 179.748260
v -22.840380 536.884766 180.123291
v -22.845886 536.884766 180.129288
v -22.843304 536.884766 180.127518
v -22.841576 536.884766 180.125565
v -23.954239 536.884766 179.531586
v -24.005444 536.884766 179.496796
v -23.439638 536.884766 179.520462
v -23.449394 536.884766 179.530594
v -24.026953 536.884766 179.458847
v -22.839638 536.884766 180.120453
v -22.849394 536.884766 180.130600
v -23.439426 536.884766 179.517532
v -22.839426 536.884766 180.117538
v -24.117172 536.884766 179.356506
v -22.840185 536.884766 180.110336
v -22.858578 536.884766 180.131592
v -24.197721 536.884766 179.483536
v -23.440184 536.884766 179.510330
v -23.458578 536.884766 179.531586
v -23.996147 536.884766 179.472031
v -22.842173 536.884766 180.103378
v -24.226460 536.884766 179.241394
v -23.442171 536.884766 179.503372
v -24.091393 536.884766 179.369308
v -24.031271 536.884766 179.424042
v -24.026461 536.884766 179.445648
v -24.027714 536.884766 179.434586
v -23.387009 536.884766 179.527832
v -23.395178 536.884766 179.520172
v -23.391508 536.884766 179.524521
v -22.787008 536.884766 180.127838
v -22.795177 536.884766 180.120178
v -22.791508 536.884766 180.124512
v -24.066946 536.884766 179.384476
v -23.365349 536.884766 179.548248
v -24.181471 536.884766 179.506210
v -24.165302 536.884766 179.519501
v -24.145004 536.884766 179.530060
v -24.125782 536.884766 179.535446
v -24.038776 536.884766 179.411240
v -23.381140 536.884766 179.530380
v -22.781139 536.884766 180.130371
v -23.924219 536.884766 179.524643
v -23.929018 536.884766 179.528625
v -23.926287 536.884766 179.526840
v -24.049810 536.884766 179.398697
v -23.376797 536.884766 179.531250
v -24.190857 536.884766 179.255264
v -24.186337 536.884766 179.266693
v -22.776798 536.884766 180.131256
v -23.162050 536.884766 179.744522
v -23.922411 536.884766 179.521454
v -23.372381 536.884766 179.531586
v -22.772381 536.884766 180.131592
v -23.921322 536.884766 179.517838
v -23.934059 536.884766 179.530441
v -23.138613 536.884766 180.014053
v -23.921026 536.884766 179.515472
v -23.945904 536.884766 179.531586
v -23.467258 536.884766 179.398254
v -23.571077 536.884766 179.398254
v -22.867258 536.884766 179.998260
v -22.971079 536.884766 179.998260
v -23.690123 536.884766 179.172958
v -23.691786 536.884766 179.175949
v -22.591825 536.874756 180.137146
v -22.572643 536.874756 180.135086
v -22.554399 536.874756 180.128845
v -22.538122 536.874756 180.118484
v -22.524220 536.874756 180.105087
v -22.512686 536.874756 180.089600
v -22.500937 536.874756 180.066711
v -22.494917 536.874756 180.049393
v -22.490610 536.874756 180.031586
v -22.687059 536.874756 180.028809
v -22.693127 536.874756 179.949463
v -22.677540 536.874756 180.067444
v -22.665642 536.874756 180.094803
v -22.654015 536.874756 180.111252
v -22.641520 536.874756 180.122467
v -22.627111 536.874756 180.130539
v -22.609806 536.874756 180.135635
v -22.609224 536.874756 179.761719
v -22.589481 536.874756 179.759369
v -22.625843 536.874756 179.768356
v -22.639093 536.874756 179.777512
v -22.650309 536.874756 179.789093
v -22.659588 536.874756 179.802277
v -22.675724 536.874756 179.836823
v -22.686031 536.874756 179.873566
v -22.490610 536.874756 179.848251
v -22.510336 536.874756 179.804688
v -22.524857 536.874756 179.785660
v -22.538387 536.874756 179.773880
v -22.553999 536.874756 179.765610
v -22.571430 536.874756 179.760773
v -22.476460 536.874756 179.843658
v -22.495905 536.874756 179.742691
v -22.521946 536.874756 179.754410
v -22.508739 536.874756 179.752838
v -22.504271 536.874756 179.750931
v -22.499653 536.874756 179.747269
v -22.583578 536.874756 179.742691
v -22.552629 536.874756 179.747864
v -22.737572 536.874756 179.949463
v -22.730291 536.874756 179.879868
v -22.711254 536.874756 179.826492
v -22.684958 536.874756 179.787262
v -22.659185 536.874756 179.764420
v -22.633654 536.874756 179.751297
v -22.609011 536.874756 179.744720
v -22.594082 536.874756 180.153809
v -22.628157 536.874756 180.150055
v -22.654381 536.874756 180.140915
v -22.676163 536.874756 180.127243
v -22.694721 536.874756 180.109421
v -22.709585 536.874756 180.088425
v -22.720406 536.874756 180.065063
v -22.729933 536.874756 180.032089
v -22.735897 536.874756 179.990982
v -22.476460 536.874756 180.038788
v -22.490631 536.874756 180.079514
v -22.511496 536.874756 180.112213
v -22.534182 536.874756 180.133972
v -22.556299 536.874756 180.146576
v -22.574831 536.874756 180.152054
v -23.075333 536.874756 180.014053
v -23.075333 536.874756 180.028122
v -23.138613 536.874756 180.014053
v -23.138613 536.874756 179.744522
v -23.162050 536.874756 179.744522
v -23.333145 536.874756 180.016403
v -23.333145 536.874756 180.028122
v -23.176113 536.874756 180.028122
v -23.176113 536.874756 180.105453
v -23.211269 536.874756 180.135925
v -23.195210 536.874756 180.134216
v -23.187716 536.874756 180.131180
v -23.183714 536.874756 180.128326
v -23.180750 536.874756 180.124878
v -23.178331 536.874756 180.119904
v -23.176954 536.874756 180.114960
v -23.176331 536.874756 180.110229
v -23.237051 536.874756 180.135925
v -23.237051 536.874756 180.149994
v -23.082363 536.874756 180.149994
v -23.082363 536.874756 180.135925
v -23.103456 536.874756 180.135925
v -23.138613 536.874756 180.105453
v -23.137793 536.874756 180.114304
v -23.135859 536.874756 180.120483
v -23.133085 536.874756 180.125122
v -23.129549 536.874756 180.128662
v -23.125330 536.874756 180.131332
v -23.119169 536.874756 180.133881
v -23.111389 536.874756 180.135468
v -23.138613 536.874756 180.028122
v -23.926460 536.874756 180.119354
v -23.926460 536.874756 180.148254
v -23.707275 536.874756 180.148254
v -23.693127 536.874756 180.048248
v -23.707102 536.874756 180.048248
v -23.760836 536.874756 180.114914
v -23.748260 536.874756 180.113281
v -23.739679 536.874756 180.109787
v -23.731861 536.874756 180.104340
v -23.725233 536.874756 180.097504
v -23.719860 536.874756 180.089630
v -23.714417 536.874756 180.078156
v -23.709946 536.874756 180.063400
v -23.898682 536.874756 180.114914
v -23.752676 536.874756 179.951385
v -23.829393 536.874756 180.029953
v -23.698683 536.874756 179.841141
v -23.702435 536.874756 179.871567
v -23.712996 536.874756 179.900375
v -23.729324 536.874756 179.926346
v -23.740490 536.874756 179.939331
v -23.781836 536.874756 179.744644
v -23.809793 536.874756 179.742691
v -23.754778 536.874756 179.751831
v -23.736788 536.874756 179.761475
v -23.722786 536.874756 179.774170
v -23.712645 536.874756 179.787842
v -23.705177 536.874756 179.803146
v -23.700665 536.874756 179.819550
v -23.699160 536.874756 179.830292
v -23.920904 536.874756 179.841568
v -23.918198 536.874756 179.816833
v -23.912354 536.874756 179.799667
v -23.902412 536.874756 179.783875
v -23.889124 536.874756 179.770767
v -23.868162 536.874756 179.757324
v -23.842138 536.874756 179.747009
v -23.826113 536.874756 179.743759
v -23.892607 536.874756 179.876038
v -23.901035 536.874756 179.875076
v -23.906830 536.874756 179.872894
v -23.912081 536.874756 179.869293
v -23.915154 536.874756 179.865814
v -23.917479 536.874756 179.861633
v -23.919476 536.874756 179.855576
v -23.920626 536.874756 179.848618
v -23.870905 536.874756 179.853119
v -23.871742 536.874756 179.861084
v -23.873461 536.874756 179.866165
v -23.875364 536.874756 179.869156
v -23.878267 536.874756 179.872025
v -23.881413 536.874756 179.873871
v -23.886053 536.874756 179.875412
v -23.889305 536.874756 179.875885
v -23.887310 536.874756 179.811966
v -23.886629 536.874756 179.819489
v -23.884390 536.874756 179.826706
v -23.880997 536.874756 179.832565
v -23.872370 536.874756 179.845474
v -23.871290 536.874756 179.849213
v -23.841923 536.874756 179.762177
v -23.818821 536.874756 179.759369
v -23.857742 536.874756 179.768341
v -23.872103 536.874756 179.778259
v -23.878082 536.874756 179.784622
v -23.883556 536.874756 179.793701
v -23.886326 536.874756 179.802094
v -23.887020 536.874756 179.807007
v -23.746424 536.874756 179.814285
v -23.743126 536.874756 179.845993
v -23.751350 536.874756 179.799103
v -23.760136 536.874756 179.784058
v -23.769211 536.874756 179.774643
v -23.780447 536.874756 179.767227
v -23.793056 536.874756 179.762512
v -23.805832 536.874756 179.760071
v -23.771425 536.874756 179.930252
v -23.816130 536.874756 179.986542
v -23.754738 536.874756 179.898392
v -23.746323 536.874756 179.872757
v -23.875170 536.874756 180.049789
v -24.401461 536.874756 180.153809
v -24.423780 536.874756 180.151199
v -24.444866 536.874756 180.143387
v -24.463598 536.874756 180.130936
v -24.479803 536.874756 180.115326
v -24.497643 536.874756 180.091217
v -24.512848 536.874756 180.061096
v -24.523071 536.874756 180.028931
v -24.529957 536.874756 179.988251
v -24.532015 536.874756 179.947037
v -24.281130 536.874756 180.036713
v -24.270905 536.874756 179.947037
v -24.296820 536.874756 180.079086
v -24.314869 536.874756 180.107773
v -24.332022 536.874756 180.126556
v -24.352272 536.874756 180.141220
v -24.373665 536.874756 180.150070
v -24.387434 536.874756 180.152908
v -24.379175 536.874756 179.744873
v -24.401461 536.874756 179.742691
v -24.357916 536.874756 179.751892
v -24.338854 536.874756 179.763611
v -24.322603 536.874756 179.779007
v -24.309269 536.874756 179.797012
v -24.280413 536.874756 179.865616
v -24.273109 536.874756 179.906021
v -24.523602 536.874756 179.866806
v -24.511225 536.874756 179.828369
v -24.489584 536.874756 179.789917
v -24.466972 536.874756 179.765778
v -24.446064 536.874756 179.752396
v -24.424303 536.874756 179.745041
v -23.467953 536.874756 179.531586
v -23.458578 536.874756 179.531586
v -23.467953 536.874756 179.548248
v -23.365349 536.874756 179.548248
v -23.365349 536.874756 179.531586
v -23.372381 536.874756 179.531586
v -23.395178 536.874756 179.520172
v -23.400505 536.874756 179.510147
v -23.391508 536.874756 179.524521
v -23.387009 536.874756 179.527832
v -23.381140 536.874756 179.530380
v -23.376797 536.874756 179.531250
v -23.489481 536.874756 179.137146
v -23.526720 536.874756 179.148773
v -23.615870 536.874756 179.505890
v -23.641651 536.874756 179.531586
v -23.635017 536.874756 179.530792
v -23.628828 536.874756 179.528259
v -23.624449 536.874756 179.525055
v -23.621212 536.874756 179.521225
v -23.618860 536.874756 179.516785
v -23.617081 536.874756 179.511414
v -23.648682 536.874756 179.531586
v -23.648682 536.874756 179.548248
v -23.565262 536.874756 179.548248
v -23.565262 536.874756 179.531586
v -23.572294 536.874756 179.531586
v -23.595541 536.874756 179.507431
v -23.593388 536.874756 179.488449
v -23.594278 536.874756 179.516907
v -23.592075 536.874756 179.522293
v -23.589758 536.874756 179.525467
v -23.586660 536.874756 179.528076
v -23.582680 536.874756 179.530014
v -23.577543 536.874756 179.531174
v -23.571077 536.874756 179.398254
v -23.467258 536.874756 179.398254
v -23.442171 536.874756 179.503372
v -23.449394 536.874756 179.530594
v -23.445885 536.874756 179.529282
v -23.443304 536.874756 179.527512
v -23.441574 536.874756 179.525558
v -23.440380 536.874756 179.523300
v -23.439638 536.874756 179.520462
v -23.439426 536.874756 179.517532
v -23.440184 536.874756 179.510330
v -24.218040 536.874756 179.431580
v -24.197721 536.874756 179.483536
v -24.181471 536.874756 179.506210
v -24.165302 536.874756 179.519501
v -24.145004 536.874756 179.530060
v -24.125782 536.874756 179.535446
v -24.105886 536.874756 179.537140
v -24.232016 536.874756 179.436356
v -24.212572 536.874756 179.553802
v -24.182190 536.874756 179.537140
v -24.189869 536.874756 179.538574
v -24.201582 536.874756 179.545654
v -24.133018 536.874756 179.551102
v -24.107536 536.874756 179.553802
v -24.157301 536.874756 179.542892
v -24.169510 536.874756 179.538956
v -23.993126 536.874756 179.445740
v -23.996147 536.874756 179.472031
v -24.005444 536.874756 179.496796
v -24.020332 536.874756 179.518677
v -24.035894 536.874756 179.533432
v -24.053061 536.874756 179.543427
v -24.071852 536.874756 179.549866
v -24.089579 536.874756 179.552887
v -24.046329 536.874756 179.350418
v -24.096512 536.874756 179.323517
v -24.024376 536.874756 179.368546
v -24.010799 536.874756 179.385040
v -23.999184 536.874756 179.408218
v -23.994547 536.874756 179.426712
v -24.193127 536.874756 179.236710
v -24.190857 536.874756 179.255264
v -24.186337 536.874756 179.266693
v -24.179888 536.874756 179.276062
v -24.139824 536.874756 179.302460
v -24.116131 536.874756 179.159363
v -24.136747 536.874756 179.160965
v -24.154644 536.874756 179.166016
v -24.165276 536.874756 179.172012
v -24.173578 536.874756 179.179672
v -24.179388 536.874756 179.188049
v -24.190493 536.874756 179.214615
v -24.192406 536.874756 179.225586
v -24.015869 536.874756 179.242691
v -24.037539 536.874756 179.201294
v -24.052084 536.874756 179.183014
v -24.065748 536.874756 179.172058
v -24.081335 536.874756 179.164719
v -24.098499 536.874756 179.160538
v -24.004238 536.874756 179.238007
v -24.012571 536.874756 179.142700
v -24.036356 536.874756 179.159363
v -24.029560 536.874756 179.158508
v -24.024900 536.874756 179.156708
v -24.020628 536.874756 179.153839
v -24.017086 536.874756 179.150131
v -24.014643 536.874756 179.146530
v -24.112398 536.874756 179.142700
v -24.086470 536.874756 179.145325
v -24.061596 536.874756 179.153137
v -24.049191 536.874756 179.157166
v -24.226460 536.874756 179.241394
v -24.224447 536.874756 179.223190
v -24.218462 536.874756 179.205856
v -24.209383 536.874756 179.189926
v -24.193611 536.874756 179.171249
v -24.175884 536.874756 179.157791
v -24.157106 536.874756 179.149261
v -24.135017 536.874756 179.144211
v -24.117172 536.874756 179.356506
v -24.184603 536.874756 179.321259
v -24.204691 536.874756 179.305786
v -24.212858 536.874756 179.295898
v -24.220551 536.874756 179.280380
v -24.225147 536.874756 179.261139
v -24.027714 536.874756 179.434586
v -24.026461 536.874756 179.445648
v -24.031271 536.874756 179.424042
v -24.038776 536.874756 179.411240
v -24.049810 536.874756 179.398697
v -24.066946 536.874756 179.384476
v -24.091393 536.874756 179.369308
v -24.082958 536.874756 179.534836
v -24.065329 536.874756 179.528732
v -24.053675 536.874756 179.520981
v -24.044661 536.874756 179.511658
v -24.037712 536.874756 179.500702
v -24.032604 536.874756 179.488770
v -24.028461 536.874756 179.471985
v -24.026953 536.874756 179.458847
v -23.659794 536.874756 179.164917
v -23.670036 536.874756 179.164917
v -23.659794 536.874756 179.148254
v -23.739395 536.874756 179.148254
v -23.810575 536.874756 179.450592
v -23.815350 536.874756 179.450592
v -23.880541 536.874756 179.148254
v -23.954239 536.874756 179.148254
v -23.954239 536.874756 179.164917
v -23.943995 536.874756 179.164917
v -23.920904 536.874756 179.183411
v -23.921488 536.874756 179.177750
v -23.922810 536.874756 179.173828
v -23.924673 536.874756 179.170914
v -23.926762 536.874756 179.168930
v -23.928976 536.874756 179.167572
v -23.932192 536.874756 179.166290
v -23.938044 536.874756 179.165192
v -23.920904 536.874756 179.513092
v -23.945904 536.874756 179.531586
v -23.934059 536.874756 179.530441
v -23.929018 536.874756 179.528625
v -23.926287 536.874756 179.526840
v -23.924219 536.874756 179.524643
v -23.922411 536.874756 179.521454
v -23.921322 536.874756 179.517838
v -23.921026 536.874756 179.515472
v -23.954239 536.874756 179.531586
v -23.954239 536.874756 179.548248
v -23.870905 536.874756 179.548248
v -23.870905 536.874756 179.531586
v -23.879238 536.874756 179.531586
v -23.904238 536.874756 179.513092
v -23.903595 536.874756 179.518311
v -23.902132 536.874756 179.521866
v -23.900019 536.874756 179.524719
v -23.897579 536.874756 179.526794
v -23.894817 536.874756 179.528397
v -23.890863 536.874756 179.529999
v -23.885117 536.874756 179.531265
v -23.904238 536.874756 179.217957
v -23.899637 536.874756 179.217957
v -23.828457 536.874756 179.548248
v -23.814655 536.874756 179.548248
v -23.736616 536.874756 179.211014
v -23.732016 536.874756 179.211014
v -23.732016 536.874756 179.513092
v -23.753456 536.874756 179.531586
v -23.743706 536.874756 179.530579
v -23.739597 536.874756 179.528946
v -23.736872 536.874756 179.527069
v -23.735075 536.874756 179.524963
v -23.733400 536.874756 179.521637
v -23.732449 536.874756 179.518402
v -23.732103 536.874756 179.515762
v -23.765348 536.874756 179.531586
v -23.765348 536.874756 179.548248
v -23.659794 536.874756 179.548248
v -23.659794 536.874756 179.531586
v -23.670036 536.874756 179.531586
v -23.693127 536.874756 179.513092
v -23.692415 536.874756 179.518616
v -23.690857 536.874756 179.522369
v -23.688852 536.874756 179.525101
v -23.686476 536.874756 179.527145
v -23.683765 536.874756 179.528732
v -23.679888 536.874756 179.530289
v -23.675013 536.874756 179.531311
v -23.693127 536.874756 179.183411
v -23.678112 536.874756 179.165726
v -23.684271 536.874756 179.168030
v -23.687609 536.874756 179.170227
v -23.690123 536.874756 179.172958
v -23.691786 536.874756 179.175949
v -23.692787 536.874756 179.179626
v -24.837572 536.874756 180.131592
v -24.822989 536.874756 180.131592
v -24.837572 536.874756 180.148254
v -24.739046 536.874756 180.148254
v -24.576460 536.874756 179.940094
v -24.585951 536.874756 180.030045
v -24.601292 536.874756 180.072617
v -24.620104 536.874756 180.100861
v -24.638605 536.874756 180.118362
v -24.665178 536.874756 180.134186
v -24.692348 536.874756 180.143280
v -24.715555 536.874756 180.147110
v -24.733578 536.874756 179.748260
v -24.691616 536.874756 179.752853
v -24.659443 536.874756 179.764435
v -24.632992 536.874756 179.781830
v -24.611179 536.874756 179.804794
v -24.595390 536.874756 179.832260
v -24.585045 536.874756 179.862213
v -24.578384 536.874756 179.900894
v -24.837572 536.874756 179.748260
v -24.837572 536.874756 179.764923
v -24.824203 536.874756 179.764923
v -24.804237 536.874756 179.783417
v -24.804634 536.874756 179.778168
v -24.805988 536.874756 179.773651
v -24.807940 536.874756 179.770355
v -24.809713 536.874756 179.768570
v -24.811899 536.874756 179.767181
v -24.814289 536.874756 179.766190
v -24.817642 536.874756 179.765381
v -24.820913 536.874756 179.765030
v -24.804237 536.874756 180.113098
v -24.816238 536.874756 180.131012
v -24.812983 536.874756 180.130051
v -24.810709 536.874756 180.128906
v -24.808552 536.874756 180.127136
v -24.806843 536.874756 180.124847
v -24.805639 536.874756 180.122253
v -24.804665 536.874756 180.118561
v -24.804352 536.874756 180.115845
v -23.976460 536.874756 179.931580
v -24.237572 536.874756 179.931580
v -24.237572 536.874756 179.948257
v -23.976460 536.874756 179.948257
v -23.565956 536.874756 179.781586
v -23.587572 536.874756 179.781586
v -23.587572 536.874756 179.798248
v -23.544689 536.874756 179.798248
v -23.520905 536.874756 179.818832
v -23.521587 536.874756 179.812943
v -23.523388 536.874756 179.808487
v -23.526003 536.874756 179.804886
v -23.529381 536.874756 179.801987
v -23.533346 536.874756 179.799957
v -23.537651 536.874756 179.798813
v -23.541159 536.874756 179.798416
v -23.520905 536.874756 180.095047
v -23.566130 536.874756 180.131592
v -23.546261 536.874756 180.129486
v -23.536896 536.874756 180.125992
v -23.531319 536.874756 180.122177
v -23.527487 536.874756 180.118042
v -23.524057 536.874756 180.112122
v -23.522079 536.874756 180.106110
v -23.521229 536.874756 180.100601
v -23.587572 536.874756 180.131592
v -23.587572 536.874756 180.148254
v -23.415350 536.874756 180.148254
v -23.415350 536.874756 180.131592
v -23.438353 536.874756 180.131592
v -23.480896 536.874756 180.105316
v -23.482016 536.874756 180.094528
v -23.477831 536.874756 180.113586
v -23.474096 536.874756 180.119019
v -23.469568 536.874756 180.123154
v -23.464336 536.874756 180.126328
v -23.458677 536.874756 180.128647
v -23.448631 536.874756 180.130905
v -23.482016 536.874756 179.742691
v -23.491652 536.874756 179.742691
v -23.536533 536.874756 179.778381
v -23.522545 536.874756 179.773514
v -23.510115 536.874756 179.765900
v -23.499491 536.874756 179.755325
v -23.495289 536.874756 179.749191
v -22.858578 536.874756 180.131592
v -22.867952 536.874756 180.131592
v -22.867952 536.874756 180.148254
v -22.765348 536.874756 180.148254
v -22.765348 536.874756 180.131592
v -22.772381 536.874756 180.131592
v -22.800505 536.874756 180.110153
v -22.795177 536.874756 180.120178
v -22.791508 536.874756 180.124512
v -22.787008 536.874756 180.127838
v -22.781139 536.874756 180.130371
v -22.776798 536.874756 180.131256
v -22.889481 536.874756 179.737137
v -22.926720 536.874756 179.748779
v -23.015869 536.874756 180.105896
v -23.041651 536.874756 180.131592
v -23.035019 536.874756 180.130783
v -23.028828 536.874756 180.128250
v -23.024448 536.874756 180.125061
v -23.021212 536.874756 180.121231
v -23.018862 536.874756 180.116791
v -23.017082 536.874756 180.111420
v -23.048683 536.874756 180.131592
v -23.048683 536.874756 180.148254
v -22.965261 536.874756 180.148254
v -22.965261 536.874756 180.131592
v -22.972294 536.874756 180.131592
v -22.995541 536.874756 180.107437
v -22.993387 536.874756 180.088440
v -22.994278 536.874756 180.116913
v -22.992077 536.874756 180.122299
v -22.989759 536.874756 180.125473
v -22.986660 536.874756 180.128082
v -22.982679 536.874756 180.130005
v -22.977543 536.874756 180.131165
v -22.971079 536.874756 179.998260
v -22.867258 536.874756 179.998260
v -22.842173 536.874756 180.103378
v -22.849394 536.874756 180.130600
v -22.845886 536.874756 180.129288
v -22.843304 536.874756 180.127518
v -22.841576 536.874756 180.125565
v -22.840380 536.874756 180.123291
v -22.839638 536.874756 180.120453
v -22.839426 536.874756 180.117538
v -22.840185 536.874756 180.110336
v -25.593801 535.884766 181.014954
v -25.593801 535.384766 181.014954
v -23.943802 534.684753 181.014954
v -25.470373 534.684753 181.014954
v -23.943802 534.584778 181.014954
v -22.943802 534.684753 181.014954
v -22.943802 534.584778 181.014954
v -21.417231 534.684753 181.014954
v -21.293802 535.384766 181.014954
v -21.293802 535.884766 181.014954
v -21.970129 536.874756 181.014954
v -21.470129 536.874756 181.014954
v -21.470129 536.884766 181.014954
v -23.312050 536.874756 180.014053
v -23.178457 536.874756 179.803116
v -23.176113 536.874756 179.803116
v -23.176113 536.874756 180.014053
v -24.320404 536.874756 179.869400
v -24.315350 536.874756 179.945908
v -24.460094 536.874756 180.097137
v -24.469337 536.874756 180.078354
v -24.449453 536.874756 180.112396
v -24.443300 536.874756 179.776321
v -24.456665 536.874756 179.792694
v -24.430580 536.874756 179.766876
v -24.439718 536.874756 180.122391
v -24.419666 536.874756 179.762131
v -24.428270 536.874756 180.130356
v -24.469500 536.874756 179.817764
v -24.410681 536.874756 179.759995
v -24.415295 536.874756 180.135468
v -24.401461 536.874756 179.759369
v -24.384546 536.874756 179.761246
v -24.482777 536.874756 179.870880
v -24.401461 536.874756 180.137146
v -24.370195 536.874756 179.766617
v -24.323490 536.874756 180.048340
v -24.358854 536.874756 179.774475
v -24.349375 536.874756 179.784500
v -24.387289 536.874756 180.135651
v -24.373831 536.874756 180.130966
v -24.341856 536.874756 179.796082
v -24.335674 536.874756 180.088120
v -24.487572 536.874756 179.945908
v -24.360605 536.874756 180.122314
v -24.350542 536.874756 180.111938
v -24.484150 536.874756 180.013000
v -23.567085 536.874756 179.381592
v -23.468908 536.874756 179.381592
v -23.514828 536.874756 179.188538
v -23.519169 536.874756 179.187485
v -24.747049 536.874756 179.766006
v -24.733231 536.874756 179.764923
v -24.719097 536.874756 179.765656
v -24.622898 536.874756 179.993622
v -24.620905 536.874756 179.944778
v -24.753738 536.874756 179.767838
v -24.759121 536.874756 180.126556
v -24.761360 536.874756 180.124573
v -24.663727 536.874756 180.102142
v -24.756575 536.874756 180.128113
v -24.649700 536.874756 180.086609
v -24.758389 536.874756 179.770157
v -24.680317 536.874756 180.114914
v -24.763216 536.874756 180.121933
v -24.765348 536.874756 179.783417
v -24.765099 536.874756 179.780624
v -24.639523 536.874756 180.068314
v -24.764692 536.874756 180.118347
v -24.699043 536.874756 180.124268
v -24.764515 536.874756 179.777893
v -24.630577 536.874756 180.041885
v -24.763189 536.874756 179.774979
v -24.719213 536.874756 180.129883
v -24.765348 536.874756 180.113098
v -24.761383 536.874756 179.772675
v -24.740089 536.874756 180.131592
v -24.744362 536.874756 180.131424
v -24.748600 536.874756 180.130875
v -24.627399 536.874756 179.865067
v -24.752922 536.874756 180.129700
v -24.638685 536.874756 179.826691
v -24.650593 536.874756 179.805527
v -24.665707 536.874756 179.788864
v -24.683870 536.874756 179.776215
v -24.705166 536.874756 179.768173
v -22.967085 536.874756 179.981583
v -22.868908 536.874756 179.981583
v -22.914827 536.874756 179.788528
v -22.919168 536.874756 179.787491
v -23.176113 536.884766 179.803116
v -23.178457 536.884766 179.803116
v -23.176113 536.884766 180.014053
v -23.312050 536.884766 180.014053
v -24.401461 536.884766 179.759369
v -24.410681 536.884766 179.759995
v -24.419666 536.884766 179.762131
v -24.430580 536.884766 179.766876
v -24.443300 536.884766 179.776321
v -24.456665 536.884766 179.792694
v -24.469500 536.884766 179.817764
v -24.482777 536.884766 179.870880
v -24.487572 536.884766 179.945908
v -24.484150 536.884766 180.013000
v -24.469337 536.884766 180.078354
v -24.460094 536.884766 180.097137
v -24.449453 536.884766 180.112396
v -24.439718 536.884766 180.122391
v -24.428270 536.884766 180.130356
v -24.415295 536.884766 180.135468
v -24.401461 536.884766 180.137146
v -24.387289 536.884766 180.135651
v -24.373831 536.884766 180.130966
v -24.360605 536.884766 180.122314
v -24.350542 536.884766 180.111938
v -24.335674 536.884766 180.088120
v -24.323490 536.884766 180.048340
v -24.315350 536.884766 179.945908
v -24.320404 536.884766 179.869400
v -24.341856 536.884766 179.796082
v -24.349375 536.884766 179.784500
v -24.358854 536.884766 179.774475
v -24.370195 536.884766 179.766617
v -24.384546 536.884766 179.761246
v -23.468908 536.884766 179.381592
v -23.514828 536.884766 179.188538
v -23.567085 536.884766 179.381592
v -23.519169 536.884766 179.187485
v -24.726635 536.884766 180.130875
v -24.740089 536.884766 180.131592
v -24.713343 536.884766 180.128693
v -24.688486 536.884766 180.119568
v -24.667156 536.884766 180.105179
v -24.650854 536.884766 180.088181
v -24.639523 536.884766 180.068314
v -24.627590 536.884766 180.028229
v -24.620905 536.884766 179.944778
v -24.765114 536.884766 180.116241
v -24.765348 536.884766 180.113098
v -24.764393 536.884766 180.119308
v -24.763140 536.884766 180.122070
v -24.761229 536.884766 180.124710
v -24.759205 536.884766 180.126495
v -24.756136 536.884766 180.128342
v -24.749580 536.884766 180.130661
v -24.765348 536.884766 179.783417
v -24.739691 536.884766 179.765106
v -24.733231 536.884766 179.764923
v -24.746113 536.884766 179.765823
v -24.752254 536.884766 179.767319
v -24.756176 536.884766 179.768890
v -24.758886 536.884766 179.770508
v -24.761288 536.884766 179.772568
v -24.763371 536.884766 179.775284
v -24.764502 536.884766 179.777863
v -24.623856 536.884766 179.887924
v -24.636351 536.884766 179.832489
v -24.644676 536.884766 179.814636
v -24.656092 536.884766 179.798599
v -24.670338 536.884766 179.785004
v -24.687050 536.884766 179.774612
v -24.707146 536.884766 179.767700
v -22.868908 536.884766 179.981583
v -22.914827 536.884766 179.788528
v -22.967085 536.884766 179.981583
v -22.919168 536.884766 179.787491
f 1 2 3
f 4 5 6
f 5 7 6
f 7 1 6
f 1 3 6
f 8 6 9
f 6 3 9
f 8 9 10
f 3 11 12
f 9 3 12
f 9 12 13
f 9 13 14
f 11 15 12
f 16 17 18
f 16 18 19
f 20 1 21
f 22 16 19
f 23 24 25
f 26 22 19
f 27 28 29
f 30 26 19
f 31 23 25
f 32 33 34
f 35 32 34
f 36 33 32
f 37 35 34
f 38 39 40
f 38 40 41
f 42 43 33
f 44 45 39
f 44 39 38
f 42 33 36
f 46 37 34
f 47 45 44
f 46 34 48
f 49 50 45
f 49 45 47
f 51 27 50
f 51 50 49
f 52 53 54
f 52 54 55
f 56 43 42
f 57 29 28
f 52 58 53
f 59 60 61
f 59 62 60
f 63 57 28
f 64 65 66
f 67 31 25
f 67 25 68
f 67 68 69
f 70 46 48
f 71 67 69
f 72 73 65
f 72 65 64
f 74 67 71
f 75 28 27
f 75 27 51
f 76 73 72
f 77 78 79
f 80 59 61
f 81 70 48
f 82 79 83
f 84 67 74
f 82 77 79
f 85 1 20
f 86 87 78
f 86 78 77
f 88 83 89
f 90 81 48
f 88 82 83
f 91 92 75
f 91 75 51
f 93 92 91
f 94 28 75
f 95 93 91
f 95 96 93
f 97 98 30
f 99 100 101
f 102 103 104
f 105 96 95
f 99 101 106
f 99 106 107
f 99 107 108
f 109 105 95
f 110 55 111
f 112 90 48
f 113 105 109
f 114 113 109
f 110 84 52
f 110 52 55
f 115 76 116
f 115 116 117
f 118 113 114
f 119 120 121
f 119 122 120
f 115 73 76
f 123 89 63
f 124 100 99
f 123 88 89
f 124 125 126
f 123 63 28
f 124 126 127
f 124 127 100
f 128 129 73
f 130 131 87
f 130 87 86
f 128 73 115
f 132 1 85
f 133 123 28
f 134 103 102
f 135 136 98
f 135 98 97
f 137 110 111
f 138 131 130
f 135 103 134
f 139 133 28
f 140 141 122
f 140 122 119
f 142 112 48
f 143 141 140
f 144 131 138
f 145 129 128
f 146 142 48
f 147 131 144
f 148 129 145
f 149 150 151
f 149 108 150
f 152 153 129
f 149 99 108
f 149 154 99
f 152 129 148
f 155 154 149
f 156 157 158
f 159 134 160
f 161 153 152
f 161 162 153
f 163 147 144
f 163 164 147
f 165 155 149
f 166 146 48
f 167 1 132
f 168 165 149
f 168 149 169
f 170 134 159
f 171 168 169
f 171 169 172
f 171 173 168
f 174 134 170
f 175 156 158
f 176 177 164
f 176 164 163
f 178 134 174
f 179 180 181
f 179 181 177
f 179 177 176
f 182 111 183
f 182 183 184
f 185 134 178
f 185 135 134
f 182 137 111
f 186 187 180
f 186 180 179
f 188 189 190
f 188 190 191
f 188 191 192
f 193 194 187
f 193 187 186
f 195 1 167
f 196 197 198
f 196 198 162
f 196 162 161
f 199 188 192
f 200 201 194
f 202 203 204
f 200 194 193
f 205 135 185
f 206 203 202
f 207 208 209
f 210 166 48
f 206 211 203
f 210 161 166
f 212 175 158
f 210 196 161
f 212 158 80
f 213 137 182
f 214 197 196
f 215 216 208
f 214 217 197
f 215 208 207
f 218 216 215
f 219 199 192
f 219 217 214
f 219 220 221
f 219 221 199
f 219 192 217
f 222 211 206
f 223 211 222
f 224 211 223
f 224 119 225
f 226 139 28
f 224 225 211
f 227 1 195
f 226 228 229
f 226 229 230
f 231 232 233
f 226 230 234
f 226 234 235
f 226 235 139
f 236 228 226
f 237 205 238
f 237 238 239
f 237 239 232
f 236 209 228
f 237 232 231
f 2 210 48
f 2 135 205
f 2 237 210
f 240 80 61
f 2 205 237
f 240 212 80
f 241 242 243
f 242 244 245
f 246 247 248
f 249 97 250
f 250 97 30
f 250 30 19
f 135 251 103
f 252 253 254
f 255 137 256
f 256 137 213
f 256 213 257
f 258 209 236
f 110 259 84
f 84 259 67
f 258 207 209
f 260 67 259
f 261 262 263
f 258 236 264
f 263 262 265
f 265 262 266
f 266 262 267
f 267 262 253
f 268 136 269
f 269 136 270
f 271 141 143
f 272 102 273
f 274 218 215
f 273 102 275
f 275 102 104
f 134 43 56
f 134 56 276
f 134 276 277
f 134 277 160
f 2 1 135
f 135 1 136
f 247 226 28
f 278 279 280
f 281 245 282
f 283 240 61
f 284 245 281
f 285 286 287
f 285 287 288
f 289 245 284
f 290 245 289
f 291 258 264
f 292 242 245
f 292 245 290
f 293 274 294
f 295 296 297
f 295 297 298
f 299 294 274
f 300 1 227
f 301 274 293
f 302 303 279
f 302 279 278
f 304 299 274
f 304 274 258
f 305 274 301
f 306 242 292
f 307 274 305
f 308 298 309
f 308 295 298
f 310 303 302
f 311 304 258
f 311 258 291
f 312 313 314
f 315 303 310
f 312 316 317
f 312 317 318
f 312 318 319
f 312 319 313
f 320 311 291
f 321 283 61
f 322 274 307
f 257 303 315
f 257 213 323
f 257 323 303
f 324 320 291
f 243 242 306
f 325 326 327
f 325 327 328
f 325 328 329
f 330 324 291
f 331 330 291
f 332 309 333
f 332 308 309
f 253 288 267
f 253 285 288
f 334 332 333
f 335 61 286
f 335 286 285
f 336 337 321
f 336 321 61
f 336 61 335
f 338 326 325
f 338 124 339
f 338 339 326
f 340 274 322
f 340 218 274
f 1 28 94
f 341 332 334
f 342 343 344
f 345 346 347
f 248 247 348
f 349 345 347
f 349 347 350
f 351 184 125
f 351 182 184
f 352 342 344
f 353 354 355
f 250 349 350
f 250 350 356
f 250 356 357
f 358 140 119
f 358 119 224
f 359 360 361
f 359 361 331
f 362 250 357
f 359 331 291
f 363 344 312
f 364 125 124
f 363 352 344
f 365 353 355
f 364 351 125
f 366 341 367
f 368 365 355
f 369 250 362
f 369 351 364
f 370 369 364
f 371 312 314
f 371 363 312
f 372 341 366
f 373 374 375
f 376 241 243
f 376 243 246
f 377 378 368
f 377 368 355
f 379 374 373
f 379 380 374
f 381 316 312
f 381 201 200
f 381 200 382
f 381 382 316
f 383 377 355
f 384 314 218
f 384 371 314
f 384 340 385
f 386 387 380
f 386 380 379
f 384 218 340
f 388 376 246
f 252 1 300
f 252 387 386
f 252 300 389
f 252 389 390
f 252 390 387
f 391 392 360
f 391 360 359
f 393 383 355
f 394 395 396
f 397 398 399
f 400 401 402
f 403 384 385
f 404 398 397
f 405 395 394
f 404 406 407
f 404 407 398
f 408 401 400
f 409 395 405
f 408 410 411
f 408 411 401
f 409 412 395
f 413 355 414
f 413 393 355
f 415 406 404
f 416 410 408
f 417 412 409
f 418 403 385
f 418 385 419
f 272 372 410
f 420 421 392
f 272 410 416
f 420 392 391
f 249 370 406
f 249 369 370
f 249 406 415
f 249 250 369
f 151 412 417
f 151 248 422
f 151 422 412
f 151 246 248
f 150 246 151
f 150 388 246
f 423 413 414
f 424 418 419
f 425 426 427
f 428 429 430
f 431 432 433
f 434 428 430
f 435 364 124
f 435 124 338
f 436 431 433
f 437 438 421
f 439 425 427
f 437 421 420
f 440 425 439
f 441 431 436
f 442 434 443
f 442 428 434
f 444 440 439
f 445 441 436
f 262 446 254
f 447 423 414
f 262 254 253
f 141 442 443
f 141 443 448
f 273 372 272
f 273 449 332
f 450 141 448
f 273 341 372
f 273 332 341
f 451 446 262
f 452 444 453
f 452 440 444
f 454 445 455
f 454 441 445
f 456 447 414
f 457 252 254
f 458 451 262
f 459 414 438
f 458 262 460
f 461 452 453
f 459 438 437
f 462 454 455
f 463 464 465
f 466 456 414
f 467 458 460
f 467 460 468
f 469 467 468
f 470 466 414
f 471 469 468
f 470 414 459
f 472 452 461
f 122 141 450
f 473 454 462
f 474 466 470
f 475 476 466
f 475 466 474
f 270 1 252
f 270 252 457
f 477 462 478
f 479 435 338
f 479 338 271
f 480 464 463
f 480 481 464
f 482 473 462
f 482 462 477
f 483 435 479
f 483 461 435
f 483 472 461
f 484 481 480
f 484 485 481
f 48 477 478
f 48 366 367
f 48 478 366
f 48 247 28
f 48 121 120
f 48 348 247
f 48 367 121
f 48 120 348
f 486 381 487
f 488 381 486
f 489 486 487
f 58 490 491
f 58 491 424
f 58 419 492
f 58 492 53
f 58 424 419
f 493 381 488
f 494 485 484
f 495 496 497
f 495 497 498
f 499 500 201
f 499 201 381
f 499 381 493
f 501 502 503
f 501 503 504
f 505 506 490
f 505 490 58
f 507 508 496
f 507 496 495
f 509 485 494
f 510 511 502
f 510 502 501
f 512 508 507
f 513 511 510
f 514 489 487
f 515 516 511
f 514 487 517
f 515 511 513
f 518 519 508
f 518 508 512
f 520 506 505
f 521 516 515
f 522 500 499
f 522 94 500
f 521 482 516
f 523 483 519
f 523 519 518
f 524 514 517
f 525 526 527
f 528 529 530
f 531 532 533
f 534 524 517
f 535 479 271
f 534 517 536
f 534 536 537
f 534 537 538
f 534 538 539
f 34 477 48
f 540 526 525
f 541 529 528
f 540 509 526
f 542 532 531
f 543 544 545
f 546 534 539
f 546 509 540
f 546 539 485
f 546 485 509
f 21 94 522
f 21 1 94
f 547 529 541
f 548 549 60
f 550 532 542
f 551 271 143
f 552 544 543
f 551 535 271
f 553 251 529
f 553 529 547
f 554 43 532
f 554 532 550
f 103 535 551
f 103 251 553
f 33 43 554
f 555 544 552
f 136 1 270
f 555 556 544
f 104 557 275
f 104 103 551
f 558 556 555
f 261 263 520
f 261 520 505
f 261 556 558
f 261 505 559
f 261 559 556
f 62 548 60
f 560 483 523
f 560 472 483
f 560 561 472
f 562 563 473
f 562 482 521
f 562 473 482
f 17 564 565
f 17 565 18
f 116 566 567
f 116 76 566
f 117 567 568
f 117 116 567
f 115 568 569
f 115 117 568
f 570 115 569
f 128 115 570
f 571 128 570
f 145 128 571
f 572 145 571
f 148 145 572
f 152 572 573
f 152 148 572
f 161 573 574
f 161 152 573
f 575 162 576
f 153 162 575
f 577 153 575
f 129 153 577
f 578 129 577
f 73 129 578
f 579 73 578
f 65 73 579
f 580 65 579
f 66 65 580
f 581 66 580
f 64 66 581
f 582 64 581
f 72 64 582
f 76 582 566
f 76 72 582
f 583 188 584
f 189 188 583
f 585 189 583
f 190 189 585
f 586 190 585
f 191 190 586
f 587 191 586
f 192 191 587
f 588 192 587
f 217 192 588
f 589 217 588
f 197 217 589
f 198 589 590
f 198 197 589
f 162 590 576
f 162 198 590
f 214 591 592
f 214 196 591
f 219 592 593
f 219 214 592
f 220 593 594
f 220 219 593
f 221 594 595
f 221 220 594
f 199 595 596
f 199 221 595
f 584 199 596
f 188 199 584
f 196 597 591
f 196 210 597
f 210 598 597
f 210 237 598
f 232 599 600
f 232 239 599
f 233 600 601
f 233 232 600
f 231 601 602
f 231 233 601
f 237 602 598
f 237 231 602
f 238 603 604
f 238 205 603
f 239 604 599
f 239 238 604
f 160 605 606
f 160 277 605
f 159 606 607
f 159 160 606
f 170 607 608
f 170 159 607
f 609 170 608
f 174 170 609
f 610 174 609
f 178 174 610
f 185 610 611
f 185 178 610
f 603 185 611
f 205 185 603
f 46 612 613
f 46 70 612
f 37 613 614
f 37 46 613
f 35 614 615
f 35 37 614
f 32 615 616
f 32 35 615
f 36 616 617
f 36 32 616
f 42 617 618
f 42 36 617
f 56 618 619
f 56 42 618
f 276 619 620
f 276 56 619
f 277 620 605
f 277 276 620
f 146 621 622
f 146 166 621
f 142 622 623
f 142 146 622
f 112 623 624
f 112 142 623
f 90 624 625
f 90 112 624
f 81 625 626
f 81 90 625
f 70 626 612
f 70 81 626
f 166 574 621
f 166 161 574
f 275 627 628
f 275 628 273
f 275 557 629
f 627 275 629
f 104 630 629
f 104 629 557
f 104 551 631
f 630 104 631
f 551 632 631
f 551 143 632
f 143 140 633
f 632 143 633
f 634 633 140
f 358 634 140
f 358 224 635
f 634 358 635
f 211 636 637
f 211 225 636
f 203 637 638
f 203 211 637
f 204 638 639
f 204 203 638
f 202 639 640
f 202 204 639
f 206 640 641
f 206 202 640
f 222 641 642
f 222 206 641
f 223 642 643
f 223 222 642
f 224 643 635
f 224 223 643
f 225 119 644
f 636 225 644
f 119 121 645
f 644 119 645
f 646 645 121
f 367 646 121
f 341 647 646
f 341 646 367
f 647 341 334
f 647 334 648
f 332 649 650
f 308 650 651
f 308 332 650
f 295 308 651
f 296 651 652
f 296 295 651
f 297 652 653
f 297 296 652
f 298 653 654
f 298 297 653
f 309 654 655
f 309 298 654
f 333 655 656
f 333 656 648
f 333 309 655
f 334 333 648
f 657 649 332
f 449 657 332
f 273 628 657
f 273 657 449
f 658 236 226
f 658 226 659
f 247 660 659
f 247 659 226
f 247 661 660
f 247 246 661
f 246 243 662
f 661 246 662
f 282 663 664
f 282 664 665
f 282 245 663
f 281 665 666
f 281 282 665
f 284 666 667
f 284 281 666
f 289 667 668
f 289 284 667
f 290 289 668
f 669 290 668
f 292 290 669
f 670 292 669
f 306 292 670
f 662 306 670
f 243 306 662
f 245 244 671
f 663 245 671
f 242 672 673
f 242 241 672
f 671 242 673
f 244 242 671
f 108 674 675
f 108 107 674
f 676 108 675
f 150 108 676
f 677 150 676
f 388 150 677
f 678 388 677
f 376 388 678
f 672 376 678
f 241 376 672
f 679 111 680
f 183 111 679
f 681 183 679
f 184 183 681
f 682 184 681
f 125 184 682
f 126 682 683
f 126 125 682
f 684 126 683
f 127 126 684
f 685 127 684
f 100 127 685
f 101 685 686
f 101 100 685
f 687 101 686
f 106 101 687
f 674 106 687
f 107 106 674
f 340 688 689
f 340 322 688
f 385 689 690
f 385 340 689
f 419 690 691
f 419 385 690
f 692 419 691
f 492 419 692
f 693 492 692
f 53 492 693
f 694 53 693
f 54 53 694
f 695 54 694
f 55 54 695
f 680 55 695
f 111 55 680
f 311 696 697
f 304 697 698
f 304 311 697
f 299 698 699
f 299 304 698
f 294 699 700
f 294 299 699
f 293 294 700
f 301 700 701
f 301 293 700
f 305 701 702
f 305 301 701
f 307 702 703
f 307 305 702
f 322 703 688
f 322 307 703
f 392 704 705
f 392 705 706
f 392 421 704
f 360 706 707
f 360 392 706
f 361 360 707
f 331 707 708
f 331 708 709
f 331 361 707
f 330 709 710
f 330 331 709
f 324 710 711
f 324 330 710
f 320 324 711
f 311 711 696
f 311 320 711
f 353 712 713
f 353 365 712
f 354 713 714
f 354 353 713
f 355 714 715
f 355 354 714
f 414 715 716
f 414 355 715
f 438 716 717
f 438 717 704
f 438 414 716
f 421 438 704
f 718 447 719
f 423 447 718
f 413 718 720
f 413 423 718
f 393 720 721
f 393 721 722
f 393 413 720
f 383 393 722
f 723 383 722
f 377 723 724
f 377 383 723
f 378 724 725
f 378 377 724
f 368 725 712
f 368 378 725
f 365 368 712
f 726 437 727
f 459 437 726
f 470 726 728
f 470 459 726
f 474 728 729
f 474 470 728
f 475 729 730
f 475 474 729
f 731 475 730
f 476 475 731
f 466 731 732
f 466 476 731
f 456 732 733
f 456 466 732
f 719 456 733
f 447 456 719
f 734 291 735
f 359 291 734
f 736 359 734
f 391 359 736
f 737 391 736
f 420 391 737
f 437 737 727
f 437 420 737
f 264 658 738
f 264 236 658
f 291 738 735
f 291 264 738
f 123 739 740
f 123 133 739
f 741 123 740
f 88 123 741
f 742 88 741
f 82 88 742
f 743 82 742
f 77 82 743
f 744 77 743
f 86 77 744
f 745 86 744
f 130 86 745
f 746 130 745
f 138 130 746
f 747 138 746
f 144 138 747
f 163 747 748
f 163 144 747
f 749 208 750
f 209 208 749
f 751 209 749
f 228 209 751
f 752 228 751
f 229 228 752
f 753 229 752
f 230 229 753
f 754 230 753
f 234 230 754
f 755 234 754
f 235 234 755
f 756 235 755
f 139 235 756
f 739 139 756
f 133 139 739
f 757 316 758
f 317 316 757
f 759 317 757
f 318 317 759
f 319 759 760
f 319 318 759
f 313 760 761
f 313 319 760
f 762 313 761
f 314 313 762
f 218 762 763
f 218 314 762
f 216 763 764
f 216 218 763
f 208 764 750
f 208 216 764
f 176 748 765
f 176 163 748
f 179 765 766
f 179 176 765
f 186 766 767
f 186 179 766
f 768 186 767
f 193 186 768
f 769 193 768
f 200 193 769
f 382 769 770
f 382 200 769
f 758 382 770
f 316 382 758
f 771 519 483
f 772 519 771
f 771 483 479
f 771 479 773
f 535 774 773
f 535 773 479
f 775 774 535
f 103 775 535
f 775 103 553
f 775 553 776
f 777 251 778
f 529 251 777
f 530 777 779
f 530 779 780
f 530 529 777
f 528 780 781
f 528 530 780
f 541 528 781
f 547 781 782
f 547 541 781
f 553 782 776
f 553 547 782
f 251 783 778
f 251 135 783
f 783 97 784
f 135 97 783
f 97 785 784
f 97 249 785
f 406 786 787
f 407 787 788
f 407 406 787
f 398 407 788
f 399 788 789
f 399 398 788
f 397 789 790
f 397 790 791
f 397 399 789
f 404 791 792
f 404 397 791
f 415 792 785
f 415 404 792
f 249 415 785
f 786 406 370
f 786 370 793
f 793 370 364
f 793 364 794
f 795 794 364
f 435 795 364
f 796 795 435
f 461 796 435
f 797 461 453
f 796 461 797
f 798 472 799
f 452 472 798
f 440 798 800
f 440 800 801
f 440 452 798
f 425 801 802
f 425 440 801
f 426 802 803
f 426 425 802
f 427 803 804
f 427 426 803
f 439 427 804
f 444 804 805
f 444 439 804
f 453 805 797
f 453 444 805
f 799 561 806
f 472 561 799
f 807 806 561
f 560 807 561
f 807 523 808
f 560 523 807
f 519 772 809
f 508 519 809
f 496 809 810
f 496 508 809
f 497 810 811
f 497 496 810
f 498 811 812
f 498 812 813
f 498 497 811
f 495 813 814
f 495 498 813
f 507 814 815
f 507 495 814
f 512 507 815
f 518 815 816
f 518 816 808
f 518 512 815
f 523 518 808
f 517 817 818
f 517 487 817
f 536 818 819
f 536 517 818
f 537 819 820
f 537 536 819
f 538 820 821
f 538 537 820
f 539 821 822
f 539 538 821
f 485 822 823
f 485 539 822
f 487 824 817
f 487 381 824
f 381 825 824
f 381 312 825
f 342 826 827
f 343 342 827
f 828 343 827
f 344 343 828
f 825 344 828
f 312 344 825
f 829 384 830
f 371 384 829
f 831 371 829
f 363 371 831
f 352 831 832
f 352 363 831
f 342 832 826
f 342 352 832
f 520 833 834
f 520 263 833
f 506 834 835
f 506 520 834
f 836 506 835
f 490 506 836
f 837 490 836
f 491 490 837
f 838 491 837
f 424 491 838
f 839 424 838
f 418 424 839
f 403 839 840
f 403 418 839
f 384 840 830
f 384 403 840
f 841 286 842
f 287 286 841
f 843 287 841
f 288 287 843
f 844 288 843
f 267 288 844
f 845 267 844
f 266 267 845
f 265 845 846
f 265 266 845
f 263 846 833
f 263 265 846
f 548 847 848
f 548 62 847
f 549 848 849
f 549 548 848
f 60 849 850
f 60 549 849
f 61 850 851
f 61 60 850
f 842 61 851
f 286 61 842
f 212 852 853
f 212 240 852
f 175 853 854
f 175 212 853
f 156 854 855
f 156 175 854
f 157 855 856
f 157 156 855
f 158 856 857
f 158 157 856
f 858 158 857
f 80 158 858
f 859 80 858
f 59 80 859
f 847 59 859
f 62 59 847
f 335 860 861
f 335 285 860
f 336 861 862
f 336 335 861
f 337 862 863
f 337 336 862
f 321 863 864
f 321 337 863
f 283 864 865
f 283 321 864
f 240 865 852
f 240 283 865
f 860 253 866
f 285 253 860
f 253 867 866
f 253 252 867
f 380 868 869
f 374 869 870
f 374 380 869
f 375 870 871
f 375 374 870
f 373 375 871
f 379 871 872
f 379 373 871
f 386 872 873
f 386 379 872
f 252 873 867
f 252 386 873
f 389 874 875
f 389 300 874
f 876 389 875
f 390 389 876
f 877 390 876
f 387 390 877
f 868 387 877
f 380 387 868
f 21 878 879
f 21 522 878
f 880 21 879
f 20 21 880
f 85 880 881
f 85 20 880
f 132 881 882
f 132 85 881
f 883 132 882
f 167 132 883
f 195 883 884
f 195 167 883
f 227 884 885
f 227 195 884
f 874 227 885
f 300 227 874
f 489 886 887
f 489 514 886
f 888 489 887
f 486 489 888
f 889 486 888
f 488 486 889
f 890 488 889
f 493 488 890
f 891 493 890
f 499 493 891
f 878 499 891
f 522 499 878
f 892 526 893
f 527 526 892
f 894 527 892
f 525 527 894
f 895 525 894
f 540 525 895
f 896 540 895
f 546 540 896
f 534 896 897
f 534 546 896
f 898 534 897
f 524 534 898
f 886 524 898
f 514 524 886
f 899 485 823
f 481 485 899
f 900 481 899
f 464 481 900
f 901 464 900
f 465 464 901
f 902 465 901
f 463 465 902
f 903 463 902
f 480 463 903
f 904 480 903
f 484 480 904
f 905 484 904
f 494 484 905
f 906 494 905
f 509 494 906
f 526 906 893
f 526 509 906
f 30 907 908
f 30 908 26
f 909 907 30
f 98 909 30
f 909 98 136
f 909 136 910
f 136 911 910
f 136 268 911
f 912 268 269
f 911 268 912
f 269 913 912
f 269 270 913
f 270 457 914
f 913 270 914
f 914 457 254
f 914 254 915
f 916 915 254
f 446 916 254
f 460 917 918
f 460 262 917
f 468 918 919
f 468 919 920
f 468 460 918
f 471 468 920
f 469 920 921
f 469 471 920
f 467 921 922
f 467 469 921
f 458 922 923
f 458 923 924
f 458 467 922
f 451 924 916
f 451 458 924
f 446 451 916
f 262 261 925
f 917 262 925
f 556 926 927
f 556 559 926
f 544 927 928
f 544 556 927
f 545 928 929
f 545 929 930
f 545 544 928
f 543 930 931
f 543 545 930
f 552 543 931
f 555 931 932
f 555 932 933
f 555 552 931
f 558 933 925
f 558 555 933
f 261 558 925
f 926 559 505
f 926 505 934
f 934 505 58
f 934 58 935
f 52 936 935
f 52 935 58
f 937 936 52
f 84 937 52
f 938 84 74
f 937 84 938
f 31 939 940
f 31 67 939
f 23 940 941
f 23 941 942
f 23 31 940
f 24 942 943
f 24 23 942
f 25 943 944
f 25 24 943
f 68 25 944
f 69 944 945
f 69 68 944
f 71 945 946
f 71 69 945
f 74 946 938
f 74 71 946
f 260 947 939
f 260 939 67
f 259 948 947
f 259 947 260
f 948 110 949
f 259 110 948
f 137 950 949
f 137 949 110
f 137 951 950
f 137 255 951
f 255 952 951
f 256 952 255
f 952 256 257
f 952 257 953
f 303 954 955
f 303 955 956
f 303 323 954
f 279 956 957
f 279 303 956
f 280 957 958
f 280 279 957
f 278 958 959
f 278 280 958
f 302 278 959
f 310 959 960
f 310 302 959
f 315 960 961
f 315 310 960
f 257 961 953
f 257 315 961
f 954 323 213
f 954 213 962
f 962 213 182
f 962 182 963
f 351 964 963
f 351 963 182
f 965 964 351
f 369 965 351
f 369 362 966
f 965 369 966
f 250 967 968
f 349 968 969
f 349 250 968
f 345 969 970
f 345 349 969
f 346 970 971
f 346 345 970
f 347 971 972
f 347 346 971
f 350 347 972
f 356 972 973
f 356 350 972
f 357 973 974
f 357 974 966
f 357 356 973
f 362 357 966
f 975 967 250
f 19 975 250
f 26 908 976
f 22 976 977
f 22 26 976
f 16 22 977
f 17 977 978
f 17 978 979
f 17 16 977
f 564 979 980
f 564 17 979
f 565 980 981
f 565 564 980
f 18 981 975
f 18 565 981
f 19 18 975
f 50 27 982
f 983 50 982
f 982 27 29
f 982 29 984
f 985 984 29
f 57 985 29
f 131 986 987
f 131 147 986
f 87 987 988
f 87 131 987
f 78 988 989
f 78 87 988
f 79 989 990
f 79 78 989
f 83 990 991
f 83 79 990
f 89 991 992
f 89 83 991
f 63 992 993
f 63 89 992
f 57 993 985
f 57 63 993
f 201 994 995
f 201 500 994
f 194 995 996
f 194 201 995
f 997 194 996
f 187 194 997
f 180 997 998
f 180 187 997
f 181 998 999
f 181 180 998
f 1000 181 999
f 177 181 1000
f 1001 177 1000
f 164 177 1001
f 147 1001 986
f 147 164 1001
f 500 94 1002
f 994 500 1002
f 94 75 1003
f 1002 94 1003
f 92 1004 1003
f 92 1003 75
f 95 1005 1006
f 95 91 1005
f 109 1006 1007
f 109 95 1006
f 114 1007 1008
f 114 109 1007
f 118 1008 1009
f 118 114 1008
f 113 1009 1010
f 113 118 1009
f 105 1010 1011
f 105 1011 1012
f 105 113 1010
f 96 105 1012
f 93 1012 1013
f 93 96 1012
f 92 1013 1004
f 92 93 1013
f 91 51 1014
f 1005 91 1014
f 50 983 1015
f 45 1015 1016
f 45 50 1015
f 39 1016 1017
f 39 45 1016
f 40 39 1017
f 41 1017 1018
f 41 40 1017
f 38 1018 1019
f 38 1019 1020
f 38 41 1018
f 44 1020 1021
f 44 38 1020
f 47 1021 1022
f 47 44 1021
f 49 1022 1014
f 49 47 1022
f 51 49 1014
f 1023 274 215
f 1023 215 1024
f 215 207 1025
f 1024 215 1025
f 258 1026 1025
f 258 1025 207
f 274 1023 1026
f 274 1026 258
f 1027 339 124
f 1027 124 1028
f 1028 124 99
f 1028 99 1029
f 154 1030 1029
f 154 1029 99
f 169 1031 1032
f 169 1032 1033
f 169 149 1031
f 172 169 1033
f 171 1033 1034
f 171 172 1033
f 173 1034 1035
f 173 171 1034
f 168 1035 1036
f 168 173 1035
f 165 1036 1037
f 165 168 1036
f 155 1037 1038
f 155 165 1037
f 154 1038 1030
f 154 155 1038
f 1031 149 151
f 1031 151 1039
f 412 1040 1041
f 412 422 1040
f 395 1041 1042
f 395 1042 1043
f 395 412 1041
f 396 1043 1044
f 396 395 1043
f 394 1044 1045
f 394 396 1044
f 405 394 1045
f 409 1045 1046
f 409 405 1045
f 417 1046 1047
f 417 409 1046
f 151 1047 1039
f 151 417 1047
f 422 248 1048
f 1040 422 1048
f 1048 248 348
f 1048 348 1049
f 1050 1049 348
f 120 1050 348
f 122 1051 1050
f 122 1050 120
f 1051 122 450
f 1051 450 1052
f 1053 141 1054
f 442 1053 1055
f 442 141 1053
f 428 442 1055
f 429 1055 1056
f 429 1056 1057
f 429 428 1055
f 430 429 1057
f 434 1057 1058
f 434 430 1057
f 443 1058 1059
f 443 434 1058
f 448 1059 1060
f 448 443 1059
f 450 1060 1052
f 450 448 1060
f 1061 1054 141
f 271 1061 141
f 1061 271 338
f 1061 338 1062
f 1063 339 1027
f 326 339 1063
f 1064 326 1063
f 327 326 1064
f 1065 327 1064
f 328 327 1065
f 329 1065 1066
f 329 328 1065
f 325 1066 1067
f 325 329 1066
f 338 1067 1062
f 338 325 1067
f 1068 516 482
f 1068 482 1069
f 1069 482 477
f 1069 477 1070
f 1071 1070 477
f 34 1071 477
f 33 1072 1071
f 33 1071 34
f 1072 33 554
f 1072 554 1073
f 532 1074 1075
f 532 43 1074
f 533 1075 1076
f 533 1076 1077
f 533 532 1075
f 531 533 1077
f 542 1077 1078
f 542 531 1077
f 550 1078 1079
f 550 542 1078
f 554 1079 1073
f 554 550 1079
f 43 1080 1074
f 43 134 1080
f 1080 102 1081
f 134 102 1080
f 1081 272 1082
f 102 272 1081
f 410 1083 1084
f 411 1084 1085
f 411 410 1084
f 401 1085 1086
f 401 411 1085
f 402 1086 1087
f 402 401 1086
f 400 1087 1088
f 400 402 1087
f 408 1088 1089
f 408 400 1088
f 416 408 1089
f 272 1089 1082
f 272 416 1089
f 1083 410 372
f 1083 372 1090
f 1090 372 366
f 1090 366 1091
f 1092 1091 366
f 478 1092 366
f 462 1093 1092
f 462 1092 478
f 1094 462 455
f 1093 462 1094
f 1095 473 1096
f 454 1095 1097
f 454 473 1095
f 441 1097 1098
f 441 454 1097
f 431 1098 1099
f 431 441 1098
f 432 1099 1100
f 432 431 1099
f 433 1100 1101
f 433 432 1100
f 436 1101 1102
f 436 433 1101
f 445 1102 1094
f 445 436 1102
f 455 445 1094
f 1096 563 1103
f 473 563 1096
f 1104 1103 563
f 562 1104 563
f 1104 521 1105
f 562 521 1104
f 516 1068 1106
f 511 1106 1107
f 511 516 1106
f 502 1107 1108
f 502 511 1107
f 503 502 1108
f 504 1108 1109
f 504 503 1108
f 501 1109 1110
f 501 504 1109
f 510 1110 1111
f 510 1111 1112
f 510 501 1110
f 513 510 1112
f 515 1112 1113
f 515 513 1112
f 521 1113 1105
f 521 515 1113
f 1114 1115 1116
f 1115 1117 1116
f 1114 1116 28
f 1116 1118 1119
f 1118 1120 1119
f 1119 1121 1122
f 1119 1122 1123
f 1116 1119 1124
f 28 1116 1124
f 1119 1123 1124
f 28 1124 48
f 1124 1123 1125
f 1125 1123 1126
f 7 1114 28
f 1 7 28
f 1124 3 48
f 3 2 48
f 621 573 622
f 621 574 573
f 589 607 590
f 608 607 589
f 588 608 589
f 579 615 614
f 587 608 588
f 609 608 587
f 580 579 614
f 586 609 587
f 578 616 615
f 578 617 616
f 610 586 585
f 578 615 579
f 610 609 586
f 581 614 613
f 581 580 614
f 583 610 585
f 611 610 583
f 582 613 612
f 582 581 613
f 577 618 617
f 577 617 578
f 584 611 583
f 566 582 612
f 626 566 612
f 575 619 618
f 603 584 596
f 575 620 619
f 603 611 584
f 575 618 577
f 567 566 626
f 625 567 626
f 592 591 597
f 568 567 625
f 624 568 625
f 569 568 624
f 604 595 594
f 604 596 595
f 604 603 596
f 599 594 593
f 576 605 620
f 599 604 594
f 576 620 575
f 600 593 592
f 600 599 593
f 623 569 624
f 601 600 592
f 623 570 569
f 606 605 576
f 602 592 597
f 602 601 592
f 571 570 623
f 622 571 623
f 598 602 597
f 572 571 622
f 590 606 576
f 573 572 622
f 607 606 590
f 632 1127 1128
f 646 647 648
f 1129 630 631
f 1128 1129 631
f 632 1128 631
f 1129 629 630
f 1127 633 634
f 646 648 656
f 646 656 655
f 653 652 639
f 652 651 640
f 639 652 640
f 654 653 638
f 655 654 638
f 653 639 638
f 651 650 641
f 640 651 641
f 646 655 637
f 655 638 637
f 641 650 642
f 650 649 643
f 642 650 643
f 643 649 635
f 637 636 645
f 646 637 645
f 645 636 644
f 635 649 657
f 657 628 629
f 628 627 629
f 635 657 634
f 657 629 634
f 634 629 1130
f 634 1130 1127
f 633 1127 632
f 1130 629 1129
f 683 682 729
f 732 679 680
f 728 683 729
f 702 715 703
f 666 660 667
f 660 666 665
f 703 715 688
f 729 682 681
f 667 660 668
f 730 729 681
f 715 714 688
f 660 665 664
f 668 660 669
f 669 660 661
f 719 680 695
f 718 719 695
f 660 664 663
f 669 661 670
f 670 661 662
f 660 663 659
f 707 706 709
f 708 707 709
f 659 663 671
f 718 695 694
f 720 718 694
f 710 709 705
f 688 714 689
f 713 712 689
f 709 706 705
f 714 713 689
f 730 681 731
f 720 694 693
f 659 671 658
f 721 720 693
f 689 712 690
f 710 705 711
f 725 724 690
f 712 725 690
f 711 705 696
f 658 671 738
f 721 693 692
f 722 721 692
f 690 724 691
f 722 692 691
f 696 705 704
f 738 673 735
f 723 722 691
f 724 723 691
f 735 673 672
f 738 671 673
f 735 672 734
f 697 696 716
f 672 678 734
f 704 717 716
f 677 676 736
f 696 704 716
f 678 677 736
f 734 678 736
f 697 716 698
f 676 675 737
f 731 681 679
f 736 676 737
f 732 731 679
f 675 674 727
f 687 686 727
f 674 687 727
f 737 675 727
f 698 716 715
f 685 684 726
f 699 698 701
f 686 685 726
f 700 699 701
f 727 686 726
f 698 715 701
f 684 683 728
f 726 684 728
f 701 715 702
f 733 732 680
f 719 733 680
f 764 763 1131
f 764 1131 1132
f 1133 744 743
f 1133 1134 744
f 1135 1133 743
f 1136 769 768
f 742 1135 743
f 750 764 1132
f 1137 768 767
f 1137 1136 768
f 1138 770 769
f 1139 1135 742
f 1138 769 1136
f 741 1139 742
f 1140 770 1138
f 1141 1139 741
f 1142 767 766
f 1142 1137 767
f 1143 758 770
f 1143 770 1140
f 740 1144 1141
f 740 1141 741
f 1145 758 1143
f 1146 757 758
f 1146 758 1145
f 1147 766 765
f 1147 1142 766
f 739 1148 1144
f 739 1144 740
f 1149 759 757
f 1149 757 1146
f 749 750 1132
f 749 1132 1150
f 1151 759 1149
f 760 759 1151
f 1152 760 1151
f 756 1153 1148
f 756 1148 739
f 755 1154 1153
f 761 1152 1155
f 761 760 1152
f 755 1153 756
f 751 1150 1156
f 751 749 1150
f 754 1154 755
f 1157 748 747
f 754 1158 1154
f 1157 765 748
f 1157 1147 765
f 762 761 1155
f 752 1156 1159
f 752 751 1156
f 753 1159 1158
f 753 1158 754
f 753 752 1159
f 1160 1157 747
f 1160 747 746
f 745 1160 746
f 1131 762 1155
f 763 762 1131
f 1134 745 744
f 1134 1160 745
f 803 802 789
f 774 775 776
f 789 802 790
f 802 801 790
f 774 776 782
f 795 803 794
f 774 782 781
f 803 789 788
f 794 803 788
f 774 781 780
f 790 801 791
f 801 800 791
f 794 788 787
f 791 800 792
f 780 779 811
f 800 798 792
f 798 799 785
f 792 798 785
f 779 777 812
f 811 779 812
f 794 787 786
f 774 780 810
f 780 811 810
f 794 786 793
f 812 777 813
f 785 799 806
f 777 778 814
f 806 807 1161
f 807 1162 1161
f 813 777 814
f 810 809 773
f 774 810 773
f 814 778 815
f 1163 1162 783
f 773 809 772
f 1163 783 784
f 815 778 816
f 1161 1164 784
f 1164 1163 784
f 1162 778 783
f 1161 784 785
f 773 772 771
f 806 1161 785
f 816 778 808
f 795 796 797
f 795 797 805
f 795 805 804
f 795 804 803
f 808 778 807
f 807 778 1162
f 896 844 843
f 889 849 890
f 849 848 890
f 865 864 875
f 864 876 875
f 827 826 819
f 828 827 819
f 826 820 819
f 890 848 891
f 896 843 897
f 838 837 901
f 897 843 841
f 825 828 818
f 865 875 874
f 828 819 818
f 901 837 902
f 852 865 874
f 837 836 902
f 897 841 898
f 838 901 900
f 839 838 900
f 848 847 878
f 891 848 878
f 902 836 903
f 836 835 903
f 898 841 842
f 853 852 885
f 886 898 842
f 852 874 885
f 903 835 904
f 840 839 899
f 818 817 824
f 839 900 899
f 825 818 824
f 878 847 879
f 860 866 861
f 904 835 905
f 847 859 879
f 835 834 905
f 886 842 851
f 854 853 884
f 853 885 884
f 886 851 887
f 834 833 906
f 905 834 906
f 859 858 880
f 861 866 871
f 879 859 880
f 840 899 823
f 855 854 883
f 830 840 823
f 856 855 883
f 871 866 872
f 854 884 883
f 906 833 893
f 858 857 881
f 880 858 881
f 872 866 873
f 857 856 882
f 881 857 882
f 856 883 882
f 861 871 870
f 829 830 822
f 830 823 822
f 873 866 867
f 861 870 869
f 893 833 892
f 862 861 869
f 833 846 892
f 862 869 868
f 846 845 894
f 892 846 894
f 862 868 877
f 829 822 821
f 831 829 821
f 862 877 863
f 845 844 895
f 894 845 895
f 887 851 850
f 888 887 850
f 863 877 876
f 863 876 864
f 832 831 820
f 826 832 820
f 888 850 889
f 831 821 820
f 889 850 849
f 895 844 896
f 964 965 966
f 964 966 974
f 948 913 917
f 964 974 973
f 947 948 917
f 917 913 918
f 964 973 972
f 918 913 919
f 919 913 920
f 920 913 921
f 943 942 929
f 921 913 922
f 942 941 930
f 929 942 930
f 922 913 923
f 936 944 928
f 944 943 928
f 943 929 928
f 941 940 931
f 930 941 931
f 931 940 932
f 971 970 957
f 970 969 958
f 957 970 958
f 940 939 933
f 915 916 914
f 932 940 933
f 972 971 956
f 923 913 914
f 924 923 914
f 916 924 914
f 964 972 956
f 928 927 935
f 971 957 956
f 951 910 911
f 936 928 935
f 950 951 911
f 948 912 913
f 958 969 959
f 947 917 925
f 925 939 947
f 969 968 959
f 912 948 949
f 933 939 925
f 967 952 953
f 935 927 926
f 959 968 960
f 935 926 934
f 960 968 961
f 968 967 961
f 964 956 963
f 956 955 963
f 961 967 953
f 963 955 954
f 963 954 962
f 908 907 909
f 908 909 976
f 976 909 977
f 936 937 938
f 936 938 946
f 975 981 952
f 967 975 952
f 936 946 945
f 950 911 912
f 949 950 912
f 978 977 910
f 979 978 910
f 936 945 944
f 980 979 910
f 981 980 910
f 951 952 910
f 952 981 910
f 977 909 910
f 1165 1166 994
f 1166 1167 994
f 1167 995 994
f 1168 986 1169
f 1165 994 1170
f 1169 986 1001
f 1171 1172 1018
f 991 990 1173
f 985 1174 1017
f 1171 1018 1017
f 990 989 1175
f 1174 1171 1017
f 1173 990 1175
f 1170 994 1176
f 992 991 1177
f 1018 1172 1019
f 991 1173 1177
f 1172 1178 1019
f 985 1017 1016
f 1179 1180 1005
f 989 988 1181
f 1178 1182 1020
f 1019 1178 1020
f 1175 989 1181
f 993 992 1183
f 1180 1184 1006
f 992 1177 1183
f 1005 1180 1006
f 988 987 1185
f 1020 1182 1021
f 1181 988 1185
f 1184 1186 1007
f 993 1183 1187
f 1006 1184 1007
f 1182 1188 1022
f 1007 1186 1008
f 1021 1182 1022
f 1016 1015 984
f 1186 1189 1008
f 993 1187 985
f 985 1016 984
f 1022 1188 1014
f 985 1187 1190
f 985 1190 1191
f 1189 1176 1009
f 984 1015 983
f 1008 1189 1009
f 985 1191 1192
f 1176 994 1010
f 1009 1176 1010
f 984 983 982
f 1001 1000 1193
f 1169 1001 1193
f 985 1192 1194
f 1193 1000 999
f 999 998 1195
f 985 1194 1174
f 1193 999 1195
f 1195 998 1196
f 1185 987 1168
f 1196 998 997
f 1010 994 1002
f 1196 997 1197
f 1003 1004 1002
f 1011 1010 1002
f 1012 1011 1002
f 1197 997 996
f 1013 1012 1002
f 1004 1013 1002
f 1014 1188 1179
f 1005 1014 1179
f 1168 987 986
f 1197 996 1198
f 1199 1198 995
f 1198 996 995
f 1199 995 1167
f 1026 1023 1025
f 1025 1023 1024
f 1031 1061 1066
f 1033 1032 1065
f 1050 1051 1052
f 1032 1066 1065
f 1066 1061 1067
f 1050 1052 1060
f 1067 1061 1062
f 1050 1060 1059
f 1034 1033 1064
f 1035 1034 1064
f 1036 1035 1064
f 1033 1065 1064
f 1037 1036 1063
f 1038 1037 1063
f 1030 1038 1063
f 1036 1064 1063
f 1030 1063 1027
f 1030 1027 1029
f 1029 1027 1028
f 1031 1054 1061
f 1057 1056 1043
f 1056 1055 1044
f 1043 1056 1044
f 1058 1057 1042
f 1059 1058 1042
f 1057 1043 1042
f 1055 1053 1045
f 1044 1055 1045
f 1045 1053 1046
f 1059 1042 1041
f 1050 1059 1041
f 1053 1054 1047
f 1046 1053 1047
f 1047 1054 1039
f 1041 1040 1049
f 1050 1041 1049
f 1049 1040 1048
f 1039 1054 1031
f 1032 1031 1066
f 1100 1099 1086
f 1086 1099 1087
f 1071 1072 1073
f 1099 1098 1087
f 1071 1073 1079
f 1092 1100 1091
f 1100 1086 1085
f 1071 1079 1078
f 1091 1100 1085
f 1071 1078 1077
f 1087 1098 1088
f 1098 1097 1088
f 1091 1085 1084
f 1088 1097 1089
f 1097 1095 1089
f 1077 1076 1108
f 1095 1096 1082
f 1089 1095 1082
f 1076 1075 1109
f 1108 1076 1109
f 1091 1084 1083
f 1071 1077 1107
f 1091 1083 1090
f 1077 1108 1107
f 1109 1075 1110
f 1082 1096 1103
f 1075 1074 1111
f 1103 1104 1200
f 1104 1201 1200
f 1110 1075 1111
f 1107 1106 1070
f 1071 1107 1070
f 1111 1074 1112
f 1202 1201 1080
f 1070 1106 1068
f 1202 1080 1081
f 1200 1203 1081
f 1112 1074 1113
f 1203 1202 1081
f 1201 1074 1080
f 1200 1081 1082
f 1103 1200 1082
f 1070 1068 1069
f 1113 1074 1105
f 1092 1093 1094
f 1092 1094 1102
f 1092 1102 1101
f 1092 1101 1100
f 1105 1074 1104
f 1104 1074 1201
f 1115 1114 5
f 5 1114 7
f 11 3 1124
f 11 1124 1125
f 1204 1129 1128
f 1204 1128 1205
f 1204 1206 1130
f 1129 1204 1130
f 1206 1207 1127
f 1130 1206 1127
f 1207 1128 1127
f 1207 1205 1128
f 1208 1145 1143
f 1209 1143 1140
f 1209 1208 1143
f 1210 1209 1140
f 1138 1210 1140
f 1211 1210 1138
f 1212 1138 1136
f 1212 1211 1138
f 1213 1136 1137
f 1213 1212 1136
f 1142 1213 1137
f 1214 1213 1142
f 1215 1142 1147
f 1215 1214 1142
f 1216 1147 1157
f 1216 1215 1147
f 1160 1216 1157
f 1217 1216 1160
f 1134 1217 1160
f 1218 1217 1134
f 1133 1218 1134
f 1219 1218 1133
f 1135 1219 1133
f 1220 1219 1135
f 1221 1135 1139
f 1221 1220 1135
f 1222 1139 1141
f 1222 1221 1139
f 1223 1141 1144
f 1223 1222 1141
f 1224 1144 1148
f 1224 1223 1144
f 1153 1224 1148
f 1225 1224 1153
f 1154 1225 1153
f 1226 1225 1154
f 1158 1226 1154
f 1227 1226 1158
f 1159 1227 1158
f 1228 1227 1159
f 1156 1228 1159
f 1229 1228 1156
f 1150 1229 1156
f 1230 1229 1150
f 1132 1230 1150
f 1231 1230 1132
f 1232 1132 1131
f 1232 1231 1132
f 1233 1131 1155
f 1233 1232 1131
f 1152 1233 1155
f 1234 1233 1152
f 1235 1152 1151
f 1235 1234 1152
f 1236 1151 1149
f 1236 1235 1151
f 1237 1149 1146
f 1237 1236 1149
f 1145 1237 1146
f 1208 1237 1145
f 1163 1238 1162
f 1239 1238 1163
f 1162 1238 1240
f 1162 1240 1161
f 1161 1241 1164
f 1240 1241 1161
f 1239 1163 1164
f 1241 1239 1164
f 1242 1190 1187
f 1242 1243 1190
f 1244 1242 1187
f 1183 1244 1187
f 1245 1183 1177
f 1245 1244 1183
f 1246 1177 1173
f 1246 1245 1177
f 1247 1173 1175
f 1247 1246 1173
f 1248 1175 1181
f 1248 1247 1175
f 1185 1248 1181
f 1249 1248 1185
f 1168 1249 1185
f 1250 1168 1169
f 1250 1249 1168
f 1251 1188 1182
f 1251 1252 1188
f 1253 1182 1178
f 1253 1251 1182
f 1254 1178 1172
f 1254 1253 1178
f 1255 1172 1171
f 1255 1254 1172
f 1256 1171 1174
f 1256 1255 1171
f 1257 1174 1194
f 1257 1256 1174
f 1258 1194 1192
f 1258 1192 1191
f 1258 1257 1194
f 1243 1191 1190
f 1243 1258 1191
f 1259 1179 1188
f 1259 1188 1252
f 1260 1166 1165
f 1260 1261 1166
f 1262 1260 1165
f 1263 1165 1170
f 1263 1262 1165
f 1264 1170 1176
f 1264 1263 1170
f 1265 1176 1189
f 1265 1264 1176
f 1266 1189 1186
f 1266 1265 1189
f 1267 1186 1184
f 1267 1266 1186
f 1268 1184 1180
f 1268 1267 1184
f 1259 1180 1179
f 1259 1268 1180
f 1269 1250 1169
f 1193 1269 1169
f 1270 1193 1195
f 1270 1269 1193
f 1271 1270 1195
f 1196 1271 1195
f 1272 1271 1196
f 1197 1272 1196
f 1273 1272 1197
f 1198 1273 1197
f 1274 1273 1198
f 1199 1274 1198
f 1275 1274 1199
f 1167 1275 1199
f 1261 1167 1166
f 1261 1275 1167
f 1202 1276 1201
f 1277 1276 1202
f 1201 1276 1278
f 1201 1278 1200
f 1200 1279 1203
f 1278 1279 1200
f 1277 1202 1203
f 1279 1277 1203
f 1117 1115 4
f 1115 5 4
f 11 1125 15
f 1125 1126 15
f 1205 1207 1206
f 1204 1205 1206
f 1224 1222 1223
f 1224 1221 1222
f 1225 1221 1224
f 1226 1221 1225
f 1227 1220 1221
f 1227 1221 1226
f 1228 1219 1220
f 1228 1220 1227
f 1229 1218 1219
f 1229 1219 1228
f 1230 1217 1218
f 1230 1218 1229
f 1231 1216 1217
f 1231 1215 1216
f 1231 1217 1230
f 1232 1214 1215
f 1232 1215 1231
f 1208 1211 1212
f 1208 1210 1211
f 1208 1209 1210
f 1233 1213 1214
f 1233 1214 1232
f 1234 1212 1213
f 1234 1208 1212
f 1234 1213 1233
f 1235 1237 1208
f 1235 1236 1237
f 1235 1208 1234
f 1239 1241 1240
f 1239 1240 1238
f 1254 1255 1256
f 1253 1254 1256
f 1251 1256 1257
f 1251 1253 1256
f 1252 1257 1258
f 1252 1251 1257
f 1243 1252 1258
f 1242 1252 1243
f 1244 1252 1242
f 1245 1252 1244
f 1246 1252 1245
f 1247 1252 1246
f 1248 1252 1247
f 1249 1252 1248
f 1250 1252 1249
f 1259 1252 1250
f 1266 1267 1268
f 1265 1268 1259
f 1265 1266 1268
f 1264 1265 1259
f 1263 1264 1259
f 1262 1263 1259
f 1269 1259 1250
f 1260 1262 1259
f 1261 1260 1259
f 1275 1261 1259
f 1270 1259 1269
f 1274 1275 1259
f 1271 1259 1270
f 1273 1274 1259
f 1272 1259 1271
f 1272 1273 1259
f 1277 1279 1278
f 1277 1278 1276
f 1116 1117 6
f 1117 4 6
f 15 1126 1123
f 12 15 1123
f 1118 1116 8
f 8 1116 6
f 13 12 1122
f 1122 12 1123
f 1120 1118 8
f 1120 8 10
f 1122 1121 14
f 1122 14 13
f 10 9 1120
f 1120 9 1119
f 14 1121 1119
f 9 14 1119
