# Created by FreeCAD <http://www.freecadweb.org>
v 14.334453 529.599976 82.639870
v 15.934452 529.599976 82.639725
v 14.334588 529.599976 84.139870
v 15.934587 529.599976 84.139725
v 15.934587 529.750000 84.139725
v 15.934452 529.750000 82.639725
v 14.484588 531.000000 84.139854
v 14.334588 531.000000 84.139870
v 14.484588 529.750000 84.139854
v 14.334453 531.000000 82.639870
v 14.484452 529.750000 82.639854
v 14.484452 531.000000 82.639854
f 1 2 3
f 2 4 3
f 5 4 2
f 5 2 6
f 7 8 9
f 4 5 9
f 9 8 3
f 4 9 3
f 8 10 1
f 3 8 1
f 6 2 11
f 11 2 1
f 12 11 10
f 11 1 10
f 6 11 9
f 6 9 5
f 12 7 9
f 11 12 9
f 12 10 7
f 10 8 7
