# Created by FreeCAD <http://www.freecadweb.org>
v -20.776802 534.611755 186.141998
v -19.252802 534.611755 186.903992
v -20.776802 534.611755 186.903992
v -19.252802 534.611755 186.141998
v -20.776802 535.297546 186.903992
v -20.776802 535.297546 186.141998
v -19.252802 535.297546 186.903992
v -19.252802 535.297546 186.141998
f 1 2 3
f 1 4 2
f 3 5 1
f 5 6 1
f 5 3 7
f 3 2 7
f 7 2 8
f 2 4 8
f 1 6 4
f 6 8 4
f 5 7 6
f 7 8 6
