# Created by FreeCAD <http://www.freecadweb.org>
v -25.729801 534.611755 188.996002
v -24.205803 534.611755 189.757996
v -25.729801 534.611755 189.757996
v -24.205803 534.611755 188.996002
v -25.729801 535.297546 189.757996
v -25.729801 535.297546 188.996002
v -24.205803 535.297546 189.757996
v -24.205803 535.297546 188.996002
f 1 2 3
f 1 4 2
f 3 5 1
f 5 6 1
f 5 3 7
f 3 2 7
f 7 2 8
f 2 4 8
f 1 6 8
f 1 8 4
f 5 7 6
f 7 8 6
