# Created by FreeCAD <http://www.freecadweb.org>
v -6.725789 529.599976 84.850189
v -6.725947 529.599976 83.100189
v -5.775947 529.599976 83.100105
v -5.775788 529.599976 84.850105
v -5.775947 530.309998 83.100105
v -5.775788 530.309998 84.850105
v -6.725947 530.309998 83.100189
v -6.725789 530.309998 84.850189
f 1 2 3
f 4 1 3
f 3 5 6
f 3 6 4
f 5 3 2
f 5 2 7
f 7 2 1
f 7 1 8
f 4 6 1
f 6 8 1
f 5 7 8
f 5 8 6
