# Created by FreeCAD <http://www.freecadweb.org>
v -45.668800 534.611755 203.033005
v -44.144802 534.611755 202.270996
v -44.144802 534.611755 203.033005
v -45.668800 534.611755 202.270996
v -45.668800 535.297546 203.033005
v -45.668800 535.297546 202.270996
v -44.144802 535.297546 203.033005
v -44.144802 535.297546 202.270996
f 1 2 3
f 4 2 1
f 1 5 4
f 5 6 4
f 5 1 7
f 1 3 7
f 7 3 8
f 3 2 8
f 4 6 2
f 6 8 2
f 5 7 6
f 7 8 6
