# Created by FreeCAD <http://www.freecadweb.org>
v -8.805802 534.484741 205.078995
v -7.855802 534.484741 206.828995
v -8.805802 534.484741 206.828995
v -7.855802 534.484741 205.078995
v -8.805802 535.194763 206.828995
v -8.805802 535.194763 205.078995
v -7.855802 535.194763 206.828995
v -7.855802 535.194763 205.078995
f 1 2 3
f 1 4 2
f 3 5 1
f 5 6 1
f 5 3 7
f 3 2 7
f 7 2 8
f 2 4 8
f 1 6 8
f 1 8 4
f 5 7 6
f 7 8 6
