# Created by FreeCAD <http://www.freecadweb.org>
v 12.400001 507.702942 -8.421446
v 12.400001 505.493256 -7.176647
v 12.400001 505.493164 -8.421247
v 12.400001 507.703064 -7.176847
v 11.714200 507.702942 -8.421446
v 11.714200 507.703064 -7.176847
v 11.714200 505.493164 -8.421247
v 11.714200 505.493256 -7.176647
f 1 2 3
f 4 2 1
f 1 5 4
f 5 6 4
f 5 1 3
f 5 3 7
f 7 3 8
f 3 2 8
f 4 6 8
f 4 8 2
f 5 7 6
f 7 8 6
