# Created by FreeCAD <http://www.freecadweb.org>
v 12.400001 508.272034 -19.497198
v 12.400001 504.922058 -19.496895
v 12.400001 504.921875 -21.246895
v 12.400001 508.271881 -21.247198
v 11.690000 508.271881 -21.247198
v 11.690000 504.921875 -21.246895
v 11.690000 504.922058 -19.496895
v 11.690000 508.272034 -19.497198
f 1 2 3
f 1 3 4
f 5 4 3
f 5 3 6
f 6 3 7
f 3 2 7
f 1 8 2
f 8 7 2
f 4 5 1
f 5 8 1
f 6 7 8
f 5 6 8
