# Created by FreeCAD <http://www.freecadweb.org>
v -2.854368 177.473251 31.178543
v -2.854368 176.473251 31.178543
v -2.634372 176.473251 31.207506
v -2.429368 177.473251 31.292421
v -2.634372 177.473251 31.207506
v -2.429368 176.473251 31.292421
v -2.253327 177.473251 31.427502
v -2.253327 176.473251 31.427502
v -2.118247 177.473251 31.603542
v -2.118247 176.473251 31.603542
v -2.004368 177.473251 32.028542
v -2.033331 177.473251 31.808546
v -2.033331 176.473251 31.808546
v -2.004368 176.473251 32.028542
v -2.033331 177.473251 32.248539
v -2.033331 176.473251 32.248539
v -2.118247 177.473251 32.453545
v -2.118247 176.473251 32.453545
v -2.253327 177.473251 32.629585
v -2.253327 176.473251 32.629585
v -2.429368 177.473251 32.764664
v -2.429368 176.473251 32.764664
v -2.854368 177.473251 32.878544
v -2.634372 177.473251 32.849579
v -2.634372 176.473251 32.849579
v -2.854368 176.473251 32.878544
v -2.854368 177.473251 39.121456
v -2.854368 176.473251 39.121456
v -2.634372 176.473251 39.150421
v -2.429368 177.473251 39.235336
v -2.634372 177.473251 39.150421
v -2.429368 176.473251 39.235336
v -2.253327 177.473251 39.370415
v -2.253327 176.473251 39.370415
v -2.118247 177.473251 39.546455
v -2.118247 176.473251 39.546455
v -2.033331 177.473251 39.751461
v -2.033331 176.473251 39.751461
v -2.033331 177.473251 40.191452
v -2.004368 177.473251 39.971458
v -2.004368 176.473251 39.971458
v -2.033331 176.473251 40.191452
v -2.253327 177.473251 40.572498
v -2.118247 177.473251 40.396458
v -2.118247 176.473251 40.396458
v -2.253327 176.473251 40.572498
v -2.634372 177.473251 40.792496
v -2.429368 177.473251 40.707581
v -2.429368 176.473251 40.707581
v -2.634372 176.473251 40.792496
v -2.854368 177.473251 40.821457
v -2.854368 176.473251 40.821457
v -8.438525 176.473251 44.088120
v -8.000000 176.473251 44.099998
v -8.000000 177.473251 44.099998
v -8.438525 177.473251 44.088120
v -8.875764 177.473251 44.052517
v -8.875764 176.473251 44.052517
v -9.310434 176.473251 43.993294
v -9.310434 177.473251 43.993294
v -9.741261 177.473251 43.910625
v -9.741261 176.473251 43.910625
v -10.166980 176.473251 43.804756
v -10.166980 177.473251 43.804756
v -10.586343 177.473251 43.675991
v -10.586343 176.473251 43.675991
v -10.998119 177.473251 43.524712
v -10.998119 176.473251 43.524712
v -11.401102 176.473251 43.351360
v -11.401102 177.473251 43.351360
v -11.794108 177.473251 43.156448
v -11.794108 176.473251 43.156448
v -12.175986 177.473251 42.940544
v -12.175986 176.473251 42.940544
v -12.545615 177.473251 42.704281
v -12.545615 176.473251 42.704281
v -12.901911 177.473251 42.448353
v -12.901911 176.473251 42.448353
v -13.243829 176.473251 42.173512
v -13.243829 177.473251 42.173512
v -13.570366 177.473251 41.880562
v -13.570366 176.473251 41.880562
v -13.880564 176.473251 41.570366
v -13.880564 177.473251 41.570366
v -14.173512 177.473251 41.243828
v -14.173512 176.473251 41.243828
v -14.448354 177.473251 40.901913
v -14.448354 176.473251 40.901913
v -14.704281 177.473251 40.545616
v -14.704281 176.473251 40.545616
v -14.940543 176.473251 40.175987
v -14.940543 177.473251 40.175987
v -15.156447 177.473251 39.794109
v -15.156447 176.473251 39.794109
v -15.351361 177.473251 39.401100
v -15.351361 176.473251 39.401100
v -15.524712 176.473251 38.998119
v -15.524712 177.473251 38.998119
v -15.675991 176.473251 38.586342
v -15.675991 177.473251 38.586342
v -15.804755 177.473251 38.166981
v -15.804755 176.473251 38.166981
v -15.910626 177.473251 37.741261
v -15.910626 176.473251 37.741261
v -15.993295 177.473251 37.310432
v -15.993295 176.473251 37.310432
v -16.052517 177.473251 36.875763
v -16.052517 176.473251 36.875763
v -16.088121 176.473251 36.438526
v -16.088121 177.473251 36.438526
v -16.100000 176.473251 36.000000
v -16.100000 177.473251 36.000000
v -16.088121 176.473251 35.561474
v -16.088121 177.473251 35.561474
v -16.052517 176.473251 35.124237
v -16.052517 177.473251 35.124237
v -15.993295 177.473251 34.689568
v -15.993295 176.473251 34.689568
v -15.910626 176.473251 34.258739
v -15.910626 177.473251 34.258739
v -15.804755 176.473251 33.833019
v -15.804755 177.473251 33.833019
v -15.675991 176.473251 33.413658
v -15.675991 177.473251 33.413658
v -15.524712 176.473251 33.001881
v -15.524712 177.473251 33.001881
v -15.351361 176.473251 32.598900
v -15.351361 177.473251 32.598900
v -15.156447 176.473251 32.205891
v -15.156447 177.473251 32.205891
v -14.940543 176.473251 31.824015
v -14.940543 177.473251 31.824015
v -14.704281 177.473251 31.454384
v -14.704281 176.473251 31.454384
v -14.448354 176.473251 31.098089
v -14.448354 177.473251 31.098089
v -14.173512 176.473251 30.756170
v -14.173512 177.473251 30.756170
v -13.880564 176.473251 30.429634
v -13.880564 177.473251 30.429634
v -13.570366 176.473251 30.119436
v -13.570366 177.473251 30.119436
v -13.243829 177.473251 29.826487
v -13.243829 176.473251 29.826487
v -12.901911 177.473251 29.551645
v -12.901911 176.473251 29.551645
v -12.545615 177.473251 29.295719
v -12.545615 176.473251 29.295719
v -12.175986 177.473251 29.059458
v -12.175986 176.473251 29.059458
v -11.794108 176.473251 28.843552
v -11.794108 177.473251 28.843552
v -11.401102 176.473251 28.648640
v -11.401102 177.473251 28.648640
v -10.998119 177.473251 28.475288
v -10.998119 176.473251 28.475288
v -10.586343 176.473251 28.324009
v -10.586343 177.473251 28.324009
v -10.166980 176.473251 28.195246
v -10.166980 177.473251 28.195246
v -9.741261 177.473251 28.089373
v -9.741261 176.473251 28.089373
v -9.310434 177.473251 28.006704
v -9.310434 176.473251 28.006704
v -8.875764 177.473251 27.947483
v -8.875764 176.473251 27.947483
v -8.438525 177.473251 27.911879
v -8.438525 176.473251 27.911879
v -8.000000 176.473251 27.900000
v -8.000000 177.473251 27.900000
v -4.753934 176.473251 43.421124
v -4.322677 176.473251 43.217152
v -4.322677 177.473251 43.217152
v -4.753934 177.473251 43.421124
v -5.196452 177.473251 43.599350
v -5.196452 176.473251 43.599350
v -5.648694 176.473251 43.751217
v -5.648694 177.473251 43.751217
v -6.109093 177.473251 43.876198
v -6.109093 176.473251 43.876198
v -6.576050 176.473251 43.973854
v -6.576050 177.473251 43.973854
v -7.047947 177.473251 44.043854
v -0.712039 176.473251 39.534916
v -0.712039 177.473251 39.534916
v -0.932782 177.473251 39.957832
v -0.516576 177.473251 39.099735
v -0.516576 176.473251 39.099735
v -7.047947 176.473251 44.043854
v -7.523147 176.473251 44.085953
v -7.523147 177.473251 44.085953
v -0.932782 176.473251 39.957832
v -1.178040 176.473251 40.367020
v -1.178040 177.473251 40.367020
v -1.446962 176.473251 40.761059
v -1.446962 177.473251 40.761059
v -1.738615 176.473251 41.138584
v -1.738615 177.473251 41.138584
v -2.051988 176.473251 41.498287
v -2.051988 177.473251 41.498287
v -2.385992 177.473251 41.838913
v -2.385992 176.473251 41.838913
v -2.739471 176.473251 42.159286
v -2.739471 177.473251 42.159286
v -3.111197 176.473251 42.458298
v -3.111197 177.473251 42.458298
v -3.499881 176.473251 42.734905
v -3.499881 177.473251 42.734905
v -3.904175 176.473251 42.988148
v -3.904175 177.473251 42.988148
v -2.376282 176.473251 33.670578
v -2.376282 177.473251 33.670578
v -2.586852 177.473251 33.742058
v -2.586852 176.473251 33.742058
v -2.804950 176.473251 33.785442
v -2.804950 177.473251 33.785442
v -3.026844 177.473251 33.799984
v -3.026844 176.473251 33.799984
v -7.085392 177.473251 29.513237
v -7.500000 177.473251 29.500000
v -7.500000 176.473251 29.500000
v -7.085392 176.473251 29.513237
v -6.672473 177.473251 29.552893
v -6.672473 176.473251 29.552893
v -6.262925 177.473251 29.618805
v -6.262925 176.473251 29.618805
v -5.858414 177.473251 29.710709
v -5.858414 176.473251 29.710709
v -5.460589 177.473251 29.828226
v -5.460589 176.473251 29.828226
v -5.071071 177.473251 29.970879
v -5.071071 176.473251 29.970879
v -7.500000 177.473251 42.500000
v -7.500000 176.473251 42.500000
v -7.892460 176.473251 42.488140
v -7.892460 177.473251 42.488140
v -8.283488 176.473251 42.452606
v -8.283488 177.473251 42.452606
v -8.671658 177.473251 42.393528
v -8.671658 176.473251 42.393528
v -9.055552 177.473251 42.311123
v -9.055552 176.473251 42.311123
v -9.433770 176.473251 42.205685
v -9.433770 177.473251 42.205685
v -9.804932 176.473251 42.077606
v -9.804932 177.473251 42.077606
v -10.167684 176.473251 41.927349
v -10.167684 177.473251 41.927349
v -10.520700 176.473251 41.755463
v -10.520700 177.473251 41.755463
v -10.862696 177.473251 41.562580
v -10.862696 176.473251 41.562580
v -11.192421 176.473251 41.349396
v -11.192421 177.473251 41.349396
v -11.508673 176.473251 41.116692
v -11.508673 177.473251 41.116692
v -11.810297 176.473251 40.865318
v -11.810297 177.473251 40.865318
v -12.096194 177.473251 40.596195
v -12.096194 176.473251 40.596195
v -12.365320 177.473251 40.310299
v -12.365320 176.473251 40.310299
v -12.616693 177.473251 40.008671
v -12.616693 176.473251 40.008671
v -12.849395 177.473251 39.692421
v -12.849395 176.473251 39.692421
v -13.062578 177.473251 39.362698
v -13.062578 176.473251 39.362698
v -13.255465 177.473251 39.020702
v -13.255465 176.473251 39.020702
v -13.427349 177.473251 38.667683
v -13.427349 176.473251 38.667683
v -13.577605 177.473251 38.304932
v -13.577605 176.473251 38.304932
v -13.705686 177.473251 37.933769
v -13.705686 176.473251 37.933769
v -13.811122 176.473251 37.555553
v -13.811122 177.473251 37.555553
v -13.893529 176.473251 37.171658
v -13.893529 177.473251 37.171658
v -13.952608 176.473251 36.783489
v -13.952608 177.473251 36.783489
v -13.988141 176.473251 36.392460
v -13.988141 177.473251 36.392460
v -14.000000 176.473251 36.000000
v -14.000000 177.473251 36.000000
v -13.988141 177.473251 35.607540
v -13.952608 177.473251 35.216511
v -13.988141 176.473251 35.607540
v -13.952608 176.473251 35.216511
v -13.893529 176.473251 34.828342
v -13.893529 177.473251 34.828342
v -13.811122 177.473251 34.444447
v -13.811122 176.473251 34.444447
v -13.705686 176.473251 34.066231
v -13.705686 177.473251 34.066231
v -13.577605 176.473251 33.695068
v -13.577605 177.473251 33.695068
v -13.427349 176.473251 33.332317
v -13.427349 177.473251 33.332317
v -13.255465 177.473251 32.979298
v -13.255465 176.473251 32.979298
v -13.062578 176.473251 32.637302
v -13.062578 177.473251 32.637302
v -12.849395 176.473251 32.307579
v -12.849395 177.473251 32.307579
v -12.616693 176.473251 31.991327
v -12.616693 177.473251 31.991327
v -12.365320 176.473251 31.689703
v -12.365320 177.473251 31.689703
v -12.096194 176.473251 31.403807
v -12.096194 177.473251 31.403807
v -11.810297 176.473251 31.134680
v -11.810297 177.473251 31.134680
v -11.508673 177.473251 30.883307
v -11.508673 176.473251 30.883307
v -11.192421 177.473251 30.650604
v -11.192421 176.473251 30.650604
v -10.862696 176.473251 30.437422
v -10.862696 177.473251 30.437422
v -10.520700 176.473251 30.244535
v -10.520700 177.473251 30.244535
v -10.167684 177.473251 30.072651
v -10.167684 176.473251 30.072651
v -9.804932 176.473251 29.922394
v -9.804932 177.473251 29.922394
v -9.433770 176.473251 29.794313
v -9.433770 177.473251 29.794313
v -9.055552 177.473251 29.688879
v -9.055552 176.473251 29.688879
v -8.671658 177.473251 29.606470
v -8.671658 176.473251 29.606470
v -8.283488 177.473251 29.547392
v -8.283488 176.473251 29.547392
v -7.892460 177.473251 29.511858
v -7.892460 176.473251 29.511858
v -1.738615 177.473251 30.861414
v -4.346791 177.473251 33.171310
v -4.200469 177.473251 33.329865
v -3.455409 177.473251 32.629585
v -3.590490 177.473251 32.453545
v -4.471853 177.473251 32.995502
v -2.051988 177.473251 30.501715
v -4.573640 177.473251 32.805267
v -3.675405 177.473251 32.248539
v -4.650513 177.473251 32.603672
v -2.385992 177.473251 30.161085
v -4.701232 177.473251 32.393963
v -4.724982 177.473251 32.179520
v -3.704368 177.473251 32.028542
v -4.721380 177.473251 31.963797
v -2.739471 177.473251 29.840712
v -3.074364 177.473251 31.207506
v -4.690484 177.473251 31.750267
v -3.675405 177.473251 31.808546
v -4.632791 177.473251 31.542370
v -3.074364 177.473251 40.792496
v -4.549231 177.473251 31.343454
v -3.590490 177.473251 31.603542
v -3.279368 177.473251 40.707581
v -4.462067 177.473251 31.083717
v -3.455409 177.473251 31.427502
v -3.111197 177.473251 29.541702
v -3.279368 177.473251 31.292421
v -4.448664 177.473251 30.810074
v -4.833366 177.473251 41.892899
v -4.510028 177.473251 30.543062
v -4.641553 177.473251 41.697273
v -5.071071 177.473251 42.029121
v -4.510028 177.473251 41.456936
v -3.499881 177.473251 29.265097
v -4.641553 177.473251 30.302725
v -4.448664 177.473251 41.189926
v -3.455409 177.473251 40.572498
v -5.460589 177.473251 42.171776
v -3.904175 177.473251 29.011852
v -4.833366 177.473251 30.107103
v -4.462067 177.473251 40.916283
v -3.590490 177.473251 40.396458
v -5.858414 177.473251 42.289291
v -4.322677 177.473251 28.782846
v -6.262925 177.473251 42.381195
v -4.549231 177.473251 40.656548
v -3.675405 177.473251 40.191452
v -4.753934 177.473251 28.578878
v -2.376282 177.473251 38.329422
v -4.629550 177.473251 40.466881
v -5.196452 177.473251 28.400650
v -6.672473 177.473251 42.447109
v -2.571002 177.473251 38.262272
v -4.686341 177.473251 40.268890
v -3.704368 177.473251 39.971458
v -5.648694 177.473251 28.248783
v -2.772413 177.473251 38.219162
v -7.085392 177.473251 42.486763
v -4.718771 177.473251 40.065487
v -6.109093 177.473251 28.123804
v -2.977558 177.473251 38.200729
v -3.074364 177.473251 39.150421
v -4.726365 177.473251 39.859653
v -3.183428 177.473251 38.207241
v -4.709010 177.473251 39.654415
v -3.675405 177.473251 39.751461
v -6.576050 177.473251 28.026144
v -3.386999 177.473251 38.238605
v -4.666960 177.473251 39.452782
v -3.585283 177.473251 38.294353
v -3.279368 177.473251 39.235336
v -4.600834 177.473251 39.257710
v -3.590490 177.473251 39.546455
v -3.775369 177.473251 38.373676
v -7.047947 177.473251 27.956146
v -4.511603 177.473251 39.072071
v -3.954467 177.473251 38.475403
v -3.455409 177.473251 39.370415
v -4.400575 177.473251 38.898586
v -4.119947 177.473251 38.598045
v -4.269381 177.473251 38.739799
v -7.523147 177.473251 27.914049
v -0.516576 177.473251 32.900265
v -0.712039 177.473251 32.465084
v -0.932782 177.473251 32.042168
v -1.178040 177.473251 31.632980
v -3.074364 177.473251 32.849579
v -3.454014 177.473251 33.745441
v -3.242163 177.473251 33.786293
v -1.446962 177.473251 31.238939
v -3.279368 177.473251 32.764664
v -3.853773 177.473251 33.585308
v -3.658984 177.473251 33.678085
v -4.035242 177.473251 33.468609
v -3.386999 176.473251 38.238605
v -3.585283 176.473251 38.294353
v -3.183428 176.473251 38.207241
v -2.977558 176.473251 38.200729
v -2.772413 176.473251 38.219162
v -4.629550 176.473251 40.466881
v -4.549231 176.473251 40.656548
v -2.571002 176.473251 38.262272
v -2.376282 176.473251 38.329422
v -4.686341 176.473251 40.268890
v -4.718771 176.473251 40.065487
v -4.726365 176.473251 39.859653
v -4.709010 176.473251 39.654415
v -4.666960 176.473251 39.452782
v -4.600834 176.473251 39.257710
v -4.511603 176.473251 39.072071
v -4.400575 176.473251 38.898586
v -4.269381 176.473251 38.739799
v -4.119947 176.473251 38.598045
v -3.954467 176.473251 38.475403
v -3.775369 176.473251 38.373676
v -4.462067 176.473251 40.916283
v -4.448664 176.473251 41.189926
v -4.510028 176.473251 41.456936
v -4.641553 176.473251 41.697273
v -4.833366 176.473251 41.892899
v -5.071071 176.473251 42.029121
v -5.460589 176.473251 42.171776
v -5.858414 176.473251 42.289291
v -6.262925 176.473251 42.381195
v -6.672473 176.473251 42.447109
v -7.085392 176.473251 42.486763
v -4.833366 176.473251 30.107103
v -4.641553 176.473251 30.302725
v -4.510028 176.473251 30.543062
v -4.448664 176.473251 30.810074
v -4.462067 176.473251 31.083717
v -4.549231 176.473251 31.343454
v -3.242163 176.473251 33.786293
v -3.454014 176.473251 33.745441
v -3.658984 176.473251 33.678085
v -3.853773 176.473251 33.585308
v -4.035242 176.473251 33.468609
v -4.200469 176.473251 33.329865
v -4.346791 176.473251 33.171310
v -4.471853 176.473251 32.995502
v -4.573640 176.473251 32.805267
v -4.650513 176.473251 32.603672
v -4.701232 176.473251 32.393963
v -4.724982 176.473251 32.179520
v -4.721380 176.473251 31.963797
v -4.690484 176.473251 31.750267
v -4.632791 176.473251 31.542370
v -0.516576 176.473251 32.900265
v -2.051988 176.473251 30.501715
v -2.385992 176.473251 30.161085
v -1.738615 176.473251 30.861414
v -1.446962 176.473251 31.238939
v -1.178040 176.473251 31.632980
v -7.523147 176.473251 27.914049
v -0.932782 176.473251 32.042168
v -0.712039 176.473251 32.465084
v -7.047947 176.473251 27.956146
v -6.576050 176.473251 28.026144
v -6.109093 176.473251 28.123804
v -5.648694 176.473251 28.248783
v -5.196452 176.473251 28.400650
v -4.753934 176.473251 28.578878
v -4.322677 176.473251 28.782846
v -3.904175 176.473251 29.011852
v -3.499881 176.473251 29.265097
v -3.111197 176.473251 29.541702
v -2.739471 176.473251 29.840712
v -3.074364 176.473251 40.792496
v -3.279368 176.473251 40.707581
v -3.455409 176.473251 40.572498
v -3.590490 176.473251 40.396458
v -3.675405 176.473251 40.191452
v -3.704368 176.473251 39.971458
v -3.675405 176.473251 39.751461
v -3.590490 176.473251 39.546455
v -3.455409 176.473251 39.370415
v -3.279368 176.473251 39.235336
v -3.074364 176.473251 39.150421
v -3.074364 176.473251 32.849579
v -3.279368 176.473251 32.764664
v -3.455409 176.473251 32.629585
v -3.590490 176.473251 32.453545
v -3.675405 176.473251 32.248539
v -3.704368 176.473251 32.028542
v -3.675405 176.473251 31.808546
v -3.590490 176.473251 31.603542
v -3.455409 176.473251 31.427502
v -3.279368 176.473251 31.292421
v -3.074364 176.473251 31.207506
f 1 2 3
f 4 5 3
f 5 1 3
f 4 3 6
f 7 4 8
f 4 6 8
f 9 7 10
f 7 8 10
f 11 12 13
f 12 9 13
f 9 10 13
f 11 13 14
f 15 11 16
f 11 14 16
f 17 15 18
f 15 16 18
f 19 17 20
f 17 18 20
f 21 19 22
f 19 20 22
f 23 24 25
f 24 21 25
f 21 22 25
f 23 25 26
f 27 28 29
f 30 31 29
f 31 27 29
f 30 29 32
f 33 30 34
f 30 32 34
f 35 33 36
f 33 34 36
f 37 35 38
f 35 36 38
f 39 40 41
f 40 37 41
f 37 38 41
f 39 41 42
f 43 44 45
f 44 39 45
f 39 42 45
f 43 45 46
f 47 48 49
f 48 43 49
f 43 46 49
f 47 49 50
f 51 47 52
f 47 50 52
f 53 54 55
f 53 56 57
f 53 55 56
f 58 53 57
f 59 58 57
f 59 60 61
f 59 57 60
f 62 59 61
f 63 62 61
f 63 64 65
f 63 61 64
f 66 65 67
f 66 63 65
f 68 66 67
f 69 70 71
f 69 67 70
f 69 68 67
f 72 71 73
f 72 69 71
f 74 72 73
f 74 73 75
f 76 75 77
f 76 74 75
f 78 76 77
f 79 80 81
f 79 77 80
f 79 78 77
f 82 79 81
f 83 84 85
f 83 81 84
f 83 82 81
f 86 85 87
f 86 83 85
f 88 87 89
f 88 86 87
f 90 88 89
f 91 90 89
f 91 92 93
f 91 89 92
f 94 91 93
f 94 93 95
f 96 94 95
f 97 96 95
f 97 95 98
f 99 97 98
f 99 100 101
f 99 98 100
f 102 99 101
f 102 101 103
f 104 102 103
f 104 103 105
f 106 105 107
f 106 104 105
f 108 106 107
f 109 107 110
f 109 108 107
f 111 110 112
f 111 109 110
f 113 112 114
f 113 111 112
f 115 116 117
f 115 114 116
f 115 113 114
f 118 115 117
f 119 117 120
f 119 118 117
f 121 120 122
f 121 119 120
f 123 122 124
f 123 121 122
f 125 124 126
f 125 123 124
f 127 126 128
f 127 125 126
f 129 128 130
f 129 127 128
f 131 132 133
f 131 130 132
f 131 129 130
f 134 131 133
f 135 133 136
f 135 134 133
f 137 136 138
f 137 135 136
f 139 138 140
f 139 137 138
f 141 139 140
f 141 142 143
f 141 140 142
f 144 141 143
f 144 143 145
f 146 145 147
f 146 144 145
f 148 147 149
f 148 146 147
f 150 148 149
f 151 149 152
f 151 150 149
f 153 154 155
f 153 152 154
f 153 151 152
f 156 153 155
f 157 155 158
f 157 156 155
f 159 160 161
f 159 158 160
f 159 157 158
f 162 161 163
f 162 159 161
f 164 163 165
f 164 162 163
f 166 165 167
f 166 164 165
f 168 166 167
f 169 167 170
f 169 168 167
f 171 172 173
f 171 174 175
f 171 173 174
f 176 171 175
f 177 178 179
f 177 175 178
f 177 176 175
f 180 177 179
f 181 180 179
f 181 182 183
f 181 179 182
f 184 185 186
f 184 187 185
f 184 188 187
f 189 181 183
f 190 183 191
f 190 189 183
f 54 191 55
f 192 184 186
f 54 190 191
f 193 186 194
f 193 192 186
f 195 194 196
f 195 193 194
f 197 196 198
f 197 195 196
f 199 200 201
f 199 198 200
f 199 197 198
f 202 199 201
f 203 201 204
f 203 202 201
f 205 204 206
f 205 203 204
f 207 206 208
f 207 205 206
f 209 210 173
f 209 208 210
f 209 207 208
f 172 209 173
f 211 212 213
f 214 211 213
f 215 216 217
f 215 213 216
f 215 214 213
f 218 215 217
f 219 220 221
f 219 221 222
f 223 219 224
f 225 223 224
f 219 222 224
f 225 224 226
f 227 225 228
f 225 226 228
f 229 227 230
f 231 229 230
f 227 228 230
f 231 230 232
f 233 234 235
f 236 233 235
f 236 235 237
f 238 236 237
f 239 238 237
f 239 237 240
f 241 239 240
f 241 240 242
f 241 242 243
f 244 241 243
f 244 243 245
f 246 244 245
f 246 245 247
f 248 246 247
f 248 247 249
f 250 248 249
f 251 250 249
f 251 249 252
f 251 252 253
f 254 251 253
f 254 253 255
f 256 254 255
f 256 255 257
f 258 256 257
f 259 258 260
f 258 257 260
f 261 259 262
f 259 260 262
f 263 261 264
f 261 262 264
f 265 263 266
f 263 264 266
f 267 265 268
f 269 267 268
f 265 266 268
f 269 268 270
f 271 269 272
f 269 270 272
f 273 271 274
f 271 272 274
f 275 273 276
f 273 274 276
f 275 276 277
f 278 275 277
f 278 277 279
f 280 278 279
f 280 279 281
f 282 280 281
f 282 281 283
f 284 282 283
f 284 283 285
f 286 284 285
f 287 286 285
f 288 287 289
f 287 285 289
f 288 289 290
f 288 290 291
f 292 288 291
f 293 292 291
f 293 291 294
f 293 294 295
f 296 293 295
f 296 295 297
f 298 296 297
f 298 297 299
f 300 298 299
f 301 300 299
f 301 299 302
f 301 302 303
f 304 301 303
f 304 303 305
f 306 304 305
f 306 305 307
f 308 306 307
f 308 307 309
f 310 308 309
f 310 309 311
f 312 310 311
f 312 311 313
f 314 312 313
f 315 314 313
f 315 313 316
f 317 315 316
f 317 316 318
f 317 318 319
f 320 317 319
f 320 319 321
f 322 320 321
f 323 322 321
f 323 321 324
f 323 324 325
f 326 323 325
f 326 325 327
f 328 326 327
f 329 328 330
f 328 327 330
f 331 329 332
f 329 330 332
f 333 331 334
f 331 332 334
f 335 333 336
f 333 334 336
f 220 335 221
f 335 336 221
f 4 7 337
f 338 339 340
f 338 340 341
f 342 338 341
f 259 80 258
f 343 4 337
f 343 5 4
f 81 80 259
f 344 342 341
f 344 341 345
f 346 344 345
f 43 198 196
f 261 81 259
f 347 5 343
f 347 1 5
f 48 200 198
f 48 198 43
f 348 346 345
f 44 43 196
f 84 81 261
f 349 345 350
f 349 348 345
f 47 201 200
f 47 200 48
f 39 196 194
f 263 84 261
f 39 44 196
f 40 39 194
f 351 349 350
f 40 194 186
f 352 1 347
f 352 353 1
f 51 201 47
f 85 84 263
f 354 350 355
f 51 204 201
f 354 351 350
f 356 354 355
f 37 186 185
f 37 40 186
f 357 204 51
f 357 206 204
f 35 185 187
f 35 37 185
f 358 355 359
f 358 356 355
f 360 206 357
f 361 359 362
f 361 358 359
f 87 263 265
f 87 85 263
f 33 35 187
f 363 364 353
f 363 353 352
f 365 362 364
f 365 361 362
f 366 173 210
f 367 365 364
f 368 210 208
f 368 366 210
f 367 364 363
f 89 265 267
f 89 87 265
f 369 173 366
f 369 174 173
f 370 208 206
f 370 368 208
f 371 367 363
f 372 367 371
f 370 206 360
f 373 360 374
f 373 370 360
f 375 175 174
f 92 89 267
f 375 174 369
f 92 267 269
f 376 372 371
f 376 377 372
f 378 374 379
f 378 373 374
f 93 92 269
f 93 269 271
f 380 178 175
f 380 175 375
f 381 231 377
f 381 377 376
f 382 179 178
f 382 178 380
f 383 379 384
f 95 93 271
f 383 378 379
f 95 271 273
f 385 229 231
f 385 231 381
f 98 95 273
f 386 30 33
f 386 31 30
f 98 273 275
f 386 33 187
f 387 383 384
f 388 227 229
f 388 229 385
f 389 182 179
f 389 179 382
f 100 98 275
f 390 27 31
f 390 31 386
f 391 384 392
f 393 227 388
f 393 225 227
f 391 387 384
f 394 27 390
f 395 183 182
f 395 182 389
f 101 100 275
f 101 275 278
f 396 391 392
f 397 223 225
f 397 225 393
f 398 399 27
f 398 27 394
f 400 396 392
f 103 101 278
f 103 278 280
f 401 399 398
f 233 191 183
f 233 183 395
f 402 392 403
f 402 400 392
f 404 219 223
f 404 223 397
f 405 399 401
f 105 103 280
f 105 280 282
f 406 402 403
f 407 408 399
f 407 399 405
f 409 406 403
f 409 403 410
f 411 408 407
f 412 220 219
f 236 55 191
f 412 219 404
f 236 191 233
f 107 105 282
f 107 282 284
f 413 409 410
f 414 408 411
f 414 415 408
f 416 413 410
f 417 415 414
f 418 410 415
f 418 416 410
f 419 335 220
f 419 220 412
f 418 415 417
f 238 57 56
f 238 56 55
f 238 55 236
f 110 107 284
f 110 284 286
f 239 60 57
f 239 57 238
f 241 60 239
f 241 61 60
f 244 64 61
f 112 110 286
f 244 61 241
f 170 333 335
f 170 335 419
f 246 65 64
f 246 64 244
f 248 67 65
f 114 286 287
f 248 65 246
f 114 112 286
f 167 333 170
f 250 70 67
f 250 67 248
f 116 114 287
f 116 287 288
f 165 331 333
f 165 333 167
f 117 116 288
f 117 288 292
f 163 329 331
f 163 331 165
f 251 73 71
f 251 71 70
f 251 70 250
f 120 117 292
f 120 292 293
f 161 328 329
f 161 329 163
f 19 212 420
f 160 326 328
f 160 328 161
f 17 420 421
f 17 19 420
f 21 212 19
f 122 120 293
f 122 293 296
f 124 122 296
f 15 421 422
f 15 17 421
f 158 323 326
f 24 213 212
f 158 326 160
f 24 212 21
f 155 322 323
f 254 75 73
f 155 323 158
f 254 73 251
f 23 217 216
f 126 124 296
f 23 216 213
f 23 213 24
f 126 296 298
f 11 422 423
f 11 15 422
f 128 126 298
f 128 298 300
f 154 322 155
f 424 425 426
f 424 426 217
f 154 320 322
f 424 217 23
f 130 300 301
f 12 423 427
f 12 11 423
f 130 128 300
f 152 320 154
f 149 320 152
f 256 75 254
f 77 75 256
f 149 317 320
f 132 130 301
f 428 429 430
f 428 430 425
f 132 301 304
f 428 425 424
f 9 12 427
f 147 317 149
f 147 315 317
f 133 132 304
f 133 304 306
f 431 429 428
f 145 315 147
f 340 431 428
f 145 314 315
f 7 9 427
f 136 133 306
f 136 306 308
f 339 431 340
f 143 314 145
f 143 312 314
f 337 7 427
f 258 77 256
f 138 136 308
f 140 138 308
f 140 308 310
f 80 77 258
f 142 312 143
f 142 140 310
f 142 310 312
f 432 405 401
f 432 407 405
f 432 433 407
f 434 432 401
f 435 434 401
f 435 401 398
f 436 435 398
f 436 394 390
f 437 438 383
f 436 398 394
f 439 436 390
f 437 383 387
f 440 390 386
f 440 439 390
f 441 391 396
f 441 387 391
f 441 437 387
f 442 441 396
f 443 400 402
f 443 396 400
f 443 442 396
f 444 443 402
f 445 402 406
f 445 444 402
f 446 406 409
f 446 445 406
f 447 413 416
f 447 409 413
f 447 446 409
f 448 447 416
f 449 416 418
f 449 448 416
f 450 417 414
f 450 418 417
f 450 449 418
f 451 450 414
f 452 451 414
f 452 411 407
f 452 414 411
f 433 452 407
f 378 383 453
f 383 438 453
f 373 378 454
f 378 453 454
f 370 373 455
f 373 454 455
f 368 370 456
f 370 455 456
f 366 368 457
f 368 456 457
f 369 366 458
f 366 457 458
f 375 369 458
f 375 458 459
f 380 375 460
f 375 459 460
f 382 380 461
f 389 382 461
f 380 460 461
f 389 461 462
f 395 389 463
f 233 395 463
f 389 462 463
f 233 463 234
f 377 231 232
f 377 232 464
f 372 377 465
f 377 464 465
f 367 372 466
f 365 367 466
f 372 465 466
f 365 466 467
f 361 365 468
f 365 467 468
f 358 361 469
f 361 468 469
f 218 217 426
f 470 218 426
f 471 426 425
f 471 470 426
f 472 430 429
f 472 425 430
f 472 471 425
f 473 472 429
f 474 429 431
f 474 473 429
f 475 431 339
f 475 474 431
f 476 338 342
f 476 339 338
f 476 475 339
f 477 476 342
f 478 342 344
f 478 477 342
f 479 344 346
f 479 478 344
f 480 346 348
f 480 479 346
f 481 348 349
f 481 480 348
f 482 351 354
f 482 349 351
f 482 481 349
f 483 354 356
f 483 482 354
f 484 483 356
f 469 356 358
f 469 484 356
f 211 485 212
f 485 420 212
f 486 347 343
f 486 487 347
f 488 343 337
f 488 486 343
f 489 488 337
f 489 427 423
f 489 337 427
f 490 489 423
f 491 169 170
f 490 423 422
f 491 170 419
f 492 490 422
f 493 421 420
f 493 422 421
f 493 492 422
f 494 419 412
f 485 493 420
f 494 491 419
f 495 412 404
f 495 494 412
f 496 397 393
f 496 404 397
f 496 495 404
f 497 496 393
f 498 393 388
f 498 497 393
f 499 388 385
f 499 498 388
f 500 381 376
f 500 385 381
f 500 499 385
f 501 500 376
f 502 371 363
f 502 376 371
f 502 501 376
f 503 502 363
f 504 503 363
f 504 352 347
f 504 363 352
f 487 504 347
f 188 440 187
f 440 386 187
f 51 52 505
f 357 51 505
f 374 360 506
f 360 357 506
f 357 505 506
f 374 506 507
f 379 374 508
f 374 507 508
f 392 384 509
f 384 379 509
f 379 508 509
f 392 509 510
f 410 403 511
f 403 392 511
f 392 510 511
f 415 410 512
f 410 511 512
f 415 512 513
f 399 408 514
f 408 415 514
f 415 513 514
f 399 514 515
f 27 399 28
f 399 515 28
f 23 26 516
f 428 424 516
f 424 23 516
f 340 428 517
f 428 516 517
f 340 517 518
f 341 340 519
f 340 518 519
f 345 341 520
f 341 519 520
f 355 350 521
f 350 345 521
f 345 520 521
f 355 521 522
f 359 355 523
f 355 522 523
f 362 359 524
f 359 523 524
f 353 364 525
f 364 362 525
f 362 524 525
f 353 525 526
f 1 353 2
f 353 526 2
f 488 8 6
f 519 518 476
f 518 475 476
f 519 476 477
f 257 79 260
f 6 3 486
f 488 6 486
f 260 79 82
f 520 519 478
f 519 477 478
f 520 478 479
f 260 82 262
f 195 197 46
f 3 2 487
f 486 3 487
f 46 197 49
f 197 199 49
f 520 479 480
f 195 46 45
f 262 82 83
f 521 520 481
f 520 480 481
f 199 202 50
f 49 199 50
f 193 195 42
f 262 83 264
f 195 45 42
f 521 481 482
f 192 193 41
f 2 526 504
f 193 42 41
f 50 202 52
f 487 2 504
f 264 83 86
f 522 521 483
f 202 203 52
f 521 482 483
f 192 41 38
f 522 483 484
f 184 192 38
f 52 203 505
f 203 205 505
f 184 38 36
f 523 522 469
f 522 484 469
f 188 184 36
f 505 205 506
f 524 523 468
f 523 469 468
f 266 264 88
f 264 86 88
f 526 525 503
f 188 36 34
f 504 526 503
f 525 524 467
f 524 468 467
f 209 172 457
f 209 457 456
f 207 209 456
f 503 525 466
f 525 467 466
f 268 266 90
f 266 88 90
f 457 172 458
f 172 171 458
f 207 456 455
f 503 466 502
f 205 207 455
f 506 205 455
f 502 466 465
f 506 455 454
f 507 506 454
f 458 171 459
f 268 90 91
f 171 176 459
f 270 268 91
f 502 465 501
f 465 464 501
f 508 507 453
f 507 454 453
f 459 176 460
f 270 91 94
f 272 270 94
f 176 177 460
f 501 464 500
f 464 232 500
f 460 177 461
f 177 180 461
f 508 453 438
f 509 508 438
f 274 272 96
f 272 94 96
f 500 232 499
f 232 230 499
f 276 274 97
f 188 34 440
f 34 32 440
f 274 96 97
f 32 29 440
f 499 230 498
f 509 438 437
f 461 180 462
f 230 228 498
f 180 181 462
f 276 97 99
f 29 28 439
f 440 29 439
f 510 509 441
f 498 228 497
f 509 437 441
f 228 226 497
f 439 28 436
f 181 189 463
f 462 181 463
f 276 99 102
f 277 276 102
f 510 441 442
f 497 226 496
f 28 515 435
f 226 224 496
f 436 28 435
f 510 442 443
f 279 277 104
f 277 102 104
f 435 515 434
f 463 189 234
f 189 190 234
f 511 510 444
f 510 443 444
f 496 224 495
f 224 222 495
f 281 279 106
f 434 515 432
f 279 104 106
f 511 444 445
f 515 514 433
f 432 515 433
f 511 445 446
f 512 511 446
f 433 514 452
f 234 190 235
f 495 222 494
f 222 221 494
f 283 281 108
f 190 54 235
f 512 446 447
f 281 106 108
f 452 514 451
f 514 513 451
f 512 447 448
f 451 513 450
f 494 221 491
f 450 513 449
f 221 336 491
f 512 448 449
f 513 512 449
f 53 58 237
f 54 53 237
f 285 283 109
f 235 54 237
f 237 58 240
f 283 108 109
f 58 59 240
f 240 59 242
f 59 62 242
f 242 62 243
f 62 63 243
f 285 109 111
f 491 336 169
f 336 334 169
f 243 63 245
f 63 66 245
f 66 68 247
f 289 285 113
f 245 66 247
f 285 111 113
f 169 334 168
f 68 69 249
f 247 68 249
f 289 113 115
f 290 289 115
f 168 334 166
f 334 332 166
f 290 115 118
f 291 290 118
f 166 332 164
f 249 69 252
f 332 330 164
f 72 74 252
f 69 72 252
f 294 291 119
f 291 118 119
f 164 330 162
f 330 327 162
f 485 211 20
f 493 485 18
f 327 325 159
f 485 20 18
f 162 327 159
f 294 119 121
f 295 294 121
f 20 211 22
f 492 493 16
f 295 121 123
f 493 18 16
f 325 324 157
f 211 214 25
f 159 325 157
f 22 211 25
f 74 76 253
f 252 74 253
f 157 324 156
f 324 321 156
f 215 218 26
f 297 295 125
f 214 215 26
f 25 214 26
f 490 492 14
f 295 123 125
f 492 16 14
f 299 297 127
f 297 125 127
f 321 319 153
f 489 490 13
f 156 321 153
f 490 14 13
f 299 127 129
f 302 299 129
f 26 218 516
f 470 471 516
f 218 470 516
f 153 319 151
f 253 76 255
f 319 318 150
f 151 319 150
f 255 76 78
f 303 302 131
f 302 129 131
f 489 13 10
f 516 471 517
f 318 316 148
f 472 473 517
f 150 318 148
f 471 472 517
f 303 131 134
f 305 303 134
f 517 473 474
f 517 474 518
f 316 313 146
f 148 316 146
f 489 10 8
f 305 134 135
f 307 305 135
f 518 474 475
f 313 311 144
f 146 313 144
f 489 8 488
f 307 135 137
f 255 78 257
f 309 307 139
f 307 137 139
f 309 139 141
f 257 78 79
f 311 309 141
f 144 311 141
