# Created by FreeCAD <http://www.freecadweb.org>
v 6.820736 17.112194 493.018829
v 6.463957 17.280849 492.799988
v 6.569187 17.397417 492.799988
v 6.922157 17.210743 493.018829
v 9.300075 16.968218 493.018829
v 9.505369 17.316763 492.799988
v 9.604041 17.194593 492.799988
v 6.683238 17.505369 492.799988
v 7.031782 17.300076 493.018829
v 6.805407 17.604040 492.799988
v 6.699925 15.031782 493.018829
v 6.395959 14.805407 492.799988
v 6.307178 14.934940 492.799988
v 7.148775 17.379513 493.018829
v 6.934941 17.692823 492.799988
v 6.620486 15.148775 493.018829
v 7.071041 17.771168 492.799988
v 6.551547 15.272247 493.018829
v 6.228832 15.071041 492.799988
v 7.272247 17.448454 493.018829
v 7.401258 17.506369 493.018829
v 7.212869 17.838593 492.799988
v 6.493631 15.401258 493.018829
v 6.161407 15.212869 492.799988
v 7.534824 17.552820 493.018829
v 7.359550 17.894684 492.799988
v 6.447179 15.534824 493.018829
v 6.105317 15.359550 492.799988
v 7.671932 17.587454 493.018829
v 7.510180 17.939091 492.799988
v 6.412545 15.671932 493.018829
v 6.060908 15.510180 492.799988
v 7.811536 17.610006 493.018829
v 7.663829 17.971544 492.799988
v 6.028455 15.663829 492.799988
v 6.389993 15.811536 493.018829
v 7.952575 17.620306 493.018829
v 7.819551 17.991842 492.799988
v 8.093974 17.618273 493.018829
v 7.976385 17.999861 492.799988
v 6.008157 15.819551 492.799988
v 6.379694 15.952575 493.018829
v 6.000139 15.976385 492.799988
v 6.381726 16.093973 493.018829
v 8.133365 17.995548 492.799988
v 8.234658 17.603926 493.018829
v 6.004452 16.133366 492.799988
v 6.396075 16.234659 493.018829
v 8.289523 17.978933 492.799988
v 6.021067 16.289522 492.799988
v 8.443895 17.950117 492.799988
v 8.373557 17.577370 493.018829
v 6.049883 16.443895 492.799988
v 6.422630 16.373556 493.018829
v 8.595531 17.909277 492.799988
v 8.509612 17.538811 493.018829
v 6.090722 16.595531 492.799988
v 6.461190 16.509611 493.018829
v 8.743496 17.856667 492.799988
v 8.641788 17.488539 493.018829
v 6.143332 16.743496 492.799988
v 6.511461 16.641788 493.018829
v 8.886877 17.792610 492.799988
v 8.769081 17.426939 493.018829
v 6.207390 16.886877 492.799988
v 6.573061 16.769081 493.018829
v 9.024789 17.717501 492.799988
v 8.890521 17.354479 493.018829
v 6.282500 17.024790 492.799988
v 9.156384 17.631802 492.799988
v 6.645521 16.890520 493.018829
v 9.005182 17.271711 493.018829
v 9.280849 17.536043 492.799988
v 6.368198 17.156384 492.799988
v 6.728289 17.005182 493.018829
v 9.112195 17.179264 493.018829
v 9.397417 17.430813 492.799988
v 9.210742 17.077843 493.018829
v 7.148775 17.379513 495.621002
v 7.272247 17.448454 495.621002
v 7.158943 17.636320 496.000000
v 6.699925 15.031782 495.621002
v 6.438723 15.026689 496.000000
v 6.524430 14.901084 496.000000
v 7.026689 17.561277 496.000000
v 7.031782 17.300076 495.621002
v 6.901084 17.475569 496.000000
v 6.922157 17.210743 495.621002
v 6.782986 17.379782 496.000000
v 9.300075 16.968218 495.621002
v 9.475570 17.098915 496.000000
v 9.379782 17.217014 496.000000
v 9.210742 17.077843 495.621002
v 6.820736 17.112194 495.621002
v 6.673201 17.274569 496.000000
v 9.112195 17.179264 495.621002
v 9.274570 17.326799 496.000000
v 6.728289 17.005182 495.621002
v 6.572480 17.160650 496.000000
v 9.005182 17.271711 495.621002
v 9.160649 17.427521 496.000000
v 6.645521 16.890520 495.621002
v 6.481510 17.038801 496.000000
v 8.890521 17.354479 495.621002
v 9.038802 17.518490 496.000000
v 6.573061 16.769081 495.621002
v 6.400912 16.909859 496.000000
v 8.909858 17.599087 496.000000
v 8.769081 17.426939 495.621002
v 6.511461 16.641788 495.621002
v 6.331239 16.774698 496.000000
v 8.774698 17.668762 496.000000
v 8.641788 17.488539 495.621002
v 6.461190 16.509611 495.621002
v 6.272964 16.634247 496.000000
v 8.634248 17.727036 496.000000
v 8.509612 17.538811 495.621002
v 6.422630 16.373556 495.621002
v 6.226487 16.489464 496.000000
v 8.489464 17.773512 496.000000
v 8.373557 17.577370 495.621002
v 6.396075 16.234659 495.621002
v 6.192125 16.341337 496.000000
v 8.341336 17.807875 496.000000
v 8.234658 17.603926 495.621002
v 6.381726 16.093973 495.621002
v 6.170113 16.190878 496.000000
v 8.190877 17.829887 496.000000
v 8.093974 17.618273 495.621002
v 6.379694 15.952575 495.621002
v 6.160600 16.039114 496.000000
v 8.039115 17.839399 496.000000
v 7.952575 17.620306 495.621002
v 6.163652 15.887085 496.000000
v 6.389993 15.811536 495.621002
v 7.887084 17.836348 496.000000
v 7.811536 17.610006 495.621002
v 6.179249 15.735826 496.000000
v 6.412545 15.671932 495.621002
v 7.735826 17.820751 496.000000
v 7.671932 17.587454 495.621002
v 6.207283 15.586371 496.000000
v 6.447179 15.534824 495.621002
v 7.586371 17.792717 496.000000
v 7.534824 17.552820 495.621002
v 6.247563 15.439743 496.000000
v 6.493631 15.401258 495.621002
v 7.439743 17.752436 496.000000
v 7.401258 17.506369 495.621002
v 6.299815 15.296942 496.000000
v 6.551547 15.272247 495.621002
v 7.296941 17.700186 496.000000
v 6.363679 15.158942 496.000000
v 6.620486 15.148775 495.621002
v 11.668513 14.764578 493.230652
v 11.459573 14.212504 493.244019
v 10.843098 14.702919 492.799988
v 10.918932 14.883998 492.799988
v 10.983247 15.069482 492.799988
v 11.711202 14.399902 493.329102
v 11.625519 15.131874 493.148132
v 8.752816 12.196673 493.234283
v 8.428246 12.904482 492.799988
v 8.621771 12.937480 492.799988
v 11.035788 15.258637 492.799988
v 8.187022 12.107909 493.245575
v 8.469875 11.985956 493.329102
v 5.095836 13.440685 493.230652
v 5.493687 14.133448 492.799988
v 5.615834 13.979758 492.799988
v 11.592957 15.410045 493.097961
v 11.076347 15.450719 492.799988
v 9.039092 12.409875 493.153656
v 8.812840 12.982565 492.799988
v 4.758674 13.586054 493.329102
v 5.435421 13.294271 493.148132
v 5.747391 13.834042 492.799988
v 5.887837 13.696873 492.799988
v 11.560136 15.690431 493.059082
v 11.104767 15.644968 492.799988
v 11.120933 15.840619 492.799988
v 9.265527 12.578509 493.101959
v 9.000703 13.039557 492.799988
v 9.184616 13.108234 492.799988
v 5.692605 13.183386 493.097961
v 6.036620 13.568794 492.799988
v 11.528571 15.960077 493.033264
v 9.492591 12.747613 493.061890
v 9.363854 13.188323 492.799988
v 11.124783 16.036898 492.799988
v 5.951837 13.071617 493.059082
v 6.193151 13.450310 492.799988
v 9.711012 12.910280 493.034973
v 9.537709 13.279509 492.799988
v 11.496865 16.230936 493.019135
v 11.116300 16.233032 492.799988
v 6.201140 12.964129 493.033264
v 6.356812 13.341888 492.799988
v 6.526959 13.243957 492.799988
v 11.467951 16.477947 493.016937
v 11.095518 16.428247 492.799988
v 11.062520 16.621771 492.799988
v 9.930115 13.073455 493.019836
v 9.705497 13.381431 492.799988
v 9.866552 13.493687 492.799988
v 6.451564 12.856158 493.019135
v 6.702919 13.156902 492.799988
v 11.439156 16.723936 493.025085
v 11.017435 16.812841 492.799988
v 10.128265 13.221025 493.016693
v 10.020242 13.615834 492.799988
v 6.679939 12.757693 493.016937
v 6.883998 13.081068 492.799988
v 11.408722 16.983927 493.044586
v 10.960443 17.000704 492.799988
v 10.327238 13.369208 493.023834
v 10.165958 13.747391 492.799988
v 6.907370 12.659636 493.025085
v 7.069482 13.016753 492.799988
v 7.258637 12.964212 492.799988
v 11.378464 17.242414 493.074615
v 10.891766 17.184616 492.799988
v 10.534369 13.523467 493.041840
v 10.303127 13.887837 492.799988
v 11.345710 17.522224 493.118500
v 10.811677 17.363853 492.799988
v 7.147744 12.555998 493.044586
v 7.450719 12.923653 492.799988
v 10.720491 17.537710 492.799988
v 10.740741 13.677160 493.070099
v 10.431206 14.036619 492.799988
v 10.549690 14.193151 492.799988
v 7.386731 12.452957 493.074615
v 7.644969 12.895233 492.799988
v 11.313136 17.800489 493.173157
v 10.618569 17.705496 492.799988
v 10.974430 13.851198 493.114319
v 10.658112 14.356812 492.799988
v 11.277139 18.108011 493.245575
v 10.506313 17.866552 492.799988
v 7.645430 12.341418 493.118500
v 7.840619 12.879067 492.799988
v 11.205488 14.023277 493.170044
v 10.756043 14.526959 492.799988
v 11.241326 18.413946 493.329102
v 7.902702 12.230494 493.173157
v 8.036899 12.875217 492.799988
v 8.233032 12.883700 492.799988
v 8.132712 12.131325 495.569336
v 8.233032 12.883700 496.000000
v 8.036899 12.875217 496.000000
v 8.428246 12.904482 496.000000
v 8.719331 12.171735 495.555267
v 8.469875 11.985956 495.470886
v 11.422195 14.184668 495.567657
v 10.843098 14.702919 496.000000
v 10.756043 14.526959 496.000000
v 11.675390 14.705836 495.554413
v 7.793128 12.277738 495.651855
v 7.840619 12.879067 496.000000
v 11.711202 14.399902 495.470886
v 11.284015 18.049271 495.569336
v 10.506313 17.866552 496.000000
v 10.618569 17.705496 496.000000
v 7.535944 12.388624 495.702057
v 7.644969 12.895233 496.000000
v 11.241326 18.413946 495.470886
v 11.129888 13.966973 495.649445
v 10.658112 14.356812 496.000000
v 11.327009 17.681974 495.651855
v 10.720491 17.537710 496.000000
v 10.811677 17.363853 496.000000
v 7.276711 12.500393 495.740906
v 7.450719 12.923653 496.000000
v 7.258637 12.964212 496.000000
v 10.905655 13.799978 495.700012
v 10.549690 14.193151 496.000000
v 10.431206 14.036619 496.000000
v 11.359571 17.403803 495.702057
v 10.891766 17.184616 496.000000
v 7.027408 12.607881 495.766724
v 7.069482 13.016753 496.000000
v 10.678867 13.631081 495.739441
v 10.303127 13.887837 496.000000
v 11.392393 17.123417 495.740906
v 10.960443 17.000704 496.000000
v 10.460119 13.468170 495.765839
v 10.165958 13.747391 496.000000
v 6.776985 12.715852 495.780853
v 6.883998 13.081068 496.000000
v 11.423957 16.853771 495.766724
v 11.017435 16.812841 496.000000
v 11.062520 16.621771 496.000000
v 6.548609 12.814317 495.783051
v 6.702919 13.156902 496.000000
v 6.526959 13.243957 496.000000
v 10.240929 13.304931 495.780518
v 10.020242 13.615834 496.000000
v 9.866552 13.493687 496.000000
v 11.455664 16.582912 495.780853
v 11.095518 16.428247 496.000000
v 6.321179 12.912374 495.774902
v 6.356812 13.341888 496.000000
v 10.041102 13.156112 495.783173
v 9.705497 13.381431 496.000000
v 11.484578 16.335901 495.783051
v 11.116300 16.233032 496.000000
v 6.080804 13.016012 495.755402
v 6.193151 13.450310 496.000000
v 9.842009 13.007839 495.775513
v 9.537709 13.279509 496.000000
v 11.513373 16.089911 495.774902
v 11.124783 16.036898 496.000000
v 11.120933 15.840619 496.000000
v 5.841818 13.119052 495.725372
v 6.036620 13.568794 496.000000
v 9.635252 12.853859 495.756989
v 9.363854 13.188323 496.000000
v 11.543807 15.829922 495.755402
v 5.583119 13.230592 495.681519
v 5.887837 13.696873 496.000000
v 5.747391 13.834042 496.000000
v 11.104767 15.644968 496.000000
v 9.429094 12.700324 495.728119
v 9.184616 13.108234 496.000000
v 9.000703 13.039557 496.000000
v 11.574065 15.571433 495.725372
v 11.076347 15.450719 496.000000
v 5.325847 13.341515 495.626831
v 5.615834 13.979758 496.000000
v 9.199959 12.529678 495.684235
v 8.812840 12.982565 496.000000
v 5.041526 13.464101 495.554413
v 5.493687 14.133448 496.000000
v 11.606819 15.291624 495.681519
v 11.035788 15.258637 496.000000
v 8.971525 12.359554 495.628784
v 8.621771 12.937480 496.000000
v 4.758674 13.586054 495.470886
v 11.639392 15.013358 495.626831
v 10.983247 15.069482 496.000000
v 10.918932 14.883998 496.000000
v 10.904163 18.559315 493.230652
v 10.564579 18.705729 493.148132
v 10.674153 18.658485 495.626831
v 10.958473 18.535898 495.554413
v 7.812978 19.892092 493.245575
v 7.530125 20.014044 493.329102
v 7.530125 20.014044 495.470886
v 7.867288 19.868675 495.569336
v 8.097299 19.769505 493.173157
v 8.206872 19.722261 495.651855
v 8.354569 19.658581 493.118500
v 8.464057 19.611376 495.702057
v 8.613269 19.547043 493.074615
v 8.723289 19.499607 495.740906
v 8.852256 19.444002 493.044586
v 8.972591 19.392118 495.766724
v 9.092630 19.340364 493.025085
v 9.223016 19.284147 495.780853
v 9.320061 19.242308 493.016937
v 9.451390 19.185684 495.783051
v 9.548436 19.143843 493.019135
v 9.678822 19.087626 495.774902
v 9.798860 19.035872 493.033264
v 9.919195 18.983988 495.755402
v 10.048162 18.928383 493.059082
v 10.158182 18.880947 495.725372
v 10.307395 18.816614 493.097961
v 10.416882 18.769409 495.681519
v 7.241118 19.798809 493.232330
v 7.024412 19.637419 495.629944
v 7.278496 19.826647 495.556000
v 6.948810 19.581116 493.150574
v 4.538253 17.785877 493.244751
v 4.288798 17.600098 493.329102
v 4.288798 17.600098 495.470886
v 4.571739 17.810816 495.565735
v 4.790448 17.973696 493.171204
v 4.858015 18.024017 495.646332
v 5.018882 18.143820 493.115784
v 5.084450 18.192652 495.698029
v 5.248017 18.314466 493.071869
v 5.311513 18.361755 495.738098
v 5.454175 18.468000 493.042999
v 5.529935 18.524422 495.765015
v 5.660932 18.621981 493.024475
v 5.749037 18.687597 495.780151
v 5.860025 18.770254 493.016815
v 5.947188 18.835169 495.783295
v 6.059851 18.919073 493.019501
v 6.146161 18.983351 495.776154
v 6.279042 19.082314 493.034180
v 6.353292 19.137609 495.758179
v 6.497790 19.245224 493.060547
v 6.559664 19.291304 495.729889
v 6.724577 19.414122 493.099976
v 6.793353 19.465340 495.685699
v 4.331486 17.235422 493.230652
v 4.374481 16.868126 493.148132
v 4.360608 16.986641 495.626831
v 4.324610 17.294163 495.554413
v 4.722861 13.891989 493.245575
v 4.715985 13.950730 495.569336
v 4.686863 14.199511 493.173157
v 4.672990 14.318026 495.651855
v 4.654290 14.477776 493.118500
v 4.640429 14.596197 495.702057
v 4.621537 14.757586 493.074615
v 4.607607 14.876582 495.740906
v 4.591279 15.016074 493.044586
v 4.576043 15.146230 495.766724
v 4.560844 15.276063 493.025085
v 4.544336 15.417089 495.780853
v 4.532050 15.522053 493.016937
v 4.515422 15.664100 495.783051
v 4.503135 15.769064 493.019135
v 4.486627 15.910089 495.774902
v 4.471429 16.039923 493.033264
v 4.456193 16.170078 495.755402
v 4.439865 16.309570 493.059082
v 4.425935 16.428566 495.725372
v 4.407043 16.589954 493.097961
v 4.393181 16.708376 495.681519
v 8.841058 14.363680 496.000000
v 8.703058 14.299814 496.000000
v 9.963381 18.431206 496.000000
v 10.112163 18.303127 496.000000
v 8.973311 14.438723 496.000000
v 10.252609 18.165958 496.000000
v 9.098916 14.524430 496.000000
v 10.384166 18.020243 496.000000
v 9.217014 14.620218 496.000000
v 9.561277 16.973310 496.000000
v 9.326799 14.725430 496.000000
v 9.636320 16.841057 496.000000
v 4.964212 16.741362 496.000000
v 4.923652 16.549280 496.000000
v 9.427521 14.839351 496.000000
v 9.700186 16.703058 496.000000
v 4.895233 16.355032 496.000000
v 4.879067 16.159382 496.000000
v 5.016753 16.930519 496.000000
v 9.518491 14.961198 496.000000
v 9.752437 16.560257 496.000000
v 4.875218 15.963101 496.000000
v 9.792717 16.413628 496.000000
v 9.599088 15.090142 496.000000
v 5.081068 17.116001 496.000000
v 4.883701 15.766968 496.000000
v 9.668761 15.225302 496.000000
v 9.820751 16.264174 496.000000
v 5.243957 17.473042 496.000000
v 5.156902 17.297081 496.000000
v 4.904482 15.571754 496.000000
v 4.937480 15.378229 496.000000
v 9.727036 15.365752 496.000000
v 9.836348 16.112915 496.000000
v 9.773513 15.510536 496.000000
v 9.839400 15.960885 496.000000
v 5.341888 17.643188 496.000000
v 9.807875 15.658664 496.000000
v 9.829887 15.809123 496.000000
v 4.982565 15.187160 496.000000
v 5.450310 17.806849 496.000000
v 5.039558 14.999297 496.000000
v 5.696873 18.112164 496.000000
v 5.568794 17.963381 496.000000
v 5.108234 14.815384 496.000000
v 5.188323 14.636146 496.000000
v 5.834042 18.252609 496.000000
v 5.279509 14.462291 496.000000
v 5.979758 18.384167 496.000000
v 5.381430 14.294503 496.000000
v 6.294504 18.618570 496.000000
v 6.133448 18.506313 496.000000
v 6.462290 18.720491 496.000000
v 6.620218 14.782986 496.000000
v 6.636146 18.811676 496.000000
v 6.725431 14.673201 496.000000
v 6.999297 18.960442 496.000000
v 6.815384 18.891766 496.000000
v 6.839350 14.572479 496.000000
v 7.187159 19.017435 496.000000
v 6.961198 14.481509 496.000000
v 7.378229 19.062519 496.000000
v 7.090142 14.400912 496.000000
v 7.766968 19.116299 496.000000
v 7.571754 19.095518 496.000000
v 7.225301 14.331239 496.000000
v 7.963101 19.124783 496.000000
v 7.365753 14.272964 496.000000
v 8.159381 19.120934 496.000000
v 7.510536 14.226487 496.000000
v 8.355032 19.104767 496.000000
v 7.658664 14.192125 496.000000
v 8.549281 19.076347 496.000000
v 7.809123 14.170113 496.000000
v 8.741363 19.035788 496.000000
v 7.960886 14.160600 496.000000
v 8.930518 18.983246 496.000000
v 8.112915 14.163652 496.000000
v 9.116002 18.918932 496.000000
v 8.264174 14.179249 496.000000
v 9.297081 18.843098 496.000000
v 8.413629 14.207283 496.000000
v 9.473041 18.756042 496.000000
v 8.560257 14.247563 496.000000
v 9.643188 18.658112 496.000000
v 9.806849 18.549690 496.000000
v 10.252609 18.165958 492.799988
v 10.112163 18.303127 492.799988
v 8.928959 14.228832 492.799988
v 9.065060 14.307178 492.799988
v 10.384166 18.020243 492.799988
v 9.194593 14.395959 492.799988
v 9.692822 17.065060 492.799988
v 9.316763 14.494631 492.799988
v 9.771168 16.928959 492.799988
v 9.430813 14.602583 492.799988
v 9.838593 16.787130 492.799988
v 9.536042 14.719151 492.799988
v 4.895233 16.355032 492.799988
v 4.923652 16.549280 492.799988
v 9.894683 16.640450 492.799988
v 9.631802 14.843616 492.799988
v 4.879067 16.159382 492.799988
v 9.717501 14.975211 492.799988
v 4.964212 16.741362 492.799988
v 9.939092 16.489820 492.799988
v 5.016753 16.930519 492.799988
v 5.081068 17.116001 492.799988
v 9.792610 15.113123 492.799988
v 4.875218 15.963101 492.799988
v 4.883701 15.766968 492.799988
v 9.971545 16.336172 492.799988
v 9.856668 15.256504 492.799988
v 4.904482 15.571754 492.799988
v 9.991843 16.180449 492.799988
v 9.909278 15.404469 492.799988
v 9.999861 16.023615 492.799988
v 5.156902 17.297081 492.799988
v 9.995548 15.866635 492.799988
v 5.243957 17.473042 492.799988
v 9.950117 15.556105 492.799988
v 9.978933 15.710477 492.799988
v 4.937480 15.378229 492.799988
v 4.982565 15.187160 492.799988
v 5.341888 17.643188 492.799988
v 5.039558 14.999297 492.799988
v 5.108234 14.815384 492.799988
v 5.450310 17.806849 492.799988
v 5.568794 17.963381 492.799988
v 5.696873 18.112164 492.799988
v 5.188323 14.636146 492.799988
v 5.834042 18.252609 492.799988
v 5.279509 14.462291 492.799988
v 5.979758 18.384167 492.799988
v 5.381430 14.294503 492.799988
v 6.133448 18.506313 492.799988
v 6.294504 18.618570 492.799988
v 6.494631 14.683237 492.799988
v 6.462290 18.720491 492.799988
v 6.636146 18.811676 492.799988
v 6.602583 14.569187 492.799988
v 6.815384 18.891766 492.799988
v 6.719151 14.463958 492.799988
v 6.843616 14.368198 492.799988
v 6.999297 18.960442 492.799988
v 7.187159 19.017435 492.799988
v 7.378229 19.062519 492.799988
v 6.975211 14.282499 492.799988
v 7.571754 19.095518 492.799988
v 7.113123 14.207390 492.799988
v 7.256504 14.143332 492.799988
v 7.766968 19.116299 492.799988
v 7.963101 19.124783 492.799988
v 7.404468 14.090722 492.799988
v 8.159381 19.120934 492.799988
v 7.556104 14.049883 492.799988
v 8.355032 19.104767 492.799988
v 7.710477 14.021067 492.799988
v 8.549281 19.076347 492.799988
v 7.866635 14.004452 492.799988
v 8.741363 19.035788 492.799988
v 8.023615 14.000139 492.799988
v 8.930518 18.983246 492.799988
v 9.116002 18.918932 492.799988
v 8.180449 14.008157 492.799988
v 9.297081 18.843098 492.799988
v 8.336171 14.028455 492.799988
v 9.473041 18.756042 492.799988
v 8.489820 14.060908 492.799988
v 9.643188 18.658112 492.799988
v 8.640450 14.105317 492.799988
v 9.806849 18.549690 492.799988
v 9.963381 18.431206 492.799988
v 8.787131 14.161407 492.799988
v 7.906026 14.381726 495.621002
v 7.906026 14.381726 493.018829
v 7.765342 14.396074 493.018829
v 9.488539 15.358212 495.621002
v 9.538810 15.490388 495.621002
v 9.488539 15.358212 493.018829
v 9.426939 15.230919 493.018829
v 7.626443 14.422630 495.621002
v 7.765342 14.396074 495.621002
v 7.626443 14.422630 493.018829
v 9.426939 15.230919 495.621002
v 9.354479 15.109479 493.018829
v 7.490388 14.461190 495.621002
v 7.490388 14.461190 493.018829
v 9.354479 15.109479 495.621002
v 7.358211 14.511461 493.018829
v 9.271711 14.994818 493.018829
v 9.379514 16.851225 493.018829
v 7.358211 14.511461 495.621002
v 9.271711 14.994818 495.621002
v 7.230918 14.573061 493.018829
v 9.379514 16.851225 495.621002
v 9.179264 14.887805 493.018829
v 7.230918 14.573061 495.621002
v 9.179264 14.887805 495.621002
v 7.109479 14.645521 493.018829
v 9.448453 16.727753 495.621002
v 9.448453 16.727753 493.018829
v 7.109479 14.645521 495.621002
v 9.077843 14.789258 493.018829
v 6.994817 14.728289 493.018829
v 9.077843 14.789258 495.621002
v 6.994817 14.728289 495.621002
v 6.887805 14.820736 493.018829
v 9.506370 16.598743 495.621002
v 9.506370 16.598743 493.018829
v 6.887805 14.820736 495.621002
v 8.968218 14.699925 495.621002
v 8.968218 14.699925 493.018829
v 6.789258 14.922157 493.018829
v 9.552821 16.465176 493.018829
v 6.789258 14.922157 495.621002
v 9.552821 16.465176 495.621002
v 8.851225 14.620486 495.621002
v 8.851225 14.620486 493.018829
v 9.587455 16.328068 493.018829
v 9.587455 16.328068 495.621002
v 8.727753 14.551547 495.621002
v 8.727753 14.551547 493.018829
v 9.610007 16.188463 493.018829
v 8.598742 14.493630 495.621002
v 8.598742 14.493630 493.018829
v 9.610007 16.188463 495.621002
v 9.620306 16.047426 493.018829
v 8.465176 14.447179 493.018829
v 8.465176 14.447179 495.621002
v 9.620306 16.047426 495.621002
v 9.618274 15.906026 493.018829
v 8.328068 14.412545 495.621002
v 8.328068 14.412545 493.018829
v 9.618274 15.906026 495.621002
v 8.188464 14.389993 493.018829
v 9.603926 15.765342 493.018829
v 8.188464 14.389993 495.621002
v 9.603926 15.765342 495.621002
v 9.577370 15.626443 493.018829
v 8.047425 14.379694 495.621002
v 8.047425 14.379694 493.018829
v 9.577370 15.626443 495.621002
v 9.538810 15.490388 493.018829
f 1 2 3
f 4 1 3
f 5 6 7
f 4 3 8
f 9 4 8
f 9 8 10
f 11 12 13
f 14 9 15
f 16 11 13
f 9 10 15
f 14 15 17
f 18 16 19
f 20 14 17
f 16 13 19
f 21 20 22
f 23 18 24
f 20 17 22
f 18 19 24
f 25 21 26
f 21 22 26
f 27 23 28
f 23 24 28
f 29 25 30
f 25 26 30
f 31 27 32
f 27 28 32
f 33 29 34
f 29 30 34
f 31 32 35
f 36 31 35
f 37 33 38
f 33 34 38
f 39 37 40
f 36 35 41
f 42 36 41
f 37 38 40
f 42 41 43
f 44 42 43
f 39 40 45
f 46 39 45
f 44 43 47
f 48 44 47
f 46 45 49
f 48 47 50
f 46 49 51
f 52 46 51
f 48 50 53
f 54 48 53
f 52 51 55
f 56 52 55
f 54 53 57
f 58 54 57
f 56 55 59
f 60 56 59
f 58 57 61
f 62 58 61
f 60 59 63
f 64 60 63
f 62 61 65
f 66 62 65
f 64 63 67
f 68 64 67
f 66 65 69
f 68 67 70
f 71 66 69
f 72 68 70
f 72 70 73
f 71 69 74
f 75 71 74
f 76 72 73
f 76 73 77
f 78 76 77
f 75 74 2
f 1 75 2
f 78 77 6
f 5 78 6
f 79 80 81
f 82 83 84
f 79 81 85
f 86 79 85
f 86 85 87
f 88 86 89
f 90 91 92
f 86 87 89
f 93 90 92
f 94 88 95
f 88 89 95
f 96 93 97
f 93 92 97
f 98 94 99
f 100 96 101
f 94 95 99
f 96 97 101
f 102 98 103
f 104 100 105
f 98 99 103
f 100 101 105
f 106 102 107
f 104 105 108
f 102 103 107
f 109 104 108
f 110 106 111
f 106 107 111
f 109 108 112
f 113 109 112
f 114 110 115
f 110 111 115
f 113 112 116
f 117 113 116
f 118 114 119
f 114 115 119
f 117 116 120
f 121 117 120
f 122 118 123
f 118 119 123
f 121 120 124
f 125 121 124
f 126 122 127
f 122 123 127
f 125 124 128
f 129 125 128
f 130 126 131
f 129 128 132
f 133 129 132
f 126 127 131
f 130 131 134
f 135 130 134
f 133 132 136
f 137 133 136
f 135 134 138
f 139 135 138
f 137 136 140
f 141 137 140
f 139 138 142
f 143 139 142
f 141 140 144
f 145 141 144
f 143 142 146
f 147 143 146
f 145 144 148
f 149 145 148
f 147 146 150
f 151 147 150
f 149 148 152
f 80 149 152
f 151 150 153
f 154 151 153
f 154 153 83
f 80 152 81
f 82 154 83
f 155 156 157
f 155 157 158
f 155 158 159
f 155 160 156
f 161 155 159
f 162 163 164
f 161 159 165
f 162 166 163
f 162 167 166
f 168 169 170
f 171 161 165
f 171 165 172
f 173 164 174
f 168 175 169
f 176 170 177
f 173 162 164
f 176 168 170
f 176 177 178
f 179 171 172
f 179 172 180
f 179 180 181
f 182 174 183
f 182 183 184
f 185 178 186
f 182 173 174
f 187 179 181
f 188 184 189
f 185 176 178
f 187 181 190
f 188 182 184
f 191 186 192
f 191 185 186
f 193 189 194
f 195 190 196
f 195 187 190
f 193 188 189
f 197 191 192
f 197 192 198
f 197 198 199
f 200 196 201
f 200 201 202
f 200 195 196
f 203 194 204
f 203 204 205
f 203 193 194
f 206 199 207
f 208 202 209
f 206 197 199
f 208 200 202
f 210 205 211
f 210 203 205
f 212 207 213
f 214 209 215
f 212 206 207
f 214 208 209
f 216 211 217
f 216 210 211
f 218 213 219
f 218 219 220
f 221 215 222
f 221 214 215
f 218 212 213
f 223 217 224
f 223 216 217
f 225 222 226
f 227 220 228
f 225 226 229
f 227 218 220
f 230 223 224
f 225 221 222
f 230 224 231
f 230 231 232
f 233 228 234
f 235 229 236
f 237 230 232
f 233 227 228
f 237 232 238
f 235 225 229
f 239 236 240
f 241 234 242
f 239 235 236
f 241 233 234
f 243 237 238
f 243 238 244
f 243 244 157
f 245 239 240
f 246 242 247
f 246 247 248
f 246 241 242
f 156 243 157
f 166 248 163
f 166 246 248
f 249 250 251
f 249 252 250
f 249 253 252
f 249 254 253
f 255 256 257
f 255 258 256
f 259 251 260
f 255 261 258
f 259 249 251
f 262 263 264
f 265 260 266
f 262 267 263
f 265 259 260
f 268 257 269
f 268 255 257
f 270 262 264
f 270 271 272
f 270 264 271
f 273 274 275
f 273 266 274
f 276 277 278
f 273 265 266
f 276 269 277
f 276 268 269
f 279 270 272
f 279 272 280
f 281 275 282
f 281 273 275
f 283 278 284
f 283 276 278
f 285 279 280
f 285 280 286
f 287 284 288
f 289 281 282
f 287 283 284
f 289 282 290
f 291 285 286
f 291 292 293
f 294 295 296
f 291 286 292
f 294 290 295
f 294 289 290
f 297 298 299
f 297 288 298
f 297 287 288
f 300 291 293
f 300 293 301
f 302 296 303
f 302 294 296
f 304 299 305
f 304 297 299
f 306 300 301
f 306 301 307
f 308 303 309
f 310 305 311
f 308 302 303
f 310 304 305
f 312 306 307
f 312 313 314
f 312 307 313
f 315 309 316
f 315 308 309
f 317 311 318
f 317 310 311
f 319 312 314
f 320 321 322
f 319 314 323
f 320 316 321
f 324 325 326
f 324 318 325
f 320 315 316
f 324 317 318
f 327 323 328
f 327 319 323
f 329 322 330
f 331 324 326
f 331 326 332
f 329 320 322
f 333 330 334
f 335 327 328
f 335 328 336
f 333 329 330
f 337 331 332
f 337 338 252
f 337 332 338
f 339 333 334
f 340 341 342
f 340 336 341
f 340 335 336
f 253 337 252
f 258 342 256
f 258 340 342
f 110 114 62
f 110 62 66
f 121 125 52
f 125 46 52
f 106 110 66
f 106 66 71
f 117 121 56
f 121 52 56
f 102 106 71
f 117 56 60
f 102 71 75
f 82 11 16
f 113 117 60
f 98 102 75
f 113 60 64
f 154 82 16
f 98 75 1
f 109 113 64
f 94 98 1
f 109 64 68
f 151 154 18
f 154 16 18
f 104 109 68
f 94 1 4
f 104 68 72
f 88 94 4
f 100 104 72
f 100 72 76
f 147 151 23
f 151 18 23
f 96 100 76
f 86 88 9
f 88 4 9
f 96 76 78
f 147 23 27
f 93 96 78
f 93 78 5
f 90 93 5
f 143 147 27
f 79 86 14
f 86 9 14
f 143 27 31
f 139 143 31
f 80 79 20
f 79 14 20
f 139 31 36
f 149 80 21
f 135 139 36
f 80 20 21
f 135 36 42
f 145 149 25
f 149 21 25
f 130 135 42
f 145 25 29
f 130 42 44
f 141 145 29
f 126 130 44
f 126 44 48
f 137 141 33
f 141 29 33
f 122 126 48
f 122 48 54
f 133 137 37
f 137 33 37
f 118 122 54
f 118 54 58
f 129 133 39
f 133 37 39
f 114 118 58
f 114 58 62
f 125 129 46
f 129 39 46
f 343 344 345
f 245 346 267
f 245 343 346
f 347 348 349
f 347 349 350
f 351 350 352
f 351 347 350
f 353 352 354
f 353 351 352
f 355 354 356
f 355 353 354
f 357 356 358
f 357 355 356
f 359 358 360
f 359 357 358
f 361 360 362
f 361 359 360
f 363 362 364
f 363 361 362
f 365 364 366
f 365 363 364
f 367 366 368
f 367 365 366
f 369 368 370
f 369 367 368
f 344 370 345
f 344 369 370
f 343 345 346
f 371 372 373
f 371 374 372
f 348 373 349
f 348 371 373
f 375 376 377
f 375 377 378
f 379 378 380
f 379 375 378
f 381 380 382
f 381 379 380
f 383 382 384
f 383 381 382
f 385 384 386
f 385 383 384
f 387 386 388
f 387 385 386
f 389 388 390
f 389 387 388
f 391 390 392
f 391 389 390
f 393 392 394
f 393 391 392
f 395 394 396
f 395 393 394
f 397 396 398
f 397 395 396
f 374 398 372
f 374 397 398
f 399 400 401
f 376 402 377
f 376 399 402
f 403 175 339
f 403 339 404
f 405 404 406
f 405 403 404
f 407 406 408
f 407 405 406
f 409 408 410
f 409 407 408
f 411 410 412
f 411 409 410
f 413 412 414
f 413 411 412
f 415 414 416
f 415 413 414
f 417 416 418
f 417 415 416
f 419 418 420
f 419 417 418
f 421 420 422
f 421 419 420
f 423 422 424
f 423 421 422
f 400 424 401
f 400 423 424
f 399 401 402
f 168 176 329
f 175 333 339
f 175 168 333
f 166 167 254
f 166 254 249
f 246 249 259
f 246 166 249
f 241 259 265
f 241 246 259
f 233 265 273
f 233 241 265
f 227 273 281
f 227 233 273
f 218 281 289
f 218 227 281
f 212 289 294
f 212 218 289
f 206 294 302
f 206 212 294
f 197 302 308
f 197 206 302
f 191 308 315
f 191 197 308
f 185 315 320
f 185 191 315
f 176 320 329
f 176 185 320
f 168 329 333
f 156 261 255
f 156 255 243
f 160 261 156
f 167 253 254
f 162 337 253
f 162 253 167
f 173 331 337
f 173 337 162
f 182 324 331
f 182 331 173
f 188 317 324
f 188 324 182
f 193 310 317
f 193 317 188
f 203 304 310
f 203 310 193
f 210 297 304
f 210 304 203
f 216 287 297
f 216 297 210
f 223 283 287
f 223 287 216
f 230 276 283
f 230 283 223
f 237 268 276
f 237 276 230
f 243 255 268
f 243 268 237
f 155 161 340
f 160 258 261
f 160 155 258
f 239 245 267
f 239 267 262
f 235 262 270
f 235 239 262
f 225 270 279
f 225 235 270
f 221 279 285
f 221 225 279
f 214 285 291
f 214 221 285
f 208 291 300
f 208 214 291
f 200 300 306
f 200 208 300
f 195 306 312
f 195 200 306
f 187 312 319
f 187 195 312
f 179 319 327
f 179 187 319
f 171 327 335
f 171 179 327
f 161 335 340
f 161 171 335
f 155 340 258
f 425 426 318
f 427 101 428
f 101 97 428
f 425 318 311
f 429 425 311
f 97 92 430
f 428 97 430
f 431 429 305
f 429 311 305
f 92 91 432
f 430 92 432
f 431 305 299
f 432 91 263
f 433 431 298
f 431 299 298
f 91 434 264
f 263 91 264
f 435 433 288
f 433 298 288
f 434 436 271
f 264 434 271
f 437 438 123
f 439 435 284
f 435 288 284
f 436 440 272
f 438 441 127
f 271 436 272
f 441 442 127
f 439 284 278
f 123 438 127
f 272 440 280
f 439 278 277
f 443 437 119
f 437 123 119
f 444 439 277
f 440 445 286
f 442 446 131
f 280 440 286
f 445 447 292
f 127 442 131
f 286 445 292
f 443 119 115
f 448 444 269
f 444 277 269
f 449 443 115
f 448 269 257
f 446 450 134
f 451 448 257
f 292 447 293
f 447 452 293
f 451 257 256
f 131 446 134
f 293 452 301
f 453 454 111
f 454 449 111
f 449 115 111
f 451 256 342
f 450 455 138
f 455 456 138
f 457 451 342
f 301 452 307
f 452 458 307
f 134 450 138
f 457 342 341
f 459 457 341
f 307 458 313
f 458 460 313
f 459 341 336
f 461 453 107
f 462 459 336
f 453 111 107
f 313 460 314
f 460 463 314
f 138 456 142
f 462 336 328
f 456 464 142
f 463 462 328
f 314 463 323
f 463 328 323
f 465 461 103
f 461 107 103
f 464 466 146
f 142 464 146
f 467 468 99
f 468 465 99
f 465 103 99
f 466 469 150
f 469 470 150
f 146 466 150
f 471 467 95
f 467 99 95
f 470 472 153
f 150 470 153
f 473 471 89
f 471 95 89
f 472 474 83
f 153 472 83
f 475 476 87
f 476 473 87
f 473 89 87
f 474 334 84
f 334 330 84
f 83 474 84
f 475 87 85
f 477 475 85
f 84 330 478
f 330 322 478
f 477 85 81
f 479 477 81
f 322 321 480
f 478 322 480
f 479 81 152
f 481 482 152
f 482 479 152
f 321 316 483
f 316 309 483
f 480 321 483
f 481 152 148
f 484 481 148
f 309 303 485
f 483 309 485
f 484 148 144
f 486 484 144
f 303 296 487
f 485 303 487
f 486 144 140
f 488 489 140
f 489 486 140
f 487 296 490
f 296 295 490
f 295 290 490
f 488 140 136
f 491 488 136
f 490 290 492
f 290 282 492
f 491 136 132
f 493 491 132
f 282 275 494
f 492 282 494
f 493 132 128
f 495 493 128
f 275 274 496
f 494 275 496
f 495 128 124
f 495 124 497
f 496 274 266
f 498 496 266
f 124 120 499
f 497 124 499
f 498 266 260
f 500 498 260
f 120 116 501
f 499 120 501
f 502 500 251
f 500 260 251
f 116 112 503
f 501 116 503
f 504 502 250
f 502 251 250
f 503 112 505
f 504 250 252
f 506 504 338
f 504 252 338
f 112 108 507
f 505 112 507
f 506 338 332
f 508 506 332
f 108 105 509
f 507 108 509
f 508 332 326
f 426 508 326
f 105 101 510
f 509 105 510
f 426 326 325
f 510 101 427
f 426 325 318
f 511 77 512
f 194 189 513
f 194 513 514
f 515 7 6
f 515 6 511
f 204 194 514
f 204 514 516
f 240 7 515
f 205 204 516
f 236 517 7
f 236 7 240
f 211 516 518
f 211 205 516
f 229 517 236
f 229 519 517
f 217 518 520
f 217 211 518
f 226 521 519
f 226 519 229
f 224 520 522
f 224 217 520
f 222 521 226
f 50 523 524
f 222 525 521
f 231 224 522
f 231 522 526
f 47 523 50
f 47 527 523
f 232 231 526
f 53 50 524
f 215 525 222
f 238 232 526
f 238 526 528
f 53 524 529
f 57 53 529
f 209 530 525
f 57 531 532
f 209 525 215
f 57 529 531
f 244 238 528
f 244 528 533
f 43 527 47
f 43 534 527
f 43 535 534
f 202 530 209
f 202 536 530
f 157 244 533
f 157 533 537
f 41 538 535
f 201 536 202
f 201 539 536
f 41 535 43
f 61 57 532
f 158 157 537
f 158 537 540
f 196 539 201
f 196 541 539
f 61 532 542
f 159 158 540
f 190 541 196
f 65 61 542
f 181 541 190
f 181 543 541
f 65 542 544
f 165 159 540
f 165 540 545
f 172 165 545
f 172 545 546
f 35 547 538
f 180 543 181
f 180 172 546
f 180 546 543
f 35 538 41
f 32 547 35
f 32 548 547
f 69 65 544
f 69 544 549
f 28 548 32
f 28 550 548
f 28 551 550
f 74 552 553
f 74 549 552
f 74 69 549
f 2 74 553
f 2 553 554
f 24 551 28
f 24 555 551
f 3 2 554
f 3 554 556
f 19 555 24
f 19 557 555
f 8 556 558
f 8 3 556
f 13 557 19
f 13 559 557
f 12 559 13
f 12 169 559
f 12 170 169
f 10 8 558
f 10 560 561
f 10 558 560
f 562 177 170
f 562 170 12
f 15 561 563
f 15 10 561
f 17 15 563
f 17 563 564
f 565 177 562
f 565 178 177
f 22 564 566
f 22 17 564
f 567 186 178
f 567 178 565
f 568 186 567
f 568 192 186
f 568 198 192
f 26 22 566
f 26 569 570
f 26 566 569
f 30 26 570
f 30 570 571
f 572 198 568
f 572 199 198
f 34 30 571
f 34 571 573
f 574 199 572
f 574 207 199
f 575 207 574
f 575 213 207
f 38 34 573
f 38 573 576
f 40 38 576
f 40 576 577
f 578 213 575
f 578 219 213
f 579 40 577
f 220 219 578
f 580 220 578
f 45 40 579
f 581 45 579
f 228 220 580
f 49 45 581
f 582 228 580
f 583 49 581
f 234 228 582
f 51 49 583
f 584 234 582
f 585 51 583
f 242 234 584
f 55 51 585
f 586 242 584
f 587 55 585
f 247 242 586
f 588 59 55
f 588 55 587
f 248 586 589
f 248 247 586
f 590 63 59
f 590 59 588
f 163 589 591
f 163 248 589
f 592 67 63
f 592 63 590
f 164 591 593
f 164 163 591
f 594 70 67
f 594 67 592
f 174 164 593
f 174 593 595
f 596 70 594
f 183 174 595
f 597 73 70
f 597 70 596
f 184 183 595
f 184 595 598
f 189 184 598
f 189 598 513
f 512 77 73
f 512 73 597
f 511 6 77
f 599 600 601
f 602 603 604
f 602 604 605
f 606 607 608
f 607 601 608
f 609 602 605
f 609 605 610
f 611 606 612
f 606 608 612
f 613 609 610
f 611 612 614
f 613 610 615
f 90 5 616
f 617 611 614
f 618 613 615
f 617 614 619
f 620 90 616
f 618 615 621
f 622 617 619
f 623 618 621
f 622 619 624
f 625 620 626
f 620 616 626
f 627 622 624
f 623 621 628
f 627 624 629
f 630 623 628
f 631 627 629
f 631 629 632
f 633 625 634
f 625 626 634
f 635 631 632
f 636 630 637
f 630 628 637
f 635 632 638
f 633 634 639
f 640 635 638
f 640 638 11
f 82 640 11
f 641 633 639
f 642 636 643
f 636 637 643
f 641 639 644
f 645 641 644
f 646 642 647
f 642 643 647
f 645 644 648
f 649 646 650
f 651 645 648
f 646 647 650
f 651 648 652
f 649 650 653
f 654 649 653
f 655 651 652
f 655 652 656
f 657 654 658
f 654 653 658
f 659 655 656
f 657 658 660
f 659 656 661
f 662 657 660
f 663 659 661
f 663 661 664
f 665 662 666
f 662 660 666
f 667 663 664
f 667 664 668
f 599 665 600
f 665 666 600
f 603 667 668
f 603 668 604
f 607 599 601
f 350 488 491
f 350 489 488
f 350 373 489
f 350 349 373
f 378 454 453
f 352 491 493
f 378 402 454
f 352 350 491
f 378 377 402
f 404 339 334
f 354 493 495
f 354 352 493
f 404 334 474
f 380 453 461
f 380 378 453
f 406 404 474
f 406 472 470
f 406 474 472
f 356 497 499
f 356 495 497
f 356 354 495
f 382 465 468
f 382 461 465
f 382 380 461
f 408 406 470
f 408 470 469
f 384 468 467
f 358 499 501
f 358 356 499
f 384 382 468
f 410 408 469
f 386 467 471
f 410 469 466
f 360 501 503
f 386 384 467
f 360 358 501
f 362 505 507
f 412 410 466
f 362 503 505
f 362 360 503
f 412 464 456
f 412 466 464
f 388 473 476
f 388 471 473
f 388 386 471
f 414 412 456
f 364 507 509
f 414 456 455
f 364 362 507
f 390 476 475
f 390 388 476
f 416 414 455
f 366 509 510
f 416 455 450
f 366 364 509
f 392 475 477
f 392 390 475
f 418 416 450
f 368 510 427
f 418 446 442
f 368 366 510
f 418 450 446
f 394 477 479
f 394 392 477
f 370 428 430
f 420 418 442
f 370 427 428
f 370 368 427
f 420 442 441
f 396 482 481
f 396 479 482
f 396 394 479
f 345 430 432
f 422 441 438
f 422 420 441
f 398 481 484
f 345 370 430
f 346 432 263
f 398 396 481
f 346 345 432
f 424 438 437
f 372 398 484
f 424 422 438
f 372 486 489
f 372 484 486
f 267 346 263
f 401 424 437
f 401 443 449
f 401 437 443
f 373 372 489
f 402 449 454
f 402 401 449
f 399 375 542
f 399 542 532
f 399 532 531
f 399 376 375
f 371 573 571
f 400 399 531
f 371 347 573
f 400 531 529
f 371 348 347
f 343 245 240
f 343 240 515
f 423 400 529
f 374 571 570
f 423 529 524
f 344 515 511
f 374 371 571
f 344 343 515
f 344 511 512
f 421 423 524
f 397 570 569
f 421 524 523
f 397 569 566
f 421 523 527
f 369 512 597
f 397 374 570
f 369 344 512
f 419 421 527
f 395 566 564
f 419 527 534
f 367 597 596
f 395 397 566
f 367 369 597
f 393 564 563
f 393 395 564
f 417 419 534
f 417 534 535
f 365 367 596
f 365 596 594
f 365 594 592
f 415 535 538
f 415 417 535
f 415 538 547
f 391 563 561
f 391 561 560
f 363 592 590
f 391 393 563
f 363 365 592
f 413 547 548
f 389 560 558
f 413 415 547
f 389 391 560
f 361 590 588
f 361 363 590
f 411 548 550
f 387 558 556
f 411 413 548
f 387 389 558
f 359 588 587
f 359 587 585
f 359 361 588
f 409 550 551
f 409 411 550
f 385 556 554
f 385 387 556
f 357 585 583
f 407 551 555
f 357 359 585
f 407 555 557
f 383 385 554
f 383 554 553
f 383 553 552
f 407 409 551
f 355 583 581
f 355 357 583
f 405 557 559
f 381 383 552
f 381 552 549
f 405 407 557
f 403 559 169
f 353 581 579
f 353 355 581
f 403 405 559
f 379 381 549
f 379 549 544
f 379 544 542
f 175 403 169
f 351 579 577
f 351 577 576
f 351 353 579
f 375 379 542
f 347 576 573
f 347 351 576
f 620 436 434
f 646 426 425
f 90 620 434
f 642 646 425
f 90 434 91
f 642 425 429
f 636 642 429
f 636 429 431
f 630 636 433
f 82 84 478
f 640 82 478
f 636 431 433
f 630 433 435
f 623 630 435
f 635 640 480
f 640 478 480
f 618 623 439
f 631 635 483
f 623 435 439
f 635 480 483
f 613 618 444
f 618 439 444
f 627 631 485
f 631 483 485
f 609 613 448
f 627 485 487
f 613 444 448
f 622 627 487
f 602 609 451
f 609 448 451
f 622 487 490
f 617 622 490
f 603 602 457
f 602 451 457
f 617 490 492
f 611 617 492
f 667 603 459
f 603 457 459
f 611 492 494
f 606 611 494
f 663 667 462
f 667 459 462
f 606 494 496
f 607 606 496
f 659 663 463
f 663 462 463
f 607 496 498
f 599 607 498
f 655 659 460
f 599 498 500
f 665 599 500
f 659 463 460
f 655 460 458
f 651 655 458
f 665 500 502
f 662 665 502
f 651 458 452
f 645 651 452
f 662 502 504
f 657 662 504
f 645 452 447
f 641 645 447
f 657 504 506
f 654 657 506
f 641 447 445
f 633 641 445
f 654 506 508
f 649 654 508
f 633 445 440
f 625 633 440
f 649 508 426
f 646 649 426
f 625 440 436
f 620 625 436
f 621 522 520
f 628 621 520
f 11 562 12
f 628 520 518
f 637 628 518
f 637 518 516
f 5 7 517
f 643 637 514
f 616 5 517
f 637 516 514
f 647 643 513
f 626 616 519
f 643 514 513
f 616 517 519
f 650 647 598
f 634 626 521
f 647 513 598
f 626 519 521
f 653 650 595
f 650 598 595
f 639 634 525
f 634 521 525
f 658 653 593
f 653 595 593
f 644 639 530
f 639 525 530
f 660 658 591
f 658 593 591
f 644 530 536
f 648 644 536
f 666 660 589
f 660 591 589
f 600 666 586
f 648 536 539
f 652 648 539
f 666 589 586
f 652 539 541
f 656 652 541
f 600 586 584
f 601 600 584
f 656 541 543
f 661 656 543
f 601 584 582
f 661 543 546
f 601 582 580
f 608 601 580
f 661 546 545
f 664 661 545
f 608 580 578
f 612 608 578
f 664 545 540
f 668 664 540
f 612 578 575
f 614 612 575
f 668 540 537
f 604 668 537
f 614 575 574
f 619 614 574
f 604 537 533
f 605 604 533
f 619 574 572
f 624 619 572
f 605 533 528
f 624 572 568
f 610 605 528
f 629 624 568
f 629 568 567
f 610 528 526
f 615 610 526
f 632 629 567
f 632 567 565
f 638 632 565
f 615 526 522
f 621 615 522
f 638 565 562
f 11 638 562
