# Created by FreeCAD <http://www.freecadweb.org>
v 24.981184 532.065552 14.619673
v 25.200001 532.237427 14.985854
v 25.200001 532.080933 14.998363
v 24.981184 533.607788 12.793507
v 25.200001 533.961121 12.607471
v 25.200001 533.985840 12.762547
v 24.981184 533.619690 12.934421
v 25.200001 533.998352 12.919088
v 24.981184 531.934448 11.380327
v 25.200001 531.919067 11.001637
v 25.200001 532.076111 11.001450
v 24.981184 533.619202 13.075834
v 25.200001 533.998535 13.076127
v 24.981184 532.075806 11.380774
v 25.200001 533.986389 13.232697
v 24.981184 532.216675 11.393546
v 25.200001 532.232727 11.013583
v 24.981184 533.606445 13.216670
v 24.981184 533.581482 13.355858
v 25.200001 533.962036 13.387832
v 24.981184 532.355835 11.418543
v 25.200001 532.387817 11.037964
v 24.981184 533.544434 13.492336
v 25.200001 533.925537 13.540576
v 24.981184 532.492310 11.455576
v 25.200001 532.540588 11.074441
v 24.981184 533.495667 13.625069
v 25.200001 533.877197 13.689987
v 24.981184 532.625061 11.504363
v 25.200001 532.690002 11.122790
v 24.981184 533.435486 13.753043
v 25.200001 533.817261 13.835145
v 25.200001 532.835144 11.182713
v 24.981184 532.753052 11.564532
v 24.981184 533.364380 13.875287
v 25.200001 533.746155 13.975153
v 24.981184 533.282898 13.990870
v 25.200001 533.664246 14.109149
v 25.200001 532.975159 11.253839
v 24.981184 532.875305 11.635627
v 25.200001 533.109131 11.335732
v 24.981184 532.990845 11.717105
v 25.200001 533.572144 14.236307
v 24.981184 533.191650 14.098910
v 25.200001 533.236328 11.427885
v 24.981184 533.098938 11.808347
v 25.200001 533.470276 14.355843
v 25.200001 533.355835 11.529731
v 25.200001 533.359375 14.467019
v 24.981184 533.091370 14.198588
v 25.200001 533.467041 11.640641
v 24.981184 533.198608 11.908658
v 25.200001 533.240051 14.569151
v 24.981184 532.982727 14.289144
v 25.200001 533.569153 11.759933
v 24.981184 533.289124 12.017275
v 25.200001 533.113159 14.661608
v 24.981184 532.866638 14.369888
v 25.200001 533.661621 11.886869
v 24.981184 533.369873 12.133370
v 25.200001 532.979309 14.743821
v 24.981184 532.743958 14.440207
v 25.200001 533.743835 12.020669
v 24.981184 533.440186 12.256062
v 25.200001 532.839478 14.815283
v 24.981184 532.615601 14.499565
v 25.200001 533.815308 12.160507
v 25.200001 532.694458 14.875552
v 24.981184 533.499573 12.384415
v 24.981184 532.482544 14.547511
v 25.200001 532.545166 14.924259
v 25.200001 533.875549 12.305520
v 24.981184 533.547485 12.517453
v 24.981184 532.345825 14.583679
v 25.200001 532.392517 14.961102
v 24.981184 532.206482 14.607794
v 25.200001 533.924255 12.454815
v 24.981184 533.583679 12.654164
v 22.379000 532.075806 11.380774
v 22.000000 532.229187 11.174512
v 22.000000 532.077637 11.161822
v 22.379000 533.606445 13.216670
v 22.000000 533.800354 13.379125
v 22.000000 533.825500 13.229159
v 22.379000 531.934448 11.380327
v 22.379000 533.619202 13.075834
v 22.000000 531.925598 11.161691
v 22.000000 533.838196 13.077629
v 22.379000 533.619690 12.934421
v 22.000000 533.838318 12.925569
v 22.379000 533.607788 12.793507
v 22.000000 533.825867 12.774016
v 22.379000 532.065552 14.619673
v 22.000000 532.074402 14.838309
v 22.000000 532.226013 14.825884
v 22.379000 532.206482 14.607794
v 22.379000 533.583679 12.654164
v 22.000000 533.800964 12.624008
v 22.379000 532.345825 14.583679
v 22.000000 532.375977 14.800986
v 22.379000 533.547485 12.517453
v 22.000000 533.763794 12.476567
v 22.379000 532.482544 14.547511
v 22.000000 532.523438 14.763786
v 22.379000 533.499573 12.384415
v 22.000000 533.714539 12.332704
v 22.379000 532.615601 14.499565
v 22.000000 532.667297 14.714537
v 22.379000 533.440186 12.256062
v 22.000000 533.653564 12.193397
v 22.000000 532.806580 14.653576
v 22.379000 532.743958 14.440207
v 22.379000 533.369873 12.133370
v 22.000000 533.581299 12.059601
v 22.000000 532.940430 14.581320
v 22.379000 532.866638 14.369888
v 22.379000 533.289124 12.017275
v 22.000000 533.498291 11.932228
v 22.000000 533.067749 14.498260
v 22.379000 532.982727 14.289144
v 22.379000 533.198608 11.908658
v 22.000000 533.404968 11.812150
v 22.000000 533.187866 14.404967
v 22.379000 533.091370 14.198588
v 22.379000 533.098938 11.808347
v 22.000000 533.302063 11.700186
v 22.000000 533.299805 14.302077
v 22.379000 533.191650 14.098910
v 22.379000 532.990845 11.717105
v 22.000000 533.190308 11.597100
v 22.000000 533.402893 14.190292
v 22.379000 533.282898 13.990870
v 22.379000 532.875305 11.635627
v 22.000000 533.070374 11.503598
v 22.000000 533.496399 14.070376
v 22.379000 533.364380 13.875287
v 22.000000 532.943176 11.420319
v 22.379000 532.753052 11.564532
v 22.000000 533.579651 13.943149
v 22.379000 533.435486 13.753043
v 22.000000 532.809448 11.347830
v 22.379000 532.625061 11.504363
v 22.000000 533.652161 13.809478
v 22.379000 533.495667 13.625069
v 22.000000 532.670288 11.286626
v 22.379000 532.492310 11.455576
v 22.000000 533.713379 13.670278
v 22.379000 533.544434 13.492336
v 22.000000 532.526489 11.237127
v 22.379000 532.355835 11.418543
v 22.000000 533.762878 13.526500
v 22.379000 533.581482 13.355858
v 22.000000 532.379150 11.199671
v 22.379000 532.216675 11.393546
v 24.769333 528.909729 15.331236
v 24.755997 528.571899 14.847181
v 25.200001 529.324707 14.615035
v 25.200001 529.431396 14.779832
v 25.200001 529.548218 14.937605
v 24.670887 528.584595 15.160667
v 24.851856 529.237244 15.503031
v 24.765722 528.435364 11.475020
v 25.200001 529.202881 11.606540
v 25.200001 529.120911 11.784922
v 25.200001 529.674683 15.087731
v 24.754421 528.681396 10.957847
v 24.670887 528.421143 11.122524
v 24.769333 531.526184 9.158154
v 25.200001 531.873596 9.877559
v 25.200001 531.677734 9.891658
v 24.902046 529.485229 15.633139
v 25.200001 529.810364 15.229618
v 24.846348 528.449829 11.831673
v 25.200001 529.050293 11.968100
v 24.670887 531.836487 8.961857
v 24.851856 531.213684 9.355861
v 25.200001 531.483215 9.918025
v 25.200001 531.290710 9.956555
v 24.940920 529.735229 15.764282
v 25.200001 529.954712 15.362706
v 25.200001 530.107117 15.486469
v 24.898026 528.461243 12.113771
v 25.200001 528.991333 12.155350
v 25.200001 528.944214 12.345934
v 24.902046 530.976990 9.505593
v 25.200001 531.101013 10.007096
v 24.966722 529.975647 15.890404
v 24.938105 528.472717 12.396654
v 25.200001 528.909180 12.539099
v 25.200001 530.266968 15.600419
v 24.940920 530.738464 9.656519
v 25.200001 530.914856 10.069449
v 24.965021 528.483704 12.668771
v 25.200001 528.886353 12.734082
v 24.980854 530.217163 16.017092
v 25.200001 530.433655 15.704106
v 24.966722 530.509033 9.801663
v 25.200001 530.733032 10.143368
v 25.200001 530.556152 10.228559
v 24.983059 530.437378 16.132626
v 25.200001 530.606567 15.797122
v 25.200001 530.784912 15.879099
v 24.980160 528.494751 12.941734
v 25.200001 528.875793 12.930116
v 25.200001 528.877563 13.126425
v 24.980854 530.278564 9.947460
v 25.200001 530.384949 10.324689
v 24.974907 530.656677 16.247681
v 25.200001 530.968079 15.949713
v 24.983305 528.504761 13.188598
v 25.200001 528.891663 13.322235
v 24.983059 530.068359 10.080420
v 25.200001 530.220154 10.431377
v 24.955402 530.888489 16.369286
v 25.200001 531.155334 16.008686
v 24.976166 528.514832 13.436483
v 25.200001 528.918030 13.516774
v 24.974907 529.859070 10.212831
v 25.200001 530.062378 10.548203
v 25.200001 529.912292 10.674704
v 24.925381 531.118958 16.490187
v 25.200001 531.345947 16.055784
v 24.958166 528.525269 13.694533
v 25.200001 528.956543 13.709273
v 24.881516 531.368469 16.621061
v 25.200001 531.539124 16.090824
v 24.955402 529.637878 10.352777
v 25.200001 529.770386 10.810382
v 25.200001 531.734070 16.113665
v 24.929895 528.535645 13.951637
v 25.200001 529.007080 13.898973
v 25.200001 529.069458 14.085125
v 24.925381 529.417908 10.491916
v 25.200001 529.637268 10.954701
v 24.826830 531.616577 16.751213
v 25.200001 531.930115 16.124218
v 24.885685 528.547424 14.242774
v 25.200001 529.143372 14.266994
v 24.754421 531.890747 16.895050
v 25.200001 532.126404 16.122442
v 24.881516 529.179871 10.642531
v 25.200001 529.513550 11.107093
v 24.829950 528.559082 14.530635
v 25.200001 529.228577 14.443864
v 24.670887 532.163513 17.038143
v 24.826830 528.943054 10.792315
v 25.200001 529.399597 11.266954
v 25.200001 529.295898 11.433657
v 22.430666 528.731384 10.926228
v 22.000000 529.295898 11.433657
v 22.000000 529.399597 11.266954
v 22.000000 529.202881 11.606540
v 22.444748 528.433716 11.433303
v 22.529114 528.421143 11.122524
v 22.432337 528.570007 14.800614
v 22.000000 529.324707 14.615035
v 22.000000 529.228577 14.443864
v 22.445580 528.857361 15.303761
v 22.348143 529.043945 10.728520
v 22.000000 529.513550 11.107093
v 22.529114 528.584595 15.160667
v 22.430666 531.838379 16.867575
v 22.000000 532.126404 16.122442
v 22.000000 531.930115 16.124218
v 22.297953 529.280579 10.578788
v 22.000000 529.637268 10.954701
v 22.529114 532.163513 17.038143
v 22.350559 528.555298 14.436448
v 22.000000 529.143372 14.266994
v 22.348143 531.510864 16.695780
v 22.000000 531.734070 16.113665
v 22.000000 531.539124 16.090824
v 22.259081 529.519165 10.427862
v 22.000000 529.770386 10.810382
v 22.000000 529.912292 10.674704
v 22.299976 528.544006 14.157092
v 22.000000 529.069458 14.085125
v 22.000000 529.007080 13.898973
v 22.297953 531.262878 16.565672
v 22.000000 531.345947 16.055784
v 22.233278 529.748596 10.282718
v 22.000000 530.062378 10.548203
v 22.260561 528.532532 13.874554
v 22.000000 528.956543 13.709273
v 22.259081 531.012878 16.434528
v 22.000000 531.155334 16.008686
v 22.234169 528.521484 13.602031
v 22.000000 528.918030 13.516774
v 22.219147 529.979065 10.136921
v 22.000000 530.220154 10.431377
v 22.233278 530.772461 16.308407
v 22.000000 530.968079 15.949713
v 22.000000 530.784912 15.879099
v 22.216942 530.189209 10.003961
v 22.000000 530.384949 10.324689
v 22.000000 530.556152 10.228559
v 22.219488 528.510437 13.328957
v 22.000000 528.891663 13.322235
v 22.000000 528.877563 13.126425
v 22.219147 530.530945 16.181719
v 22.000000 530.606567 15.797122
v 22.225094 530.398560 9.871550
v 22.000000 530.733032 10.143368
v 22.216825 528.500366 13.080007
v 22.000000 528.875793 12.930116
v 22.216942 530.310730 16.066185
v 22.000000 530.433655 15.704106
v 22.244596 530.619751 9.731604
v 22.000000 530.914856 10.069449
v 22.224476 528.490356 12.831970
v 22.000000 528.886353 12.734082
v 22.225094 530.091431 15.951130
v 22.000000 530.266968 15.600419
v 22.000000 530.107117 15.486469
v 22.274620 530.839722 9.592465
v 22.000000 531.101013 10.007096
v 22.242998 528.479919 12.574387
v 22.000000 528.909180 12.539099
v 22.244596 529.859619 15.829526
v 22.318485 531.077759 9.441850
v 22.000000 531.290710 9.956555
v 22.000000 531.483215 9.918025
v 22.000000 529.954712 15.362706
v 22.271879 528.469482 12.317548
v 22.000000 528.944214 12.345934
v 22.000000 528.991333 12.155350
v 22.274620 529.629150 15.708624
v 22.000000 529.810364 15.229618
v 22.373171 531.314514 9.292067
v 22.000000 531.677734 9.891658
v 22.315775 528.457947 12.032084
v 22.000000 529.050293 11.968100
v 22.445580 531.576172 9.126534
v 22.000000 531.873596 9.877559
v 22.318485 529.379639 15.577749
v 22.000000 529.674683 15.087731
v 22.371202 528.446411 11.747495
v 22.000000 529.120911 11.784922
v 22.529114 531.836487 8.961857
v 22.373171 529.131592 15.447598
v 22.000000 529.548218 14.937605
v 22.000000 529.431396 14.779832
v 24.769333 532.473816 16.841846
v 24.851856 532.786316 16.644140
v 22.373171 532.685486 16.707933
v 22.445580 532.423828 16.873466
v 24.754421 535.318604 15.042153
v 24.670887 535.578857 14.877476
v 22.529114 535.578857 14.877476
v 22.430666 535.268616 15.073772
v 24.826830 535.056946 15.207685
v 22.348143 534.956055 15.271480
v 24.881516 534.820129 15.357469
v 22.297953 534.719421 15.421212
v 24.925381 534.582092 15.508084
v 22.259081 534.480835 15.572138
v 24.955402 534.362122 15.647223
v 22.233278 534.251404 15.717282
v 24.974907 534.140930 15.787169
v 22.219147 534.020935 15.863079
v 24.983059 533.931641 15.919580
v 22.216942 533.810791 15.996039
v 24.980854 533.721436 16.052540
v 22.225094 533.601440 16.128450
v 24.966722 533.490967 16.198338
v 22.244596 533.380249 16.268396
v 24.940920 533.261536 16.343481
v 22.274620 533.160278 16.407536
v 24.902046 533.023010 16.494406
v 22.318485 532.922241 16.558149
v 24.767662 535.564331 14.517423
v 22.370050 535.553406 14.247442
v 22.444004 535.566162 14.563989
v 24.849440 535.549561 14.153256
v 24.755253 535.427979 11.150111
v 24.670887 535.415405 10.839333
v 22.529114 535.415405 10.839333
v 22.434278 535.429626 11.191829
v 24.828798 535.440674 11.464303
v 22.353653 535.444092 11.548480
v 24.884226 535.452209 11.748893
v 22.301973 535.455505 11.830579
v 24.928120 535.463745 12.034356
v 22.261896 535.466980 12.113462
v 24.957003 535.474182 12.291194
v 22.234980 535.477966 12.385578
v 24.975525 535.484619 12.548779
v 22.219841 535.489014 12.658543
v 24.983175 535.494629 12.796815
v 22.216696 535.499023 12.905406
v 24.980513 535.504700 13.045764
v 22.223833 535.509094 13.153291
v 24.965830 535.515747 13.318839
v 22.241833 535.519531 13.411341
v 24.939440 535.526794 13.591362
v 22.270105 535.529907 13.668446
v 24.900023 535.538269 13.873900
v 22.314314 535.541748 13.959582
v 24.769333 535.090271 10.668764
v 22.373171 534.868408 10.552402
v 22.445580 535.142639 10.696239
v 24.851856 534.762756 10.496969
v 24.754421 532.109253 9.104951
v 22.430666 532.161621 9.132425
v 24.826830 532.383423 9.248787
v 22.348143 532.489136 9.304219
v 24.881516 532.631531 9.378939
v 22.297953 532.737122 9.434327
v 24.925381 532.881042 9.509813
v 22.259081 532.987122 9.565472
v 24.955402 533.111511 9.630715
v 22.233278 533.227539 9.691592
v 24.974907 533.343323 9.752319
v 22.219147 533.469055 9.818280
v 24.983059 533.562622 9.867375
v 22.216942 533.689270 9.933814
v 24.980854 533.782837 9.982908
v 22.225094 533.908569 10.048870
v 24.966722 534.024353 10.109596
v 22.244596 534.140381 10.170474
v 24.940920 534.264771 10.235718
v 22.274620 534.370850 10.291376
v 24.902046 534.514771 10.366861
v 22.318485 534.620361 10.422251
v 22.000000 533.266968 15.856632
v 22.000000 533.443848 15.771441
v 22.000000 530.286621 12.329722
v 22.000000 530.237122 12.473500
v 22.000000 533.085144 15.930551
v 22.000000 530.199646 12.620875
v 22.000000 532.898987 15.992904
v 22.000000 532.709290 16.043446
v 22.000000 530.174500 12.770841
v 22.000000 534.325317 10.912269
v 22.000000 534.189636 10.770382
v 22.000000 534.045288 10.637294
v 22.000000 533.892883 10.513531
v 22.000000 532.516785 16.081976
v 22.000000 534.451782 11.062395
v 22.000000 533.733032 10.399581
v 22.000000 530.161804 12.922371
v 22.000000 532.322266 16.108341
v 22.000000 534.568604 11.220168
v 22.000000 533.566345 10.295894
v 22.000000 530.161682 13.074431
v 22.000000 534.771423 11.556136
v 22.000000 534.675293 11.384965
v 22.000000 533.393433 10.202878
v 22.000000 533.215088 10.120901
v 22.000000 531.922363 14.838178
v 22.000000 530.174133 13.225984
v 22.000000 531.770813 14.825488
v 22.000000 534.856628 11.733006
v 22.000000 533.031921 10.050287
v 22.000000 530.199036 13.375992
v 22.000000 531.620850 14.800329
v 22.000000 534.930542 11.914875
v 22.000000 532.844666 9.991314
v 22.000000 530.236206 13.523433
v 22.000000 535.043457 12.290727
v 22.000000 534.992920 12.101027
v 22.000000 531.473511 14.762873
v 22.000000 532.654053 9.944215
v 22.000000 532.460876 9.909176
v 22.000000 530.285461 13.667296
v 22.000000 531.329712 14.713374
v 22.000000 535.081970 12.483226
v 22.000000 532.265930 9.886334
v 22.000000 530.346436 13.806603
v 22.000000 531.190552 14.652170
v 22.000000 535.108337 12.677765
v 22.000000 530.418701 13.940399
v 22.000000 532.069885 9.875781
v 22.000000 531.056824 14.579681
v 22.000000 535.124207 13.069884
v 22.000000 535.122437 12.873575
v 22.000000 530.501709 14.067772
v 22.000000 530.929626 14.496402
v 22.000000 530.595032 14.187850
v 22.000000 530.809692 14.402900
v 22.000000 530.697937 14.299814
v 22.000000 535.113647 13.265918
v 22.000000 531.773987 11.174116
v 22.000000 535.090820 13.460901
v 22.000000 531.624023 11.199014
v 22.000000 535.008667 13.844650
v 22.000000 535.055786 13.654066
v 22.000000 531.476563 11.236214
v 22.000000 534.949707 14.031900
v 22.000000 531.332703 11.285463
v 22.000000 534.879089 14.215078
v 22.000000 531.193420 11.346424
v 22.000000 534.704102 14.566343
v 22.000000 534.797119 14.393460
v 22.000000 531.059570 11.418680
v 22.000000 534.600403 14.733046
v 22.000000 530.932251 11.501740
v 22.000000 534.486450 14.892907
v 22.000000 530.812134 11.595033
v 22.000000 534.362732 15.045299
v 22.000000 530.700195 11.697923
v 22.000000 530.597107 11.809708
v 22.000000 534.229614 15.189618
v 22.000000 534.087708 15.325296
v 22.000000 530.503601 11.929624
v 22.000000 533.937622 15.451797
v 22.000000 530.420349 12.056851
v 22.000000 533.779846 15.568623
v 22.000000 530.347839 12.190522
v 22.000000 533.615051 15.675311
v 25.200001 530.013611 12.767303
v 25.200001 530.001465 12.923873
v 25.200001 532.516785 16.081976
v 25.200001 532.709290 16.043446
v 25.200001 530.001648 13.080912
v 25.200001 532.322266 16.108341
v 25.200001 530.014160 13.237453
v 25.200001 531.923889 14.998550
v 25.200001 530.038879 13.392529
v 25.200001 531.767273 14.986417
v 25.200001 530.075745 13.545185
v 25.200001 531.612183 14.962036
v 25.200001 534.045288 10.637294
v 25.200001 534.189636 10.770382
v 25.200001 530.124451 13.694480
v 25.200001 533.892883 10.513531
v 25.200001 531.459412 14.925559
v 25.200001 534.325317 10.912269
v 25.200001 530.184692 13.839493
v 25.200001 533.733032 10.399581
v 25.200001 533.566345 10.295894
v 25.200001 531.309998 14.877210
v 25.200001 530.256165 13.979331
v 25.200001 534.451782 11.062395
v 25.200001 534.568604 11.220168
v 25.200001 531.164856 14.817287
v 25.200001 533.393433 10.202878
v 25.200001 530.338379 14.113131
v 25.200001 531.024841 14.746161
v 25.200001 530.430847 14.240067
v 25.200001 534.675293 11.384965
v 25.200001 530.890869 14.664268
v 25.200001 533.215088 10.120901
v 25.200001 530.532959 14.359359
v 25.200001 530.763672 14.572115
v 25.200001 530.644165 14.470269
v 25.200001 534.771423 11.556136
v 25.200001 533.031921 10.050287
v 25.200001 534.856628 11.733006
v 25.200001 532.844666 9.991314
v 25.200001 532.654053 9.944215
v 25.200001 534.930542 11.914875
v 25.200001 534.992920 12.101027
v 25.200001 532.460876 9.909176
v 25.200001 535.043457 12.290727
v 25.200001 532.265930 9.886334
v 25.200001 535.081970 12.483226
v 25.200001 532.069885 9.875781
v 25.200001 535.108337 12.677765
v 25.200001 535.122437 12.873575
v 25.200001 535.124207 13.069884
v 25.200001 531.762573 11.014146
v 25.200001 535.113647 13.265918
v 25.200001 531.607483 11.038898
v 25.200001 535.090820 13.460901
v 25.200001 531.454834 11.075741
v 25.200001 535.055786 13.654066
v 25.200001 531.305542 11.124448
v 25.200001 535.008667 13.844650
v 25.200001 534.949707 14.031900
v 25.200001 531.160522 11.184717
v 25.200001 534.879089 14.215078
v 25.200001 531.020691 11.256179
v 25.200001 534.797119 14.393460
v 25.200001 530.886841 11.338392
v 25.200001 534.704102 14.566343
v 25.200001 530.759949 11.430849
v 25.200001 534.600403 14.733046
v 25.200001 534.486450 14.892907
v 25.200001 530.640625 11.532981
v 25.200001 534.362732 15.045299
v 25.200001 530.529724 11.644157
v 25.200001 534.229614 15.189618
v 25.200001 530.427856 11.763693
v 25.200001 534.087708 15.325296
v 25.200001 530.335754 11.890851
v 25.200001 533.937622 15.451797
v 25.200001 530.253845 12.024847
v 25.200001 533.779846 15.568623
v 25.200001 530.182739 12.164855
v 25.200001 533.615051 15.675311
v 25.200001 530.122803 12.310013
v 25.200001 533.443848 15.771441
v 25.200001 530.074463 12.459424
v 25.200001 533.266968 15.856632
v 25.200001 533.085144 15.930551
v 25.200001 530.037964 12.612168
v 25.200001 532.898987 15.992904
v 22.379000 530.630127 13.866630
v 22.379000 530.710876 13.982725
v 24.981184 530.630127 13.866630
v 24.981184 530.559814 13.743938
v 22.379000 530.908630 11.801412
v 22.379000 530.808350 11.901090
v 24.981184 530.908630 11.801412
v 24.981184 530.808350 11.901090
v 22.379000 530.559814 13.743938
v 24.981184 530.500427 13.615585
v 22.379000 531.017273 11.710856
v 24.981184 531.017273 11.710856
v 22.379000 530.500427 13.615585
v 24.981184 531.133362 11.630112
v 24.981184 530.452515 13.482547
v 24.981184 531.924194 14.619226
v 22.379000 531.133362 11.630112
v 22.379000 530.452515 13.482547
v 24.981184 531.256042 11.559793
v 22.379000 531.924194 14.619226
v 24.981184 530.416321 13.345836
v 22.379000 531.256042 11.559793
v 22.379000 530.416321 13.345836
v 24.981184 531.384399 11.500435
v 22.379000 531.783325 14.606454
v 24.981184 531.783325 14.606454
v 22.379000 531.384399 11.500435
v 24.981184 530.392212 13.206493
v 24.981184 531.517456 11.452489
v 22.379000 530.392212 13.206493
v 22.379000 531.517456 11.452489
v 24.981184 531.654175 11.416321
v 22.379000 531.644165 14.581457
v 24.981184 531.644165 14.581457
v 22.379000 531.654175 11.416321
v 22.379000 530.380310 13.065579
v 24.981184 530.380310 13.065579
v 24.981184 531.793518 11.392206
v 24.981184 531.507690 14.544424
v 22.379000 531.793518 11.392206
v 22.379000 531.507690 14.544424
v 22.379000 530.380798 12.924166
v 24.981184 530.380798 12.924166
v 24.981184 531.374939 14.495637
v 22.379000 531.374939 14.495637
v 22.379000 530.393555 12.783330
v 24.981184 530.393555 12.783330
v 24.981184 531.246948 14.435468
v 22.379000 530.418518 12.644142
v 24.981184 530.418518 12.644142
v 22.379000 531.246948 14.435468
v 24.981184 531.124695 14.364373
v 24.981184 530.455566 12.507664
v 22.379000 530.455566 12.507664
v 22.379000 531.124695 14.364373
v 24.981184 531.009155 14.282895
v 22.379000 530.504333 12.374931
v 24.981184 530.504333 12.374931
v 22.379000 531.009155 14.282895
v 24.981184 530.564514 12.246957
v 24.981184 530.901062 14.191653
v 22.379000 530.564514 12.246957
v 22.379000 530.901062 14.191653
v 24.981184 530.801392 14.091342
v 22.379000 530.635620 12.124713
v 24.981184 530.635620 12.124713
v 22.379000 530.801392 14.091342
v 24.981184 530.710876 13.982725
v 22.379000 530.717102 12.009130
v 24.981184 530.717102 12.009130
f 1 2 3
f 4 5 6
f 7 4 6
f 7 6 8
f 9 10 11
f 12 7 13
f 14 9 11
f 7 8 13
f 12 13 15
f 16 14 17
f 18 12 15
f 14 11 17
f 19 18 20
f 21 16 22
f 18 15 20
f 16 17 22
f 23 19 24
f 19 20 24
f 25 21 26
f 21 22 26
f 27 23 28
f 23 24 28
f 29 25 30
f 25 26 30
f 31 27 32
f 27 28 32
f 29 30 33
f 34 29 33
f 35 31 36
f 31 32 36
f 37 35 38
f 34 33 39
f 40 34 39
f 35 36 38
f 40 39 41
f 42 40 41
f 37 38 43
f 44 37 43
f 42 41 45
f 46 42 45
f 44 43 47
f 46 45 48
f 44 47 49
f 50 44 49
f 46 48 51
f 52 46 51
f 50 49 53
f 54 50 53
f 52 51 55
f 56 52 55
f 54 53 57
f 58 54 57
f 56 55 59
f 60 56 59
f 58 57 61
f 62 58 61
f 60 59 63
f 64 60 63
f 62 61 65
f 66 62 65
f 64 63 67
f 66 65 68
f 69 64 67
f 70 66 68
f 70 68 71
f 69 67 72
f 73 69 72
f 74 70 71
f 74 71 75
f 76 74 75
f 73 72 77
f 78 73 77
f 76 75 2
f 1 76 2
f 78 77 5
f 4 78 5
f 79 80 81
f 82 83 84
f 85 79 81
f 86 82 84
f 85 81 87
f 86 84 88
f 89 86 88
f 89 88 90
f 91 89 92
f 93 94 95
f 89 90 92
f 96 93 95
f 97 91 98
f 91 92 98
f 99 96 100
f 96 95 100
f 101 97 102
f 103 99 104
f 97 98 102
f 99 100 104
f 105 101 106
f 107 103 108
f 101 102 106
f 103 104 108
f 109 105 110
f 107 108 111
f 105 106 110
f 112 107 111
f 113 109 114
f 109 110 114
f 112 111 115
f 116 112 115
f 117 113 118
f 113 114 118
f 116 115 119
f 120 116 119
f 121 117 122
f 117 118 122
f 120 119 123
f 124 120 123
f 125 121 126
f 121 122 126
f 124 123 127
f 128 124 127
f 129 125 130
f 125 126 130
f 128 127 131
f 132 128 131
f 133 129 134
f 132 131 135
f 136 132 135
f 129 130 134
f 133 134 137
f 138 133 137
f 136 135 139
f 140 136 139
f 138 137 141
f 142 138 141
f 140 139 143
f 144 140 143
f 142 141 145
f 146 142 145
f 144 143 147
f 148 144 147
f 146 145 149
f 150 146 149
f 148 147 151
f 152 148 151
f 150 149 153
f 154 150 153
f 152 151 83
f 82 152 83
f 154 153 80
f 79 154 80
f 155 156 157
f 155 157 158
f 155 158 159
f 155 160 156
f 161 155 159
f 162 163 164
f 161 159 165
f 162 166 163
f 162 167 166
f 168 169 170
f 171 161 165
f 171 165 172
f 173 164 174
f 168 175 169
f 176 170 177
f 173 162 164
f 176 168 170
f 176 177 178
f 179 171 172
f 179 172 180
f 179 180 181
f 182 174 183
f 182 183 184
f 185 178 186
f 182 173 174
f 187 179 181
f 188 184 189
f 185 176 178
f 187 181 190
f 188 182 184
f 191 186 192
f 191 185 186
f 193 189 194
f 195 190 196
f 195 187 190
f 193 188 189
f 197 191 192
f 197 192 198
f 197 198 199
f 200 196 201
f 200 201 202
f 200 195 196
f 203 194 204
f 203 204 205
f 203 193 194
f 206 199 207
f 208 202 209
f 206 197 199
f 208 200 202
f 210 205 211
f 210 203 205
f 212 207 213
f 214 209 215
f 212 206 207
f 214 208 209
f 216 211 217
f 216 210 211
f 218 213 219
f 218 219 220
f 221 215 222
f 221 214 215
f 218 212 213
f 223 217 224
f 223 216 217
f 225 222 226
f 227 220 228
f 225 226 229
f 227 218 220
f 230 223 224
f 225 221 222
f 230 224 231
f 230 231 232
f 233 228 234
f 235 229 236
f 237 230 232
f 233 227 228
f 237 232 238
f 235 225 229
f 239 236 240
f 241 234 242
f 239 235 236
f 241 233 234
f 243 237 238
f 243 238 244
f 243 244 157
f 245 239 240
f 246 242 247
f 246 247 248
f 246 241 242
f 156 243 157
f 166 248 163
f 166 246 248
f 249 250 251
f 249 252 250
f 249 253 252
f 249 254 253
f 255 256 257
f 255 258 256
f 259 251 260
f 255 261 258
f 259 249 251
f 262 263 264
f 265 260 266
f 262 267 263
f 265 259 260
f 268 257 269
f 268 255 257
f 270 262 264
f 270 271 272
f 270 264 271
f 273 274 275
f 273 266 274
f 276 277 278
f 273 265 266
f 276 269 277
f 276 268 269
f 279 270 272
f 279 272 280
f 281 275 282
f 281 273 275
f 283 278 284
f 283 276 278
f 285 279 280
f 285 280 286
f 287 284 288
f 289 281 282
f 287 283 284
f 289 282 290
f 291 285 286
f 291 292 293
f 294 295 296
f 291 286 292
f 294 290 295
f 294 289 290
f 297 298 299
f 297 288 298
f 297 287 288
f 300 291 293
f 300 293 301
f 302 296 303
f 302 294 296
f 304 299 305
f 304 297 299
f 306 300 301
f 306 301 307
f 308 303 309
f 310 305 311
f 308 302 303
f 310 304 305
f 312 306 307
f 312 313 314
f 312 307 313
f 315 309 316
f 315 308 309
f 317 311 318
f 317 310 311
f 319 312 314
f 320 321 322
f 319 314 323
f 320 316 321
f 324 325 326
f 324 318 325
f 320 315 316
f 324 317 318
f 327 323 328
f 327 319 323
f 329 322 330
f 331 324 326
f 331 326 332
f 329 320 322
f 333 330 334
f 335 327 328
f 335 328 336
f 333 329 330
f 337 331 332
f 337 338 252
f 337 332 338
f 339 333 334
f 340 341 342
f 340 336 341
f 340 335 336
f 253 337 252
f 258 342 256
f 258 340 342
f 132 37 44
f 113 117 60
f 113 60 64
f 124 128 50
f 128 44 50
f 109 113 64
f 109 64 69
f 120 124 54
f 124 50 54
f 105 109 69
f 120 54 58
f 105 69 73
f 85 9 14
f 116 120 58
f 101 105 73
f 116 58 62
f 79 85 14
f 101 73 78
f 112 116 62
f 97 101 78
f 112 62 66
f 154 79 16
f 79 14 16
f 107 112 66
f 97 78 4
f 107 66 70
f 91 97 4
f 103 107 70
f 103 70 74
f 150 154 21
f 154 16 21
f 99 103 74
f 89 91 7
f 91 4 7
f 99 74 76
f 150 21 25
f 96 99 76
f 96 76 1
f 93 96 1
f 146 150 25
f 86 89 12
f 89 7 12
f 146 25 29
f 142 146 29
f 82 86 18
f 86 12 18
f 142 29 34
f 152 82 19
f 138 142 34
f 82 18 19
f 138 34 40
f 148 152 23
f 152 19 23
f 133 138 40
f 148 23 27
f 133 40 42
f 144 148 27
f 129 133 42
f 129 42 46
f 140 144 31
f 144 27 31
f 125 129 46
f 125 46 52
f 136 140 35
f 140 31 35
f 121 125 52
f 121 52 56
f 132 136 37
f 136 35 37
f 117 121 56
f 117 56 60
f 128 132 44
f 343 344 345
f 245 346 267
f 245 343 346
f 347 348 349
f 347 349 350
f 351 350 352
f 351 347 350
f 353 352 354
f 353 351 352
f 355 354 356
f 355 353 354
f 357 356 358
f 357 355 356
f 359 358 360
f 359 357 358
f 361 360 362
f 361 359 360
f 363 362 364
f 363 361 362
f 365 364 366
f 365 363 364
f 367 366 368
f 367 365 366
f 369 368 370
f 369 367 368
f 344 370 345
f 344 369 370
f 343 345 346
f 371 372 373
f 371 374 372
f 348 373 349
f 348 371 373
f 375 376 377
f 375 377 378
f 379 378 380
f 379 375 378
f 381 380 382
f 381 379 380
f 383 382 384
f 383 381 382
f 385 384 386
f 385 383 384
f 387 386 388
f 387 385 386
f 389 388 390
f 389 387 388
f 391 390 392
f 391 389 390
f 393 392 394
f 393 391 392
f 395 394 396
f 395 393 394
f 397 396 398
f 397 395 396
f 374 398 372
f 374 397 398
f 399 400 401
f 399 402 400
f 376 401 377
f 376 399 401
f 403 175 339
f 403 339 404
f 405 404 406
f 405 403 404
f 407 406 408
f 407 405 406
f 409 408 410
f 409 407 408
f 411 410 412
f 411 409 410
f 413 412 414
f 413 411 412
f 415 414 416
f 415 413 414
f 417 416 418
f 417 415 416
f 419 418 420
f 419 417 418
f 421 420 422
f 421 419 420
f 423 422 424
f 423 421 422
f 402 424 400
f 402 423 424
f 168 176 329
f 175 333 339
f 175 168 333
f 166 167 254
f 166 254 249
f 246 249 259
f 246 166 249
f 241 259 265
f 241 246 259
f 233 265 273
f 233 241 265
f 227 273 281
f 227 233 273
f 218 281 289
f 218 227 281
f 212 289 294
f 212 218 289
f 206 294 302
f 206 212 294
f 197 302 308
f 197 206 302
f 191 308 315
f 191 197 308
f 185 315 320
f 185 191 315
f 176 320 329
f 176 185 320
f 168 329 333
f 156 261 255
f 156 255 243
f 160 261 156
f 167 253 254
f 162 337 253
f 162 253 167
f 173 331 337
f 173 337 162
f 182 324 331
f 182 331 173
f 188 317 324
f 188 324 182
f 193 310 317
f 193 317 188
f 203 304 310
f 203 310 193
f 210 297 304
f 210 304 203
f 216 287 297
f 216 297 210
f 223 283 287
f 223 287 216
f 230 276 283
f 230 283 223
f 237 268 276
f 237 276 230
f 243 255 268
f 243 268 237
f 155 161 340
f 160 258 261
f 160 155 258
f 239 245 267
f 239 267 262
f 235 262 270
f 235 239 262
f 225 270 279
f 225 235 270
f 221 279 285
f 221 225 279
f 214 285 291
f 214 221 285
f 208 291 300
f 208 214 291
f 200 300 306
f 200 208 300
f 195 306 312
f 195 200 306
f 187 312 319
f 187 195 312
f 179 319 327
f 179 187 319
f 171 327 335
f 171 179 327
f 161 335 340
f 161 171 335
f 155 340 258
f 111 108 425
f 426 111 425
f 427 338 332
f 428 427 332
f 425 108 429
f 108 104 429
f 428 332 326
f 430 428 326
f 429 104 431
f 430 326 325
f 431 104 432
f 104 100 432
f 433 430 318
f 430 325 318
f 434 435 126
f 435 436 126
f 126 436 130
f 436 437 130
f 432 100 438
f 100 95 438
f 439 434 122
f 434 126 122
f 437 440 134
f 433 318 311
f 441 433 311
f 95 94 442
f 130 437 134
f 438 95 442
f 443 439 118
f 439 122 118
f 440 444 137
f 445 441 305
f 441 311 305
f 134 440 137
f 442 94 263
f 446 447 114
f 447 443 114
f 443 118 114
f 445 305 299
f 444 448 141
f 448 449 141
f 94 450 264
f 263 94 264
f 137 444 141
f 451 445 298
f 445 299 298
f 450 452 271
f 453 446 110
f 446 114 110
f 141 449 145
f 264 450 271
f 449 454 145
f 455 451 288
f 451 298 288
f 452 456 272
f 457 453 106
f 453 110 106
f 271 452 272
f 455 288 284
f 454 458 149
f 145 454 149
f 459 455 284
f 272 456 280
f 459 284 278
f 460 461 102
f 461 457 102
f 456 462 286
f 457 106 102
f 280 456 286
f 458 463 153
f 463 464 153
f 459 278 277
f 465 459 277
f 149 458 153
f 462 466 292
f 467 460 98
f 460 102 98
f 286 462 292
f 464 468 80
f 469 465 269
f 465 277 269
f 466 470 293
f 153 464 80
f 292 466 293
f 469 269 257
f 471 467 92
f 472 469 257
f 293 470 301
f 467 98 92
f 472 257 256
f 468 473 81
f 470 474 307
f 80 468 81
f 301 470 307
f 475 476 90
f 476 471 90
f 472 256 342
f 477 472 342
f 471 92 90
f 307 474 313
f 474 478 313
f 473 334 87
f 334 330 87
f 477 342 341
f 479 477 341
f 81 473 87
f 313 478 314
f 478 480 314
f 479 341 336
f 481 479 336
f 314 480 323
f 480 481 323
f 481 336 328
f 323 481 328
f 475 90 88
f 482 475 88
f 330 322 483
f 87 330 483
f 482 88 84
f 484 482 84
f 322 321 485
f 483 322 485
f 484 84 83
f 486 487 83
f 487 484 83
f 321 316 488
f 316 309 488
f 485 321 488
f 486 83 151
f 489 486 151
f 309 303 490
f 488 309 490
f 489 151 147
f 491 489 147
f 490 303 492
f 303 296 492
f 491 147 143
f 493 494 143
f 494 491 143
f 492 296 495
f 296 295 495
f 295 290 495
f 493 143 139
f 496 493 139
f 495 290 497
f 290 282 497
f 496 139 135
f 498 496 135
f 282 275 499
f 497 282 499
f 498 135 131
f 500 498 131
f 275 274 501
f 499 275 501
f 501 274 502
f 500 131 503
f 131 127 503
f 502 274 266
f 127 123 504
f 503 127 504
f 502 266 260
f 505 502 260
f 123 119 506
f 504 123 506
f 507 505 251
f 505 260 251
f 506 119 508
f 119 115 508
f 509 507 250
f 507 251 250
f 508 115 510
f 509 250 252
f 115 111 426
f 510 115 426
f 427 509 338
f 509 252 338
f 194 511 512
f 513 2 75
f 513 75 514
f 204 194 512
f 204 512 515
f 516 3 2
f 516 2 513
f 205 204 515
f 240 3 516
f 211 515 517
f 211 205 515
f 236 518 3
f 236 3 240
f 217 517 519
f 217 211 517
f 229 520 518
f 229 518 236
f 224 519 521
f 224 217 519
f 226 522 520
f 226 520 229
f 48 523 524
f 231 521 525
f 231 224 521
f 45 523 48
f 222 522 226
f 45 526 523
f 222 527 522
f 232 231 525
f 51 48 524
f 215 527 222
f 238 232 525
f 51 524 528
f 238 525 529
f 41 526 45
f 41 530 526
f 41 531 530
f 209 527 215
f 209 532 527
f 55 51 528
f 244 238 529
f 244 529 533
f 202 532 209
f 55 534 535
f 55 528 534
f 39 531 41
f 202 536 532
f 39 537 531
f 157 533 538
f 157 244 533
f 201 536 202
f 59 55 535
f 201 539 536
f 158 538 540
f 158 157 538
f 59 535 541
f 196 539 201
f 196 542 539
f 159 158 540
f 33 543 537
f 190 542 196
f 165 159 540
f 165 540 544
f 33 537 39
f 63 59 541
f 181 542 190
f 181 545 542
f 172 165 544
f 172 544 546
f 180 545 181
f 63 541 547
f 180 172 546
f 180 546 545
f 30 543 33
f 30 548 543
f 67 547 549
f 67 63 547
f 26 550 548
f 26 551 550
f 26 548 30
f 72 552 553
f 72 549 552
f 72 67 549
f 22 554 551
f 22 551 26
f 77 553 555
f 77 72 553
f 17 554 22
f 17 556 554
f 5 77 555
f 5 555 557
f 11 556 17
f 11 558 556
f 6 557 559
f 6 5 557
f 10 558 11
f 10 169 558
f 10 170 169
f 8 6 559
f 8 560 561
f 8 559 560
f 562 177 170
f 562 170 10
f 13 8 561
f 13 561 563
f 564 178 177
f 564 177 562
f 15 13 563
f 15 563 565
f 566 186 178
f 566 178 564
f 20 15 565
f 20 565 567
f 568 186 566
f 568 192 186
f 568 198 192
f 24 20 567
f 24 569 570
f 24 567 569
f 571 198 568
f 571 199 198
f 28 24 570
f 28 570 572
f 573 199 571
f 573 207 199
f 32 28 572
f 32 572 574
f 575 207 573
f 575 213 207
f 36 32 574
f 36 574 576
f 577 213 575
f 577 219 213
f 38 36 576
f 38 576 578
f 579 38 578
f 220 219 577
f 580 220 577
f 43 38 579
f 581 43 579
f 228 220 580
f 582 228 580
f 47 43 581
f 234 228 582
f 583 47 581
f 584 234 582
f 49 47 583
f 242 234 584
f 585 49 583
f 586 242 584
f 53 49 585
f 247 242 586
f 587 53 585
f 248 586 588
f 248 247 586
f 589 57 53
f 589 53 587
f 163 588 590
f 163 248 588
f 591 61 57
f 591 57 589
f 164 590 592
f 164 163 590
f 593 65 61
f 593 61 591
f 174 164 592
f 174 592 594
f 595 68 65
f 595 65 593
f 183 174 594
f 596 68 595
f 184 183 594
f 184 594 597
f 598 71 68
f 598 68 596
f 189 184 597
f 189 597 511
f 514 75 71
f 514 71 598
f 194 189 511
f 599 600 601
f 599 601 602
f 603 604 605
f 604 606 605
f 607 599 602
f 607 602 608
f 609 603 610
f 603 605 610
f 611 607 608
f 609 610 612
f 611 608 613
f 93 1 614
f 615 609 612
f 616 611 613
f 615 612 617
f 618 93 614
f 616 613 619
f 620 615 617
f 621 616 619
f 620 617 622
f 623 618 624
f 618 614 624
f 625 620 622
f 621 619 626
f 625 622 627
f 628 621 626
f 629 625 627
f 629 627 630
f 631 623 632
f 623 624 632
f 633 629 630
f 634 628 635
f 628 626 635
f 633 630 636
f 631 632 637
f 638 633 636
f 638 636 9
f 85 638 9
f 639 631 637
f 640 634 641
f 634 635 641
f 639 637 642
f 643 639 642
f 644 640 645
f 640 641 645
f 643 642 646
f 647 644 648
f 649 643 646
f 644 645 648
f 649 646 650
f 647 648 651
f 652 647 651
f 653 649 650
f 653 650 654
f 655 652 656
f 652 651 656
f 657 653 654
f 655 656 658
f 657 654 659
f 660 655 658
f 661 657 659
f 661 659 662
f 663 660 664
f 660 658 664
f 665 661 662
f 665 662 666
f 667 663 668
f 663 664 668
f 600 665 666
f 600 666 601
f 604 667 606
f 667 668 606
f 350 493 496
f 350 494 493
f 350 373 494
f 350 349 373
f 378 447 446
f 352 496 498
f 378 401 447
f 352 350 496
f 378 377 401
f 404 339 334
f 354 498 500
f 354 352 498
f 404 334 473
f 380 446 453
f 380 378 446
f 406 404 473
f 406 468 464
f 406 473 468
f 356 503 504
f 356 500 503
f 356 354 500
f 382 457 461
f 382 453 457
f 382 380 453
f 408 406 464
f 408 464 463
f 384 461 460
f 358 504 506
f 358 356 504
f 384 382 461
f 410 408 463
f 386 460 467
f 410 463 458
f 360 506 508
f 386 384 460
f 360 358 506
f 362 510 426
f 412 410 458
f 362 508 510
f 362 360 508
f 412 454 449
f 412 458 454
f 388 471 476
f 388 467 471
f 388 386 467
f 414 412 449
f 364 426 425
f 414 449 448
f 364 362 426
f 390 476 475
f 390 388 476
f 416 414 448
f 366 425 429
f 416 448 444
f 366 364 425
f 392 475 482
f 392 390 475
f 418 416 444
f 368 429 431
f 418 440 437
f 368 366 429
f 418 444 440
f 394 482 484
f 394 392 482
f 370 432 438
f 420 418 437
f 370 431 432
f 370 368 431
f 420 437 436
f 396 487 486
f 396 484 487
f 396 394 484
f 345 438 442
f 422 436 435
f 422 420 436
f 398 486 489
f 345 370 438
f 346 442 263
f 398 396 486
f 346 345 442
f 424 435 434
f 372 398 489
f 424 422 435
f 372 491 494
f 372 489 491
f 267 346 263
f 400 424 434
f 400 439 443
f 400 434 439
f 373 372 494
f 401 443 447
f 401 400 443
f 399 375 541
f 399 541 535
f 399 535 534
f 399 376 375
f 371 574 572
f 402 399 534
f 371 347 574
f 402 534 528
f 371 348 347
f 343 245 240
f 343 240 516
f 423 402 528
f 374 572 570
f 423 528 524
f 344 516 513
f 374 371 572
f 344 343 516
f 344 513 514
f 421 423 524
f 397 570 569
f 421 524 523
f 397 569 567
f 421 523 526
f 369 514 598
f 397 374 570
f 369 344 514
f 419 421 526
f 395 567 565
f 419 526 530
f 367 598 596
f 395 397 567
f 367 369 598
f 393 565 563
f 393 395 565
f 417 419 530
f 417 530 531
f 365 367 596
f 365 596 595
f 365 595 593
f 415 531 537
f 415 417 531
f 415 537 543
f 391 563 561
f 391 561 560
f 363 593 591
f 391 393 563
f 363 365 593
f 413 543 548
f 389 560 559
f 413 415 543
f 389 391 560
f 361 591 589
f 361 363 591
f 411 548 550
f 387 559 557
f 411 413 548
f 387 389 559
f 359 589 587
f 359 587 585
f 359 361 589
f 409 550 551
f 409 411 550
f 385 557 555
f 385 387 557
f 357 585 583
f 407 551 554
f 357 359 585
f 407 554 556
f 383 385 555
f 383 555 553
f 383 553 552
f 407 409 551
f 355 583 581
f 355 357 583
f 405 556 558
f 381 383 552
f 381 552 549
f 405 407 556
f 403 558 169
f 353 581 579
f 353 355 581
f 403 405 558
f 379 381 549
f 379 549 547
f 379 547 541
f 175 403 169
f 351 579 578
f 351 578 576
f 351 353 579
f 375 379 541
f 347 576 574
f 347 351 576
f 618 452 450
f 644 430 433
f 93 618 450
f 640 644 433
f 93 450 94
f 640 433 441
f 634 640 441
f 634 441 445
f 628 634 451
f 85 87 483
f 638 85 483
f 634 445 451
f 628 451 455
f 621 628 455
f 633 638 485
f 638 483 485
f 616 621 459
f 629 633 488
f 621 455 459
f 633 485 488
f 611 616 465
f 616 459 465
f 625 629 490
f 629 488 490
f 607 611 469
f 625 490 492
f 611 465 469
f 620 625 492
f 599 607 472
f 607 469 472
f 620 492 495
f 615 620 495
f 600 599 477
f 599 472 477
f 615 495 497
f 609 615 497
f 665 600 479
f 600 477 479
f 609 497 499
f 603 609 499
f 661 665 481
f 665 479 481
f 603 499 501
f 604 603 501
f 657 661 480
f 661 481 480
f 604 501 502
f 667 604 502
f 653 657 478
f 667 502 505
f 663 667 505
f 657 480 478
f 653 478 474
f 649 653 474
f 663 505 507
f 660 663 507
f 649 474 470
f 643 649 470
f 660 507 509
f 655 660 509
f 643 470 466
f 639 643 466
f 655 509 427
f 652 655 427
f 639 466 462
f 631 639 462
f 652 427 428
f 647 652 428
f 631 462 456
f 623 631 456
f 647 428 430
f 644 647 430
f 623 456 452
f 618 623 452
f 9 562 10
f 626 519 517
f 635 626 517
f 635 517 515
f 1 3 518
f 641 635 512
f 614 1 518
f 635 515 512
f 645 641 511
f 624 614 520
f 641 512 511
f 614 518 520
f 648 645 597
f 632 624 522
f 645 511 597
f 624 520 522
f 651 648 594
f 648 597 594
f 637 632 527
f 632 522 527
f 656 651 592
f 651 594 592
f 642 637 532
f 637 527 532
f 658 656 590
f 656 592 590
f 642 532 536
f 646 642 536
f 664 658 588
f 658 590 588
f 668 664 586
f 646 536 539
f 650 646 539
f 664 588 586
f 650 539 542
f 654 650 542
f 668 586 584
f 606 668 584
f 654 542 545
f 659 654 545
f 606 584 582
f 659 545 546
f 606 582 580
f 605 606 580
f 659 546 544
f 662 659 544
f 605 580 577
f 610 605 577
f 662 544 540
f 666 662 540
f 610 577 575
f 612 610 575
f 666 540 538
f 601 666 538
f 612 575 573
f 617 612 573
f 601 538 533
f 602 601 533
f 617 573 571
f 622 617 571
f 602 533 529
f 622 571 568
f 608 602 529
f 627 622 568
f 627 568 566
f 608 529 525
f 613 608 525
f 630 627 566
f 630 566 564
f 636 630 564
f 613 525 521
f 619 613 521
f 636 564 562
f 9 636 562
f 619 521 519
f 626 619 519
