# Created by FreeCAD <http://www.freecadweb.org>
v 7.186306 17.401978 10.981184
v 7.103531 17.787832 11.200000
v 6.966023 17.711985 11.200000
v 7.067212 17.325726 10.981184
v 6.760618 14.955216 10.981184
v 6.374418 14.834889 11.200000
v 6.470842 14.710939 11.200000
v 6.834890 17.625582 11.200000
v 6.955216 17.239382 10.981184
v 6.710940 17.529158 11.200000
v 9.239383 17.044783 10.981184
v 9.529158 17.289061 11.200000
v 9.423306 17.405064 11.200000
v 6.851173 17.143608 10.981184
v 6.594937 17.423306 11.200000
v 9.143607 17.148827 10.981184
v 6.487597 17.308678 11.200000
v 9.039128 17.244127 10.981184
v 9.308678 17.512403 11.200000
v 6.755873 17.039129 10.981184
v 6.670041 16.926743 10.981184
v 6.389582 17.185982 11.200000
v 8.926742 17.329960 10.981184
v 9.185982 17.610418 11.200000
v 6.594331 16.807302 10.981184
v 6.301495 17.055973 11.200000
v 8.807302 17.405668 10.981184
v 9.055974 17.698505 11.200000
v 6.529319 16.681717 10.981184
v 6.223880 16.919456 11.200000
v 8.681717 17.470680 10.981184
v 8.919456 17.776119 11.200000
v 6.475500 16.550945 10.981184
v 6.157216 16.777269 11.200000
v 8.777268 17.842785 11.200000
v 8.550945 17.524500 10.981184
v 6.433283 16.415979 10.981184
v 6.101912 16.630289 11.200000
v 6.402990 16.277847 10.981184
v 6.058312 16.479424 11.200000
v 8.630289 17.898087 11.200000
v 8.415979 17.566717 10.981184
v 8.479424 17.941689 11.200000
v 8.277848 17.597010 10.981184
v 6.026682 16.325603 11.200000
v 6.384851 16.137602 10.981184
v 8.325603 17.973318 11.200000
v 8.137602 17.615149 10.981184
v 6.007219 16.169775 11.200000
v 8.169775 17.992781 11.200000
v 6.000041 16.012899 11.200000
v 6.379004 15.996309 10.981184
v 8.012899 17.999958 11.200000
v 7.996309 17.620996 10.981184
v 6.005195 15.855945 11.200000
v 6.385494 15.855044 10.981184
v 7.855945 17.994804 11.200000
v 7.855044 17.614506 10.981184
v 6.022646 15.699878 11.200000
v 6.404272 15.714882 10.981184
v 7.699878 17.977354 11.200000
v 7.714882 17.595728 10.981184
v 6.052289 15.545662 11.200000
v 6.435194 15.576890 10.981184
v 7.545662 17.947710 11.200000
v 7.576890 17.564806 10.981184
v 6.093940 15.394247 11.200000
v 6.478024 15.442119 10.981184
v 7.394247 17.906059 11.200000
v 6.147343 15.246567 11.200000
v 7.442119 17.521975 10.981184
v 6.532439 15.311592 10.981184
v 6.212168 15.103531 11.200000
v 7.246567 17.852657 11.200000
v 7.311593 17.467562 10.981184
v 6.598022 15.186306 10.981184
v 6.288015 14.966023 11.200000
v 6.674275 15.067212 10.981184
v 9.143607 17.148827 8.379000
v 9.192320 17.401176 8.000000
v 9.303956 17.297930 8.000000
v 6.755873 17.039129 8.379000
v 6.505148 17.072540 8.000000
v 6.598824 17.192320 8.000000
v 9.239383 17.044783 8.379000
v 6.851173 17.143608 8.379000
v 9.406684 17.185816 8.000000
v 6.702070 17.303955 8.000000
v 6.955216 17.239382 8.379000
v 6.814183 17.406685 8.000000
v 7.067212 17.325726 8.379000
v 6.934397 17.499804 8.000000
v 6.760618 14.955216 8.379000
v 6.593316 14.814183 8.000000
v 6.500196 14.934397 8.000000
v 6.674275 15.067212 8.379000
v 7.186306 17.401978 8.379000
v 7.061889 17.582678 8.000000
v 6.598022 15.186306 8.379000
v 6.417322 15.061889 8.000000
v 7.311593 17.467562 8.379000
v 7.195789 17.654741 8.000000
v 6.532439 15.311592 8.379000
v 6.345259 15.195789 8.000000
v 7.442119 17.521975 8.379000
v 7.335184 17.715500 8.000000
v 6.478024 15.442119 8.379000
v 6.284500 15.335184 8.000000
v 7.576890 17.564806 8.379000
v 7.479119 17.764542 8.000000
v 6.235459 15.479119 8.000000
v 6.435194 15.576890 8.379000
v 7.714882 17.595728 8.379000
v 7.626613 17.801529 8.000000
v 6.198472 15.626613 8.000000
v 6.404272 15.714882 8.379000
v 7.855044 17.614506 8.379000
v 7.776658 17.826210 8.000000
v 6.173791 15.776657 8.000000
v 6.385494 15.855044 8.379000
v 7.996309 17.620996 8.379000
v 7.928227 17.838415 8.000000
v 6.161585 15.928227 8.000000
v 6.379004 15.996309 8.379000
v 8.137602 17.615149 8.379000
v 8.080288 17.838062 8.000000
v 6.161937 16.080288 8.000000
v 6.384851 16.137602 8.379000
v 8.277848 17.597010 8.379000
v 8.231799 17.825155 8.000000
v 6.174845 16.231800 8.000000
v 6.402990 16.277847 8.379000
v 8.415979 17.566717 8.379000
v 8.381728 17.799780 8.000000
v 6.200221 16.381727 8.000000
v 6.433283 16.415979 8.379000
v 8.529049 17.762110 8.000000
v 8.550945 17.524500 8.379000
v 6.237891 16.529049 8.000000
v 6.475500 16.550945 8.379000
v 8.672755 17.712402 8.000000
v 8.681717 17.470680 8.379000
v 6.287598 16.672756 8.000000
v 6.529319 16.681717 8.379000
v 8.811867 17.650997 8.000000
v 8.807302 17.405668 8.379000
v 6.349002 16.811867 8.000000
v 6.594331 16.807302 8.379000
v 8.945433 17.578316 8.000000
v 8.926742 17.329960 8.379000
v 6.421684 16.945433 8.000000
v 6.670041 16.926743 8.379000
v 9.072539 17.494852 8.000000
v 9.039128 17.244127 8.379000
v 8.365542 12.146347 10.769333
v 8.950733 12.223772 10.755996
v 8.613960 12.935905 11.200000
v 8.420353 12.903400 11.200000
v 8.225086 12.883117 11.200000
v 8.710851 12.021555 10.670886
v 8.017754 12.272037 10.851857
v 11.531128 14.399012 10.765722
v 10.916078 14.876560 11.200000
v 10.839782 14.695675 11.200000
v 8.028932 12.875134 11.200000
v 11.746681 14.929614 10.754420
v 11.800859 14.626392 10.670886
v 11.154590 18.243395 10.769333
v 10.389309 18.014156 11.200000
v 10.511065 17.860157 11.200000
v 7.754356 12.367227 10.902047
v 7.832663 12.879483 11.200000
v 11.258216 14.168951 10.846347
v 10.752279 14.519938 11.200000
v 11.090009 18.604837 10.670886
v 11.219634 17.879358 10.851857
v 10.622910 17.698814 11.200000
v 10.724403 17.530769 11.200000
v 7.488862 12.463175 10.940919
v 7.637054 12.896149 11.200000
v 7.442878 12.925063 11.200000
v 11.042353 13.986980 10.898026
v 10.653913 14.350040 11.200000
v 10.545075 14.186656 11.200000
v 11.268896 17.603653 10.902047
v 10.815145 17.356682 11.200000
v 7.233536 12.555448 10.966722
v 10.825889 13.804504 10.938105
v 10.426192 14.030428 11.200000
v 7.250900 12.966112 11.200000
v 11.318550 17.325754 10.940919
v 10.894776 17.177240 11.200000
v 10.617664 13.628974 10.965020
v 10.297734 13.881972 11.200000
v 6.977062 12.648136 10.980854
v 7.061879 13.019135 11.200000
v 11.366302 17.058498 10.966722
v 10.962984 16.993153 11.200000
v 11.019498 16.805145 11.200000
v 6.743170 12.732663 10.983059
v 6.876560 13.083922 11.200000
v 6.695675 13.160218 11.200000
v 10.408791 13.452896 10.980160
v 10.160208 13.741876 11.200000
v 10.014156 13.610691 11.200000
v 11.414268 16.790043 10.980854
v 11.064095 16.613960 11.200000
v 6.510245 12.816840 10.974907
v 6.519937 13.247721 11.200000
v 10.219890 13.293655 10.983304
v 9.860156 13.488935 11.200000
v 11.458012 16.545221 10.983059
v 11.096600 16.420353 11.200000
v 6.264063 12.905809 10.955402
v 6.350041 13.346087 11.200000
v 10.030207 13.133755 10.976167
v 9.698814 13.377090 11.200000
v 11.501575 16.301414 10.974907
v 11.116883 16.225086 11.200000
v 11.124866 16.028931 11.200000
v 6.019303 12.994264 10.925380
v 6.186656 13.454925 11.200000
v 9.832745 12.967298 10.958166
v 9.530768 13.275597 11.200000
v 5.754354 13.090014 10.881516
v 6.030427 13.573808 11.200000
v 11.547616 16.043730 10.955402
v 11.120517 15.832663 11.200000
v 5.881972 13.702266 11.200000
v 9.636007 12.801450 10.929895
v 9.356681 13.184855 11.200000
v 9.177239 13.105224 11.200000
v 11.593392 15.787534 10.925380
v 11.103851 15.637053 11.200000
v 5.490867 13.185238 10.826830
v 5.741876 13.839792 11.200000
v 9.413228 12.613649 10.885685
v 8.993153 13.037016 11.200000
v 5.199677 13.290471 10.754420
v 5.610691 13.985844 11.200000
v 11.642944 15.510206 10.881516
v 11.074937 15.442878 11.200000
v 9.192956 12.427963 10.829950
v 8.805145 12.980502 11.200000
v 4.909991 13.395163 10.670886
v 11.692223 15.234408 10.826830
v 11.033888 15.250900 11.200000
v 10.980865 15.061879 11.200000
v 11.736279 14.987835 8.430667
v 10.980865 15.061879 8.000000
v 11.033888 15.250900 8.000000
v 10.916078 14.876560 8.000000
v 11.563050 14.425922 8.444748
v 11.800859 14.626392 8.529114
v 8.986365 12.253810 8.432338
v 8.613960 12.935905 8.000000
v 8.805145 12.980502 8.000000
v 8.421165 12.126245 8.445580
v 11.671234 15.351872 8.348143
v 11.074937 15.442878 8.000000
v 8.710851 12.021555 8.529114
v 5.255300 13.270370 8.430667
v 5.610691 13.985844 8.000000
v 5.741876 13.839792 8.000000
v 11.621973 15.627577 8.297954
v 11.103851 15.637053 8.000000
v 4.909991 13.395163 8.529114
v 9.265028 12.488719 8.350560
v 8.993153 13.037016 8.000000
v 5.603088 13.144681 8.348143
v 5.881972 13.702266 8.000000
v 6.030427 13.573808 8.000000
v 11.572319 15.905476 8.259081
v 11.120517 15.832663 8.000000
v 11.124866 16.028931 8.000000
v 9.478792 12.668920 8.299976
v 9.177239 13.105224 8.000000
v 9.356681 13.184855 8.000000
v 5.866486 13.049491 8.297954
v 6.186656 13.454925 8.000000
v 11.524567 16.172731 8.233278
v 11.116883 16.225086 8.000000
v 9.694992 12.851173 8.260561
v 9.530768 13.275597 8.000000
v 6.131980 12.953543 8.259081
v 6.350041 13.346087 8.000000
v 9.903528 13.026966 8.234170
v 9.698814 13.377090 8.000000
v 11.476601 16.441189 8.219146
v 11.096600 16.420353 8.000000
v 6.387306 12.861270 8.233278
v 6.519937 13.247721 8.000000
v 6.695675 13.160218 8.000000
v 11.432857 16.686008 8.216941
v 11.064095 16.613960 8.000000
v 11.019498 16.805145 8.000000
v 10.112487 13.203115 8.219488
v 9.860156 13.488935 8.000000
v 10.014156 13.610691 8.000000
v 6.643780 12.768581 8.219146
v 6.876560 13.083922 8.000000
v 11.389295 16.929817 8.225093
v 10.962984 16.993153 8.000000
v 10.302984 13.363703 8.216825
v 10.160208 13.741876 8.000000
v 6.877673 12.684054 8.216941
v 7.061879 13.019135 8.000000
v 11.343252 17.187500 8.244597
v 10.894776 17.177240 8.000000
v 10.492783 13.523701 8.224476
v 10.297734 13.881972 8.000000
v 7.110598 12.599876 8.225093
v 7.250900 12.966112 8.000000
v 7.442878 12.925063 8.000000
v 11.297477 17.443697 8.274620
v 10.815145 17.356682 8.000000
v 10.689888 13.689857 8.242998
v 10.426192 14.030428 8.000000
v 7.356779 12.510908 8.244597
v 11.247925 17.721024 8.318484
v 10.724403 17.530769 8.000000
v 10.622910 17.698814 8.000000
v 7.637054 12.896149 8.000000
v 10.886421 13.855533 8.271879
v 10.545075 14.186656 8.000000
v 10.653913 14.350040 8.000000
v 7.601539 12.422454 8.274620
v 7.832663 12.879483 8.000000
v 11.198647 17.996822 8.373170
v 10.511065 17.860157 8.000000
v 11.104859 14.039673 8.315775
v 10.752279 14.519938 8.000000
v 11.144187 18.301617 8.445580
v 10.389309 18.014156 8.000000
v 7.866488 12.326702 8.318484
v 8.028932 12.875134 8.000000
v 11.322629 14.223250 8.371202
v 10.839782 14.695675 8.000000
v 11.090009 18.604837 8.529114
v 8.129975 12.231480 8.373170
v 8.225086 12.883117 8.000000
v 8.420353 12.903400 8.000000
v 4.845410 13.756604 10.769333
v 4.780365 14.120643 10.851857
v 4.801353 14.003179 8.373170
v 4.855813 13.698383 8.445580
v 4.253318 17.070387 10.754420
v 4.199140 17.373608 10.670886
v 4.199140 17.373608 8.529114
v 4.263721 17.012165 8.430667
v 4.307778 16.765593 10.826830
v 4.328766 16.648127 8.348143
v 4.357056 16.489794 10.881516
v 4.378027 16.372423 8.297954
v 4.406608 16.212465 10.925380
v 4.427681 16.094524 8.259081
v 4.452384 15.956270 10.955402
v 4.475433 15.827269 8.233278
v 4.498425 15.698586 10.974907
v 4.523400 15.558812 8.219146
v 4.541988 15.454779 10.983059
v 4.567143 15.313992 8.216941
v 4.585732 15.209958 10.980854
v 4.610706 15.070184 8.225093
v 4.633698 14.941502 10.966722
v 4.656747 14.812500 8.244597
v 4.681450 14.674246 10.940919
v 4.702524 14.556304 8.274620
v 4.731104 14.396347 10.902047
v 4.752075 14.278975 8.318484
v 4.474655 17.605862 10.767662
v 4.681245 17.780016 8.370049
v 4.439022 17.575825 8.444004
v 4.753317 17.840771 10.849441
v 7.051339 19.777975 10.755253
v 7.289149 19.978445 10.670886
v 7.289149 19.978445 8.529114
v 7.019417 19.751064 8.434278
v 6.810918 19.575302 10.828798
v 6.746505 19.521004 8.353653
v 6.593148 19.391726 10.884226
v 6.530642 19.339033 8.301974
v 6.374710 19.207584 10.928121
v 6.314178 19.156557 8.261895
v 6.178176 19.041910 10.957003
v 6.105953 18.981026 8.234980
v 5.981072 18.875753 10.975524
v 5.897079 18.804949 8.219840
v 5.791273 18.715755 10.983175
v 5.708179 18.645708 8.216696
v 5.600775 18.555168 10.980513
v 5.518496 18.485807 8.223833
v 5.391817 18.379019 10.965830
v 5.321034 18.319349 8.241834
v 5.183281 18.203226 10.939439
v 5.124296 18.153502 8.270104
v 4.967081 18.020971 10.900023
v 4.901517 17.965702 8.314315
v 7.634457 19.853653 10.769333
v 7.982246 19.727964 10.851857
v 7.870025 19.768520 8.373170
v 7.578835 19.873755 8.445580
v 10.800323 18.709528 10.754420
v 10.744700 18.729630 8.430667
v 10.509133 18.814762 10.826830
v 10.396912 18.855318 8.348143
v 10.245646 18.909985 10.881516
v 10.133514 18.950508 8.297954
v 9.980697 19.005735 10.925380
v 9.868020 19.046457 8.259081
v 9.735937 19.094191 10.955402
v 9.612694 19.138731 8.233278
v 9.489756 19.183159 10.974907
v 9.356220 19.231419 8.219146
v 9.256830 19.267338 10.983059
v 9.122328 19.315945 8.216941
v 9.022938 19.351864 10.980854
v 8.889402 19.400124 8.225093
v 8.766464 19.444551 10.966722
v 8.643221 19.489092 8.244597
v 8.511138 19.536825 10.940919
v 8.398460 19.577547 8.274620
v 8.245644 19.632774 10.902047
v 8.133512 19.673298 8.318484
v 9.401176 14.807680 8.000000
v 9.297930 14.696044 8.000000
v 5.377090 14.301186 8.000000
v 5.275597 14.469232 8.000000
v 9.185817 14.593316 8.000000
v 5.488936 14.139844 8.000000
v 9.065603 14.500196 8.000000
v 6.696044 14.702070 8.000000
v 8.938111 14.417322 8.000000
v 6.807680 14.598824 8.000000
v 6.927461 14.505148 8.000000
v 8.804211 14.345259 8.000000
v 7.971068 19.124866 8.000000
v 8.167337 19.120516 8.000000
v 8.362947 19.103851 8.000000
v 8.557122 19.074938 8.000000
v 8.664816 14.284500 8.000000
v 7.054568 14.421684 8.000000
v 7.188133 14.349002 8.000000
v 7.774914 19.116882 8.000000
v 8.749100 19.033888 8.000000
v 8.520881 14.235459 8.000000
v 8.373387 14.198472 8.000000
v 7.327244 14.287598 8.000000
v 7.579647 19.096600 8.000000
v 8.938121 18.980865 8.000000
v 8.223343 14.173791 8.000000
v 7.470952 14.237890 8.000000
v 7.194855 19.019497 8.000000
v 7.386039 19.064095 8.000000
v 9.123440 18.916077 8.000000
v 9.304325 18.839783 8.000000
v 8.071773 14.161585 8.000000
v 7.618272 14.200221 8.000000
v 7.768200 14.174845 8.000000
v 7.919713 14.161937 8.000000
v 7.006848 18.962984 8.000000
v 9.480062 18.752279 8.000000
v 6.822760 18.894777 8.000000
v 9.649960 18.653913 8.000000
v 6.469232 18.724403 8.000000
v 6.643319 18.815145 8.000000
v 9.813344 18.545074 8.000000
v 9.969572 18.426193 8.000000
v 6.301185 18.622910 8.000000
v 10.118028 18.297735 8.000000
v 6.139844 18.511065 8.000000
v 10.258124 18.160208 8.000000
v 5.839792 18.258123 8.000000
v 5.985843 18.389309 8.000000
v 5.702266 18.118029 8.000000
v 9.499804 17.065603 8.000000
v 5.573808 17.969572 8.000000
v 9.582678 16.938110 8.000000
v 5.346086 17.649960 8.000000
v 5.454925 17.813345 8.000000
v 9.654741 16.804211 8.000000
v 5.247721 17.480062 8.000000
v 9.715500 16.664816 8.000000
v 5.160218 17.304325 8.000000
v 9.764541 16.520880 8.000000
v 5.019135 16.938122 8.000000
v 5.083922 17.123440 8.000000
v 9.801528 16.373386 8.000000
v 4.966112 16.749100 8.000000
v 9.826209 16.223343 8.000000
v 4.925063 16.557123 8.000000
v 9.838415 16.071774 8.000000
v 4.896148 16.362946 8.000000
v 9.838063 15.919712 8.000000
v 4.879484 16.167337 8.000000
v 9.825155 15.768201 8.000000
v 4.875134 15.971068 8.000000
v 9.799779 15.618272 8.000000
v 4.883117 15.774914 8.000000
v 9.762110 15.470951 8.000000
v 4.903400 15.579647 8.000000
v 9.712402 15.327245 8.000000
v 4.935905 15.386040 8.000000
v 4.980502 15.194855 8.000000
v 9.650998 15.188133 8.000000
v 5.037016 15.006847 8.000000
v 9.578316 15.054567 8.000000
v 9.494852 14.927461 8.000000
v 5.105223 14.822761 8.000000
v 5.184855 14.643319 8.000000
v 9.512403 14.691322 11.200000
v 9.405063 14.576694 11.200000
v 9.289061 14.470842 11.200000
v 5.488936 14.139844 11.200000
v 5.377090 14.301186 11.200000
v 6.576694 14.594937 11.200000
v 9.165111 14.374417 11.200000
v 6.691322 14.487597 11.200000
v 9.033977 14.288015 11.200000
v 6.814018 14.389582 11.200000
v 8.896469 14.212168 11.200000
v 8.362947 19.103851 11.200000
v 8.167337 19.120516 11.200000
v 6.944026 14.301495 11.200000
v 8.753433 14.147343 11.200000
v 8.557122 19.074938 11.200000
v 8.605753 14.093941 11.200000
v 7.971068 19.124866 11.200000
v 7.080544 14.223880 11.200000
v 8.454338 14.052289 11.200000
v 7.774914 19.116882 11.200000
v 7.579647 19.096600 11.200000
v 8.749100 19.033888 11.200000
v 8.938121 18.980865 11.200000
v 7.222732 14.157216 11.200000
v 8.300122 14.022647 11.200000
v 9.123440 18.916077 11.200000
v 7.369711 14.101912 11.200000
v 8.144055 14.005195 11.200000
v 7.520576 14.058311 11.200000
v 7.386039 19.064095 11.200000
v 7.674397 14.026682 11.200000
v 9.304325 18.839783 11.200000
v 7.987101 14.000042 11.200000
v 7.830225 14.007219 11.200000
v 7.194855 19.019497 11.200000
v 9.480062 18.752279 11.200000
v 7.006848 18.962984 11.200000
v 9.649960 18.653913 11.200000
v 9.813344 18.545074 11.200000
v 6.822760 18.894777 11.200000
v 6.643319 18.815145 11.200000
v 9.969572 18.426193 11.200000
v 6.469232 18.724403 11.200000
v 10.118028 18.297735 11.200000
v 6.301185 18.622910 11.200000
v 10.258124 18.160208 11.200000
v 6.139844 18.511065 11.200000
v 5.985843 18.389309 11.200000
v 5.839792 18.258123 11.200000
v 9.625583 17.165110 11.200000
v 5.702266 18.118029 11.200000
v 5.573808 17.969572 11.200000
v 9.711985 17.033978 11.200000
v 5.454925 17.813345 11.200000
v 9.787832 16.896469 11.200000
v 9.852657 16.753433 11.200000
v 5.346086 17.649960 11.200000
v 5.247721 17.480062 11.200000
v 9.906059 16.605753 11.200000
v 5.160218 17.304325 11.200000
v 9.947711 16.454338 11.200000
v 5.083922 17.123440 11.200000
v 9.977353 16.300121 11.200000
v 5.019135 16.938122 11.200000
v 9.994805 16.144054 11.200000
v 4.966112 16.749100 11.200000
v 4.925063 16.557123 11.200000
v 9.999958 15.987101 11.200000
v 4.896148 16.362946 11.200000
v 9.992781 15.830225 11.200000
v 4.879484 16.167337 11.200000
v 9.973318 15.674397 11.200000
v 4.875134 15.971068 11.200000
v 9.941689 15.520576 11.200000
v 4.883117 15.774914 11.200000
v 4.903400 15.579647 11.200000
v 9.898088 15.369711 11.200000
v 9.842784 15.222732 11.200000
v 4.935905 15.386040 11.200000
v 4.980502 15.194855 11.200000
v 9.776120 15.080544 11.200000
v 5.037016 15.006847 11.200000
v 9.698505 14.944026 11.200000
v 5.105223 14.822761 11.200000
v 5.184855 14.643319 11.200000
v 9.610418 14.814018 11.200000
v 5.275597 14.469232 11.200000
v 9.597011 15.722152 8.379000
v 9.597011 15.722152 10.981184
v 9.615149 15.862398 10.981184
v 8.285118 14.404272 8.379000
v 8.144956 14.385494 8.379000
v 8.285118 14.404272 10.981184
v 8.423110 14.435194 10.981184
v 9.620996 16.003691 8.379000
v 9.615149 15.862398 8.379000
v 9.620996 16.003691 10.981184
v 8.423110 14.435194 8.379000
v 8.557881 14.478024 10.981184
v 9.614506 16.144957 8.379000
v 9.614506 16.144957 10.981184
v 8.557881 14.478024 8.379000
v 9.595728 16.285118 10.981184
v 8.688408 14.532438 10.981184
v 6.856393 14.851173 10.981184
v 9.595728 16.285118 8.379000
v 8.688408 14.532438 8.379000
v 9.564806 16.423109 10.981184
v 6.856393 14.851173 8.379000
v 8.813694 14.598022 10.981184
v 9.564806 16.423109 8.379000
v 8.813694 14.598022 8.379000
v 9.521976 16.557882 10.981184
v 6.960871 14.755873 8.379000
v 6.960871 14.755873 10.981184
v 9.521976 16.557882 8.379000
v 8.932788 14.674275 10.981184
v 9.467562 16.688408 10.981184
v 8.932788 14.674275 8.379000
v 9.467562 16.688408 8.379000
v 9.401978 16.813694 10.981184
v 7.073258 14.670041 8.379000
v 7.073258 14.670041 10.981184
v 9.401978 16.813694 8.379000
v 9.044784 14.760617 8.379000
v 9.044784 14.760617 10.981184
v 9.325725 16.932789 10.981184
v 7.192698 14.594331 10.981184
v 9.325725 16.932789 8.379000
v 7.192698 14.594331 8.379000
v 9.148827 14.856393 8.379000
v 9.148827 14.856393 10.981184
v 7.318283 14.529319 10.981184
v 7.318283 14.529319 8.379000
v 9.244127 14.960872 8.379000
v 9.244127 14.960872 10.981184
v 7.449055 14.475500 10.981184
v 9.329959 15.073258 8.379000
v 9.329959 15.073258 10.981184
v 7.449055 14.475500 8.379000
v 7.584021 14.433283 10.981184
v 9.405669 15.192698 10.981184
v 9.405669 15.192698 8.379000
v 7.584021 14.433283 8.379000
v 7.722152 14.402989 10.981184
v 9.470681 15.318283 8.379000
v 9.470681 15.318283 10.981184
v 7.722152 14.402989 8.379000
v 9.524500 15.449055 10.981184
v 7.862398 14.384851 10.981184
v 9.524500 15.449055 8.379000
v 7.862398 14.384851 8.379000
v 8.003691 14.379004 10.981184
v 9.566717 15.584021 8.379000
v 9.566717 15.584021 10.981184
v 8.003691 14.379004 8.379000
v 8.144956 14.385494 10.981184
f 1 2 3
f 4 1 3
f 5 6 7
f 4 3 8
f 9 4 8
f 9 8 10
f 11 12 13
f 14 9 15
f 16 11 13
f 9 10 15
f 14 15 17
f 18 16 19
f 20 14 17
f 16 13 19
f 21 20 22
f 23 18 24
f 20 17 22
f 18 19 24
f 25 21 26
f 21 22 26
f 27 23 28
f 23 24 28
f 29 25 30
f 25 26 30
f 31 27 32
f 27 28 32
f 33 29 34
f 29 30 34
f 31 32 35
f 36 31 35
f 37 33 38
f 33 34 38
f 39 37 40
f 36 35 41
f 42 36 41
f 37 38 40
f 42 41 43
f 44 42 43
f 39 40 45
f 46 39 45
f 44 43 47
f 48 44 47
f 46 45 49
f 48 47 50
f 46 49 51
f 52 46 51
f 48 50 53
f 54 48 53
f 52 51 55
f 56 52 55
f 54 53 57
f 58 54 57
f 56 55 59
f 60 56 59
f 58 57 61
f 62 58 61
f 60 59 63
f 64 60 63
f 62 61 65
f 66 62 65
f 64 63 67
f 68 64 67
f 66 65 69
f 68 67 70
f 71 66 69
f 72 68 70
f 72 70 73
f 71 69 74
f 75 71 74
f 76 72 73
f 76 73 77
f 78 76 77
f 75 74 2
f 1 75 2
f 78 77 6
f 5 78 6
f 79 80 81
f 82 83 84
f 85 79 81
f 86 82 84
f 85 81 87
f 86 84 88
f 89 86 88
f 89 88 90
f 91 89 92
f 93 94 95
f 89 90 92
f 96 93 95
f 97 91 98
f 91 92 98
f 99 96 100
f 96 95 100
f 101 97 102
f 103 99 104
f 97 98 102
f 99 100 104
f 105 101 106
f 107 103 108
f 101 102 106
f 103 104 108
f 109 105 110
f 107 108 111
f 105 106 110
f 112 107 111
f 113 109 114
f 109 110 114
f 112 111 115
f 116 112 115
f 117 113 118
f 113 114 118
f 116 115 119
f 120 116 119
f 121 117 122
f 117 118 122
f 120 119 123
f 124 120 123
f 125 121 126
f 121 122 126
f 124 123 127
f 128 124 127
f 129 125 130
f 125 126 130
f 128 127 131
f 132 128 131
f 133 129 134
f 132 131 135
f 136 132 135
f 129 130 134
f 133 134 137
f 138 133 137
f 136 135 139
f 140 136 139
f 138 137 141
f 142 138 141
f 140 139 143
f 144 140 143
f 142 141 145
f 146 142 145
f 144 143 147
f 148 144 147
f 146 145 149
f 150 146 149
f 148 147 151
f 152 148 151
f 150 149 153
f 154 150 153
f 152 151 83
f 82 152 83
f 154 153 80
f 79 154 80
f 155 156 157
f 155 157 158
f 155 158 159
f 155 160 156
f 161 155 159
f 162 163 164
f 161 159 165
f 162 166 163
f 162 167 166
f 168 169 170
f 171 161 165
f 171 165 172
f 173 164 174
f 168 175 169
f 176 170 177
f 173 162 164
f 176 168 170
f 176 177 178
f 179 171 172
f 179 172 180
f 179 180 181
f 182 174 183
f 182 183 184
f 185 178 186
f 182 173 174
f 187 179 181
f 188 184 189
f 185 176 178
f 187 181 190
f 188 182 184
f 191 186 192
f 191 185 186
f 193 189 194
f 195 190 196
f 195 187 190
f 193 188 189
f 197 191 192
f 197 192 198
f 197 198 199
f 200 196 201
f 200 201 202
f 200 195 196
f 203 194 204
f 203 204 205
f 203 193 194
f 206 199 207
f 208 202 209
f 206 197 199
f 208 200 202
f 210 205 211
f 210 203 205
f 212 207 213
f 214 209 215
f 212 206 207
f 214 208 209
f 216 211 217
f 216 210 211
f 218 213 219
f 218 219 220
f 221 215 222
f 221 214 215
f 218 212 213
f 223 217 224
f 223 216 217
f 225 222 226
f 227 220 228
f 225 226 229
f 227 218 220
f 230 223 224
f 225 221 222
f 230 224 231
f 230 231 232
f 233 228 234
f 235 229 236
f 237 230 232
f 233 227 228
f 237 232 238
f 235 225 229
f 239 236 240
f 241 234 242
f 239 235 236
f 241 233 234
f 243 237 238
f 243 238 244
f 243 244 157
f 245 239 240
f 246 242 247
f 246 247 248
f 246 241 242
f 156 243 157
f 166 248 163
f 166 246 248
f 249 250 251
f 249 252 250
f 249 253 252
f 249 254 253
f 255 256 257
f 255 258 256
f 259 251 260
f 255 261 258
f 259 249 251
f 262 263 264
f 265 260 266
f 262 267 263
f 265 259 260
f 268 257 269
f 268 255 257
f 270 262 264
f 270 271 272
f 270 264 271
f 273 274 275
f 273 266 274
f 276 277 278
f 273 265 266
f 276 269 277
f 276 268 269
f 279 270 272
f 279 272 280
f 281 275 282
f 281 273 275
f 283 278 284
f 283 276 278
f 285 279 280
f 285 280 286
f 287 284 288
f 289 281 282
f 287 283 284
f 289 282 290
f 291 285 286
f 291 292 293
f 294 295 296
f 291 286 292
f 294 290 295
f 294 289 290
f 297 298 299
f 297 288 298
f 297 287 288
f 300 291 293
f 300 293 301
f 302 296 303
f 302 294 296
f 304 299 305
f 304 297 299
f 306 300 301
f 306 301 307
f 308 303 309
f 310 305 311
f 308 302 303
f 310 304 305
f 312 306 307
f 312 313 314
f 312 307 313
f 315 309 316
f 315 308 309
f 317 311 318
f 317 310 311
f 319 312 314
f 320 321 322
f 319 314 323
f 320 316 321
f 324 325 326
f 324 318 325
f 320 315 316
f 324 317 318
f 327 323 328
f 327 319 323
f 329 322 330
f 331 324 326
f 331 326 332
f 329 320 322
f 333 330 334
f 335 327 328
f 335 328 336
f 333 329 330
f 337 331 332
f 337 338 252
f 337 332 338
f 339 333 334
f 340 341 342
f 340 336 341
f 340 335 336
f 253 337 252
f 258 342 256
f 258 340 342
f 132 39 46
f 113 117 62
f 113 62 66
f 124 128 52
f 128 46 52
f 109 113 66
f 109 66 71
f 120 124 56
f 124 52 56
f 105 109 71
f 120 56 60
f 105 71 75
f 85 11 16
f 116 120 60
f 101 105 75
f 116 60 64
f 79 85 16
f 101 75 1
f 112 116 64
f 97 101 1
f 112 64 68
f 154 79 18
f 79 16 18
f 107 112 68
f 97 1 4
f 107 68 72
f 91 97 4
f 103 107 72
f 103 72 76
f 150 154 23
f 154 18 23
f 99 103 76
f 89 91 9
f 91 4 9
f 99 76 78
f 150 23 27
f 96 99 78
f 96 78 5
f 93 96 5
f 146 150 27
f 86 89 14
f 89 9 14
f 146 27 31
f 142 146 31
f 82 86 20
f 86 14 20
f 142 31 36
f 152 82 21
f 138 142 36
f 82 20 21
f 138 36 42
f 148 152 25
f 152 21 25
f 133 138 42
f 148 25 29
f 133 42 44
f 144 148 29
f 129 133 44
f 129 44 48
f 140 144 33
f 144 29 33
f 125 129 48
f 125 48 54
f 136 140 37
f 140 33 37
f 121 125 54
f 121 54 58
f 132 136 39
f 136 37 39
f 117 121 58
f 117 58 62
f 128 132 46
f 343 344 345
f 245 346 267
f 245 343 346
f 347 348 349
f 347 349 350
f 351 350 352
f 351 347 350
f 353 352 354
f 353 351 352
f 355 354 356
f 355 353 354
f 357 356 358
f 357 355 356
f 359 358 360
f 359 357 358
f 361 360 362
f 361 359 360
f 363 362 364
f 363 361 362
f 365 364 366
f 365 363 364
f 367 366 368
f 367 365 366
f 369 368 370
f 369 367 368
f 344 370 345
f 344 369 370
f 343 345 346
f 371 372 373
f 371 374 372
f 348 373 349
f 348 371 373
f 375 376 377
f 375 377 378
f 379 378 380
f 379 375 378
f 381 380 382
f 381 379 380
f 383 382 384
f 383 381 382
f 385 384 386
f 385 383 384
f 387 386 388
f 387 385 386
f 389 388 390
f 389 387 388
f 391 390 392
f 391 389 390
f 393 392 394
f 393 391 392
f 395 394 396
f 395 393 394
f 397 396 398
f 397 395 396
f 374 398 372
f 374 397 398
f 399 400 401
f 376 402 377
f 376 399 402
f 403 175 339
f 403 339 404
f 405 404 406
f 405 403 404
f 407 406 408
f 407 405 406
f 409 408 410
f 409 407 408
f 411 410 412
f 411 409 410
f 413 412 414
f 413 411 412
f 415 414 416
f 415 413 414
f 417 416 418
f 417 415 416
f 419 418 420
f 419 417 418
f 421 420 422
f 421 419 420
f 423 422 424
f 423 421 422
f 400 424 401
f 400 423 424
f 399 401 402
f 168 176 329
f 175 333 339
f 175 168 333
f 166 167 254
f 166 254 249
f 246 249 259
f 246 166 249
f 241 259 265
f 241 246 259
f 233 265 273
f 233 241 265
f 227 273 281
f 227 233 273
f 218 281 289
f 218 227 281
f 212 289 294
f 212 218 289
f 206 294 302
f 206 212 294
f 197 302 308
f 197 206 302
f 191 308 315
f 191 197 308
f 185 315 320
f 185 191 315
f 176 320 329
f 176 185 320
f 168 329 333
f 156 261 255
f 156 255 243
f 160 261 156
f 167 253 254
f 162 337 253
f 162 253 167
f 173 331 337
f 173 337 162
f 182 324 331
f 182 331 173
f 188 317 324
f 188 324 182
f 193 310 317
f 193 317 188
f 203 304 310
f 203 310 193
f 210 297 304
f 210 304 203
f 216 287 297
f 216 297 210
f 223 283 287
f 223 287 216
f 230 276 283
f 230 283 223
f 237 268 276
f 237 276 230
f 243 255 268
f 243 268 237
f 155 161 340
f 160 258 261
f 160 155 258
f 239 245 267
f 239 267 262
f 235 262 270
f 235 239 262
f 225 270 279
f 225 235 270
f 221 279 285
f 221 225 279
f 214 285 291
f 214 221 285
f 208 291 300
f 208 214 291
f 200 300 306
f 200 208 300
f 195 306 312
f 195 200 306
f 187 312 319
f 187 195 312
f 179 319 327
f 179 187 319
f 171 327 335
f 171 179 327
f 161 335 340
f 161 171 335
f 155 340 258
f 425 318 311
f 426 425 311
f 100 95 427
f 428 100 427
f 429 426 305
f 426 311 305
f 95 94 430
f 427 95 430
f 429 305 299
f 430 94 263
f 431 429 298
f 429 299 298
f 94 432 264
f 263 94 264
f 433 431 288
f 431 298 288
f 432 434 271
f 264 432 271
f 434 435 272
f 271 434 272
f 436 433 284
f 433 288 284
f 436 284 278
f 437 438 126
f 126 438 130
f 272 435 280
f 438 439 130
f 439 440 130
f 441 436 277
f 436 278 277
f 435 442 286
f 280 435 286
f 442 443 292
f 444 437 122
f 437 126 122
f 286 442 292
f 440 445 134
f 441 277 269
f 446 441 269
f 446 269 257
f 130 440 134
f 447 446 257
f 443 448 293
f 449 444 118
f 292 443 293
f 447 257 256
f 444 122 118
f 445 450 137
f 293 448 301
f 447 256 342
f 134 445 137
f 451 447 342
f 448 452 307
f 453 454 114
f 454 449 114
f 301 448 307
f 449 118 114
f 451 342 341
f 450 455 141
f 455 456 141
f 457 451 341
f 307 452 313
f 452 458 313
f 313 458 314
f 137 450 141
f 458 459 314
f 457 341 336
f 460 457 336
f 460 336 328
f 314 459 323
f 460 328 323
f 459 460 323
f 461 453 110
f 453 114 110
f 141 456 145
f 456 462 145
f 463 461 106
f 461 110 106
f 462 464 149
f 145 462 149
f 465 466 102
f 466 463 102
f 463 106 102
f 464 467 153
f 467 468 153
f 149 464 153
f 469 465 98
f 465 102 98
f 468 470 80
f 153 468 80
f 471 469 92
f 469 98 92
f 80 470 81
f 470 472 81
f 473 474 90
f 474 471 90
f 471 92 90
f 472 334 87
f 334 330 87
f 81 472 87
f 473 90 88
f 475 473 88
f 87 330 476
f 330 322 476
f 475 88 84
f 477 475 84
f 322 321 478
f 476 322 478
f 477 84 83
f 479 480 83
f 480 477 83
f 321 316 481
f 316 309 481
f 478 321 481
f 479 83 151
f 482 479 151
f 309 303 483
f 481 309 483
f 482 151 147
f 484 482 147
f 303 296 485
f 483 303 485
f 484 147 143
f 486 487 143
f 487 484 143
f 485 296 488
f 296 295 488
f 295 290 488
f 486 143 139
f 489 486 139
f 488 290 490
f 290 282 490
f 489 139 135
f 491 489 135
f 282 275 492
f 490 282 492
f 491 135 131
f 493 491 131
f 275 274 494
f 492 275 494
f 493 131 127
f 493 127 495
f 494 274 266
f 496 494 266
f 495 127 497
f 127 123 497
f 496 266 260
f 498 496 260
f 123 119 499
f 497 123 499
f 500 498 251
f 498 260 251
f 119 115 501
f 499 119 501
f 502 500 250
f 500 251 250
f 501 115 503
f 502 250 252
f 115 111 504
f 503 115 504
f 505 502 338
f 502 252 338
f 111 108 506
f 504 111 506
f 505 338 332
f 507 505 332
f 507 332 326
f 508 507 326
f 108 104 509
f 506 108 509
f 508 326 325
f 509 104 510
f 508 325 318
f 425 508 318
f 510 104 428
f 104 100 428
f 194 189 511
f 194 511 512
f 204 194 512
f 204 512 513
f 514 7 6
f 514 6 515
f 205 204 513
f 240 7 514
f 236 516 7
f 236 7 240
f 211 513 517
f 211 205 513
f 229 518 516
f 229 516 236
f 217 517 519
f 217 211 517
f 226 518 229
f 226 520 518
f 224 519 521
f 224 217 519
f 222 520 226
f 50 522 523
f 222 524 520
f 231 224 521
f 231 521 525
f 47 522 50
f 47 526 522
f 232 231 525
f 215 524 222
f 53 50 523
f 238 232 525
f 238 525 527
f 209 524 215
f 53 523 528
f 57 53 528
f 209 529 524
f 244 527 530
f 57 531 532
f 57 528 531
f 244 238 527
f 202 529 209
f 43 526 47
f 43 533 526
f 43 534 533
f 202 535 529
f 157 244 530
f 157 530 536
f 41 537 534
f 201 535 202
f 201 538 535
f 158 157 536
f 41 534 43
f 158 536 539
f 61 57 532
f 196 538 201
f 196 540 538
f 159 158 539
f 61 532 541
f 190 540 196
f 181 540 190
f 181 542 540
f 165 159 539
f 35 543 537
f 165 539 544
f 172 165 544
f 172 544 545
f 35 537 41
f 180 542 181
f 65 61 541
f 180 172 545
f 180 545 542
f 65 541 546
f 32 543 35
f 32 547 543
f 69 546 548
f 69 65 546
f 28 549 547
f 28 550 549
f 28 547 32
f 74 551 552
f 74 548 551
f 74 69 548
f 24 550 28
f 24 553 550
f 2 552 554
f 2 74 552
f 19 553 24
f 19 555 553
f 3 554 556
f 3 2 554
f 13 555 19
f 13 557 555
f 8 556 558
f 8 3 556
f 12 557 13
f 12 169 557
f 12 170 169
f 10 559 560
f 10 558 559
f 10 8 558
f 561 170 12
f 561 177 170
f 15 10 560
f 15 560 562
f 17 562 563
f 17 15 562
f 564 178 177
f 564 177 561
f 22 17 563
f 22 563 565
f 566 186 178
f 566 178 564
f 567 186 566
f 567 192 186
f 567 198 192
f 26 22 565
f 26 568 569
f 26 565 568
f 570 198 567
f 570 199 198
f 30 26 569
f 30 569 571
f 572 199 570
f 572 207 199
f 34 30 571
f 34 571 573
f 574 207 572
f 574 213 207
f 38 34 573
f 38 573 575
f 576 213 574
f 576 219 213
f 40 38 575
f 40 575 577
f 578 40 577
f 220 219 576
f 579 220 576
f 45 40 578
f 580 45 578
f 228 220 579
f 581 228 579
f 49 45 580
f 582 49 580
f 234 228 581
f 583 234 581
f 51 49 582
f 584 51 582
f 242 234 583
f 585 242 583
f 55 51 584
f 586 55 584
f 247 242 585
f 587 59 55
f 587 55 586
f 248 585 588
f 248 247 585
f 163 588 589
f 163 248 588
f 590 63 59
f 590 59 587
f 591 67 63
f 591 63 590
f 164 589 592
f 164 163 589
f 593 70 67
f 593 67 591
f 174 164 592
f 174 592 594
f 595 70 593
f 183 174 594
f 596 73 70
f 596 70 595
f 184 183 594
f 184 594 597
f 189 184 597
f 189 597 511
f 598 77 73
f 598 73 596
f 515 6 77
f 515 77 598
f 599 600 601
f 602 603 604
f 602 604 605
f 606 607 608
f 607 601 608
f 609 602 605
f 609 605 610
f 611 606 612
f 606 608 612
f 613 609 610
f 611 612 614
f 613 610 615
f 93 5 616
f 617 611 614
f 618 613 615
f 617 614 619
f 620 93 616
f 618 615 621
f 622 617 619
f 623 618 621
f 622 619 624
f 625 620 626
f 620 616 626
f 627 622 624
f 623 621 628
f 627 624 629
f 630 623 628
f 631 627 629
f 631 629 632
f 633 625 634
f 625 626 634
f 635 631 632
f 636 630 637
f 630 628 637
f 635 632 638
f 633 634 639
f 640 635 638
f 640 638 11
f 85 640 11
f 641 633 639
f 642 636 643
f 636 637 643
f 641 639 644
f 645 641 644
f 646 642 647
f 642 643 647
f 645 644 648
f 649 646 650
f 651 645 648
f 646 647 650
f 651 648 652
f 649 650 653
f 654 649 653
f 655 651 652
f 655 652 656
f 657 654 658
f 654 653 658
f 659 655 656
f 657 658 660
f 659 656 661
f 662 657 660
f 663 659 661
f 663 661 664
f 665 662 666
f 662 660 666
f 667 663 664
f 667 664 668
f 599 665 600
f 665 666 600
f 603 667 668
f 603 668 604
f 607 599 601
f 350 486 489
f 350 487 486
f 350 373 487
f 350 349 373
f 378 454 453
f 352 489 491
f 378 402 454
f 352 350 489
f 378 377 402
f 404 339 334
f 354 491 493
f 354 352 491
f 404 334 472
f 380 453 461
f 380 378 453
f 406 404 472
f 406 470 468
f 406 472 470
f 356 495 497
f 356 493 495
f 356 354 493
f 382 463 466
f 382 461 463
f 382 380 461
f 408 406 468
f 408 468 467
f 384 466 465
f 358 497 499
f 358 356 497
f 384 382 466
f 410 408 467
f 386 465 469
f 410 467 464
f 360 499 501
f 386 384 465
f 360 358 499
f 362 503 504
f 412 410 464
f 362 501 503
f 362 360 501
f 412 462 456
f 412 464 462
f 388 471 474
f 388 469 471
f 388 386 469
f 414 412 456
f 364 504 506
f 414 456 455
f 364 362 504
f 390 474 473
f 390 388 474
f 416 414 455
f 366 506 509
f 416 455 450
f 366 364 506
f 392 473 475
f 392 390 473
f 418 416 450
f 368 509 510
f 418 445 440
f 368 366 509
f 418 450 445
f 394 475 477
f 394 392 475
f 370 428 427
f 420 418 440
f 370 510 428
f 370 368 510
f 420 440 439
f 396 480 479
f 396 477 480
f 396 394 477
f 345 427 430
f 422 439 438
f 422 420 439
f 398 479 482
f 345 370 427
f 346 430 263
f 398 396 479
f 346 345 430
f 424 438 437
f 372 398 482
f 424 422 438
f 372 484 487
f 372 482 484
f 267 346 263
f 401 424 437
f 401 444 449
f 401 437 444
f 373 372 487
f 402 449 454
f 402 401 449
f 399 375 541
f 399 541 532
f 399 532 531
f 399 376 375
f 371 573 571
f 400 399 531
f 371 347 573
f 400 531 528
f 371 348 347
f 343 245 240
f 343 240 514
f 423 400 528
f 374 571 569
f 423 528 523
f 344 514 515
f 374 371 571
f 344 343 514
f 344 515 598
f 421 423 523
f 397 569 568
f 421 523 522
f 397 568 565
f 421 522 526
f 369 598 596
f 397 374 569
f 369 344 598
f 419 421 526
f 395 565 563
f 419 526 533
f 367 596 595
f 395 397 565
f 367 369 596
f 393 563 562
f 393 395 563
f 417 419 533
f 417 533 534
f 365 367 595
f 365 595 593
f 365 593 591
f 415 534 537
f 415 417 534
f 415 537 543
f 391 562 560
f 391 560 559
f 363 591 590
f 391 393 562
f 363 365 591
f 413 543 547
f 389 559 558
f 413 415 543
f 389 391 559
f 361 590 587
f 361 363 590
f 411 547 549
f 387 558 556
f 411 413 547
f 387 389 558
f 359 587 586
f 359 586 584
f 359 361 587
f 409 549 550
f 409 411 549
f 385 556 554
f 385 387 556
f 357 584 582
f 407 550 553
f 357 359 584
f 407 553 555
f 383 385 554
f 383 554 552
f 383 552 551
f 407 409 550
f 355 582 580
f 355 357 582
f 405 555 557
f 381 383 551
f 381 551 548
f 405 407 555
f 403 557 169
f 353 580 578
f 353 355 580
f 403 405 557
f 379 381 548
f 379 548 546
f 379 546 541
f 175 403 169
f 351 578 577
f 351 577 575
f 351 353 578
f 375 379 541
f 347 575 573
f 347 351 575
f 620 434 432
f 646 508 425
f 93 620 432
f 642 646 425
f 93 432 94
f 642 425 426
f 636 642 426
f 636 426 429
f 630 636 431
f 85 87 476
f 640 85 476
f 636 429 431
f 630 431 433
f 623 630 433
f 635 640 478
f 640 476 478
f 618 623 436
f 631 635 481
f 623 433 436
f 635 478 481
f 613 618 441
f 618 436 441
f 627 631 483
f 631 481 483
f 609 613 446
f 627 483 485
f 613 441 446
f 622 627 485
f 602 609 447
f 609 446 447
f 622 485 488
f 617 622 488
f 603 602 451
f 602 447 451
f 617 488 490
f 611 617 490
f 667 603 457
f 603 451 457
f 611 490 492
f 606 611 492
f 663 667 460
f 667 457 460
f 606 492 494
f 607 606 494
f 659 663 459
f 663 460 459
f 607 494 496
f 599 607 496
f 655 659 458
f 599 496 498
f 665 599 498
f 659 459 458
f 655 458 452
f 651 655 452
f 665 498 500
f 662 665 500
f 651 452 448
f 645 651 448
f 662 500 502
f 657 662 502
f 645 448 443
f 641 645 443
f 657 502 505
f 654 657 505
f 641 443 442
f 633 641 442
f 654 505 507
f 649 654 507
f 633 442 435
f 625 633 435
f 649 507 508
f 646 649 508
f 625 435 434
f 620 625 434
f 621 521 519
f 628 621 519
f 11 561 12
f 628 519 517
f 637 628 517
f 637 517 513
f 5 7 516
f 643 637 512
f 616 5 516
f 637 513 512
f 647 643 511
f 626 616 518
f 643 512 511
f 616 516 518
f 650 647 597
f 634 626 520
f 647 511 597
f 626 518 520
f 653 650 594
f 650 597 594
f 639 634 524
f 634 520 524
f 658 653 592
f 653 594 592
f 644 639 529
f 639 524 529
f 660 658 589
f 658 592 589
f 644 529 535
f 648 644 535
f 666 660 588
f 660 589 588
f 600 666 585
f 648 535 538
f 652 648 538
f 666 588 585
f 652 538 540
f 656 652 540
f 600 585 583
f 601 600 583
f 656 540 542
f 661 656 542
f 601 583 581
f 661 542 545
f 601 581 579
f 608 601 579
f 661 545 544
f 664 661 544
f 608 579 576
f 612 608 576
f 664 544 539
f 668 664 539
f 612 576 574
f 614 612 574
f 668 539 536
f 604 668 536
f 614 574 572
f 619 614 572
f 604 536 530
f 605 604 530
f 619 572 570
f 624 619 570
f 605 530 527
f 624 570 567
f 610 605 527
f 629 624 567
f 629 567 566
f 610 527 525
f 615 610 525
f 632 629 566
f 632 566 564
f 638 632 564
f 615 525 521
f 621 615 521
f 638 564 561
f 11 638 561
