# Created by FreeCAD <http://www.freecadweb.org>
v 24.981184 533.583679 -35.345837
v 25.200001 533.924255 -35.545185
v 25.200001 533.961121 -35.392529
v 24.981184 533.607788 -35.206493
v 24.981184 532.065552 -33.380325
v 25.200001 532.237427 -33.014145
v 25.200001 532.080933 -33.001637
v 25.200001 533.985840 -35.237453
v 24.981184 533.619690 -35.065578
v 25.200001 533.998352 -35.080914
v 24.981184 531.934448 -36.619675
v 25.200001 531.919067 -36.998363
v 25.200001 532.076111 -36.998550
v 24.981184 533.619202 -34.924168
v 25.200001 533.998535 -34.923874
v 24.981184 532.075806 -36.619225
v 25.200001 533.986389 -34.767303
v 24.981184 532.216675 -36.606453
v 25.200001 532.232727 -36.986416
v 24.981184 533.606445 -34.783329
v 24.981184 533.581482 -34.644142
v 25.200001 533.962036 -34.612167
v 24.981184 532.355835 -36.581455
v 25.200001 532.387817 -36.962036
v 24.981184 533.544434 -34.507664
v 25.200001 533.925537 -34.459423
v 24.981184 532.492310 -36.544426
v 25.200001 532.540588 -36.925560
v 24.981184 533.495667 -34.374931
v 25.200001 533.877197 -34.310013
v 24.981184 532.625061 -36.495636
v 25.200001 532.690002 -36.877209
v 24.981184 533.435486 -34.246956
v 25.200001 533.817261 -34.164856
v 25.200001 532.835144 -36.817287
v 24.981184 532.753052 -36.435467
v 24.981184 533.364380 -34.124714
v 25.200001 533.746155 -34.024849
v 24.981184 533.282898 -34.009132
v 25.200001 533.664246 -33.890850
v 25.200001 532.975159 -36.746162
v 24.981184 532.875305 -36.364372
v 25.200001 533.109131 -36.664268
v 24.981184 532.990845 -36.282894
v 25.200001 533.572144 -33.763695
v 24.981184 533.191650 -33.901089
v 25.200001 533.236328 -36.572117
v 24.981184 533.098938 -36.191654
v 25.200001 533.470276 -33.644157
v 25.200001 533.355835 -36.470268
v 25.200001 533.359375 -33.532982
v 24.981184 533.091370 -33.801411
v 25.200001 533.467041 -36.359360
v 24.981184 533.198608 -36.091343
v 25.200001 533.240051 -33.430851
v 24.981184 532.982727 -33.710857
v 25.200001 533.569153 -36.240067
v 24.981184 533.289124 -35.982727
v 25.200001 533.113159 -33.338390
v 24.981184 532.866638 -33.630112
v 25.200001 533.661621 -36.113129
v 24.981184 533.369873 -35.866631
v 25.200001 532.979309 -33.256180
v 24.981184 532.743958 -33.559792
v 25.200001 533.743835 -35.979332
v 24.981184 533.440186 -35.743938
v 25.200001 532.839478 -33.184719
v 24.981184 532.615601 -33.500435
v 25.200001 533.815308 -35.839493
v 25.200001 532.694458 -33.124447
v 24.981184 533.499573 -35.615585
v 24.981184 532.482544 -33.452488
v 25.200001 532.545166 -33.075741
v 25.200001 533.875549 -35.694481
v 24.981184 533.547485 -35.482548
v 24.981184 532.345825 -33.416321
v 25.200001 532.392517 -33.038898
v 24.981184 532.206482 -33.392204
v 22.379000 532.075806 -36.619225
v 22.000000 532.229187 -36.825489
v 22.000000 532.077637 -36.838177
v 22.379000 533.606445 -34.783329
v 22.000000 533.800354 -34.620876
v 22.000000 533.825500 -34.770840
v 22.379000 531.934448 -36.619675
v 22.379000 533.619202 -34.924168
v 22.000000 531.925598 -36.838310
v 22.000000 533.838196 -34.922371
v 22.379000 533.619690 -35.065578
v 22.000000 533.838318 -35.074432
v 22.379000 533.607788 -35.206493
v 22.000000 533.825867 -35.225983
v 22.379000 532.065552 -33.380325
v 22.000000 532.074402 -33.161690
v 22.000000 532.226013 -33.174114
v 22.379000 532.206482 -33.392204
v 22.379000 533.583679 -35.345837
v 22.000000 533.800964 -35.375992
v 22.379000 532.345825 -33.416321
v 22.000000 532.375977 -33.199013
v 22.379000 533.547485 -35.482548
v 22.000000 533.763794 -35.523434
v 22.379000 532.482544 -33.452488
v 22.000000 532.523438 -33.236214
v 22.379000 533.499573 -35.615585
v 22.000000 533.714539 -35.667297
v 22.379000 532.615601 -33.500435
v 22.000000 532.667297 -33.285461
v 22.379000 533.440186 -35.743938
v 22.000000 533.653564 -35.806602
v 22.000000 532.806580 -33.346424
v 22.379000 532.743958 -33.559792
v 22.379000 533.369873 -35.866631
v 22.000000 533.581299 -35.940399
v 22.000000 532.940430 -33.418682
v 22.379000 532.866638 -33.630112
v 22.379000 533.289124 -35.982727
v 22.000000 533.498291 -36.067772
v 22.000000 533.067749 -33.501740
v 22.379000 532.982727 -33.710857
v 22.379000 533.198608 -36.091343
v 22.000000 533.404968 -36.187851
v 22.000000 533.187866 -33.595032
v 22.379000 533.091370 -33.801411
v 22.379000 533.098938 -36.191654
v 22.000000 533.302063 -36.299816
v 22.000000 533.299805 -33.697922
v 22.379000 533.191650 -33.901089
v 22.379000 532.990845 -36.282894
v 22.000000 533.190308 -36.402901
v 22.000000 533.402893 -33.809708
v 22.379000 533.282898 -34.009132
v 22.379000 532.875305 -36.364372
v 22.000000 533.070374 -36.496403
v 22.000000 533.496399 -33.929623
v 22.379000 533.364380 -34.124714
v 22.000000 532.943176 -36.579681
v 22.379000 532.753052 -36.435467
v 22.000000 533.579651 -34.056850
v 22.379000 533.435486 -34.246956
v 22.000000 532.809448 -36.652172
v 22.379000 532.625061 -36.495636
v 22.000000 533.652161 -34.190521
v 22.379000 533.495667 -34.374931
v 22.000000 532.670288 -36.713375
v 22.379000 532.492310 -36.544426
v 22.000000 533.713379 -34.329723
v 22.379000 533.544434 -34.507664
v 22.000000 532.526489 -36.762875
v 22.379000 532.355835 -36.581455
v 22.000000 533.762878 -34.473499
v 22.379000 533.581482 -34.644142
v 22.000000 532.379150 -36.800331
v 22.379000 532.216675 -36.606453
v 24.769333 528.909729 -32.668762
v 24.755997 528.571899 -33.152821
v 25.200001 529.324707 -33.384964
v 25.200001 529.431396 -33.220169
v 25.200001 529.548218 -33.062393
v 24.670887 528.584595 -32.839333
v 24.851856 529.237244 -32.496971
v 24.765722 528.435364 -36.524979
v 25.200001 529.202881 -36.393459
v 25.200001 529.120911 -36.215076
v 25.200001 529.674683 -32.912270
v 24.754421 528.681396 -37.042152
v 24.670887 528.421143 -36.877476
v 24.769333 531.526184 -38.841846
v 25.200001 531.873596 -38.122440
v 25.200001 531.677734 -38.108341
v 24.902046 529.485229 -32.366863
v 25.200001 529.810364 -32.770382
v 24.846346 528.449829 -36.168327
v 25.200001 529.050293 -36.031902
v 24.670887 531.836487 -39.038143
v 24.851856 531.213684 -38.644138
v 25.200001 531.483215 -38.081974
v 25.200001 531.290710 -38.043446
v 24.940918 529.735229 -32.235718
v 25.200001 529.954712 -32.637295
v 25.200001 530.107117 -32.513531
v 24.898026 528.461243 -35.886230
v 25.200001 528.991333 -35.844650
v 25.200001 528.944214 -35.654068
v 24.902046 530.976990 -38.494408
v 25.200001 531.101013 -37.992905
v 24.966722 529.975647 -32.109596
v 24.938105 528.472717 -35.603344
v 25.200001 528.909180 -35.460903
v 25.200001 530.266968 -32.399582
v 24.940918 530.738464 -38.343483
v 25.200001 530.914856 -37.930550
v 24.965021 528.483704 -35.331230
v 25.200001 528.886353 -35.265919
v 24.980854 530.217163 -31.982908
v 25.200001 530.433655 -32.295895
v 24.966722 530.509033 -38.198338
v 25.200001 530.733032 -37.856632
v 25.200001 530.556152 -37.771439
v 24.983059 530.437378 -31.867374
v 25.200001 530.606567 -32.202877
v 25.200001 530.784912 -32.120903
v 24.980160 528.494751 -35.058266
v 25.200001 528.875793 -35.069885
v 25.200001 528.877563 -34.873573
v 24.980854 530.278564 -38.052540
v 25.200001 530.384949 -37.675312
v 24.974907 530.656677 -31.752319
v 25.200001 530.968079 -32.050285
v 24.983303 528.504761 -34.811401
v 25.200001 528.891663 -34.677765
v 24.983059 530.068359 -37.919579
v 25.200001 530.220154 -37.568623
v 24.955402 530.888489 -31.630714
v 25.200001 531.155334 -31.991314
v 24.976166 528.514832 -34.563519
v 25.200001 528.918030 -34.483227
v 24.974907 529.859070 -37.787170
v 25.200001 530.062378 -37.451797
v 25.200001 529.912292 -37.325294
v 24.925381 531.118958 -31.509813
v 25.200001 531.345947 -31.944216
v 24.958166 528.525269 -34.305466
v 25.200001 528.956543 -34.290726
v 24.881516 531.368469 -31.378939
v 25.200001 531.539124 -31.909176
v 24.955402 529.637878 -37.647221
v 25.200001 529.770386 -37.189617
v 25.200001 531.734070 -31.886335
v 24.929895 528.535645 -34.048363
v 25.200001 529.007080 -34.101028
v 25.200001 529.069458 -33.914875
v 24.925381 529.417908 -37.508083
v 25.200001 529.637268 -37.045300
v 24.826830 531.616577 -31.248787
v 25.200001 531.930115 -31.875782
v 24.885685 528.547424 -33.757225
v 25.200001 529.143372 -33.733006
v 24.754421 531.890747 -31.104950
v 25.200001 532.126404 -31.877558
v 24.881516 529.179871 -37.357468
v 25.200001 529.513550 -36.892906
v 24.829950 528.559082 -33.469364
v 25.200001 529.228577 -33.556137
v 24.670887 532.163513 -30.961857
v 24.826830 528.943054 -37.207684
v 25.200001 529.399597 -36.733044
v 25.200001 529.295898 -36.566345
v 22.430666 528.731384 -37.073772
v 22.000000 529.295898 -36.566345
v 22.000000 529.399597 -36.733044
v 22.000000 529.202881 -36.393459
v 22.444748 528.433716 -36.566696
v 22.529114 528.421143 -36.877476
v 22.432337 528.570007 -33.199387
v 22.000000 529.324707 -33.384964
v 22.000000 529.228577 -33.556137
v 22.445580 528.857361 -32.696239
v 22.348143 529.043945 -37.271481
v 22.000000 529.513550 -36.892906
v 22.529114 528.584595 -32.839333
v 22.430666 531.838379 -31.132425
v 22.000000 532.126404 -31.877558
v 22.000000 531.930115 -31.875782
v 22.297953 529.280579 -37.421211
v 22.000000 529.637268 -37.045300
v 22.529114 532.163513 -30.961857
v 22.350559 528.555298 -33.563553
v 22.000000 529.143372 -33.733006
v 22.348143 531.510864 -31.304220
v 22.000000 531.734070 -31.886335
v 22.000000 531.539124 -31.909176
v 22.259081 529.519165 -37.572136
v 22.000000 529.770386 -37.189617
v 22.000000 529.912292 -37.325294
v 22.299976 528.544006 -33.842907
v 22.000000 529.069458 -33.914875
v 22.000000 529.007080 -34.101028
v 22.297953 531.262878 -31.434328
v 22.000000 531.345947 -31.944216
v 22.233278 529.748596 -37.717281
v 22.000000 530.062378 -37.451797
v 22.260561 528.532532 -34.125446
v 22.000000 528.956543 -34.290726
v 22.259081 531.012878 -31.565472
v 22.000000 531.155334 -31.991314
v 22.234169 528.521484 -34.397968
v 22.000000 528.918030 -34.483227
v 22.219147 529.979065 -37.863079
v 22.000000 530.220154 -37.568623
v 22.233278 530.772461 -31.691593
v 22.000000 530.968079 -32.050285
v 22.000000 530.784912 -32.120903
v 22.216942 530.189209 -37.996040
v 22.000000 530.384949 -37.675312
v 22.000000 530.556152 -37.771439
v 22.219488 528.510437 -34.671043
v 22.000000 528.891663 -34.677765
v 22.000000 528.877563 -34.873573
v 22.219147 530.530945 -31.818281
v 22.000000 530.606567 -32.202877
v 22.225094 530.398560 -38.128448
v 22.000000 530.733032 -37.856632
v 22.216825 528.500366 -34.919994
v 22.000000 528.875793 -35.069885
v 22.216942 530.310730 -31.933815
v 22.000000 530.433655 -32.295895
v 22.244596 530.619751 -38.268398
v 22.000000 530.914856 -37.930550
v 22.224476 528.490356 -35.168030
v 22.000000 528.886353 -35.265919
v 22.225094 530.091431 -32.048870
v 22.000000 530.266968 -32.399582
v 22.000000 530.107117 -32.513531
v 22.274620 530.839722 -38.407536
v 22.000000 531.101013 -37.992905
v 22.242998 528.479919 -35.425613
v 22.000000 528.909180 -35.460903
v 22.244596 529.859619 -32.170475
v 22.318485 531.077759 -38.558151
v 22.000000 531.290710 -38.043446
v 22.000000 531.483215 -38.081974
v 22.000000 529.954712 -32.637295
v 22.271879 528.469482 -35.682453
v 22.000000 528.944214 -35.654068
v 22.000000 528.991333 -35.844650
v 22.274620 529.629150 -32.291374
v 22.000000 529.810364 -32.770382
v 22.373169 531.314514 -38.707935
v 22.000000 531.677734 -38.108341
v 22.315775 528.457947 -35.967915
v 22.000000 529.050293 -36.031902
v 22.445580 531.576172 -38.873466
v 22.000000 531.873596 -38.122440
v 22.318485 529.379639 -32.422249
v 22.000000 529.674683 -32.912270
v 22.371202 528.446411 -36.252506
v 22.000000 529.120911 -36.215076
v 22.529114 531.836487 -39.038143
v 22.373169 529.131592 -32.552402
v 22.000000 529.548218 -33.062393
v 22.000000 529.431396 -33.220169
v 24.769333 532.473816 -31.158154
v 22.373169 532.685486 -31.292067
v 22.445580 532.423828 -31.126534
v 24.851856 532.786316 -31.355860
v 24.754421 535.318604 -32.957848
v 24.670887 535.578857 -33.122524
v 22.529114 535.578857 -33.122524
v 22.430666 535.268616 -32.926228
v 24.826830 535.056946 -32.792316
v 22.348143 534.956055 -32.728519
v 24.881516 534.820129 -32.642532
v 22.297953 534.719421 -32.578789
v 24.925381 534.582092 -32.491917
v 22.259081 534.480835 -32.427864
v 24.955402 534.362122 -32.352779
v 22.233278 534.251404 -32.282719
v 24.974907 534.140930 -32.212830
v 22.219147 534.020935 -32.136921
v 24.983059 533.931641 -32.080421
v 22.216942 533.810791 -32.003960
v 24.980854 533.721436 -31.947460
v 22.225094 533.601440 -31.871550
v 24.966722 533.490967 -31.801662
v 22.244596 533.380249 -31.731604
v 24.940918 533.261536 -31.656519
v 22.274620 533.160278 -31.592464
v 24.902046 533.023010 -31.505594
v 22.318485 532.922241 -31.441851
v 24.767662 535.564331 -33.482578
v 22.370050 535.553406 -33.752556
v 22.444004 535.566162 -33.436012
v 24.849440 535.549561 -33.846745
v 24.755253 535.427979 -36.849888
v 24.670887 535.415405 -37.160667
v 22.529114 535.415405 -37.160667
v 22.434278 535.429626 -36.808170
v 24.828798 535.440674 -36.535698
v 22.353653 535.444092 -36.451519
v 24.884226 535.452209 -36.251106
v 22.301973 535.455505 -36.169422
v 24.928120 535.463745 -35.965645
v 22.261896 535.466980 -35.886539
v 24.957003 535.474182 -35.708805
v 22.234980 535.477966 -35.614422
v 24.975525 535.484619 -35.451221
v 22.219841 535.489014 -35.341457
v 24.983175 535.494629 -35.203186
v 22.216696 535.499023 -35.094593
v 24.980513 535.504700 -34.954235
v 22.223833 535.509094 -34.846710
v 24.965830 535.515747 -34.681160
v 22.241833 535.519531 -34.588657
v 24.939440 535.526794 -34.408638
v 22.270105 535.529907 -34.331554
v 24.900023 535.538269 -34.126099
v 22.314314 535.541748 -34.040417
v 24.769333 535.090271 -37.331238
v 22.373169 534.868408 -37.447598
v 22.445580 535.142639 -37.303761
v 24.851856 534.762756 -37.503029
v 24.754421 532.109253 -38.895050
v 22.430666 532.161621 -38.867573
v 24.826830 532.383423 -38.751213
v 22.348143 532.489136 -38.695782
v 24.881516 532.631531 -38.621059
v 22.297953 532.737122 -38.565674
v 24.925381 532.881042 -38.490189
v 22.259081 532.987122 -38.434528
v 24.955402 533.111511 -38.369286
v 22.233278 533.227539 -38.308407
v 24.974907 533.343323 -38.247681
v 22.219147 533.469055 -38.181721
v 24.983059 533.562622 -38.132626
v 22.216942 533.689270 -38.066185
v 24.980854 533.782837 -38.017090
v 22.225094 533.908569 -37.951130
v 24.966722 534.024353 -37.890404
v 22.244596 534.140381 -37.829525
v 24.940918 534.264771 -37.764282
v 22.274620 534.370850 -37.708626
v 24.902046 534.514771 -37.633137
v 22.318485 534.620361 -37.577751
v 22.000000 533.266968 -32.143368
v 22.000000 533.443848 -32.228561
v 22.000000 530.286621 -35.670277
v 22.000000 530.237122 -35.526501
v 22.000000 533.085144 -32.069450
v 22.000000 530.199646 -35.379124
v 22.000000 532.898987 -32.007095
v 22.000000 532.709290 -31.956554
v 22.000000 530.174500 -35.229160
v 22.000000 534.325317 -37.087730
v 22.000000 534.189636 -37.229618
v 22.000000 534.045288 -37.362705
v 22.000000 532.516785 -31.918024
v 22.000000 533.892883 -37.486469
v 22.000000 530.161804 -35.077629
v 22.000000 532.322266 -31.891659
v 22.000000 534.451782 -36.937607
v 22.000000 533.733032 -37.600418
v 22.000000 530.161682 -34.925568
v 22.000000 534.568604 -36.779831
v 22.000000 533.566345 -37.704105
v 22.000000 531.922363 -33.161823
v 22.000000 534.771423 -36.443863
v 22.000000 534.675293 -36.615036
v 22.000000 533.393433 -37.797123
v 22.000000 530.174133 -34.774017
v 22.000000 533.215088 -37.879097
v 22.000000 531.770813 -33.174511
v 22.000000 530.199036 -34.624008
v 22.000000 531.620850 -33.199669
v 22.000000 534.856628 -36.266994
v 22.000000 533.031921 -37.949715
v 22.000000 530.236206 -34.476566
v 22.000000 534.930542 -36.085125
v 22.000000 532.844666 -38.008686
v 22.000000 531.473511 -33.237125
v 22.000000 530.285461 -34.332703
v 22.000000 535.043457 -35.709274
v 22.000000 534.992920 -35.898972
v 22.000000 531.329712 -33.286625
v 22.000000 532.654053 -38.055786
v 22.000000 532.460876 -38.090824
v 22.000000 530.346436 -34.193398
v 22.000000 531.190552 -33.347828
v 22.000000 535.081970 -35.516773
v 22.000000 532.265930 -38.113667
v 22.000000 530.418701 -34.059601
v 22.000000 535.108337 -35.322235
v 22.000000 531.056824 -33.420319
v 22.000000 530.501709 -33.932228
v 22.000000 532.069885 -38.124218
v 22.000000 530.929626 -33.503597
v 22.000000 535.124207 -34.930115
v 22.000000 535.122437 -35.126427
v 22.000000 530.595032 -33.812149
v 22.000000 530.809692 -33.597099
v 22.000000 530.697937 -33.700184
v 22.000000 535.113647 -34.734081
v 22.000000 531.773987 -36.825886
v 22.000000 535.090820 -34.539097
v 22.000000 531.624023 -36.800987
v 22.000000 535.008667 -34.155350
v 22.000000 535.055786 -34.345932
v 22.000000 531.476563 -36.763786
v 22.000000 534.949707 -33.968098
v 22.000000 531.332703 -36.714539
v 22.000000 534.879089 -33.784924
v 22.000000 531.193420 -36.653576
v 22.000000 534.704102 -33.433655
v 22.000000 534.797119 -33.606541
v 22.000000 531.059570 -36.581318
v 22.000000 534.600403 -33.266956
v 22.000000 530.932251 -36.498260
v 22.000000 534.486450 -33.107094
v 22.000000 530.812134 -36.404968
v 22.000000 534.362732 -32.954700
v 22.000000 530.700195 -36.302078
v 22.000000 530.597107 -36.190292
v 22.000000 534.229614 -32.810383
v 22.000000 534.087708 -32.674706
v 22.000000 530.503601 -36.070377
v 22.000000 533.937622 -32.548203
v 22.000000 530.420349 -35.943150
v 22.000000 533.779846 -32.431377
v 22.000000 530.347839 -35.809479
v 22.000000 533.615051 -32.324688
v 25.200001 530.013611 -35.232697
v 25.200001 530.001465 -35.076126
v 25.200001 532.516785 -31.918024
v 25.200001 532.709290 -31.956554
v 25.200001 530.001648 -34.919086
v 25.200001 532.322266 -31.891659
v 25.200001 530.014160 -34.762547
v 25.200001 531.923889 -33.001450
v 25.200001 530.038879 -34.607471
v 25.200001 531.767273 -33.013584
v 25.200001 530.075745 -34.454815
v 25.200001 531.612183 -33.037964
v 25.200001 534.045288 -37.362705
v 25.200001 534.189636 -37.229618
v 25.200001 530.124451 -34.305519
v 25.200001 533.892883 -37.486469
v 25.200001 531.459412 -33.074440
v 25.200001 534.325317 -37.087730
v 25.200001 530.184692 -34.160507
v 25.200001 533.733032 -37.600418
v 25.200001 533.566345 -37.704105
v 25.200001 531.309998 -33.122791
v 25.200001 530.256165 -34.020668
v 25.200001 534.451782 -36.937607
v 25.200001 534.568604 -36.779831
v 25.200001 531.164856 -33.182713
v 25.200001 533.393433 -37.797123
v 25.200001 530.338379 -33.886871
v 25.200001 531.024841 -33.253838
v 25.200001 530.430847 -33.759933
v 25.200001 534.675293 -36.615036
v 25.200001 530.890869 -33.335732
v 25.200001 533.215088 -37.879097
v 25.200001 530.532959 -33.640640
v 25.200001 530.763672 -33.427883
v 25.200001 530.644165 -33.529732
v 25.200001 534.771423 -36.443863
v 25.200001 533.031921 -37.949715
v 25.200001 534.856628 -36.266994
v 25.200001 532.844666 -38.008686
v 25.200001 532.654053 -38.055786
v 25.200001 534.930542 -36.085125
v 25.200001 534.992920 -35.898972
v 25.200001 532.460876 -38.090824
v 25.200001 535.043457 -35.709274
v 25.200001 532.265930 -38.113667
v 25.200001 535.081970 -35.516773
v 25.200001 532.069885 -38.124218
v 25.200001 535.108337 -35.322235
v 25.200001 535.122437 -35.126427
v 25.200001 535.124207 -34.930115
v 25.200001 531.762573 -36.985855
v 25.200001 535.113647 -34.734081
v 25.200001 531.607483 -36.961102
v 25.200001 535.090820 -34.539097
v 25.200001 531.454834 -36.924259
v 25.200001 535.055786 -34.345932
v 25.200001 531.305542 -36.875553
v 25.200001 535.008667 -34.155350
v 25.200001 534.949707 -33.968098
v 25.200001 531.160522 -36.815281
v 25.200001 534.879089 -33.784924
v 25.200001 531.020691 -36.743820
v 25.200001 534.797119 -33.606541
v 25.200001 530.886841 -36.661610
v 25.200001 534.704102 -33.433655
v 25.200001 530.759949 -36.569149
v 25.200001 534.600403 -33.266956
v 25.200001 534.486450 -33.107094
v 25.200001 530.640625 -36.467018
v 25.200001 534.362732 -32.954700
v 25.200001 530.529724 -36.355843
v 25.200001 534.229614 -32.810383
v 25.200001 530.427856 -36.236305
v 25.200001 534.087708 -32.674706
v 25.200001 530.335754 -36.109150
v 25.200001 533.937622 -32.548203
v 25.200001 530.253845 -35.975151
v 25.200001 533.779846 -32.431377
v 25.200001 530.182739 -35.835144
v 25.200001 533.615051 -32.324688
v 25.200001 530.122803 -35.689987
v 25.200001 533.443848 -32.228561
v 25.200001 530.074463 -35.540577
v 25.200001 533.266968 -32.143368
v 25.200001 533.085144 -32.069450
v 25.200001 530.037964 -35.387833
v 25.200001 532.898987 -32.007095
v 22.379000 530.630127 -34.133369
v 22.379000 530.710876 -34.017273
v 24.981184 530.630127 -34.133369
v 24.981184 530.559814 -34.256062
v 22.379000 530.908630 -36.198589
v 22.379000 530.808350 -36.098911
v 24.981184 530.908630 -36.198589
v 24.981184 530.808350 -36.098911
v 22.379000 530.559814 -34.256062
v 24.981184 530.500427 -34.384415
v 22.379000 531.017273 -36.289143
v 24.981184 531.017273 -36.289143
v 22.379000 530.500427 -34.384415
v 24.981184 531.133362 -36.369888
v 24.981184 530.452515 -34.517452
v 24.981184 531.924194 -33.380775
v 22.379000 531.133362 -36.369888
v 22.379000 530.452515 -34.517452
v 24.981184 531.256042 -36.440208
v 22.379000 531.924194 -33.380775
v 24.981184 530.416321 -34.654163
v 22.379000 531.256042 -36.440208
v 22.379000 530.416321 -34.654163
v 24.981184 531.384399 -36.499565
v 22.379000 531.783325 -33.393547
v 24.981184 531.783325 -33.393547
v 22.379000 531.384399 -36.499565
v 24.981184 530.392212 -34.793507
v 24.981184 531.517456 -36.547512
v 22.379000 530.392212 -34.793507
v 22.379000 531.517456 -36.547512
v 24.981184 531.654175 -36.583679
v 22.379000 531.644165 -33.418545
v 24.981184 531.644165 -33.418545
v 22.379000 531.654175 -36.583679
v 22.379000 530.380310 -34.934422
v 24.981184 530.380310 -34.934422
v 24.981184 531.793518 -36.607796
v 24.981184 531.507690 -33.455574
v 22.379000 531.793518 -36.607796
v 22.379000 531.507690 -33.455574
v 22.379000 530.380798 -35.075832
v 24.981184 530.380798 -35.075832
v 24.981184 531.374939 -33.504364
v 22.379000 531.374939 -33.504364
v 22.379000 530.393555 -35.216671
v 24.981184 530.393555 -35.216671
v 24.981184 531.246948 -33.564533
v 22.379000 530.418518 -35.355858
v 24.981184 530.418518 -35.355858
v 22.379000 531.246948 -33.564533
v 24.981184 531.124695 -33.635628
v 24.981184 530.455566 -35.492336
v 22.379000 530.455566 -35.492336
v 22.379000 531.124695 -33.635628
v 24.981184 531.009155 -33.717106
v 22.379000 530.504333 -35.625069
v 24.981184 530.504333 -35.625069
v 22.379000 531.009155 -33.717106
v 24.981184 530.564514 -35.753044
v 24.981184 530.901062 -33.808346
v 22.379000 530.564514 -35.753044
v 22.379000 530.901062 -33.808346
v 24.981184 530.801392 -33.908657
v 22.379000 530.635620 -35.875286
v 24.981184 530.635620 -35.875286
v 22.379000 530.801392 -33.908657
v 24.981184 530.710876 -34.017273
v 22.379000 530.717102 -35.990868
v 24.981184 530.717102 -35.990868
f 1 2 3
f 4 1 3
f 5 6 7
f 4 3 8
f 9 4 8
f 9 8 10
f 11 12 13
f 14 9 15
f 16 11 13
f 9 10 15
f 14 15 17
f 18 16 19
f 20 14 17
f 16 13 19
f 21 20 22
f 23 18 24
f 20 17 22
f 18 19 24
f 25 21 26
f 21 22 26
f 27 23 28
f 23 24 28
f 29 25 30
f 25 26 30
f 31 27 32
f 27 28 32
f 33 29 34
f 29 30 34
f 31 32 35
f 36 31 35
f 37 33 38
f 33 34 38
f 39 37 40
f 36 35 41
f 42 36 41
f 37 38 40
f 42 41 43
f 44 42 43
f 39 40 45
f 46 39 45
f 44 43 47
f 48 44 47
f 46 45 49
f 48 47 50
f 46 49 51
f 52 46 51
f 48 50 53
f 54 48 53
f 52 51 55
f 56 52 55
f 54 53 57
f 58 54 57
f 56 55 59
f 60 56 59
f 58 57 61
f 62 58 61
f 60 59 63
f 64 60 63
f 62 61 65
f 66 62 65
f 64 63 67
f 68 64 67
f 66 65 69
f 68 67 70
f 71 66 69
f 72 68 70
f 72 70 73
f 71 69 74
f 75 71 74
f 76 72 73
f 76 73 77
f 78 76 77
f 75 74 2
f 1 75 2
f 78 77 6
f 5 78 6
f 79 80 81
f 82 83 84
f 85 79 81
f 86 82 84
f 85 81 87
f 86 84 88
f 89 86 88
f 89 88 90
f 91 89 92
f 93 94 95
f 89 90 92
f 96 93 95
f 97 91 98
f 91 92 98
f 99 96 100
f 96 95 100
f 101 97 102
f 103 99 104
f 97 98 102
f 99 100 104
f 105 101 106
f 107 103 108
f 101 102 106
f 103 104 108
f 109 105 110
f 107 108 111
f 105 106 110
f 112 107 111
f 113 109 114
f 109 110 114
f 112 111 115
f 116 112 115
f 117 113 118
f 113 114 118
f 116 115 119
f 120 116 119
f 121 117 122
f 117 118 122
f 120 119 123
f 124 120 123
f 125 121 126
f 121 122 126
f 124 123 127
f 128 124 127
f 129 125 130
f 125 126 130
f 128 127 131
f 132 128 131
f 133 129 134
f 132 131 135
f 136 132 135
f 129 130 134
f 133 134 137
f 138 133 137
f 136 135 139
f 140 136 139
f 138 137 141
f 142 138 141
f 140 139 143
f 144 140 143
f 142 141 145
f 146 142 145
f 144 143 147
f 148 144 147
f 146 145 149
f 150 146 149
f 148 147 151
f 152 148 151
f 150 149 153
f 154 150 153
f 152 151 83
f 82 152 83
f 154 153 80
f 79 154 80
f 155 156 157
f 155 157 158
f 155 158 159
f 155 160 156
f 161 155 159
f 162 163 164
f 161 159 165
f 162 166 163
f 162 167 166
f 168 169 170
f 171 161 165
f 171 165 172
f 173 164 174
f 168 175 169
f 176 170 177
f 173 162 164
f 176 168 170
f 176 177 178
f 179 171 172
f 179 172 180
f 179 180 181
f 182 174 183
f 182 183 184
f 185 178 186
f 182 173 174
f 187 179 181
f 188 184 189
f 185 176 178
f 187 181 190
f 188 182 184
f 191 186 192
f 191 185 186
f 193 189 194
f 195 190 196
f 195 187 190
f 193 188 189
f 197 191 192
f 197 192 198
f 197 198 199
f 200 196 201
f 200 201 202
f 200 195 196
f 203 194 204
f 203 204 205
f 203 193 194
f 206 199 207
f 208 202 209
f 206 197 199
f 208 200 202
f 210 205 211
f 210 203 205
f 212 207 213
f 214 209 215
f 212 206 207
f 214 208 209
f 216 211 217
f 216 210 211
f 218 213 219
f 218 219 220
f 221 215 222
f 221 214 215
f 218 212 213
f 223 217 224
f 223 216 217
f 225 222 226
f 227 220 228
f 225 226 229
f 227 218 220
f 230 223 224
f 225 221 222
f 230 224 231
f 230 231 232
f 233 228 234
f 235 229 236
f 237 230 232
f 233 227 228
f 237 232 238
f 235 225 229
f 239 236 240
f 241 234 242
f 239 235 236
f 241 233 234
f 243 237 238
f 243 238 244
f 243 244 157
f 245 239 240
f 246 242 247
f 246 247 248
f 246 241 242
f 156 243 157
f 166 248 163
f 166 246 248
f 249 250 251
f 249 252 250
f 249 253 252
f 249 254 253
f 255 256 257
f 255 258 256
f 259 251 260
f 255 261 258
f 259 249 251
f 262 263 264
f 265 260 266
f 262 267 263
f 265 259 260
f 268 257 269
f 268 255 257
f 270 262 264
f 270 271 272
f 270 264 271
f 273 274 275
f 273 266 274
f 276 277 278
f 273 265 266
f 276 269 277
f 276 268 269
f 279 270 272
f 279 272 280
f 281 275 282
f 281 273 275
f 283 278 284
f 283 276 278
f 285 279 280
f 285 280 286
f 287 284 288
f 289 281 282
f 287 283 284
f 289 282 290
f 291 285 286
f 291 292 293
f 294 295 296
f 291 286 292
f 294 290 295
f 294 289 290
f 297 298 299
f 297 288 298
f 297 287 288
f 300 291 293
f 300 293 301
f 302 296 303
f 302 294 296
f 304 299 305
f 304 297 299
f 306 300 301
f 306 301 307
f 308 303 309
f 310 305 311
f 308 302 303
f 310 304 305
f 312 306 307
f 312 313 314
f 312 307 313
f 315 309 316
f 315 308 309
f 317 311 318
f 317 310 311
f 319 312 314
f 320 321 322
f 319 314 323
f 320 316 321
f 324 325 326
f 324 318 325
f 320 315 316
f 324 317 318
f 327 323 328
f 327 319 323
f 329 322 330
f 331 324 326
f 331 326 332
f 329 320 322
f 333 330 334
f 335 327 328
f 335 328 336
f 333 329 330
f 337 331 332
f 337 338 252
f 337 332 338
f 339 333 334
f 340 341 342
f 340 336 341
f 340 335 336
f 253 337 252
f 258 342 256
f 258 340 342
f 113 117 62
f 113 62 66
f 124 128 52
f 128 46 52
f 109 113 66
f 109 66 71
f 120 124 56
f 124 52 56
f 105 109 71
f 120 56 60
f 105 71 75
f 85 11 16
f 116 120 60
f 101 105 75
f 116 60 64
f 79 85 16
f 101 75 1
f 112 116 64
f 97 101 1
f 112 64 68
f 154 79 18
f 79 16 18
f 107 112 68
f 97 1 4
f 107 68 72
f 91 97 4
f 103 107 72
f 103 72 76
f 150 154 23
f 154 18 23
f 99 103 76
f 89 91 9
f 91 4 9
f 99 76 78
f 150 23 27
f 96 99 78
f 96 78 5
f 93 96 5
f 146 150 27
f 86 89 14
f 89 9 14
f 146 27 31
f 142 146 31
f 82 86 20
f 86 14 20
f 142 31 36
f 152 82 21
f 138 142 36
f 82 20 21
f 138 36 42
f 148 152 25
f 152 21 25
f 133 138 42
f 148 25 29
f 133 42 44
f 144 148 29
f 129 133 44
f 129 44 48
f 140 144 33
f 144 29 33
f 125 129 48
f 125 48 54
f 136 140 37
f 140 33 37
f 121 125 54
f 121 54 58
f 132 136 39
f 136 37 39
f 117 121 58
f 117 58 62
f 128 132 46
f 132 39 46
f 343 344 345
f 343 346 344
f 245 345 267
f 245 343 345
f 347 348 349
f 347 349 350
f 351 350 352
f 351 347 350
f 353 352 354
f 353 351 352
f 355 354 356
f 355 353 354
f 357 356 358
f 357 355 356
f 359 358 360
f 359 357 358
f 361 360 362
f 361 359 360
f 363 362 364
f 363 361 362
f 365 364 366
f 365 363 364
f 367 366 368
f 367 365 366
f 369 368 370
f 369 367 368
f 346 370 344
f 346 369 370
f 371 372 373
f 371 374 372
f 348 373 349
f 348 371 373
f 375 376 377
f 375 377 378
f 379 378 380
f 379 375 378
f 381 380 382
f 381 379 380
f 383 382 384
f 383 381 382
f 385 384 386
f 385 383 384
f 387 386 388
f 387 385 386
f 389 388 390
f 389 387 388
f 391 390 392
f 391 389 390
f 393 392 394
f 393 391 392
f 395 394 396
f 395 393 394
f 397 396 398
f 397 395 396
f 374 398 372
f 374 397 398
f 399 400 401
f 399 402 400
f 376 401 377
f 376 399 401
f 403 175 339
f 403 339 404
f 405 404 406
f 405 403 404
f 407 406 408
f 407 405 406
f 409 408 410
f 409 407 408
f 411 410 412
f 411 409 410
f 413 412 414
f 413 411 412
f 415 414 416
f 415 413 414
f 417 416 418
f 417 415 416
f 419 418 420
f 419 417 418
f 421 420 422
f 421 419 420
f 423 422 424
f 423 421 422
f 402 424 400
f 402 423 424
f 168 176 329
f 175 333 339
f 175 168 333
f 166 167 254
f 166 254 249
f 246 249 259
f 246 166 249
f 241 259 265
f 241 246 259
f 233 265 273
f 233 241 265
f 227 273 281
f 227 233 273
f 218 281 289
f 218 227 281
f 212 289 294
f 212 218 289
f 206 294 302
f 206 212 294
f 197 302 308
f 197 206 302
f 191 308 315
f 191 197 308
f 185 315 320
f 185 191 315
f 176 320 329
f 176 185 320
f 168 329 333
f 156 261 255
f 156 255 243
f 160 261 156
f 167 253 254
f 162 337 253
f 162 253 167
f 173 331 337
f 173 337 162
f 182 324 331
f 182 331 173
f 188 317 324
f 188 324 182
f 193 310 317
f 193 317 188
f 203 304 310
f 203 310 193
f 210 297 304
f 210 304 203
f 216 287 297
f 216 297 210
f 223 283 287
f 223 287 216
f 230 276 283
f 230 283 223
f 237 268 276
f 237 276 230
f 243 255 268
f 243 268 237
f 155 161 340
f 160 258 261
f 160 155 258
f 239 245 267
f 239 267 262
f 235 262 270
f 235 239 262
f 225 270 279
f 225 235 270
f 221 279 285
f 221 225 279
f 214 285 291
f 214 221 285
f 208 291 300
f 208 214 291
f 200 300 306
f 200 208 300
f 195 306 312
f 195 200 306
f 187 312 319
f 187 195 312
f 179 319 327
f 179 187 319
f 171 327 335
f 171 179 327
f 161 335 340
f 161 171 335
f 155 340 258
f 111 108 425
f 426 111 425
f 427 338 332
f 428 427 332
f 108 104 429
f 425 108 429
f 428 332 326
f 430 428 326
f 429 104 431
f 430 326 325
f 431 104 432
f 104 100 432
f 430 325 318
f 433 430 318
f 434 435 126
f 435 436 126
f 432 100 437
f 100 95 437
f 436 438 130
f 126 436 130
f 433 318 311
f 439 433 311
f 95 94 440
f 434 126 122
f 441 434 122
f 437 95 440
f 438 442 134
f 443 439 305
f 439 311 305
f 440 94 263
f 130 438 134
f 444 441 118
f 441 122 118
f 442 445 137
f 443 305 299
f 94 446 264
f 134 442 137
f 263 94 264
f 447 448 114
f 448 444 114
f 444 118 114
f 445 449 141
f 450 443 298
f 449 451 141
f 443 299 298
f 446 452 271
f 137 445 141
f 264 446 271
f 453 450 288
f 450 298 288
f 452 454 272
f 455 447 110
f 447 114 110
f 271 452 272
f 141 451 145
f 451 456 145
f 457 453 284
f 453 288 284
f 272 454 280
f 458 455 106
f 455 110 106
f 456 459 149
f 457 284 278
f 454 460 286
f 145 456 149
f 280 454 286
f 457 278 277
f 461 457 277
f 462 463 102
f 463 458 102
f 460 464 292
f 458 106 102
f 286 460 292
f 459 465 153
f 461 277 269
f 465 466 153
f 467 461 269
f 149 459 153
f 464 468 293
f 469 462 98
f 292 464 293
f 462 102 98
f 467 269 257
f 466 470 80
f 471 467 257
f 293 468 301
f 153 466 80
f 471 257 256
f 472 469 92
f 301 468 307
f 468 473 307
f 469 98 92
f 471 256 342
f 474 471 342
f 470 475 81
f 307 473 313
f 473 476 313
f 80 470 81
f 474 342 341
f 477 478 90
f 479 474 341
f 478 472 90
f 313 476 314
f 476 480 314
f 472 92 90
f 479 341 336
f 481 479 336
f 475 334 87
f 334 330 87
f 481 336 328
f 480 481 328
f 314 480 323
f 81 475 87
f 480 328 323
f 477 90 88
f 482 477 88
f 330 322 483
f 87 330 483
f 482 88 84
f 484 482 84
f 322 321 485
f 483 322 485
f 484 84 83
f 486 487 83
f 487 484 83
f 321 316 488
f 316 309 488
f 485 321 488
f 486 83 151
f 489 486 151
f 309 303 490
f 488 309 490
f 489 151 147
f 491 489 147
f 490 303 492
f 303 296 492
f 491 147 143
f 493 494 143
f 494 491 143
f 492 296 495
f 296 295 495
f 295 290 495
f 493 143 139
f 496 493 139
f 495 290 497
f 290 282 497
f 496 139 135
f 498 496 135
f 282 275 499
f 497 282 499
f 498 135 131
f 500 498 131
f 275 274 501
f 499 275 501
f 501 274 502
f 500 131 503
f 131 127 503
f 502 274 266
f 127 123 504
f 503 127 504
f 502 266 260
f 505 502 260
f 123 119 506
f 504 123 506
f 507 505 251
f 505 260 251
f 119 115 508
f 506 119 508
f 509 507 250
f 507 251 250
f 508 115 510
f 509 250 252
f 115 111 426
f 510 115 426
f 427 509 338
f 509 252 338
f 194 511 512
f 513 6 77
f 513 77 514
f 204 194 512
f 204 512 515
f 516 7 6
f 516 6 513
f 205 204 515
f 240 7 516
f 211 515 517
f 211 205 515
f 236 518 7
f 236 7 240
f 217 517 519
f 217 211 517
f 229 520 518
f 229 518 236
f 224 519 521
f 224 217 519
f 226 522 520
f 226 520 229
f 50 523 524
f 231 521 525
f 231 224 521
f 47 523 50
f 222 522 226
f 47 526 523
f 222 527 522
f 232 231 525
f 53 50 524
f 215 527 222
f 238 232 525
f 53 524 528
f 238 525 529
f 43 526 47
f 43 530 526
f 43 531 530
f 209 527 215
f 209 532 527
f 57 53 528
f 244 238 529
f 244 529 533
f 202 532 209
f 57 534 535
f 57 528 534
f 41 531 43
f 202 536 532
f 41 537 531
f 157 533 538
f 157 244 533
f 201 536 202
f 61 57 535
f 201 539 536
f 158 538 540
f 158 157 538
f 61 535 541
f 196 539 201
f 196 542 539
f 159 158 540
f 35 543 537
f 190 542 196
f 165 159 540
f 165 540 544
f 35 537 41
f 65 61 541
f 181 542 190
f 181 545 542
f 172 165 544
f 172 544 546
f 180 545 181
f 65 541 547
f 180 172 546
f 180 546 545
f 32 543 35
f 32 548 543
f 69 547 549
f 69 65 547
f 28 550 548
f 28 551 550
f 28 548 32
f 74 552 553
f 74 549 552
f 74 69 549
f 24 554 551
f 24 551 28
f 2 553 555
f 2 74 553
f 19 554 24
f 19 556 554
f 3 2 555
f 3 555 557
f 13 556 19
f 13 558 556
f 8 557 559
f 8 3 557
f 12 558 13
f 12 169 558
f 12 170 169
f 10 8 559
f 10 560 561
f 10 559 560
f 562 177 170
f 562 170 12
f 15 10 561
f 15 561 563
f 564 178 177
f 564 177 562
f 17 15 563
f 17 563 565
f 566 186 178
f 566 178 564
f 22 17 565
f 22 565 567
f 568 186 566
f 568 192 186
f 568 198 192
f 26 22 567
f 26 569 570
f 26 567 569
f 571 198 568
f 571 199 198
f 30 26 570
f 30 570 572
f 573 199 571
f 573 207 199
f 34 30 572
f 34 572 574
f 575 207 573
f 575 213 207
f 38 34 574
f 38 574 576
f 577 213 575
f 577 219 213
f 40 38 576
f 40 576 578
f 579 40 578
f 220 219 577
f 580 220 577
f 45 40 579
f 581 45 579
f 228 220 580
f 582 228 580
f 49 45 581
f 234 228 582
f 583 49 581
f 584 234 582
f 51 49 583
f 242 234 584
f 585 51 583
f 586 242 584
f 55 51 585
f 247 242 586
f 587 55 585
f 248 586 588
f 248 247 586
f 589 59 55
f 589 55 587
f 163 588 590
f 163 248 588
f 591 63 59
f 591 59 589
f 164 590 592
f 164 163 590
f 593 67 63
f 593 63 591
f 174 164 592
f 174 592 594
f 595 70 67
f 595 67 593
f 183 174 594
f 596 70 595
f 184 183 594
f 184 594 597
f 598 73 70
f 598 70 596
f 189 184 597
f 189 597 511
f 514 77 73
f 514 73 598
f 194 189 511
f 599 600 601
f 599 601 602
f 603 604 605
f 604 606 605
f 607 599 602
f 607 602 608
f 609 603 610
f 603 605 610
f 611 607 608
f 609 610 612
f 611 608 613
f 93 5 614
f 615 609 612
f 616 611 613
f 615 612 617
f 618 93 614
f 616 613 619
f 620 615 617
f 621 616 619
f 620 617 622
f 623 618 624
f 618 614 624
f 625 620 622
f 621 619 626
f 625 622 627
f 628 621 626
f 629 625 627
f 629 627 630
f 631 623 632
f 623 624 632
f 633 629 630
f 634 628 635
f 628 626 635
f 633 630 636
f 631 632 637
f 638 633 636
f 638 636 11
f 85 638 11
f 639 631 637
f 640 634 641
f 634 635 641
f 639 637 642
f 643 639 642
f 644 640 645
f 640 641 645
f 643 642 646
f 647 644 648
f 649 643 646
f 644 645 648
f 649 646 650
f 647 648 651
f 652 647 651
f 653 649 650
f 653 650 654
f 655 652 656
f 652 651 656
f 657 653 654
f 655 656 658
f 657 654 659
f 660 655 658
f 661 657 659
f 661 659 662
f 663 660 664
f 660 658 664
f 665 661 662
f 665 662 666
f 667 663 668
f 663 664 668
f 600 665 666
f 600 666 601
f 604 667 606
f 667 668 606
f 350 493 496
f 350 494 493
f 350 373 494
f 350 349 373
f 378 448 447
f 352 496 498
f 378 401 448
f 352 350 496
f 378 377 401
f 404 339 334
f 354 498 500
f 354 352 498
f 404 334 475
f 380 447 455
f 380 378 447
f 406 404 475
f 406 470 466
f 406 475 470
f 356 503 504
f 356 500 503
f 356 354 500
f 382 458 463
f 382 455 458
f 382 380 455
f 408 406 466
f 408 466 465
f 384 463 462
f 358 504 506
f 358 356 504
f 384 382 463
f 410 408 465
f 386 462 469
f 410 465 459
f 360 506 508
f 386 384 462
f 360 358 506
f 362 510 426
f 412 410 459
f 362 508 510
f 362 360 508
f 412 456 451
f 412 459 456
f 388 472 478
f 388 469 472
f 388 386 469
f 414 412 451
f 364 426 425
f 414 451 449
f 364 362 426
f 390 478 477
f 390 388 478
f 416 414 449
f 366 425 429
f 416 449 445
f 366 364 425
f 392 477 482
f 392 390 477
f 418 416 445
f 368 429 431
f 418 442 438
f 368 366 429
f 418 445 442
f 394 482 484
f 394 392 482
f 370 432 437
f 420 418 438
f 370 431 432
f 370 368 431
f 420 438 436
f 396 487 486
f 396 484 487
f 396 394 484
f 344 437 440
f 422 436 435
f 422 420 436
f 398 486 489
f 344 370 437
f 345 440 263
f 398 396 486
f 345 344 440
f 424 435 434
f 372 398 489
f 424 422 435
f 372 491 494
f 372 489 491
f 267 345 263
f 400 424 434
f 400 441 444
f 400 434 441
f 373 372 494
f 401 444 448
f 401 400 444
f 399 375 541
f 399 541 535
f 399 535 534
f 399 376 375
f 371 574 572
f 402 399 534
f 371 347 574
f 402 534 528
f 371 348 347
f 343 245 240
f 343 240 516
f 423 402 528
f 374 572 570
f 423 528 524
f 346 516 513
f 374 371 572
f 346 343 516
f 346 513 514
f 421 423 524
f 397 570 569
f 421 524 523
f 397 569 567
f 421 523 526
f 369 514 598
f 397 374 570
f 369 346 514
f 419 421 526
f 395 567 565
f 419 526 530
f 367 598 596
f 395 397 567
f 367 369 598
f 393 565 563
f 393 395 565
f 417 419 530
f 417 530 531
f 365 367 596
f 365 596 595
f 365 595 593
f 415 531 537
f 415 417 531
f 415 537 543
f 391 563 561
f 391 561 560
f 363 593 591
f 391 393 563
f 363 365 593
f 413 543 548
f 389 560 559
f 413 415 543
f 389 391 560
f 361 591 589
f 361 363 591
f 411 548 550
f 387 559 557
f 411 413 548
f 387 389 559
f 359 589 587
f 359 587 585
f 359 361 589
f 409 550 551
f 409 411 550
f 385 557 555
f 385 387 557
f 357 585 583
f 407 551 554
f 357 359 585
f 407 554 556
f 383 385 555
f 383 555 553
f 383 553 552
f 407 409 551
f 355 583 581
f 355 357 583
f 405 556 558
f 381 383 552
f 381 552 549
f 405 407 556
f 403 558 169
f 353 581 579
f 353 355 581
f 403 405 558
f 379 381 549
f 379 549 547
f 379 547 541
f 175 403 169
f 351 579 578
f 351 578 576
f 351 353 579
f 375 379 541
f 347 576 574
f 347 351 576
f 618 452 446
f 644 430 433
f 93 618 446
f 640 644 433
f 93 446 94
f 640 433 439
f 634 640 439
f 634 439 443
f 628 634 450
f 85 87 483
f 638 85 483
f 634 443 450
f 628 450 453
f 621 628 453
f 633 638 485
f 638 483 485
f 616 621 457
f 629 633 488
f 621 453 457
f 633 485 488
f 611 616 461
f 616 457 461
f 625 629 490
f 629 488 490
f 607 611 467
f 625 490 492
f 611 461 467
f 620 625 492
f 599 607 471
f 607 467 471
f 620 492 495
f 615 620 495
f 600 599 474
f 599 471 474
f 615 495 497
f 609 615 497
f 665 600 479
f 600 474 479
f 609 497 499
f 603 609 499
f 661 665 481
f 665 479 481
f 603 499 501
f 604 603 501
f 657 661 480
f 661 481 480
f 604 501 502
f 667 604 502
f 653 657 476
f 667 502 505
f 663 667 505
f 657 480 476
f 653 476 473
f 649 653 473
f 663 505 507
f 660 663 507
f 649 473 468
f 643 649 468
f 660 507 509
f 655 660 509
f 643 468 464
f 639 643 464
f 655 509 427
f 652 655 427
f 639 464 460
f 631 639 460
f 652 427 428
f 647 652 428
f 631 460 454
f 623 631 454
f 647 428 430
f 644 647 430
f 623 454 452
f 618 623 452
f 619 521 519
f 626 619 519
f 11 562 12
f 626 519 517
f 635 626 517
f 635 517 515
f 5 7 518
f 641 635 512
f 614 5 518
f 635 515 512
f 645 641 511
f 624 614 520
f 641 512 511
f 614 518 520
f 648 645 597
f 632 624 522
f 645 511 597
f 624 520 522
f 651 648 594
f 648 597 594
f 637 632 527
f 632 522 527
f 656 651 592
f 651 594 592
f 642 637 532
f 637 527 532
f 658 656 590
f 656 592 590
f 642 532 536
f 646 642 536
f 664 658 588
f 658 590 588
f 668 664 586
f 646 536 539
f 650 646 539
f 664 588 586
f 650 539 542
f 654 650 542
f 668 586 584
f 606 668 584
f 654 542 545
f 659 654 545
f 606 584 582
f 659 545 546
f 606 582 580
f 605 606 580
f 659 546 544
f 662 659 544
f 605 580 577
f 610 605 577
f 662 544 540
f 666 662 540
f 610 577 575
f 612 610 575
f 666 540 538
f 601 666 538
f 612 575 573
f 617 612 573
f 601 538 533
f 602 601 533
f 617 573 571
f 622 617 571
f 602 533 529
f 622 571 568
f 608 602 529
f 627 622 568
f 627 568 566
f 608 529 525
f 613 608 525
f 630 627 566
f 630 566 564
f 636 630 564
f 613 525 521
f 619 613 521
f 636 564 562
f 11 636 562
