# Created by FreeCAD <http://www.freecadweb.org>
v -89.159760 229.464859 231.721725
v -89.342949 229.683670 231.372192
v -89.455086 229.683670 231.482117
v -89.254051 229.464859 231.827118
v -88.913925 229.464859 234.193054
v -89.253731 229.683670 234.412506
v -89.127602 229.683670 234.506073
v -89.558258 229.683670 231.600525
v -89.338799 229.464859 231.940323
v -89.651817 229.683670 231.726639
v -87.086075 229.464859 231.515442
v -86.872398 229.683670 231.202423
v -87.005470 229.683670 231.119049
v -89.413361 229.464859 232.060486
v -89.735199 229.683670 231.859726
v -87.206238 229.464859 231.440887
v -89.807877 229.683670 231.998932
v -87.332443 229.464859 231.377090
v -87.144676 229.683670 231.046371
v -89.477165 229.464859 232.186691
v -89.529724 229.464859 232.317978
v -89.869415 229.683670 232.143402
v -87.463722 229.464859 231.324524
v -87.289162 229.683670 230.984833
v -89.570641 229.464859 232.453339
v -89.919426 229.683670 232.292267
v -87.599091 229.464859 231.283600
v -87.438026 229.683670 230.934830
v -89.599602 229.464859 232.591751
v -89.957596 229.683670 232.444595
v -87.737503 229.464859 231.254639
v -87.590355 229.683670 230.896652
v -89.616394 229.464859 232.732162
v -89.983704 229.683670 232.599457
v -87.745209 229.683670 230.870544
v -87.877922 229.464859 231.237854
v -89.620888 229.464859 232.873505
v -89.997581 229.683670 232.755875
v -89.613037 229.464859 233.014709
v -89.999138 229.683670 232.912918
v -87.901634 229.683670 230.856674
v -88.019264 229.464859 231.233368
v -88.058662 229.683670 230.855103
v -88.160461 229.464859 231.241211
v -89.988373 229.683670 233.069580
v -89.592918 229.464859 233.154678
v -88.215332 229.683670 230.865875
v -88.300430 229.464859 231.261337
v -89.965347 229.683670 233.224930
v -88.370674 229.683670 230.888901
v -89.930206 229.683670 233.377975
v -89.560669 229.464859 233.292374
v -88.523735 229.683670 230.924042
v -88.438118 229.464859 231.293579
v -89.883163 229.683670 233.527802
v -89.516548 229.464859 233.426727
v -88.673561 229.683670 230.971085
v -88.572479 229.464859 231.337708
v -89.824516 229.683670 233.673477
v -89.460884 229.464859 233.556717
v -88.819237 229.683670 231.029739
v -88.702477 229.464859 231.393372
v -89.754616 229.683670 233.814102
v -89.394096 229.464859 233.681366
v -88.959862 229.683670 231.099640
v -88.827126 229.464859 231.460144
v -89.673897 229.683670 233.948807
v -89.316704 229.464859 233.799728
v -89.094566 229.683670 231.180359
v -89.582855 229.683670 234.076767
v -88.945480 229.464859 231.537537
v -89.229286 229.464859 233.910889
v -89.482056 229.683670 234.197189
v -89.222527 229.683670 231.271393
v -89.056641 229.464859 231.624954
v -89.132523 229.464859 234.014008
v -89.372124 229.683670 234.309341
v -89.027130 229.464859 234.108292
v -87.206238 226.862671 231.440887
v -87.226959 226.483673 231.184723
v -87.091728 226.483673 231.254257
v -89.477165 226.862671 232.186691
v -89.727669 226.483673 232.221710
v -89.669533 226.483673 232.081207
v -87.086075 226.862671 231.515442
v -89.413361 226.862671 232.060486
v -86.962708 226.483673 231.334732
v -89.599991 226.483673 231.945984
v -89.338799 226.862671 231.940323
v -89.519524 226.483673 231.816956
v -89.254051 226.862671 231.827118
v -89.428673 226.483673 231.695023
v -88.913925 226.862671 234.193054
v -89.037292 226.483673 234.373764
v -89.159233 226.483673 234.282913
v -89.027130 226.862671 234.108292
v -89.159760 226.862671 231.721725
v -89.328064 226.483673 231.580994
v -89.132523 226.862671 234.014008
v -89.273247 226.483673 234.182312
v -89.056641 226.862671 231.624954
v -89.218384 226.483673 231.475677
v -89.229286 226.862671 233.910889
v -89.378571 226.483673 234.072632
v -88.945480 226.862671 231.537537
v -89.100380 226.483673 231.379776
v -89.316704 226.862671 233.799728
v -89.474480 226.483673 233.954636
v -88.827126 226.862671 231.460144
v -88.974861 226.483673 231.293945
v -89.560310 226.483673 233.829117
v -89.394096 226.862671 233.681366
v -88.702477 226.862671 231.393372
v -88.842682 226.483673 231.218765
v -89.635483 226.483673 233.696930
v -89.460884 226.862671 233.556717
v -88.572479 226.862671 231.337708
v -88.704750 226.483673 231.154755
v -89.699486 226.483673 233.558990
v -89.516548 226.862671 233.426727
v -88.438118 226.862671 231.293579
v -88.561996 226.483673 231.102371
v -89.751877 226.483673 233.416245
v -89.560669 226.862671 233.292374
v -88.300430 226.862671 231.261337
v -88.415413 226.483673 231.061935
v -89.792305 226.483673 233.269653
v -89.592918 226.862671 233.154678
v -88.160461 226.862671 231.241211
v -88.265984 226.483673 231.033768
v -89.820488 226.483673 233.120224
v -89.613037 226.862671 233.014709
v -88.019264 226.862671 231.233368
v -88.114738 226.483673 231.018021
v -89.836235 226.483673 232.968994
v -89.620888 226.862671 232.873505
v -87.962715 226.483673 231.014816
v -87.877922 226.862671 231.237854
v -89.839439 226.483673 232.816956
v -89.616394 226.862671 232.732162
v -87.810944 226.483673 231.024170
v -87.737503 226.862671 231.254639
v -89.830078 226.483673 232.665192
v -89.599602 226.862671 232.591751
v -87.660461 226.483673 231.046036
v -87.599091 226.862671 231.283600
v -89.808212 226.483673 232.514709
v -89.570641 226.862671 232.453339
v -87.512299 226.483673 231.080246
v -87.463722 226.862671 231.324524
v -89.773994 226.483673 232.366547
v -89.529724 226.862671 232.317978
v -87.367470 226.483673 231.126587
v -87.332443 226.862671 231.377090
v -86.614731 229.253006 236.468842
v -86.071716 229.239670 236.237366
v -86.587074 229.683670 235.641586
v -86.764877 229.683670 235.724808
v -86.947563 229.683670 235.796692
v -86.248604 229.154556 236.496490
v -86.983482 229.335526 236.440994
v -84.168930 229.249390 233.449982
v -84.889488 229.683670 233.154800
v -84.914497 229.683670 233.349518
v -87.134399 229.683670 235.856979
v -84.103508 229.238083 232.881027
v -83.970024 229.154556 233.158615
v -85.562309 229.253006 229.847275
v -86.238121 229.683670 230.273285
v -86.079536 229.683670 230.389008
v -87.262756 229.385712 236.419891
v -87.324646 229.683670 235.905396
v -84.370171 229.330017 233.744797
v -84.951683 229.683670 233.542282
v -85.721420 229.154556 229.516373
v -85.402046 229.335526 230.180542
v -85.928528 229.683670 230.514450
v -85.785698 229.683670 230.649139
v -87.544258 229.424591 236.398636
v -87.517563 229.683670 235.941788
v -87.712379 229.683670 235.965988
v -84.529350 229.381699 233.977966
v -85.000900 229.683670 233.732330
v -85.061958 229.683670 233.918915
v -85.280678 229.385712 230.432953
v -85.651611 229.683670 230.792526
v -87.814972 229.450394 236.378189
v -84.688972 229.421768 234.211792
v -85.134605 229.683670 234.101303
v -87.908340 229.683670 235.977905
v -85.158340 229.424591 230.687363
v -85.526787 229.683670 230.944046
v -84.842514 229.448685 234.436722
v -85.218559 229.683670 234.278763
v -88.086906 229.464523 236.357651
v -88.104652 229.683670 235.977493
v -85.040688 229.450394 230.932037
v -85.411728 229.683670 231.103119
v -85.306877 229.683670 231.269089
v -88.334900 229.466736 236.338928
v -88.300560 229.683670 235.964767
v -88.495277 229.683670 235.939743
v -84.996544 229.463837 234.662354
v -85.313492 229.683670 234.450592
v -85.419029 229.683670 234.616135
v -84.922508 229.464523 231.177811
v -85.212662 229.683670 231.441315
v -88.581863 229.458572 236.320267
v -88.688042 229.683670 235.902557
v -85.135834 229.466980 234.866409
v -85.534752 229.683670 234.774719
v -84.814735 229.466736 231.401947
v -85.129440 229.683670 231.619125
v -88.842888 229.439072 236.300552
v -88.878090 229.683670 235.853348
v -85.275711 229.459839 235.071304
v -85.660210 229.683670 234.925720
v -84.707405 229.458572 231.625153
v -85.057549 229.683670 231.801804
v -84.997276 229.683670 231.988647
v -89.102402 229.409042 236.280960
v -89.064667 229.683670 235.792297
v -85.421318 229.441833 235.284607
v -85.794891 229.683670 235.068542
v -89.383316 229.365189 236.259735
v -89.247047 229.683670 235.719650
v -84.593964 229.439072 231.861053
v -84.948853 229.683670 232.178894
v -89.424507 229.683670 235.635681
v -85.566391 229.413559 235.497131
v -85.938278 229.683670 235.202637
v -86.089806 229.683670 235.327454
v -84.481186 229.409042 232.095596
v -84.912460 229.683670 232.371811
v -89.662689 229.310501 236.238632
v -89.596344 229.683670 235.540756
v -85.730675 229.369354 235.737778
v -86.248871 229.683670 235.442520
v -89.971428 229.238083 236.215317
v -89.761879 229.683670 235.435211
v -84.359100 229.365189 232.349487
v -84.888268 229.683670 232.566635
v -85.893105 229.313614 235.975723
v -86.414841 229.683670 235.547363
v -90.278580 229.154556 236.192123
v -84.237686 229.310501 232.601990
v -84.876343 229.683670 232.762589
v -84.876755 229.683670 232.958908
v -84.129143 226.914337 232.827713
v -84.876755 226.483673 232.958908
v -84.876343 226.483673 232.762589
v -84.889488 226.483673 233.154800
v -84.145386 226.928421 233.415497
v -83.970024 227.012787 233.158615
v -86.045441 226.916000 236.198883
v -86.587074 226.483673 235.641586
v -86.414841 226.483673 235.547363
v -86.555756 226.929245 236.473297
v -84.289398 226.831818 232.494446
v -84.888268 226.483673 232.566635
v -86.248604 227.012787 236.496490
v -89.912460 226.914337 236.219772
v -89.761879 226.483673 235.435211
v -89.596344 226.483673 235.540756
v -84.410767 226.781616 232.242035
v -84.912460 226.483673 232.371811
v -90.278580 227.012787 236.192123
v -85.839958 226.834229 235.897858
v -86.248871 226.483673 235.442520
v -89.543701 226.831818 236.247620
v -89.424507 226.483673 235.635681
v -89.247047 226.483673 235.719650
v -84.533104 226.742752 231.987625
v -84.948853 226.483673 232.178894
v -84.997276 226.483673 231.988647
v -85.682327 226.783646 235.666946
v -86.089806 226.483673 235.327454
v -85.938278 226.483673 235.202637
v -89.264427 226.781616 236.268723
v -89.064667 226.483673 235.792297
v -84.650757 226.716949 231.742950
v -85.057549 226.483673 231.801804
v -85.522896 226.744232 235.433411
v -85.794891 226.483673 235.068542
v -88.982933 226.742752 236.289978
v -88.878090 226.483673 235.853348
v -85.369125 226.717834 235.208145
v -85.660210 226.483673 234.925720
v -84.768936 226.702820 231.497177
v -85.129440 226.483673 231.619125
v -88.712212 226.716949 236.310425
v -88.688042 226.483673 235.902557
v -88.495277 226.483673 235.939743
v -84.876709 226.700607 231.273056
v -85.212662 226.483673 231.441315
v -85.306877 226.483673 231.269089
v -85.215034 226.703156 234.982422
v -85.534752 226.483673 234.774719
v -85.419029 226.483673 234.616135
v -88.440277 226.702820 236.330963
v -88.300560 226.483673 235.964767
v -84.984039 226.708755 231.049850
v -85.411728 226.483673 231.103119
v -85.074562 226.700500 234.776642
v -85.313492 226.483673 234.450592
v -88.192291 226.700607 236.349686
v -88.104652 226.483673 235.977493
v -85.097481 226.728271 230.813934
v -85.526787 226.483673 230.944046
v -84.934608 226.708145 234.571625
v -85.218559 226.483673 234.278763
v -87.945320 226.708755 236.368347
v -87.908340 226.483673 235.977905
v -87.712379 226.483673 235.965988
v -85.210258 226.758286 230.579391
v -85.651611 226.483673 230.792526
v -84.789261 226.726669 234.358704
v -85.134605 226.483673 234.101303
v -87.684303 226.728271 236.388062
v -85.332344 226.802155 230.325500
v -85.785698 226.483673 230.649139
v -85.928528 226.483673 230.514450
v -87.517563 226.483673 235.941788
v -84.644333 226.755554 234.146408
v -85.061958 226.483673 233.918915
v -85.000900 226.483673 233.732330
v -87.424789 226.758286 236.407654
v -87.324646 226.483673 235.905396
v -85.453758 226.856842 230.073013
v -86.079536 226.483673 230.389008
v -84.483261 226.799438 233.910446
v -84.951683 226.483673 233.542282
v -85.587936 226.929245 229.793976
v -86.238121 226.483673 230.273285
v -87.143867 226.802155 236.428879
v -87.134399 226.483673 235.856979
v -84.322678 226.854874 233.675217
v -84.914497 226.483673 233.349518
v -85.721420 227.012787 229.516373
v -86.864494 226.856842 236.449982
v -86.947563 226.483673 235.796692
v -86.764877 226.483673 235.724808
v -90.437691 229.253006 235.861221
v -90.597954 229.335526 235.527954
v -90.546242 226.856842 235.635483
v -90.412064 226.929245 235.914520
v -91.896492 229.238083 232.827469
v -92.029976 229.154556 232.549881
v -92.029976 227.012787 232.549881
v -91.870857 226.914337 232.880768
v -91.762314 229.310501 233.106506
v -91.710602 226.831818 233.214050
v -91.640900 229.365189 233.359009
v -91.589233 226.781616 233.466461
v -91.518814 229.409042 233.612900
v -91.466896 226.742752 233.720871
v -91.406036 229.439072 233.847443
v -91.349243 226.716949 233.965546
v -91.292595 229.458572 234.083344
v -91.231064 226.702820 234.211319
v -91.185265 229.466736 234.306549
v -91.123291 226.700607 234.435440
v -91.077492 229.464523 234.530685
v -91.015961 226.708755 234.658646
v -90.959312 229.450394 234.776459
v -90.902519 226.728271 234.894562
v -90.841660 229.424591 235.021133
v -90.789742 226.758286 235.129105
v -90.719322 229.385712 235.275543
v -90.667656 226.802155 235.382996
v -91.826813 229.251328 232.252258
v -91.674469 226.853714 232.029099
v -91.853088 226.927673 232.290756
v -91.621323 229.333115 231.951248
v -89.926758 229.238922 229.468887
v -89.751396 229.154556 229.212006
v -89.751396 227.012787 229.212006
v -89.950294 226.917953 229.503372
v -90.104042 229.312469 229.728592
v -90.151543 226.837326 229.798172
v -90.264626 229.367889 229.963837
v -90.310722 226.785645 230.031357
v -90.425705 229.411789 230.199799
v -90.470337 226.745560 230.265182
v -90.570625 229.440674 230.412094
v -90.623886 226.718643 230.490112
v -90.715973 229.459198 230.625000
v -90.777908 226.703506 230.715744
v -90.855934 229.466843 230.830032
v -90.917206 226.700363 230.919785
v -90.996407 229.464188 231.035812
v -91.057076 226.707504 231.124695
v -91.150490 229.449493 231.261536
v -91.202690 226.725510 231.337997
v -91.304268 229.423111 231.486786
v -91.347763 226.753769 231.550507
v -91.463692 229.383698 231.720337
v -91.512039 226.797989 231.791153
v -89.385269 229.253006 229.239655
v -89.016518 229.335526 229.267502
v -89.135506 226.856842 229.258514
v -89.444244 226.929245 229.235199
v -86.028572 229.238083 229.493179
v -86.087540 226.914337 229.488724
v -86.337311 229.310501 229.469864
v -86.456299 226.831818 229.460876
v -86.616684 229.365189 229.448761
v -86.735573 226.781616 229.439774
v -86.897598 229.409042 229.427536
v -87.017067 226.742752 229.418518
v -87.157112 229.439072 229.407944
v -87.287788 226.716949 229.398071
v -87.418137 229.458572 229.388229
v -87.559723 226.702820 229.377533
v -87.665100 229.466736 229.369568
v -87.807709 226.700607 229.358795
v -87.913094 229.464523 229.350845
v -88.054680 226.708755 229.340149
v -88.185028 229.450394 229.330307
v -88.315697 226.728271 229.320435
v -88.455742 229.424591 229.309860
v -88.575211 226.758286 229.300842
v -88.737244 229.385712 229.288605
v -88.856133 226.802155 229.279617
v -86.330467 226.483673 233.627289
v -86.400009 226.483673 233.762512
v -90.071472 226.483673 235.194046
v -90.214302 226.483673 235.059357
v -86.480476 226.483673 233.891541
v -89.920464 226.483673 235.319489
v -86.571327 226.483673 234.013474
v -88.908272 226.483673 234.454239
v -88.773041 226.483673 234.523773
v -86.671936 226.483673 234.127502
v -88.632530 226.483673 234.581909
v -86.781616 226.483673 234.232819
v -88.865601 226.483673 229.851517
v -88.675354 226.483673 229.803101
v -88.482437 226.483673 229.766708
v -88.287621 226.483673 229.742508
v -88.487701 226.483673 234.628250
v -86.899620 226.483673 234.328720
v -88.339539 226.483673 234.662460
v -89.052437 226.483673 229.911804
v -88.091660 226.483673 229.730591
v -87.025139 226.483673 234.414551
v -87.157318 226.483673 234.489731
v -88.189056 226.483673 234.684326
v -89.235123 226.483673 229.983688
v -87.895348 226.483673 229.731003
v -87.295250 226.483673 234.553726
v -88.037285 226.483673 234.693680
v -89.585159 226.483673 230.161133
v -89.412926 226.483673 230.066910
v -87.438004 226.483673 234.606125
v -87.699440 226.483673 229.743729
v -87.504723 226.483673 229.768738
v -87.885262 226.483673 234.690475
v -87.584587 226.483673 234.646545
v -87.734016 226.483673 234.674728
v -89.751129 226.483673 230.265976
v -87.311958 226.483673 229.805939
v -89.910194 226.483673 230.381042
v -87.121910 226.483673 229.855148
v -90.205109 226.483673 230.639954
v -90.061722 226.483673 230.505859
v -86.935333 226.483673 229.916199
v -86.752953 226.483673 229.988846
v -90.339790 226.483673 230.782776
v -86.575493 226.483673 230.072815
v -90.465248 226.483673 230.933777
v -86.403656 226.483673 230.167740
v -90.686508 226.483673 231.257904
v -90.580971 226.483673 231.092361
v -90.781441 226.483673 231.429733
v -86.840767 226.483673 231.425568
v -90.865395 226.483673 231.607193
v -86.726753 226.483673 231.526184
v -90.999100 226.483673 231.976166
v -90.938042 226.483673 231.789581
v -86.621429 226.483673 231.635864
v -91.048317 226.483673 232.166214
v -86.525520 226.483673 231.753860
v -91.085503 226.483673 232.358978
v -86.439690 226.483673 231.879379
v -91.123245 226.483673 232.749588
v -91.110512 226.483673 232.553696
v -86.364517 226.483673 232.011566
v -91.123657 226.483673 232.945908
v -86.300514 226.483673 232.149506
v -91.111732 226.483673 233.141861
v -86.248123 226.483673 232.292252
v -91.087540 226.483673 233.336685
v -86.207695 226.483673 232.438843
v -91.051147 226.483673 233.529602
v -86.179512 226.483673 232.588272
v -91.002724 226.483673 233.719849
v -86.163765 226.483673 232.739502
v -90.942451 226.483673 233.906693
v -86.160561 226.483673 232.891541
v -90.870560 226.483673 234.089371
v -86.169922 226.483673 233.043304
v -90.787338 226.483673 234.267181
v -90.693123 226.483673 234.439407
v -86.191788 226.483673 233.193787
v -90.588272 226.483673 234.605377
v -86.226006 226.483673 233.341949
v -90.473213 226.483673 234.764450
v -86.272331 226.483673 233.486786
v -90.348389 226.483673 234.915970
v -86.264801 229.683670 233.848770
v -86.348183 229.683670 233.981857
v -89.920464 229.683670 235.319489
v -90.071472 229.683670 235.194046
v -88.994530 229.683670 234.589447
v -86.441742 229.683670 234.107971
v -88.855324 229.683670 234.662125
v -86.544914 229.683670 234.226364
v -88.710838 229.683670 234.723663
v -86.657051 229.683670 234.336304
v -88.482437 229.683670 229.766708
v -88.675354 229.683670 229.803101
v -88.561974 229.683670 234.773666
v -86.777473 229.683670 234.437103
v -88.287621 229.683670 229.742508
v -86.905434 229.683670 234.528137
v -88.865601 229.683670 229.851517
v -88.409645 229.683670 234.811844
v -89.052437 229.683670 229.911804
v -89.235123 229.683670 229.983688
v -88.254791 229.683670 234.837952
v -87.040138 229.683670 234.608856
v -88.091660 229.683670 229.730591
v -87.895348 229.683670 229.731003
v -87.180763 229.683670 234.678757
v -87.699440 229.683670 229.743729
v -88.098366 229.683670 234.851822
v -87.326439 229.683670 234.737411
v -87.941338 229.683670 234.853394
v -89.412926 229.683670 230.066910
v -87.476265 229.683670 234.784454
v -87.504723 229.683670 229.768738
v -87.784668 229.683670 234.842621
v -87.629326 229.683670 234.819595
v -89.585159 229.683670 230.161133
v -87.311958 229.683670 229.805939
v -89.751129 229.683670 230.265976
v -87.121910 229.683670 229.855148
v -86.935333 229.683670 229.916199
v -89.910194 229.683670 230.381042
v -90.061722 229.683670 230.505859
v -86.752953 229.683670 229.988846
v -90.205109 229.683670 230.639954
v -90.339790 229.683670 230.782776
v -86.575493 229.683670 230.072815
v -90.465248 229.683670 230.933777
v -86.403656 229.683670 230.167740
v -90.580971 229.683670 231.092361
v -90.686508 229.683670 231.257904
v -86.746269 229.683670 231.295990
v -90.781441 229.683670 231.429733
v -90.865395 229.683670 231.607193
v -86.627876 229.683670 231.399155
v -86.517944 229.683670 231.511307
v -90.938042 229.683670 231.789581
v -86.417145 229.683670 231.631729
v -90.999100 229.683670 231.976166
v -91.048317 229.683670 232.166214
v -86.326103 229.683670 231.759674
v -91.085503 229.683670 232.358978
v -91.110512 229.683670 232.553696
v -86.245384 229.683670 231.894394
v -86.175484 229.683670 232.035019
v -91.123245 229.683670 232.749588
v -86.116837 229.683670 232.180695
v -91.123657 229.683670 232.945908
v -91.111732 229.683670 233.141861
v -86.069794 229.683670 232.330521
v -91.087540 229.683670 233.336685
v -86.034653 229.683670 232.483566
v -91.051147 229.683670 233.529602
v -86.011627 229.683670 232.638916
v -91.002724 229.683670 233.719849
v -86.000862 229.683670 232.795578
v -90.942451 229.683670 233.906693
v -90.870560 229.683670 234.089371
v -86.002419 229.683670 232.952621
v -90.787338 229.683670 234.267181
v -86.016296 229.683670 233.109039
v -90.693123 229.683670 234.439407
v -86.042404 229.683670 233.263901
v -90.588272 229.683670 234.605377
v -86.080574 229.683670 233.416229
v -90.473213 229.683670 234.764450
v -90.348389 229.683670 234.915970
v -86.130585 229.683670 233.565094
v -86.192123 229.683670 233.709564
v -90.214302 229.683670 235.059357
v -86.386963 226.862671 232.693787
v -86.386963 229.464859 232.693787
v -86.407082 229.464859 232.553818
v -87.297523 226.862671 234.315125
v -87.427521 226.862671 234.370789
v -87.297523 229.464859 234.315125
v -87.172874 229.464859 234.248352
v -86.439331 226.862671 232.416122
v -86.407082 226.862671 232.553818
v -86.439331 229.464859 232.416122
v -87.172874 226.862671 234.248352
v -87.054520 229.464859 234.170944
v -86.483452 226.862671 232.281769
v -86.483452 229.464859 232.281769
v -87.054520 226.862671 234.170944
v -86.539116 229.464859 232.151779
v -86.943359 229.464859 234.083542
v -88.793762 229.464859 234.267609
v -86.539116 226.862671 232.151779
v -86.943359 226.862671 234.083542
v -86.605904 229.464859 232.027130
v -88.793762 226.862671 234.267609
v -86.840240 229.464859 233.986771
v -86.605904 226.862671 232.027130
v -86.840240 226.862671 233.986771
v -86.683296 229.464859 231.908768
v -88.667557 226.862671 234.331406
v -88.667557 229.464859 234.331406
v -86.683296 226.862671 231.908768
v -86.745949 229.464859 233.881378
v -86.770714 229.464859 231.797607
v -86.745949 226.862671 233.881378
v -86.770714 226.862671 231.797607
v -86.867477 229.464859 231.694489
v -88.536278 226.862671 234.383972
v -88.536278 229.464859 234.383972
v -86.867477 226.862671 231.694489
v -86.661201 226.862671 233.768173
v -86.661201 229.464859 233.768173
v -86.972870 229.464859 231.600189
v -88.400909 229.464859 234.424881
v -86.972870 226.862671 231.600189
v -88.400909 226.862671 234.424881
v -86.586639 226.862671 233.648010
v -86.586639 229.464859 233.648010
v -88.262497 229.464859 234.453857
v -88.262497 226.862671 234.453857
v -86.522835 226.862671 233.521805
v -86.522835 229.464859 233.521805
v -88.122078 229.464859 234.470642
v -86.470276 226.862671 233.390518
v -86.470276 229.464859 233.390518
v -88.122078 226.862671 234.470642
v -87.980736 229.464859 234.475128
v -86.429359 229.464859 233.255157
v -86.429359 226.862671 233.255157
v -87.980736 226.862671 234.475128
v -87.839539 229.464859 234.467285
v -86.400398 226.862671 233.116745
v -86.400398 229.464859 233.116745
v -87.839539 226.862671 234.467285
v -86.383606 229.464859 232.976334
v -87.699570 229.464859 234.447159
v -86.383606 226.862671 232.976334
v -87.699570 226.862671 234.447159
v -87.561882 229.464859 234.414917
v -86.379112 226.862671 232.834991
v -86.379112 229.464859 232.834991
v -87.561882 226.862671 234.414917
v -87.427521 229.464859 234.370789
f 1 2 3
f 4 1 3
f 5 6 7
f 4 3 8
f 9 4 8
f 9 8 10
f 11 12 13
f 14 9 15
f 16 11 13
f 9 10 15
f 14 15 17
f 18 16 19
f 20 14 17
f 16 13 19
f 21 20 22
f 23 18 24
f 20 17 22
f 18 19 24
f 25 21 26
f 21 22 26
f 27 23 28
f 23 24 28
f 29 25 30
f 25 26 30
f 31 27 32
f 27 28 32
f 33 29 34
f 29 30 34
f 31 32 35
f 36 31 35
f 37 33 38
f 33 34 38
f 39 37 40
f 36 35 41
f 42 36 41
f 37 38 40
f 42 41 43
f 44 42 43
f 39 40 45
f 46 39 45
f 44 43 47
f 48 44 47
f 46 45 49
f 48 47 50
f 46 49 51
f 52 46 51
f 48 50 53
f 54 48 53
f 52 51 55
f 56 52 55
f 54 53 57
f 58 54 57
f 56 55 59
f 60 56 59
f 58 57 61
f 62 58 61
f 60 59 63
f 64 60 63
f 62 61 65
f 66 62 65
f 64 63 67
f 68 64 67
f 66 65 69
f 68 67 70
f 71 66 69
f 72 68 70
f 72 70 73
f 71 69 74
f 75 71 74
f 76 72 73
f 76 73 77
f 78 76 77
f 75 74 2
f 1 75 2
f 78 77 6
f 5 78 6
f 79 80 81
f 82 83 84
f 85 79 81
f 86 82 84
f 85 81 87
f 86 84 88
f 89 86 88
f 89 88 90
f 91 89 92
f 93 94 95
f 89 90 92
f 96 93 95
f 97 91 98
f 91 92 98
f 99 96 100
f 96 95 100
f 101 97 102
f 103 99 104
f 97 98 102
f 99 100 104
f 105 101 106
f 107 103 108
f 101 102 106
f 103 104 108
f 109 105 110
f 107 108 111
f 105 106 110
f 112 107 111
f 113 109 114
f 109 110 114
f 112 111 115
f 116 112 115
f 117 113 118
f 113 114 118
f 116 115 119
f 120 116 119
f 121 117 122
f 117 118 122
f 120 119 123
f 124 120 123
f 125 121 126
f 121 122 126
f 124 123 127
f 128 124 127
f 129 125 130
f 125 126 130
f 128 127 131
f 132 128 131
f 133 129 134
f 132 131 135
f 136 132 135
f 129 130 134
f 133 134 137
f 138 133 137
f 136 135 139
f 140 136 139
f 138 137 141
f 142 138 141
f 140 139 143
f 144 140 143
f 142 141 145
f 146 142 145
f 144 143 147
f 148 144 147
f 146 145 149
f 150 146 149
f 148 147 151
f 152 148 151
f 150 149 153
f 154 150 153
f 152 151 83
f 82 152 83
f 154 153 80
f 79 154 80
f 155 156 157
f 155 157 158
f 155 158 159
f 155 160 156
f 161 155 159
f 162 163 164
f 161 159 165
f 162 166 163
f 162 167 166
f 168 169 170
f 171 161 165
f 171 165 172
f 173 164 174
f 168 175 169
f 176 170 177
f 173 162 164
f 176 168 170
f 176 177 178
f 179 171 172
f 179 172 180
f 179 180 181
f 182 174 183
f 182 183 184
f 185 178 186
f 182 173 174
f 187 179 181
f 188 184 189
f 185 176 178
f 187 181 190
f 188 182 184
f 191 186 192
f 191 185 186
f 193 189 194
f 195 190 196
f 195 187 190
f 193 188 189
f 197 191 192
f 197 192 198
f 197 198 199
f 200 196 201
f 200 201 202
f 200 195 196
f 203 194 204
f 203 204 205
f 203 193 194
f 206 199 207
f 208 202 209
f 206 197 199
f 208 200 202
f 210 205 211
f 210 203 205
f 212 207 213
f 214 209 215
f 212 206 207
f 214 208 209
f 216 211 217
f 216 210 211
f 218 213 219
f 218 219 220
f 221 215 222
f 221 214 215
f 218 212 213
f 223 217 224
f 223 216 217
f 225 222 226
f 227 220 228
f 225 226 229
f 227 218 220
f 230 223 224
f 225 221 222
f 230 224 231
f 230 231 232
f 233 228 234
f 235 229 236
f 237 230 232
f 233 227 228
f 237 232 238
f 235 225 229
f 239 236 240
f 241 234 242
f 239 235 236
f 241 233 234
f 243 237 238
f 243 238 244
f 243 244 157
f 245 239 240
f 246 242 247
f 246 247 248
f 246 241 242
f 156 243 157
f 166 248 163
f 166 246 248
f 249 250 251
f 249 252 250
f 249 253 252
f 249 254 253
f 255 256 257
f 255 258 256
f 259 251 260
f 255 261 258
f 259 249 251
f 262 263 264
f 265 260 266
f 262 267 263
f 265 259 260
f 268 257 269
f 268 255 257
f 270 262 264
f 270 271 272
f 270 264 271
f 273 274 275
f 273 266 274
f 276 277 278
f 273 265 266
f 276 269 277
f 276 268 269
f 279 270 272
f 279 272 280
f 281 275 282
f 281 273 275
f 283 278 284
f 283 276 278
f 285 279 280
f 285 280 286
f 287 284 288
f 289 281 282
f 287 283 284
f 289 282 290
f 291 285 286
f 291 292 293
f 294 295 296
f 291 286 292
f 294 290 295
f 294 289 290
f 297 298 299
f 297 288 298
f 297 287 288
f 300 291 293
f 300 293 301
f 302 296 303
f 302 294 296
f 304 299 305
f 304 297 299
f 306 300 301
f 306 301 307
f 308 303 309
f 310 305 311
f 308 302 303
f 310 304 305
f 312 306 307
f 312 313 314
f 312 307 313
f 315 309 316
f 315 308 309
f 317 311 318
f 317 310 311
f 319 312 314
f 320 321 322
f 319 314 323
f 320 316 321
f 324 325 326
f 324 318 325
f 320 315 316
f 324 317 318
f 327 323 328
f 327 319 323
f 329 322 330
f 331 324 326
f 331 326 332
f 329 320 322
f 333 330 334
f 335 327 328
f 335 328 336
f 333 329 330
f 337 331 332
f 337 338 252
f 337 332 338
f 339 333 334
f 340 341 342
f 340 336 341
f 340 335 336
f 253 337 252
f 258 342 256
f 258 340 342
f 132 39 46
f 113 117 62
f 113 62 66
f 124 128 52
f 128 46 52
f 109 113 66
f 109 66 71
f 120 124 56
f 124 52 56
f 105 109 71
f 120 56 60
f 105 71 75
f 85 11 16
f 116 120 60
f 101 105 75
f 116 60 64
f 79 85 16
f 101 75 1
f 112 116 64
f 97 101 1
f 112 64 68
f 154 79 18
f 79 16 18
f 107 112 68
f 97 1 4
f 107 68 72
f 91 97 4
f 103 107 72
f 103 72 76
f 150 154 23
f 154 18 23
f 99 103 76
f 89 91 9
f 91 4 9
f 99 76 78
f 150 23 27
f 96 99 78
f 96 78 5
f 93 96 5
f 146 150 27
f 86 89 14
f 89 9 14
f 146 27 31
f 142 146 31
f 82 86 20
f 86 14 20
f 142 31 36
f 152 82 21
f 138 142 36
f 82 20 21
f 138 36 42
f 148 152 25
f 152 21 25
f 133 138 42
f 148 25 29
f 133 42 44
f 144 148 29
f 129 133 44
f 129 44 48
f 140 144 33
f 144 29 33
f 125 129 48
f 125 48 54
f 136 140 37
f 140 33 37
f 121 125 54
f 121 54 58
f 132 136 39
f 136 37 39
f 117 121 58
f 117 58 62
f 128 132 46
f 343 344 345
f 245 346 267
f 245 343 346
f 347 348 349
f 347 349 350
f 351 350 352
f 351 347 350
f 353 352 354
f 353 351 352
f 355 354 356
f 355 353 354
f 357 356 358
f 357 355 356
f 359 358 360
f 359 357 358
f 361 360 362
f 361 359 360
f 363 362 364
f 363 361 362
f 365 364 366
f 365 363 364
f 367 366 368
f 367 365 366
f 369 368 370
f 369 367 368
f 344 370 345
f 344 369 370
f 343 345 346
f 371 372 373
f 371 374 372
f 348 373 349
f 348 371 373
f 375 376 377
f 375 377 378
f 379 378 380
f 379 375 378
f 381 380 382
f 381 379 380
f 383 382 384
f 383 381 382
f 385 384 386
f 385 383 384
f 387 386 388
f 387 385 386
f 389 388 390
f 389 387 388
f 391 390 392
f 391 389 390
f 393 392 394
f 393 391 392
f 395 394 396
f 395 393 394
f 397 396 398
f 397 395 396
f 374 398 372
f 374 397 398
f 399 400 401
f 376 402 377
f 376 399 402
f 403 175 339
f 403 339 404
f 405 404 406
f 405 403 404
f 407 406 408
f 407 405 406
f 409 408 410
f 409 407 408
f 411 410 412
f 411 409 410
f 413 412 414
f 413 411 412
f 415 414 416
f 415 413 414
f 417 416 418
f 417 415 416
f 419 418 420
f 419 417 418
f 421 420 422
f 421 419 420
f 423 422 424
f 423 421 422
f 400 424 401
f 400 423 424
f 399 401 402
f 168 329 333
f 168 176 329
f 175 333 339
f 175 168 333
f 166 167 254
f 166 254 249
f 246 249 259
f 246 166 249
f 241 259 265
f 241 246 259
f 233 265 273
f 233 241 265
f 227 273 281
f 227 233 273
f 218 281 289
f 218 227 281
f 212 289 294
f 212 218 289
f 206 294 302
f 206 212 294
f 197 302 308
f 197 206 302
f 191 308 315
f 191 197 308
f 185 315 320
f 185 191 315
f 176 320 329
f 176 185 320
f 156 261 255
f 156 255 243
f 160 261 156
f 167 253 254
f 162 337 253
f 162 253 167
f 173 331 337
f 173 337 162
f 182 324 331
f 182 331 173
f 188 317 324
f 188 324 182
f 193 310 317
f 193 317 188
f 203 304 310
f 203 310 193
f 210 297 304
f 210 304 203
f 216 287 297
f 216 297 210
f 223 283 287
f 223 287 216
f 230 276 283
f 230 283 223
f 237 268 276
f 237 276 230
f 243 255 268
f 243 268 237
f 155 340 258
f 155 161 340
f 160 258 261
f 160 155 258
f 239 245 267
f 239 267 262
f 235 262 270
f 235 239 262
f 225 270 279
f 225 235 270
f 221 279 285
f 221 225 279
f 214 285 291
f 214 221 285
f 208 291 300
f 208 214 291
f 200 300 306
f 200 208 300
f 195 306 312
f 195 200 306
f 187 312 319
f 187 195 312
f 179 319 327
f 179 187 319
f 171 327 335
f 171 179 327
f 161 335 340
f 161 171 335
f 425 318 311
f 426 425 311
f 100 95 427
f 428 100 427
f 429 426 305
f 426 311 305
f 95 94 430
f 427 95 430
f 429 305 299
f 430 94 263
f 431 429 298
f 429 299 298
f 94 432 264
f 263 94 264
f 432 433 271
f 264 432 271
f 434 431 288
f 431 298 288
f 433 435 272
f 271 433 272
f 436 434 284
f 434 288 284
f 437 438 126
f 272 435 280
f 436 284 278
f 438 439 130
f 439 440 130
f 435 441 286
f 126 438 130
f 280 435 286
f 442 436 277
f 436 278 277
f 286 441 292
f 441 443 292
f 444 437 122
f 437 126 122
f 440 445 134
f 446 442 269
f 442 277 269
f 446 269 257
f 447 446 257
f 130 440 134
f 443 448 293
f 449 444 118
f 292 443 293
f 447 257 256
f 444 122 118
f 445 450 137
f 293 448 301
f 447 256 342
f 134 445 137
f 451 447 342
f 448 452 307
f 453 454 114
f 454 449 114
f 301 448 307
f 449 118 114
f 451 342 341
f 455 451 341
f 450 456 141
f 456 457 141
f 307 452 313
f 452 458 313
f 455 341 336
f 459 455 336
f 137 450 141
f 313 458 314
f 458 460 314
f 459 336 328
f 314 460 323
f 459 328 323
f 460 459 323
f 461 453 110
f 453 114 110
f 141 457 145
f 457 462 145
f 463 461 106
f 461 110 106
f 462 464 149
f 145 462 149
f 465 466 102
f 466 463 102
f 463 106 102
f 464 467 153
f 467 468 153
f 149 464 153
f 469 465 98
f 465 102 98
f 468 470 80
f 153 468 80
f 471 469 92
f 469 98 92
f 470 472 81
f 80 470 81
f 473 474 90
f 474 471 90
f 471 92 90
f 472 334 87
f 334 330 87
f 81 472 87
f 473 90 88
f 475 473 88
f 330 322 476
f 87 330 476
f 475 88 84
f 477 475 84
f 322 321 478
f 476 322 478
f 477 84 83
f 479 480 83
f 480 477 83
f 321 316 481
f 316 309 481
f 478 321 481
f 479 83 151
f 482 479 151
f 309 303 483
f 481 309 483
f 482 151 147
f 484 482 147
f 483 303 485
f 303 296 485
f 484 147 143
f 486 487 143
f 487 484 143
f 485 296 488
f 296 295 488
f 295 290 488
f 486 143 139
f 489 486 139
f 290 282 490
f 488 290 490
f 489 139 135
f 491 489 135
f 282 275 492
f 490 282 492
f 491 135 131
f 493 491 131
f 275 274 494
f 492 275 494
f 493 131 127
f 493 127 495
f 494 274 266
f 496 494 266
f 127 123 497
f 495 127 497
f 496 266 260
f 498 496 260
f 123 119 499
f 497 123 499
f 500 498 251
f 498 260 251
f 119 115 501
f 499 119 501
f 502 500 250
f 500 251 250
f 501 115 503
f 502 250 252
f 115 111 504
f 503 115 504
f 505 502 338
f 502 252 338
f 111 108 506
f 504 111 506
f 505 338 332
f 507 505 332
f 108 104 508
f 506 108 508
f 507 332 326
f 509 507 326
f 509 326 325
f 508 104 510
f 509 325 318
f 425 509 318
f 510 104 428
f 104 100 428
f 204 194 511
f 204 511 512
f 513 7 6
f 513 6 514
f 205 204 512
f 240 7 513
f 236 515 7
f 236 7 240
f 211 512 516
f 211 205 512
f 229 517 515
f 229 515 236
f 217 516 518
f 217 211 516
f 226 519 517
f 226 517 229
f 224 518 520
f 224 217 518
f 222 519 226
f 50 521 522
f 222 523 519
f 231 224 520
f 231 520 524
f 47 521 50
f 232 231 524
f 47 525 521
f 215 523 222
f 238 232 524
f 238 524 526
f 53 522 527
f 53 50 522
f 209 523 215
f 57 53 527
f 209 528 523
f 202 528 209
f 57 529 530
f 57 527 529
f 202 531 528
f 43 525 47
f 244 526 532
f 43 533 525
f 43 534 533
f 244 238 526
f 157 244 532
f 157 532 535
f 41 534 43
f 201 531 202
f 41 536 534
f 201 537 531
f 158 157 535
f 158 535 538
f 61 57 530
f 196 537 201
f 196 539 537
f 159 158 538
f 61 530 540
f 190 539 196
f 165 159 538
f 165 538 541
f 35 542 536
f 181 539 190
f 181 543 539
f 172 165 541
f 35 536 41
f 172 541 544
f 180 543 181
f 180 172 544
f 65 61 540
f 180 544 543
f 65 540 545
f 32 542 35
f 32 546 542
f 69 545 547
f 69 65 545
f 28 548 546
f 28 549 548
f 28 546 32
f 74 550 551
f 74 547 550
f 74 69 547
f 24 549 28
f 24 552 549
f 2 551 553
f 2 74 551
f 3 2 553
f 3 553 554
f 19 552 24
f 19 555 552
f 8 3 554
f 8 554 556
f 13 557 555
f 13 555 19
f 12 169 557
f 12 170 169
f 12 557 13
f 10 558 559
f 10 556 558
f 10 8 556
f 560 170 12
f 560 177 170
f 15 10 559
f 15 559 561
f 17 15 561
f 17 561 562
f 563 178 177
f 563 177 560
f 564 186 178
f 564 178 563
f 22 17 562
f 22 562 565
f 566 186 564
f 566 192 186
f 566 198 192
f 26 22 565
f 26 567 568
f 26 565 567
f 569 198 566
f 569 199 198
f 30 26 568
f 30 568 570
f 34 30 570
f 34 570 571
f 572 199 569
f 572 207 199
f 573 207 572
f 573 213 207
f 38 34 571
f 38 571 574
f 575 213 573
f 575 219 213
f 40 38 574
f 40 574 576
f 577 40 576
f 220 219 575
f 578 220 575
f 45 40 577
f 579 45 577
f 228 220 578
f 580 228 578
f 49 45 579
f 581 49 579
f 234 228 580
f 582 234 580
f 51 49 581
f 583 51 581
f 242 234 582
f 584 242 582
f 55 51 583
f 585 55 583
f 247 242 584
f 586 59 55
f 586 55 585
f 248 584 587
f 248 247 584
f 588 63 59
f 588 59 586
f 163 587 589
f 163 248 587
f 590 67 63
f 590 63 588
f 164 589 591
f 164 163 589
f 592 70 67
f 592 67 590
f 174 164 591
f 174 591 593
f 594 70 592
f 183 174 593
f 595 73 70
f 595 70 594
f 184 183 593
f 184 593 596
f 189 184 596
f 189 596 597
f 598 77 73
f 598 73 595
f 194 189 597
f 194 597 511
f 514 6 77
f 514 77 598
f 599 600 601
f 602 603 604
f 602 604 605
f 606 607 608
f 607 601 608
f 609 602 605
f 609 605 610
f 611 606 612
f 606 608 612
f 613 609 610
f 611 612 614
f 613 610 615
f 93 5 616
f 617 611 614
f 618 613 615
f 617 614 619
f 620 93 616
f 618 615 621
f 622 617 619
f 623 618 621
f 622 619 624
f 625 620 626
f 620 616 626
f 627 622 624
f 623 621 628
f 627 624 629
f 630 623 628
f 631 627 629
f 631 629 632
f 633 625 634
f 625 626 634
f 635 631 632
f 636 630 637
f 630 628 637
f 635 632 638
f 633 634 639
f 640 635 638
f 640 638 11
f 85 640 11
f 641 633 639
f 642 636 643
f 636 637 643
f 641 639 644
f 645 641 644
f 646 642 647
f 642 643 647
f 645 644 648
f 649 646 650
f 651 645 648
f 646 647 650
f 651 648 652
f 649 650 653
f 654 649 653
f 655 651 652
f 655 652 656
f 657 654 658
f 654 653 658
f 659 655 656
f 657 658 660
f 659 656 661
f 662 657 660
f 663 659 661
f 663 661 664
f 665 662 666
f 662 660 666
f 667 663 664
f 667 664 668
f 599 665 600
f 665 666 600
f 603 667 668
f 603 668 604
f 607 599 601
f 350 486 489
f 350 487 486
f 350 373 487
f 350 349 373
f 378 454 453
f 352 489 491
f 378 402 454
f 352 350 489
f 378 377 402
f 404 339 334
f 354 491 493
f 354 352 491
f 404 334 472
f 380 453 461
f 380 378 453
f 406 404 472
f 406 470 468
f 406 472 470
f 356 495 497
f 356 493 495
f 356 354 493
f 382 463 466
f 382 461 463
f 382 380 461
f 408 406 468
f 408 468 467
f 384 466 465
f 358 497 499
f 358 356 497
f 384 382 466
f 410 408 467
f 386 465 469
f 410 467 464
f 360 499 501
f 386 384 465
f 360 358 499
f 362 503 504
f 412 410 464
f 362 501 503
f 362 360 501
f 412 462 457
f 412 464 462
f 388 471 474
f 388 469 471
f 388 386 469
f 414 412 457
f 364 504 506
f 414 457 456
f 364 362 504
f 390 474 473
f 390 388 474
f 416 414 456
f 366 506 508
f 416 456 450
f 366 364 506
f 392 473 475
f 392 390 473
f 418 416 450
f 368 508 510
f 418 445 440
f 368 366 508
f 418 450 445
f 394 475 477
f 394 392 475
f 370 428 427
f 420 418 440
f 370 510 428
f 370 368 510
f 420 440 439
f 396 480 479
f 396 477 480
f 396 394 477
f 345 427 430
f 422 439 438
f 422 420 439
f 398 479 482
f 345 370 427
f 346 430 263
f 398 396 479
f 346 345 430
f 424 438 437
f 372 398 482
f 424 422 438
f 372 484 487
f 372 482 484
f 267 346 263
f 401 424 437
f 401 444 449
f 401 437 444
f 373 372 487
f 402 449 454
f 402 401 449
f 399 375 540
f 399 540 530
f 399 530 529
f 399 376 375
f 371 571 570
f 400 399 529
f 371 347 571
f 400 529 527
f 371 348 347
f 343 245 240
f 343 240 513
f 423 400 527
f 374 570 568
f 423 527 522
f 344 513 514
f 374 371 570
f 344 343 513
f 344 514 598
f 421 423 522
f 397 568 567
f 421 522 521
f 397 567 565
f 421 521 525
f 369 598 595
f 397 374 568
f 369 344 598
f 419 421 525
f 395 565 562
f 419 525 533
f 367 595 594
f 395 397 565
f 367 369 595
f 393 562 561
f 393 395 562
f 417 419 533
f 417 533 534
f 365 367 594
f 365 594 592
f 365 592 590
f 415 534 536
f 415 417 534
f 415 536 542
f 391 561 559
f 391 559 558
f 363 590 588
f 391 393 561
f 363 365 590
f 413 542 546
f 389 558 556
f 413 415 542
f 389 391 558
f 361 588 586
f 361 363 588
f 411 546 548
f 387 556 554
f 411 413 546
f 387 389 556
f 359 586 585
f 359 585 583
f 359 361 586
f 409 548 549
f 409 411 548
f 385 554 553
f 385 387 554
f 357 583 581
f 407 549 552
f 357 359 583
f 407 552 555
f 383 385 553
f 383 553 551
f 383 551 550
f 407 409 549
f 355 581 579
f 355 357 581
f 405 555 557
f 381 383 550
f 381 550 547
f 405 407 555
f 403 557 169
f 353 579 577
f 353 355 579
f 403 405 557
f 379 381 547
f 379 547 545
f 379 545 540
f 175 403 169
f 351 577 576
f 351 576 574
f 351 353 577
f 375 379 540
f 347 574 571
f 347 351 574
f 620 433 432
f 646 509 425
f 93 620 432
f 642 646 425
f 93 432 94
f 642 425 426
f 636 642 426
f 636 426 429
f 630 636 431
f 85 87 476
f 640 85 476
f 636 429 431
f 630 431 434
f 623 630 434
f 635 640 478
f 640 476 478
f 618 623 436
f 631 635 481
f 623 434 436
f 635 478 481
f 613 618 442
f 618 436 442
f 627 631 483
f 631 481 483
f 609 613 446
f 627 483 485
f 613 442 446
f 622 627 485
f 602 609 447
f 609 446 447
f 622 485 488
f 617 622 488
f 603 602 451
f 602 447 451
f 617 488 490
f 611 617 490
f 667 603 455
f 603 451 455
f 611 490 492
f 606 611 492
f 663 667 459
f 667 455 459
f 606 492 494
f 607 606 494
f 659 663 460
f 663 459 460
f 607 494 496
f 599 607 496
f 655 659 458
f 599 496 498
f 665 599 498
f 659 460 458
f 655 458 452
f 651 655 452
f 665 498 500
f 662 665 500
f 651 452 448
f 645 651 448
f 662 500 502
f 657 662 502
f 645 448 443
f 641 645 443
f 657 502 505
f 654 657 505
f 641 443 441
f 633 641 441
f 654 505 507
f 649 654 507
f 633 441 435
f 625 633 435
f 649 507 509
f 646 649 509
f 625 435 433
f 620 625 433
f 621 520 518
f 628 621 518
f 11 560 12
f 628 518 516
f 637 628 516
f 637 516 512
f 5 7 515
f 643 637 511
f 616 5 515
f 637 512 511
f 647 643 597
f 626 616 517
f 643 511 597
f 616 515 517
f 650 647 596
f 634 626 519
f 647 597 596
f 626 517 519
f 653 650 593
f 650 596 593
f 639 634 523
f 634 519 523
f 658 653 591
f 653 593 591
f 644 639 528
f 639 523 528
f 660 658 589
f 658 591 589
f 644 528 531
f 648 644 531
f 666 660 587
f 660 589 587
f 600 666 584
f 648 531 537
f 652 648 537
f 666 587 584
f 652 537 539
f 656 652 539
f 600 584 582
f 601 600 582
f 656 539 543
f 661 656 543
f 601 582 580
f 661 543 544
f 601 580 578
f 608 601 578
f 661 544 541
f 664 661 541
f 608 578 575
f 612 608 575
f 664 541 538
f 668 664 538
f 612 575 573
f 614 612 573
f 668 538 535
f 604 668 535
f 614 573 572
f 619 614 572
f 604 535 532
f 605 604 532
f 619 572 569
f 624 619 569
f 605 532 526
f 624 569 566
f 610 605 526
f 629 624 566
f 629 566 564
f 610 526 524
f 615 610 524
f 632 629 564
f 632 564 563
f 638 632 563
f 615 524 520
f 621 615 520
f 638 563 560
f 11 638 560
