# Created by FreeCAD <http://www.freecadweb.org>
v 24.981184 533.120422 43.828529
v 25.200001 533.291565 43.472939
v 25.200001 533.407349 43.578979
v 24.981184 533.218262 43.930637
v 24.981184 532.959106 46.306805
v 25.200001 533.306213 46.514526
v 25.200001 533.183350 46.612343
v 25.200001 533.514526 43.693779
v 24.981184 533.306824 44.040882
v 25.200001 533.612366 43.816635
v 24.981184 531.040894 43.693195
v 25.200001 530.816650 43.387657
v 25.200001 530.946777 43.299782
v 24.981184 533.385437 44.158428
v 25.200001 533.700195 43.946785
v 24.981184 531.158447 43.614578
v 25.200001 533.777588 44.083431
v 24.981184 531.282349 43.546501
v 25.200001 531.083435 43.222389
v 24.981184 533.453491 44.282379
v 24.981184 533.510498 44.411789
v 25.200001 533.844055 44.225723
v 24.981184 531.411804 43.489487
v 25.200001 531.225708 43.155956
v 24.981184 533.556030 44.545677
v 25.200001 533.899109 44.372795
v 24.981184 531.545654 43.443970
v 25.200001 531.372803 43.100891
v 24.981184 533.589722 44.683022
v 25.200001 533.942444 44.523731
v 24.981184 531.683044 43.410294
v 25.200001 531.523743 43.057537
v 24.981184 533.611267 44.822781
v 25.200001 533.973816 44.677601
v 25.200001 531.677612 43.026157
v 24.981184 531.822754 43.388718
v 24.981184 533.620605 44.963890
v 25.200001 533.993042 44.833462
v 24.981184 533.617554 45.105270
v 25.200001 534.000000 44.990349
v 25.200001 531.833435 43.006947
v 24.981184 531.963867 43.379402
v 25.200001 531.990356 43.000023
v 24.981184 532.105286 43.382423
v 25.200001 533.994568 45.147293
v 24.981184 533.602234 45.245850
v 25.200001 532.147278 43.005432
v 24.981184 532.245850 43.397751
v 25.200001 533.976868 45.303333
v 25.200001 532.303345 43.023136
v 25.200001 533.946960 45.457500
v 24.981184 533.574707 45.384560
v 25.200001 532.457520 43.053028
v 24.981184 532.384583 43.425278
v 25.200001 533.905090 45.608849
v 24.981184 533.535217 45.520344
v 25.200001 532.608826 43.094925
v 24.981184 532.520325 43.464787
v 25.200001 533.851440 45.756439
v 24.981184 533.484009 45.652164
v 25.200001 532.756470 43.148567
v 24.981184 532.652161 43.515980
v 25.200001 533.786377 45.899372
v 24.981184 533.421509 45.779026
v 25.200001 532.899353 43.213627
v 24.981184 532.779053 43.578465
v 25.200001 533.710327 46.036755
v 24.981184 533.348206 45.899956
v 25.200001 533.036743 43.289696
v 25.200001 533.623718 46.167747
v 24.981184 532.899963 43.651772
v 24.981184 533.264648 46.014038
v 25.200001 533.527039 46.291542
v 25.200001 533.167725 43.376312
v 24.981184 533.014038 43.735336
v 24.981184 533.171448 46.120399
v 25.200001 533.421021 46.407372
v 24.981184 533.069336 46.218239
v 22.379000 531.040894 43.693195
v 22.379000 531.158447 43.614578
v 22.000000 531.037598 43.431965
v 22.379000 533.385437 44.158428
v 22.379000 533.453491 44.282379
v 22.000000 533.642151 44.170387
v 22.000000 530.911438 43.516792
v 22.000000 533.568054 44.037613
v 22.379000 533.306824 44.040882
v 22.000000 533.483215 43.911411
v 22.379000 533.218262 43.930637
v 22.000000 533.388245 43.792648
v 22.379000 532.959106 46.306805
v 22.000000 533.088562 46.483208
v 22.000000 533.207336 46.388245
v 22.379000 533.069336 46.218239
v 22.379000 533.120422 43.828529
v 22.000000 533.283813 43.682133
v 22.379000 533.171448 46.120399
v 22.000000 533.317871 46.283802
v 22.379000 533.014038 43.735336
v 22.000000 533.170593 43.580620
v 22.379000 533.264648 46.014038
v 22.000000 533.419373 46.170589
v 22.379000 532.899963 43.651772
v 22.000000 533.049377 43.488800
v 22.379000 533.348206 45.899956
v 22.000000 533.511230 46.049377
v 22.379000 532.779053 43.578465
v 22.000000 532.921021 43.407303
v 22.000000 533.592712 45.921001
v 22.379000 533.421509 45.779026
v 22.379000 532.652161 43.515980
v 22.000000 532.786316 43.336689
v 22.000000 533.663330 45.786331
v 22.379000 533.484009 45.652164
v 22.379000 532.520325 43.464787
v 22.000000 532.646301 43.277435
v 22.000000 533.722595 45.646290
v 22.379000 533.535217 45.520344
v 22.379000 532.384583 43.425278
v 22.000000 532.501831 43.229946
v 22.000000 533.770081 45.501835
v 22.379000 533.574707 45.384560
v 22.379000 532.245850 43.397751
v 22.000000 532.353943 43.194553
v 22.000000 533.805420 45.353951
v 22.379000 533.602234 45.245850
v 22.379000 532.105286 43.382423
v 22.000000 532.203674 43.171490
v 22.000000 533.828491 45.203648
v 22.379000 533.617554 45.105270
v 22.379000 531.963867 43.379402
v 22.000000 532.051941 43.160919
v 22.000000 533.839111 45.051956
v 22.379000 533.620605 44.963890
v 22.000000 531.899902 43.162910
v 22.379000 531.822754 43.388718
v 22.000000 533.837097 44.899910
v 22.379000 533.611267 44.822781
v 22.000000 531.748535 43.177448
v 22.379000 531.683044 43.410294
v 22.000000 533.822571 44.748543
v 22.379000 533.589722 44.683022
v 22.000000 531.598877 43.204437
v 22.379000 531.545654 43.443970
v 22.000000 533.795532 44.598900
v 22.379000 533.556030 44.545677
v 22.000000 531.451965 43.243694
v 22.379000 531.411804 43.489487
v 22.000000 533.756287 44.451992
v 22.379000 533.510498 44.411789
v 22.000000 531.308838 43.294949
v 22.379000 531.282349 43.546501
v 22.000000 533.705078 44.308830
v 22.000000 531.170410 43.357849
v 24.769333 530.739014 48.659798
v 24.755997 530.188416 48.447010
v 25.200001 530.683105 47.833973
v 25.200001 530.863647 47.911068
v 25.200001 531.048706 47.976677
v 24.670887 530.374023 48.699940
v 24.851856 531.106567 48.619370
v 24.765722 528.191528 45.726242
v 25.200001 528.901550 45.406624
v 25.200001 528.933228 45.600372
v 25.200001 531.237488 48.030537
v 24.754421 528.106689 45.159843
v 24.670887 527.982788 45.441837
v 24.769333 529.460999 42.078037
v 25.200001 530.151001 42.480717
v 25.200001 529.996460 42.601788
v 24.902046 531.384949 48.588749
v 25.200001 531.429260 48.072437
v 24.846346 528.402710 46.014000
v 25.200001 528.976990 45.791752
v 24.670887 529.608765 41.741898
v 24.851856 529.312256 42.416592
v 25.200001 529.849792 42.732323
v 25.200001 529.711670 42.871807
v 24.940918 531.665588 48.557888
v 25.200001 531.623291 48.102211
v 25.200001 531.818848 48.119743
v 24.898026 528.569763 46.241608
v 25.200001 529.032654 45.980011
v 25.200001 529.100037 46.164398
v 24.902046 529.199585 42.672997
v 25.200001 529.582581 43.019691
v 24.966722 531.935425 48.528206
v 24.938105 528.737244 46.469845
v 25.200001 529.178894 46.344189
v 25.200001 532.015076 48.124962
v 24.940918 529.085999 42.931442
v 25.200001 529.463013 43.175392
v 24.965021 528.898438 46.689400
v 25.200001 529.268860 46.518677
v 24.980854 532.206543 48.498390
v 25.200001 532.211243 48.117851
v 24.966722 528.976746 43.179989
v 25.200001 529.353455 43.338295
v 25.200001 529.254333 43.507751
v 24.983059 532.453735 48.471203
v 25.200001 532.406616 48.098431
v 25.200001 532.600403 48.066788
v 24.980160 529.060059 46.909634
v 25.200001 529.369568 46.687172
v 25.200001 529.480713 46.849007
v 24.980854 528.867065 43.429653
v 25.200001 529.166016 43.683102
v 24.974907 532.699890 48.444126
v 25.200001 532.791748 48.023037
v 24.983303 529.206238 47.108810
v 25.200001 529.601807 47.003548
v 24.983059 528.766968 43.657333
v 25.200001 529.088928 43.863647
v 24.955402 532.960083 48.415508
v 25.200001 532.979980 47.967358
v 24.976166 529.353027 47.308811
v 25.200001 529.732300 47.150177
v 24.974907 528.667358 43.884075
v 25.200001 529.023315 44.048676
v 25.200001 528.969482 44.237461
v 24.925381 533.218811 48.387054
v 25.200001 533.164368 47.899967
v 24.958166 529.505859 47.517017
v 25.200001 529.871826 47.288322
v 24.881516 533.498840 48.356255
v 25.200001 533.344177 47.821129
v 24.955402 528.562012 44.123718
v 25.200001 528.927551 44.429253
v 25.200001 533.518677 47.731163
v 24.929895 529.658081 47.724457
v 25.200001 530.019714 47.417439
v 25.200001 530.175415 47.537014
v 24.925381 528.457336 44.361980
v 25.200001 528.897766 44.623299
v 24.826830 533.777344 48.325626
v 25.200001 533.687195 47.630413
v 24.885685 529.830505 47.959354
v 25.200001 530.338318 47.646576
v 24.754421 534.085083 48.291779
v 25.200001 533.848999 47.519283
v 24.881516 528.343994 44.619896
v 25.200001 528.880249 44.818832
v 24.829950 530.000916 48.191608
v 25.200001 530.507751 47.745693
v 24.670887 534.391235 48.258102
v 24.826830 528.231262 44.876385
v 25.200001 528.875061 45.015079
v 25.200001 528.882141 45.211269
v 22.430666 528.130493 45.105698
v 22.000000 528.882141 45.211269
v 22.000000 528.875061 45.015079
v 22.000000 528.901550 45.406624
v 22.444748 528.166809 45.692585
v 22.529114 527.982788 45.441837
v 22.432337 530.160828 48.409439
v 22.000000 530.683105 47.833973
v 22.000000 530.507751 47.745693
v 22.445580 530.680237 48.666264
v 22.348143 528.279297 44.767143
v 22.000000 528.880249 44.818832
v 22.529114 530.374023 48.699940
v 22.430666 534.026306 48.298241
v 22.000000 533.848999 47.519283
v 22.000000 533.687195 47.630413
v 22.297953 528.391968 44.510742
v 22.000000 528.897766 44.623299
v 22.529114 534.391235 48.258102
v 22.350559 529.945190 48.115616
v 22.000000 530.338318 47.646576
v 22.348143 533.658691 48.338673
v 22.000000 533.518677 47.731163
v 22.000000 533.344177 47.821129
v 22.259081 528.505554 44.252296
v 22.000000 528.927551 44.429253
v 22.000000 528.969482 44.237461
v 22.299976 529.779724 47.890224
v 22.000000 530.175415 47.537014
v 22.000000 530.019714 47.417439
v 22.297953 533.380310 48.369289
v 22.000000 533.164368 47.899967
v 22.233278 528.614746 44.003750
v 22.000000 529.023315 44.048676
v 22.260561 529.612427 47.662262
v 22.000000 529.871826 47.288322
v 22.259081 533.099731 48.400154
v 22.000000 532.979980 47.967358
v 22.234169 529.451050 47.442383
v 22.000000 529.732300 47.150177
v 22.219147 528.724487 43.754086
v 22.000000 529.088928 43.863647
v 22.233278 532.829834 48.429836
v 22.000000 532.791748 48.023037
v 22.000000 532.600403 48.066788
v 22.216942 528.824524 43.526402
v 22.000000 529.166016 43.683102
v 22.000000 529.254333 43.507751
v 22.219488 529.289368 47.222057
v 22.000000 529.601807 47.003548
v 22.000000 529.480713 46.849007
v 22.219147 532.558777 48.459648
v 22.000000 532.406616 48.098431
v 22.225094 528.924194 43.299664
v 22.000000 529.353455 43.338295
v 22.216825 529.141907 47.021198
v 22.000000 529.369568 46.687172
v 22.216942 532.311584 48.486839
v 22.000000 532.211243 48.117851
v 22.244596 529.029480 43.060017
v 22.000000 529.463013 43.175392
v 22.224476 528.995056 46.821072
v 22.000000 529.268860 46.518677
v 22.225094 532.065369 48.513916
v 22.000000 532.015076 48.124962
v 22.000000 531.818848 48.119743
v 22.274620 529.134216 42.821754
v 22.000000 529.582581 43.019691
v 22.242998 528.842529 46.613247
v 22.000000 529.178894 46.344189
v 22.244596 531.805176 48.542534
v 22.318485 529.247559 42.563843
v 22.000000 529.711670 42.871807
v 22.000000 529.849792 42.732323
v 22.000000 531.623291 48.102211
v 22.271879 528.690430 46.406021
v 22.000000 529.100037 46.164398
v 22.000000 529.032654 45.980011
v 22.274620 531.546509 48.570984
v 22.000000 531.429260 48.072437
v 22.373169 529.360229 42.307350
v 22.000000 529.996460 42.601788
v 22.315775 528.521362 46.175701
v 22.000000 528.976990 45.791752
v 22.445580 529.484802 42.023891
v 22.000000 530.151001 42.480717
v 22.318485 531.266479 48.601784
v 22.000000 531.237488 48.030537
v 22.371202 528.352844 45.946083
v 22.000000 528.933228 45.600372
v 22.529114 529.608765 41.741898
v 22.373169 530.987976 48.632416
v 22.000000 531.048706 47.976677
v 22.000000 530.863647 47.911068
v 24.769333 534.539001 47.921963
v 24.851856 534.687744 47.583408
v 22.373169 534.639771 47.692650
v 22.445580 534.515198 47.976109
v 24.754421 535.893311 44.840157
v 24.670887 536.017212 44.558163
v 22.529114 536.017212 44.558163
v 22.430666 535.869507 44.894302
v 24.826830 535.768738 45.123615
v 22.348143 535.720703 45.232857
v 24.881516 535.656006 45.380104
v 22.297953 535.608032 45.489258
v 24.925381 535.542664 45.638020
v 22.259081 535.494446 45.747704
v 24.955402 535.437988 45.876282
v 22.233278 535.385254 45.996250
v 24.974907 535.332642 46.115925
v 22.219147 535.275513 46.245914
v 24.983059 535.233032 46.342667
v 22.216942 535.175476 46.473598
v 24.980854 535.132935 46.570347
v 22.225094 535.075806 46.700336
v 24.966722 535.023254 46.820011
v 22.244596 534.970520 46.939983
v 24.940918 534.914001 47.068558
v 22.274620 534.865784 47.178246
v 24.902046 534.800415 47.327003
v 22.318485 534.752441 47.436157
v 24.767662 535.804016 44.267658
v 22.370050 535.644165 44.049831
v 22.444004 535.831604 44.305229
v 24.849440 535.588379 43.973839
v 24.755253 533.809998 41.550808
v 24.670887 533.625977 41.300060
v 22.529114 533.625977 41.300060
v 22.434278 533.834717 41.584465
v 24.828798 533.996033 41.804306
v 22.353653 534.045898 41.872223
v 24.884226 534.164612 42.033924
v 22.301973 534.212952 42.099831
v 24.928120 534.333618 42.264244
v 22.261896 534.380493 42.328068
v 24.957003 534.485718 42.471470
v 22.234980 534.541626 42.547619
v 24.975525 534.638245 42.679295
v 22.219841 534.703247 42.767857
v 24.983175 534.785156 42.879417
v 22.216696 534.849426 42.967033
v 24.980513 534.932556 43.080280
v 22.223833 534.996216 43.167034
v 24.965830 535.094238 43.300606
v 22.241833 535.149048 43.375237
v 24.939440 535.255615 43.520485
v 22.270105 535.301270 43.582680
v 24.900023 535.422913 43.748447
v 22.314314 535.473694 43.817577
v 24.769333 533.260986 41.340202
v 24.851856 532.893433 41.380630
v 22.373169 533.012024 41.367584
v 22.445580 533.319763 41.333736
v 24.754421 529.914917 41.708221
v 22.430666 529.973694 41.701759
v 24.826830 530.222656 41.674374
v 22.348143 530.341309 41.661327
v 24.881516 530.501160 41.643745
v 22.297953 530.619690 41.630711
v 24.925381 530.781189 41.612946
v 22.259081 530.900269 41.599846
v 24.955402 531.039917 41.584492
v 22.233278 531.170166 41.570164
v 24.974907 531.300110 41.555874
v 22.219147 531.441223 41.540352
v 24.983059 531.546265 41.528797
v 22.216942 531.688416 41.513161
v 24.980854 531.793457 41.501610
v 22.225094 531.934631 41.486084
v 24.966722 532.064575 41.471794
v 22.244596 532.194824 41.457466
v 24.940918 532.334412 41.442112
v 22.274620 532.453491 41.429016
v 24.902046 532.615051 41.411251
v 22.318485 532.733521 41.398216
v 22.000000 534.745667 46.492249
v 22.000000 534.833984 46.316898
v 22.000000 530.204468 45.401100
v 22.000000 530.177429 45.251457
v 22.000000 534.646545 46.661705
v 22.000000 530.243713 45.548008
v 22.000000 534.536987 46.824608
v 22.000000 530.294922 45.691170
v 22.000000 534.417419 46.980309
v 22.000000 534.288330 47.128193
v 22.000000 532.762512 41.969463
v 22.000000 532.570740 41.927563
v 22.000000 532.376709 41.897789
v 22.000000 530.357849 45.829613
v 22.000000 532.181152 41.880257
v 22.000000 532.951294 42.023323
v 22.000000 531.984924 41.875038
v 22.000000 534.150208 47.267677
v 22.000000 533.136353 42.088932
v 22.000000 530.431946 45.962387
v 22.000000 534.003540 47.398212
v 22.000000 531.788757 41.882149
v 22.000000 530.516785 46.088589
v 22.000000 533.492249 42.254307
v 22.000000 533.316895 42.166027
v 22.000000 531.593384 41.901569
v 22.000000 531.399597 41.933212
v 22.000000 532.962402 46.568035
v 22.000000 533.661682 42.353424
v 22.000000 531.208252 41.976963
v 22.000000 530.611755 46.207352
v 22.000000 532.829590 46.642151
v 22.000000 533.824585 42.462986
v 22.000000 531.020020 42.032642
v 22.000000 530.716187 46.317867
v 22.000000 532.691162 46.705051
v 22.000000 534.128174 42.711678
v 22.000000 533.980286 42.582561
v 22.000000 530.829407 46.419380
v 22.000000 530.835632 42.100033
v 22.000000 530.655823 42.178871
v 22.000000 534.267700 42.849823
v 22.000000 532.548035 46.756306
v 22.000000 530.481323 42.268837
v 22.000000 530.950623 46.511200
v 22.000000 532.401123 46.795563
v 22.000000 534.398193 42.996452
v 22.000000 531.078979 46.592697
v 22.000000 532.251465 46.822552
v 22.000000 530.312805 42.369587
v 22.000000 531.213684 46.663311
v 22.000000 534.630432 43.312828
v 22.000000 534.519287 43.150993
v 22.000000 532.100098 46.837090
v 22.000000 531.353699 46.722565
v 22.000000 531.948059 46.839081
v 22.000000 531.498169 46.770054
v 22.000000 531.796326 46.828510
v 22.000000 534.731140 43.481323
v 22.000000 530.792664 43.611755
v 22.000000 531.646057 46.805447
v 22.000000 534.821106 43.655811
v 22.000000 530.682129 43.716198
v 22.000000 534.967346 44.019989
v 22.000000 534.899963 43.835602
v 22.000000 530.580627 43.829411
v 22.000000 535.023010 44.208248
v 22.000000 530.488770 43.950623
v 22.000000 535.066772 44.399628
v 22.000000 530.407288 44.078999
v 22.000000 535.117859 44.788731
v 22.000000 535.098450 44.593376
v 22.000000 530.336670 44.213669
v 22.000000 535.124939 44.984921
v 22.000000 530.277405 44.353710
v 22.000000 535.119751 45.181168
v 22.000000 530.229919 44.498165
v 22.000000 535.102234 45.376701
v 22.000000 530.194580 44.646049
v 22.000000 530.171509 44.796352
v 22.000000 535.072449 45.570747
v 22.000000 535.030518 45.762539
v 22.000000 530.160889 44.948044
v 22.000000 534.976685 45.951324
v 22.000000 530.162903 45.100090
v 22.000000 534.911072 46.136353
v 25.200001 530.100891 45.627205
v 25.200001 534.536987 46.824608
v 25.200001 534.646545 46.661705
v 25.200001 530.155945 45.774277
v 25.200001 534.417419 46.980309
v 25.200001 530.222412 45.916569
v 25.200001 534.288330 47.128193
v 25.200001 530.299805 46.053215
v 25.200001 534.150208 47.267677
v 25.200001 532.376709 41.897789
v 25.200001 532.570740 41.927563
v 25.200001 532.181152 41.880257
v 25.200001 530.387634 46.183365
v 25.200001 532.762512 41.969463
v 25.200001 534.003540 47.398212
v 25.200001 531.984924 41.875038
v 25.200001 531.788757 41.882149
v 25.200001 532.951294 42.023323
v 25.200001 533.136353 42.088932
v 25.200001 531.593384 41.901569
v 25.200001 530.485474 46.306221
v 25.200001 533.053223 46.700218
v 25.200001 533.316895 42.166027
v 25.200001 530.592651 46.421021
v 25.200001 531.399597 41.933212
v 25.200001 532.916565 46.777611
v 25.200001 530.708435 46.527061
v 25.200001 533.492249 42.254307
v 25.200001 531.208252 41.976963
v 25.200001 532.774292 46.844044
v 25.200001 530.832275 46.623688
v 25.200001 533.661682 42.353424
v 25.200001 531.020020 42.032642
v 25.200001 530.835632 42.100033
v 25.200001 532.627197 46.899109
v 25.200001 533.824585 42.462986
v 25.200001 533.980286 42.582561
v 25.200001 530.963257 46.710304
v 25.200001 530.655823 42.178871
v 25.200001 532.476257 46.942463
v 25.200001 531.100647 46.786373
v 25.200001 534.128174 42.711678
v 25.200001 530.481323 42.268837
v 25.200001 532.322388 46.973843
v 25.200001 531.243530 46.851433
v 25.200001 534.267700 42.849823
v 25.200001 532.166565 46.993053
v 25.200001 531.391174 46.905075
v 25.200001 530.312805 42.369587
v 25.200001 532.009644 46.999977
v 25.200001 534.398193 42.996452
v 25.200001 531.542480 46.946972
v 25.200001 531.852722 46.994568
v 25.200001 531.696655 46.976864
v 25.200001 534.519287 43.150993
v 25.200001 534.630432 43.312828
v 25.200001 530.693787 43.485474
v 25.200001 534.731140 43.481323
v 25.200001 530.578979 43.592628
v 25.200001 534.821106 43.655811
v 25.200001 530.472961 43.708458
v 25.200001 534.899963 43.835602
v 25.200001 530.376282 43.832253
v 25.200001 534.967346 44.019989
v 25.200001 535.023010 44.208248
v 25.200001 530.289673 43.963245
v 25.200001 535.066772 44.399628
v 25.200001 530.213623 44.100628
v 25.200001 535.098450 44.593376
v 25.200001 530.148560 44.243561
v 25.200001 535.117859 44.788731
v 25.200001 530.094910 44.391151
v 25.200001 535.124939 44.984921
v 25.200001 535.119751 45.181168
v 25.200001 530.053040 44.542500
v 25.200001 535.102234 45.376701
v 25.200001 530.023132 44.696667
v 25.200001 535.072449 45.570747
v 25.200001 530.005432 44.852707
v 25.200001 535.030518 45.762539
v 25.200001 530.000000 45.009651
v 25.200001 534.976685 45.951324
v 25.200001 530.006958 45.166538
v 25.200001 534.911072 46.136353
v 25.200001 530.026184 45.322399
v 25.200001 534.833984 46.316898
v 25.200001 530.057556 45.476269
v 25.200001 534.745667 46.492249
v 22.379000 531.347839 46.484020
v 22.379000 531.479675 46.535213
v 24.981184 531.347839 46.484020
v 24.981184 531.220947 46.421535
v 22.379000 530.425293 44.615440
v 22.379000 530.397766 44.754150
v 24.981184 530.425293 44.615440
v 24.981184 530.397766 44.754150
v 22.379000 531.220947 46.421535
v 24.981184 531.100037 46.348228
v 22.379000 530.464783 44.479656
v 24.981184 530.464783 44.479656
v 22.379000 531.100037 46.348228
v 24.981184 530.515991 44.347836
v 24.981184 530.985962 46.264664
v 24.981184 532.841553 46.385422
v 22.379000 530.515991 44.347836
v 22.379000 530.985962 46.264664
v 24.981184 530.578491 44.220974
v 22.379000 532.841553 46.385422
v 24.981184 530.879578 46.171471
v 22.379000 530.578491 44.220974
v 22.379000 530.879578 46.171471
v 24.981184 530.651794 44.100044
v 22.379000 532.717651 46.453499
v 24.981184 532.717651 46.453499
v 22.379000 530.651794 44.100044
v 24.981184 530.781738 46.069363
v 24.981184 530.735352 43.985962
v 22.379000 530.781738 46.069363
v 22.379000 530.735352 43.985962
v 24.981184 530.828552 43.879601
v 22.379000 532.588196 46.510513
v 24.981184 532.588196 46.510513
v 22.379000 530.828552 43.879601
v 22.379000 530.693176 45.959118
v 24.981184 530.693176 45.959118
v 24.981184 530.930664 43.781761
v 24.981184 532.454346 46.556030
v 22.379000 530.930664 43.781761
v 22.379000 532.454346 46.556030
v 22.379000 530.614563 45.841572
v 24.981184 530.614563 45.841572
v 24.981184 532.316956 46.589706
v 22.379000 532.316956 46.589706
v 22.379000 530.546509 45.717621
v 24.981184 530.546509 45.717621
v 24.981184 532.177246 46.611282
v 22.379000 530.489502 45.588211
v 24.981184 530.489502 45.588211
v 22.379000 532.177246 46.611282
v 24.981184 532.036133 46.620598
v 24.981184 530.443970 45.454323
v 22.379000 530.443970 45.454323
v 22.379000 532.036133 46.620598
v 24.981184 531.894714 46.617577
v 22.379000 530.410278 45.316978
v 24.981184 530.410278 45.316978
v 22.379000 531.894714 46.617577
v 24.981184 530.388733 45.177219
v 24.981184 531.754150 46.602249
v 22.379000 530.388733 45.177219
v 22.379000 531.754150 46.602249
v 24.981184 531.615417 46.574722
v 22.379000 530.379395 45.036110
v 24.981184 530.379395 45.036110
v 22.379000 531.615417 46.574722
v 24.981184 531.479675 46.535213
v 22.379000 530.382446 44.894730
v 24.981184 530.382446 44.894730
f 1 2 3
f 4 1 3
f 5 6 7
f 4 3 8
f 9 4 8
f 9 8 10
f 11 12 13
f 14 9 15
f 16 11 13
f 9 10 15
f 14 15 17
f 18 16 19
f 20 14 17
f 16 13 19
f 21 20 22
f 23 18 24
f 20 17 22
f 18 19 24
f 25 21 26
f 21 22 26
f 27 23 28
f 23 24 28
f 29 25 30
f 25 26 30
f 31 27 32
f 27 28 32
f 33 29 34
f 29 30 34
f 31 32 35
f 36 31 35
f 37 33 38
f 33 34 38
f 39 37 40
f 36 35 41
f 42 36 41
f 37 38 40
f 42 41 43
f 44 42 43
f 39 40 45
f 46 39 45
f 44 43 47
f 48 44 47
f 46 45 49
f 48 47 50
f 46 49 51
f 52 46 51
f 48 50 53
f 54 48 53
f 52 51 55
f 56 52 55
f 54 53 57
f 58 54 57
f 56 55 59
f 60 56 59
f 58 57 61
f 62 58 61
f 60 59 63
f 64 60 63
f 62 61 65
f 66 62 65
f 64 63 67
f 68 64 67
f 66 65 69
f 68 67 70
f 71 66 69
f 72 68 70
f 72 70 73
f 71 69 74
f 75 71 74
f 76 72 73
f 76 73 77
f 78 76 77
f 75 74 2
f 1 75 2
f 78 77 6
f 5 78 6
f 79 80 81
f 82 83 84
f 79 81 85
f 82 84 86
f 87 82 86
f 87 86 88
f 89 87 90
f 91 92 93
f 87 88 90
f 94 91 93
f 95 89 96
f 89 90 96
f 97 94 98
f 94 93 98
f 99 95 100
f 101 97 102
f 95 96 100
f 97 98 102
f 103 99 104
f 105 101 106
f 99 100 104
f 101 102 106
f 107 103 108
f 105 106 109
f 103 104 108
f 110 105 109
f 111 107 112
f 107 108 112
f 110 109 113
f 114 110 113
f 115 111 116
f 111 112 116
f 114 113 117
f 118 114 117
f 119 115 120
f 115 116 120
f 118 117 121
f 122 118 121
f 123 119 124
f 119 120 124
f 122 121 125
f 126 122 125
f 127 123 128
f 123 124 128
f 126 125 129
f 130 126 129
f 131 127 132
f 130 129 133
f 134 130 133
f 127 128 132
f 131 132 135
f 136 131 135
f 134 133 137
f 138 134 137
f 136 135 139
f 140 136 139
f 138 137 141
f 142 138 141
f 140 139 143
f 144 140 143
f 142 141 145
f 146 142 145
f 144 143 147
f 148 144 147
f 146 145 149
f 150 146 149
f 148 147 151
f 152 148 151
f 150 149 153
f 83 150 153
f 152 151 154
f 80 152 154
f 80 154 81
f 83 153 84
f 155 156 157
f 155 157 158
f 155 158 159
f 155 160 156
f 161 155 159
f 162 163 164
f 161 159 165
f 162 166 163
f 162 167 166
f 168 169 170
f 171 161 165
f 171 165 172
f 173 164 174
f 168 175 169
f 176 170 177
f 173 162 164
f 176 168 170
f 176 177 178
f 179 171 172
f 179 172 180
f 179 180 181
f 182 174 183
f 182 183 184
f 185 178 186
f 182 173 174
f 187 179 181
f 188 184 189
f 185 176 178
f 187 181 190
f 188 182 184
f 191 186 192
f 191 185 186
f 193 189 194
f 195 190 196
f 195 187 190
f 193 188 189
f 197 191 192
f 197 192 198
f 197 198 199
f 200 196 201
f 200 201 202
f 200 195 196
f 203 194 204
f 203 204 205
f 203 193 194
f 206 199 207
f 208 202 209
f 206 197 199
f 208 200 202
f 210 205 211
f 210 203 205
f 212 207 213
f 214 209 215
f 212 206 207
f 214 208 209
f 216 211 217
f 216 210 211
f 218 213 219
f 218 219 220
f 221 215 222
f 221 214 215
f 218 212 213
f 223 217 224
f 223 216 217
f 225 222 226
f 227 220 228
f 225 226 229
f 227 218 220
f 230 223 224
f 225 221 222
f 230 224 231
f 230 231 232
f 233 228 234
f 235 229 236
f 237 230 232
f 233 227 228
f 237 232 238
f 235 225 229
f 239 236 240
f 241 234 242
f 239 235 236
f 241 233 234
f 243 237 238
f 243 238 244
f 243 244 157
f 245 239 240
f 246 242 247
f 246 247 248
f 246 241 242
f 156 243 157
f 166 248 163
f 166 246 248
f 249 250 251
f 249 252 250
f 249 253 252
f 249 254 253
f 255 256 257
f 255 258 256
f 259 251 260
f 255 261 258
f 259 249 251
f 262 263 264
f 265 260 266
f 262 267 263
f 265 259 260
f 268 257 269
f 268 255 257
f 270 262 264
f 270 271 272
f 270 264 271
f 273 274 275
f 273 266 274
f 276 277 278
f 273 265 266
f 276 269 277
f 276 268 269
f 279 270 272
f 279 272 280
f 281 275 282
f 281 273 275
f 283 278 284
f 283 276 278
f 285 279 280
f 285 280 286
f 287 284 288
f 289 281 282
f 287 283 284
f 289 282 290
f 291 285 286
f 291 292 293
f 294 295 296
f 291 286 292
f 294 290 295
f 294 289 290
f 297 298 299
f 297 288 298
f 297 287 288
f 300 291 293
f 300 293 301
f 302 296 303
f 302 294 296
f 304 299 305
f 304 297 299
f 306 300 301
f 306 301 307
f 308 303 309
f 310 305 311
f 308 302 303
f 310 304 305
f 312 306 307
f 312 313 314
f 312 307 313
f 315 309 316
f 315 308 309
f 317 311 318
f 317 310 311
f 319 312 314
f 320 321 322
f 319 314 323
f 320 316 321
f 324 325 326
f 324 318 325
f 320 315 316
f 324 317 318
f 327 323 328
f 327 319 323
f 329 322 330
f 331 324 326
f 331 326 332
f 329 320 322
f 333 330 334
f 335 327 328
f 335 328 336
f 333 329 330
f 337 331 332
f 337 338 252
f 337 332 338
f 339 333 334
f 340 341 342
f 340 336 341
f 340 335 336
f 253 337 252
f 258 342 256
f 258 340 342
f 130 39 46
f 111 115 62
f 111 62 66
f 122 126 52
f 126 46 52
f 107 111 66
f 107 66 71
f 118 122 56
f 122 52 56
f 103 107 71
f 118 56 60
f 103 71 75
f 79 11 16
f 114 118 60
f 99 103 75
f 114 60 64
f 80 79 16
f 99 75 1
f 110 114 64
f 95 99 1
f 110 64 68
f 152 80 18
f 80 16 18
f 105 110 68
f 95 1 4
f 105 68 72
f 89 95 4
f 101 105 72
f 101 72 76
f 148 152 23
f 152 18 23
f 97 101 76
f 87 89 9
f 89 4 9
f 97 76 78
f 148 23 27
f 94 97 78
f 94 78 5
f 91 94 5
f 144 148 27
f 82 87 14
f 87 9 14
f 144 27 31
f 140 144 31
f 83 82 20
f 82 14 20
f 140 31 36
f 150 83 21
f 136 140 36
f 83 20 21
f 136 36 42
f 146 150 25
f 150 21 25
f 131 136 42
f 146 25 29
f 131 42 44
f 142 146 29
f 127 131 44
f 127 44 48
f 138 142 33
f 142 29 33
f 123 127 48
f 123 48 54
f 134 138 37
f 138 33 37
f 119 123 54
f 119 54 58
f 130 134 39
f 134 37 39
f 115 119 58
f 115 58 62
f 126 130 46
f 343 344 345
f 245 346 267
f 245 343 346
f 347 348 349
f 347 349 350
f 351 350 352
f 351 347 350
f 353 352 354
f 353 351 352
f 355 354 356
f 355 353 354
f 357 356 358
f 357 355 356
f 359 358 360
f 359 357 358
f 361 360 362
f 361 359 360
f 363 362 364
f 363 361 362
f 365 364 366
f 365 363 364
f 367 366 368
f 367 365 366
f 369 368 370
f 369 367 368
f 344 370 345
f 344 369 370
f 343 345 346
f 371 372 373
f 371 374 372
f 348 373 349
f 348 371 373
f 375 376 377
f 375 377 378
f 379 378 380
f 379 375 378
f 381 380 382
f 381 379 380
f 383 382 384
f 383 381 382
f 385 384 386
f 385 383 384
f 387 386 388
f 387 385 386
f 389 388 390
f 389 387 388
f 391 390 392
f 391 389 390
f 393 392 394
f 393 391 392
f 395 394 396
f 395 393 394
f 397 396 398
f 397 395 396
f 374 398 372
f 374 397 398
f 399 400 401
f 376 402 377
f 376 399 402
f 403 175 339
f 403 339 404
f 405 404 406
f 405 403 404
f 407 406 408
f 407 405 406
f 409 408 410
f 409 407 408
f 411 410 412
f 411 409 410
f 413 412 414
f 413 411 412
f 415 414 416
f 415 413 414
f 417 416 418
f 417 415 416
f 419 418 420
f 419 417 418
f 421 420 422
f 421 419 420
f 423 422 424
f 423 421 422
f 400 424 401
f 400 423 424
f 399 401 402
f 168 329 333
f 168 176 329
f 175 333 339
f 175 168 333
f 166 167 254
f 166 254 249
f 246 249 259
f 246 166 249
f 241 259 265
f 241 246 259
f 233 265 273
f 233 241 265
f 227 273 281
f 227 233 273
f 218 281 289
f 218 227 281
f 212 289 294
f 212 218 289
f 206 294 302
f 206 212 294
f 197 302 308
f 197 206 302
f 191 308 315
f 191 197 308
f 185 315 320
f 185 191 315
f 176 320 329
f 176 185 320
f 156 261 255
f 156 255 243
f 160 261 156
f 167 253 254
f 162 337 253
f 162 253 167
f 173 331 337
f 173 337 162
f 182 324 331
f 182 331 173
f 188 317 324
f 188 324 182
f 193 310 317
f 193 317 188
f 203 304 310
f 203 310 193
f 210 297 304
f 210 304 203
f 216 287 297
f 216 297 210
f 223 283 287
f 223 287 216
f 230 276 283
f 230 283 223
f 237 268 276
f 237 276 230
f 243 255 268
f 243 268 237
f 155 340 258
f 155 161 340
f 160 258 261
f 160 155 258
f 239 245 267
f 239 267 262
f 235 262 270
f 235 239 262
f 225 270 279
f 225 235 270
f 221 279 285
f 221 225 279
f 214 285 291
f 214 221 285
f 208 291 300
f 208 214 291
f 200 300 306
f 200 208 300
f 195 306 312
f 195 200 306
f 187 312 319
f 187 195 312
f 179 319 327
f 179 187 319
f 171 327 335
f 171 179 327
f 161 335 340
f 161 171 335
f 113 109 425
f 426 113 425
f 427 428 338
f 428 252 338
f 109 106 429
f 425 109 429
f 427 338 332
f 430 427 332
f 106 102 431
f 429 106 431
f 430 332 326
f 432 430 326
f 431 102 433
f 432 326 325
f 433 102 434
f 102 98 434
f 432 325 318
f 435 436 124
f 436 437 124
f 438 432 318
f 437 439 128
f 124 437 128
f 440 435 120
f 435 124 120
f 439 441 132
f 98 93 442
f 434 98 442
f 128 439 132
f 438 318 311
f 443 440 116
f 444 438 311
f 440 120 116
f 442 93 445
f 93 92 445
f 441 446 135
f 132 441 135
f 447 444 305
f 444 311 305
f 443 116 112
f 445 92 263
f 448 449 112
f 449 443 112
f 446 450 139
f 450 451 139
f 135 446 139
f 447 305 299
f 92 452 264
f 453 448 108
f 448 112 108
f 263 92 264
f 139 451 143
f 451 454 143
f 455 447 298
f 447 299 298
f 452 456 271
f 457 453 104
f 264 452 271
f 453 108 104
f 454 458 147
f 455 298 288
f 459 455 288
f 456 460 272
f 143 454 147
f 271 456 272
f 461 462 100
f 462 457 100
f 463 459 284
f 459 288 284
f 457 104 100
f 458 464 151
f 464 465 151
f 272 460 280
f 463 284 278
f 147 458 151
f 466 461 96
f 460 467 286
f 461 100 96
f 280 460 286
f 465 468 154
f 463 278 277
f 469 463 277
f 467 470 292
f 151 465 154
f 286 467 292
f 471 466 90
f 472 469 269
f 469 277 269
f 292 470 293
f 470 473 293
f 466 96 90
f 468 474 81
f 472 269 257
f 475 472 257
f 154 468 81
f 293 473 301
f 476 477 88
f 477 471 88
f 475 257 256
f 471 90 88
f 473 478 307
f 474 334 85
f 334 330 85
f 301 473 307
f 475 256 342
f 81 474 85
f 479 475 342
f 307 478 313
f 478 480 313
f 479 342 341
f 481 479 341
f 476 88 86
f 313 480 314
f 480 482 314
f 483 476 86
f 85 330 484
f 481 341 336
f 330 322 484
f 485 481 336
f 485 336 328
f 485 328 323
f 314 482 323
f 482 485 323
f 483 86 84
f 486 483 84
f 322 321 487
f 484 322 487
f 486 84 153
f 488 489 153
f 489 486 153
f 321 316 490
f 316 309 490
f 487 321 490
f 488 153 149
f 491 488 149
f 309 303 492
f 490 309 492
f 491 149 145
f 493 491 145
f 303 296 494
f 492 303 494
f 493 145 141
f 495 496 141
f 496 493 141
f 494 296 497
f 296 295 497
f 295 290 497
f 495 141 137
f 498 495 137
f 497 290 499
f 290 282 499
f 498 137 133
f 500 498 133
f 282 275 501
f 499 282 501
f 500 133 129
f 502 500 129
f 275 274 503
f 501 275 503
f 503 274 504
f 502 129 505
f 129 125 505
f 504 274 266
f 505 125 506
f 125 121 506
f 504 266 260
f 507 504 260
f 121 117 508
f 506 121 508
f 509 507 251
f 507 260 251
f 117 113 510
f 508 117 510
f 428 509 250
f 509 251 250
f 510 113 426
f 428 250 252
f 183 174 511
f 512 70 513
f 184 511 514
f 184 183 511
f 515 73 70
f 515 70 512
f 189 184 514
f 189 514 516
f 517 77 73
f 517 73 515
f 194 189 516
f 194 516 518
f 519 6 77
f 519 77 517
f 50 520 521
f 47 522 520
f 47 520 50
f 53 50 521
f 204 194 518
f 204 518 523
f 53 521 524
f 525 7 6
f 525 6 519
f 43 522 47
f 43 526 522
f 43 527 526
f 205 204 523
f 57 53 524
f 240 7 525
f 57 528 529
f 57 524 528
f 41 527 43
f 41 530 527
f 211 523 531
f 211 205 523
f 61 57 529
f 236 532 7
f 61 529 533
f 236 7 240
f 217 531 534
f 217 211 531
f 35 535 530
f 35 530 41
f 229 536 532
f 65 61 533
f 229 532 236
f 224 534 537
f 65 533 538
f 224 217 534
f 32 535 35
f 32 539 535
f 226 536 229
f 226 540 536
f 231 224 537
f 231 537 541
f 69 538 542
f 69 65 538
f 222 540 226
f 28 543 539
f 28 544 543
f 222 545 540
f 28 539 32
f 232 231 541
f 215 545 222
f 74 546 547
f 74 542 546
f 74 69 542
f 238 232 541
f 238 541 548
f 24 544 28
f 24 549 544
f 209 545 215
f 209 550 545
f 244 238 548
f 244 548 551
f 2 547 552
f 2 74 547
f 202 550 209
f 19 549 24
f 19 553 549
f 202 554 550
f 157 244 551
f 157 551 555
f 3 552 556
f 3 2 552
f 201 554 202
f 201 557 554
f 158 157 555
f 13 553 19
f 158 555 558
f 13 559 553
f 196 557 201
f 196 560 557
f 8 3 556
f 159 158 558
f 8 556 561
f 190 560 196
f 165 159 558
f 165 558 562
f 12 559 13
f 12 169 559
f 181 560 190
f 12 170 169
f 181 563 560
f 172 165 562
f 172 562 564
f 180 563 181
f 10 565 566
f 180 172 564
f 10 561 565
f 180 564 563
f 10 8 561
f 567 170 12
f 567 177 170
f 15 10 566
f 15 566 568
f 569 177 567
f 569 178 177
f 17 15 568
f 17 568 570
f 571 178 569
f 571 186 178
f 22 17 570
f 22 570 572
f 573 192 186
f 573 198 192
f 573 186 571
f 26 22 572
f 26 574 575
f 26 572 574
f 576 198 573
f 576 199 198
f 30 26 575
f 30 575 577
f 578 199 576
f 578 207 199
f 34 30 577
f 34 577 579
f 580 207 578
f 580 213 207
f 38 34 579
f 38 579 581
f 582 213 580
f 582 219 213
f 40 38 581
f 40 581 583
f 220 219 582
f 584 40 583
f 585 220 582
f 45 40 584
f 228 220 585
f 586 45 584
f 587 228 585
f 49 45 586
f 234 228 587
f 588 49 586
f 589 234 587
f 51 49 588
f 242 234 589
f 590 51 588
f 591 242 589
f 55 51 590
f 247 242 591
f 592 55 590
f 248 591 593
f 248 247 591
f 594 59 55
f 594 55 592
f 163 593 595
f 163 248 593
f 596 63 59
f 596 59 594
f 164 595 597
f 164 163 595
f 598 67 63
f 598 63 596
f 174 164 597
f 174 597 511
f 513 70 67
f 513 67 598
f 599 600 601
f 599 601 602
f 603 604 605
f 604 606 605
f 607 599 602
f 607 602 608
f 609 603 610
f 603 605 610
f 611 607 608
f 609 610 612
f 611 608 613
f 91 5 614
f 615 609 612
f 616 611 613
f 615 612 617
f 618 91 614
f 616 613 619
f 620 615 617
f 621 616 619
f 620 617 622
f 623 618 624
f 618 614 624
f 625 620 622
f 621 619 626
f 625 622 627
f 628 621 626
f 629 625 627
f 629 627 630
f 631 623 632
f 623 624 632
f 633 629 630
f 634 628 635
f 628 626 635
f 633 630 636
f 631 632 637
f 638 633 636
f 638 636 11
f 79 638 11
f 639 631 637
f 640 634 641
f 634 635 641
f 639 637 642
f 643 639 642
f 644 640 645
f 640 641 645
f 643 642 646
f 647 644 648
f 649 643 646
f 644 645 648
f 649 646 650
f 647 648 651
f 652 647 651
f 653 649 650
f 653 650 654
f 655 652 656
f 652 651 656
f 657 653 654
f 655 656 658
f 657 654 659
f 660 655 658
f 661 657 659
f 661 659 662
f 663 660 664
f 660 658 664
f 665 661 662
f 665 662 666
f 667 663 668
f 663 664 668
f 600 665 666
f 600 666 601
f 604 667 606
f 667 668 606
f 350 495 498
f 350 496 495
f 350 373 496
f 350 349 373
f 378 449 448
f 352 498 500
f 378 402 449
f 352 350 498
f 378 377 402
f 404 339 334
f 354 500 502
f 354 352 500
f 404 334 474
f 380 448 453
f 380 378 448
f 406 404 474
f 406 468 465
f 406 474 468
f 356 505 506
f 356 502 505
f 356 354 502
f 382 457 462
f 382 453 457
f 382 380 453
f 408 406 465
f 408 465 464
f 384 462 461
f 358 506 508
f 358 356 506
f 384 382 462
f 410 408 464
f 386 461 466
f 410 464 458
f 360 508 510
f 386 384 461
f 360 358 508
f 362 426 425
f 412 410 458
f 362 510 426
f 362 360 510
f 412 454 451
f 412 458 454
f 388 471 477
f 388 466 471
f 388 386 466
f 414 412 451
f 364 425 429
f 414 451 450
f 364 362 425
f 390 477 476
f 390 388 477
f 416 414 450
f 366 429 431
f 416 450 446
f 366 364 429
f 392 476 483
f 392 390 476
f 418 416 446
f 368 431 433
f 418 441 439
f 368 366 431
f 418 446 441
f 394 483 486
f 394 392 483
f 370 434 442
f 420 418 439
f 370 433 434
f 370 368 433
f 420 439 437
f 396 489 488
f 396 486 489
f 396 394 486
f 345 442 445
f 422 437 436
f 422 420 437
f 398 488 491
f 345 370 442
f 346 445 263
f 398 396 488
f 346 345 445
f 424 436 435
f 372 398 491
f 424 422 436
f 372 493 496
f 372 491 493
f 267 346 263
f 401 424 435
f 401 440 443
f 401 435 440
f 373 372 496
f 402 443 449
f 402 401 443
f 399 375 533
f 399 533 529
f 399 529 528
f 399 376 375
f 371 579 577
f 400 399 528
f 371 347 579
f 400 528 524
f 371 348 347
f 343 245 240
f 343 240 525
f 423 400 524
f 374 577 575
f 423 524 521
f 344 525 519
f 374 371 577
f 344 343 525
f 344 519 517
f 421 423 521
f 397 575 574
f 421 521 520
f 397 574 572
f 421 520 522
f 369 517 515
f 397 374 575
f 369 344 517
f 419 421 522
f 395 572 570
f 419 522 526
f 367 515 512
f 395 397 572
f 367 369 515
f 393 570 568
f 393 395 570
f 417 419 526
f 417 526 527
f 365 367 512
f 365 512 513
f 365 513 598
f 415 527 530
f 415 417 527
f 415 530 535
f 391 568 566
f 391 566 565
f 363 598 596
f 391 393 568
f 363 365 598
f 413 535 539
f 389 565 561
f 413 415 535
f 389 391 565
f 361 596 594
f 361 363 596
f 411 539 543
f 387 561 556
f 411 413 539
f 387 389 561
f 359 594 592
f 359 592 590
f 359 361 594
f 409 543 544
f 409 411 543
f 385 556 552
f 385 387 556
f 357 590 588
f 407 544 549
f 357 359 590
f 407 549 553
f 383 385 552
f 383 552 547
f 383 547 546
f 407 409 544
f 355 588 586
f 355 357 588
f 405 553 559
f 381 383 546
f 381 546 542
f 405 407 553
f 403 559 169
f 353 586 584
f 353 355 586
f 403 405 559
f 379 381 542
f 379 542 538
f 379 538 533
f 175 403 169
f 351 584 583
f 351 583 581
f 351 353 584
f 375 379 533
f 347 581 579
f 347 351 581
f 618 456 452
f 644 432 438
f 91 618 452
f 640 644 438
f 91 452 92
f 640 438 444
f 634 640 444
f 634 444 447
f 628 634 455
f 79 85 484
f 638 79 484
f 634 447 455
f 628 455 459
f 621 628 459
f 633 638 487
f 638 484 487
f 616 621 463
f 629 633 490
f 621 459 463
f 633 487 490
f 611 616 469
f 616 463 469
f 625 629 492
f 629 490 492
f 607 611 472
f 625 492 494
f 611 469 472
f 620 625 494
f 599 607 475
f 607 472 475
f 620 494 497
f 615 620 497
f 600 599 479
f 599 475 479
f 615 497 499
f 609 615 499
f 665 600 481
f 600 479 481
f 609 499 501
f 603 609 501
f 661 665 485
f 665 481 485
f 603 501 503
f 604 603 503
f 657 661 482
f 661 485 482
f 604 503 504
f 667 604 504
f 653 657 480
f 667 504 507
f 663 667 507
f 657 482 480
f 653 480 478
f 649 653 478
f 663 507 509
f 660 663 509
f 649 478 473
f 643 649 473
f 660 509 428
f 655 660 428
f 643 473 470
f 639 643 470
f 655 428 427
f 652 655 427
f 639 470 467
f 631 639 467
f 652 427 430
f 647 652 430
f 631 467 460
f 623 631 460
f 647 430 432
f 644 647 432
f 623 460 456
f 618 623 456
f 619 537 534
f 626 619 534
f 11 567 12
f 626 534 531
f 635 626 531
f 635 531 523
f 5 7 532
f 641 635 518
f 614 5 532
f 635 523 518
f 645 641 516
f 624 614 536
f 641 518 516
f 614 532 536
f 648 645 514
f 632 624 540
f 645 516 514
f 624 536 540
f 651 648 511
f 648 514 511
f 637 632 545
f 632 540 545
f 656 651 597
f 651 511 597
f 642 637 550
f 637 545 550
f 658 656 595
f 656 597 595
f 642 550 554
f 646 642 554
f 664 658 593
f 658 595 593
f 668 664 591
f 646 554 557
f 650 646 557
f 664 593 591
f 650 557 560
f 654 650 560
f 668 591 589
f 606 668 589
f 654 560 563
f 659 654 563
f 606 589 587
f 659 563 564
f 606 587 585
f 605 606 585
f 659 564 562
f 662 659 562
f 605 585 582
f 610 605 582
f 662 562 558
f 666 662 558
f 610 582 580
f 612 610 580
f 666 558 555
f 601 666 555
f 612 580 578
f 617 612 578
f 601 555 551
f 602 601 551
f 617 578 576
f 622 617 576
f 602 551 548
f 622 576 573
f 608 602 548
f 627 622 573
f 627 573 571
f 608 548 541
f 613 608 541
f 630 627 571
f 630 571 569
f 636 630 569
f 613 541 537
f 619 613 537
f 636 569 567
f 11 636 567
