# Created by FreeCAD <http://www.freecadweb.org>
v -24.018816 214.585449 14.831157
v -23.799999 214.754089 14.474379
v -23.799999 214.870667 14.579608
v -24.018816 214.683990 14.932578
v -24.018816 214.441467 17.310495
v -23.799999 214.790009 17.515791
v -23.799999 214.667847 17.614462
v -23.799999 214.978622 14.693659
v -24.018816 214.773331 15.042203
v -23.799999 215.077286 14.815827
v -24.018816 212.505035 14.710346
v -23.799999 212.278656 14.406381
v -23.799999 212.408188 14.317598
v -24.018816 214.852768 15.159197
v -23.799999 215.166077 14.945362
v -24.018816 212.622025 14.630908
v -23.799999 215.244415 15.081462
v -24.018816 212.745499 14.561968
v -23.799999 212.544296 14.239253
v -24.018816 214.921707 15.282668
v -24.018816 214.979614 15.411678
v -23.799999 215.311844 15.223290
v -24.018816 212.874512 14.504052
v -23.799999 212.686111 14.171828
v -24.018816 215.026062 15.545246
v -23.799999 215.367935 15.369971
v -24.018816 213.008072 14.457601
v -23.799999 212.832794 14.115738
v -24.018816 215.060699 15.682353
v -23.799999 215.412338 15.520600
v -24.018816 213.145187 14.422967
v -23.799999 212.983429 14.071330
v -24.018816 215.083252 15.821958
v -23.799999 215.444794 15.674250
v -23.799999 213.137070 14.038877
v -24.018816 213.284790 14.400414
v -24.018816 215.093552 15.962996
v -23.799999 215.465088 15.829971
v -24.018816 215.091522 16.104395
v -23.799999 215.473114 15.986806
v -23.799999 213.292801 14.018579
v -24.018816 213.425827 14.390115
v -23.799999 213.449631 14.010561
v -24.018816 213.567215 14.392147
v -23.799999 215.468796 16.143785
v -24.018816 215.077179 16.245079
v -23.799999 213.606613 14.014873
v -24.018816 213.707901 14.406496
v -23.799999 215.452179 16.299944
v -23.799999 213.762772 14.031488
v -23.799999 215.423370 16.454317
v -24.018816 215.050613 16.383978
v -23.799999 213.917145 14.060304
v -24.018816 213.846802 14.433051
v -23.799999 215.382523 16.605953
v -24.018816 215.012054 16.520033
v -23.799999 214.068787 14.101143
v -24.018816 213.982864 14.471611
v -23.799999 215.329910 16.753918
v -24.018816 214.961792 16.652210
v -23.799999 214.216751 14.153754
v -24.018816 214.115036 14.521882
v -23.799999 215.265854 16.897297
v -24.018816 214.900192 16.779503
v -23.799999 214.360123 14.217812
v -24.018816 214.242325 14.583482
v -23.799999 215.190750 17.035210
v -24.018816 214.827728 16.900942
v -23.799999 214.498032 14.292921
v -23.799999 215.105057 17.166805
v -24.018816 214.363770 14.655942
v -24.018816 214.744965 17.015604
v -23.799999 215.009293 17.291269
v -23.799999 214.629639 14.378619
v -24.018816 214.478424 14.738710
v -24.018816 214.652512 17.122616
v -23.799999 214.904068 17.407837
v -24.018816 214.551086 17.221163
v -26.621000 212.622025 14.630908
v -27.000000 212.632187 14.374101
v -27.000000 212.499939 14.449143
v -26.621000 214.921707 15.282668
v -27.000000 215.173431 15.307363
v -27.000000 215.109573 15.169364
v -26.621000 212.505035 14.710346
v -26.621000 214.852768 15.159197
v -27.000000 212.374329 14.534852
v -27.000000 215.034531 15.037110
v -26.621000 214.773331 15.042203
v -27.000000 214.948822 14.911506
v -26.621000 214.683990 14.932578
v -27.000000 214.853027 14.793407
v -26.621000 214.441467 17.310495
v -27.000000 214.572159 17.485991
v -27.000000 214.690262 17.390203
v -26.621000 214.551086 17.221163
v -26.621000 214.585449 14.831157
v -27.000000 214.747818 14.683622
v -26.621000 214.652512 17.122616
v -27.000000 214.800049 17.284990
v -26.621000 214.478424 14.738710
v -27.000000 214.633896 14.582901
v -26.621000 214.744965 17.015604
v -27.000000 214.900772 17.171070
v -26.621000 214.363770 14.655942
v -27.000000 214.512054 14.491931
v -26.621000 214.827728 16.900942
v -27.000000 214.991745 17.049223
v -26.621000 214.242325 14.583482
v -27.000000 214.383102 14.411334
v -27.000000 215.072342 16.920279
v -26.621000 214.900192 16.779503
v -26.621000 214.115036 14.521882
v -27.000000 214.247940 14.341660
v -27.000000 215.142014 16.785120
v -26.621000 214.961792 16.652210
v -26.621000 213.982864 14.471611
v -27.000000 214.107498 14.283385
v -27.000000 215.200287 16.644669
v -26.621000 215.012054 16.520033
v -26.621000 213.846802 14.433051
v -27.000000 213.962708 14.236909
v -27.000000 215.246765 16.499886
v -26.621000 215.050613 16.383978
v -26.621000 213.707901 14.406496
v -27.000000 213.814590 14.202546
v -27.000000 215.281128 16.351757
v -26.621000 215.077179 16.245079
v -26.621000 213.567215 14.392147
v -27.000000 213.664124 14.180533
v -27.000000 215.303131 16.201298
v -26.621000 215.091522 16.104395
v -26.621000 213.425827 14.390115
v -27.000000 213.512360 14.171021
v -27.000000 215.312653 16.049536
v -26.621000 215.093552 15.962996
v -27.000000 213.360336 14.174074
v -26.621000 213.284790 14.400414
v -27.000000 215.309601 15.897506
v -26.621000 215.083252 15.821958
v -27.000000 213.209076 14.189671
v -26.621000 213.145187 14.422967
v -27.000000 215.294006 15.746247
v -26.621000 215.060699 15.682353
v -27.000000 213.059616 14.217705
v -26.621000 213.008072 14.457601
v -27.000000 215.265961 15.596793
v -26.621000 215.026062 15.545246
v -27.000000 212.912994 14.257984
v -26.621000 212.874512 14.504052
v -27.000000 215.225677 15.450164
v -26.621000 214.979614 15.411678
v -27.000000 212.770187 14.310236
v -26.621000 212.745499 14.561968
v -24.230667 212.237823 19.678934
v -24.244003 211.685745 19.469994
v -23.799999 212.176163 18.853519
v -23.799999 212.357254 18.929354
v -23.799999 212.542725 18.993668
v -24.329113 211.873154 19.721622
v -24.148144 212.605118 19.635941
v -24.234278 209.669922 16.763237
v -23.799999 210.377731 16.438667
v -23.799999 210.410736 16.632193
v -23.799999 212.731888 19.046209
v -24.245579 209.581161 16.197443
v -24.329113 209.459198 16.480297
v -24.230667 210.913940 13.106257
v -23.799999 211.606689 13.504107
v -23.799999 211.453003 13.626255
v -24.097954 212.883286 19.603378
v -23.799999 212.923965 19.086769
v -24.153652 209.883118 17.049513
v -23.799999 210.455811 16.823261
v -24.329113 211.059296 12.769094
v -24.148144 210.767517 13.445843
v -23.799999 211.307297 13.757812
v -23.799999 211.170120 13.898258
v -24.059080 213.163681 19.570557
v -23.799999 213.118210 19.115189
v -23.799999 213.313873 19.131353
v -24.101974 210.051758 17.275948
v -23.799999 210.512802 17.011124
v -23.799999 210.581482 17.195038
v -24.097954 210.656631 13.703027
v -23.799999 211.042038 14.047041
v -24.033278 213.433319 19.538992
v -24.061895 210.220856 17.503012
v -23.799999 210.661575 17.374275
v -23.799999 213.510147 19.135202
v -24.059080 210.544861 13.962258
v -23.799999 210.923553 14.203571
v -24.034979 210.383530 17.721434
v -23.799999 210.752762 17.548130
v -24.019146 213.704178 19.507286
v -23.799999 213.706284 19.126720
v -24.033278 210.437378 14.211561
v -23.799999 210.815140 14.367233
v -23.799999 210.717209 14.537380
v -24.016941 213.951202 19.478371
v -23.799999 213.901489 19.105938
v -23.799999 214.095016 19.072941
v -24.019840 210.546707 17.940536
v -23.799999 210.854675 17.715918
v -23.799999 210.966934 17.876974
v -24.019146 210.329407 14.461986
v -23.799999 210.630157 14.713341
v -24.025093 214.197189 19.449577
v -23.799999 214.286087 19.027857
v -24.016695 210.694275 18.138687
v -23.799999 211.089081 18.030663
v -24.016941 210.230942 14.690361
v -23.799999 210.554321 14.894420
v -24.044598 214.457169 19.419144
v -23.799999 214.473953 18.970863
v -24.023834 210.842453 18.337658
v -23.799999 211.220642 18.176380
v -24.025093 210.132889 14.917791
v -23.799999 210.490005 15.079903
v -23.799999 210.437454 15.269058
v -24.074619 214.715668 19.388885
v -23.799999 214.657867 18.902187
v -24.041834 210.996719 18.544790
v -23.799999 211.361084 18.313547
v -24.118484 214.995468 19.356131
v -23.799999 214.837097 18.822098
v -24.044598 210.029251 15.158165
v -23.799999 210.396896 15.461141
v -23.799999 215.010956 18.730913
v -24.070105 211.150406 18.751162
v -23.799999 211.509872 18.441628
v -23.799999 211.666397 18.560112
v -24.074619 209.926208 15.397152
v -23.799999 210.368484 15.655390
v -24.173170 215.273743 19.323557
v -23.799999 215.178741 18.628990
v -24.114315 211.324448 18.984850
v -23.799999 211.830063 18.668533
v -24.245579 215.581253 19.287560
v -23.799999 215.339798 18.516735
v -24.118484 209.814667 15.655851
v -23.799999 210.352310 15.851040
v -24.170050 211.496521 19.215910
v -23.799999 212.000214 18.766464
v -24.329113 215.887192 19.251747
v -24.173170 209.703751 15.913123
v -23.799999 210.348465 16.047319
v -23.799999 210.356949 16.243454
v -26.569334 209.604568 16.143133
v -27.000000 210.356949 16.243454
v -27.000000 210.348465 16.047319
v -27.000000 210.377731 16.438667
v -26.555252 209.644989 16.729752
v -26.470886 209.459198 16.480297
v -26.567663 211.657913 19.432617
v -27.000000 212.176163 18.853519
v -27.000000 212.000214 18.766464
v -26.554420 212.179077 19.685812
v -26.651857 209.750992 15.803549
v -27.000000 210.352310 15.851040
v -26.470886 211.873154 19.721622
v -26.569334 215.522522 19.294436
v -27.000000 215.339798 18.516735
v -27.000000 215.178741 18.628990
v -26.702047 209.861877 15.546365
v -27.000000 210.368484 15.655390
v -26.470886 215.887192 19.251747
v -26.649441 211.440216 19.140308
v -27.000000 211.830063 18.668533
v -26.651857 215.155228 19.337431
v -27.000000 215.010956 18.730913
v -27.000000 214.837097 18.822098
v -26.740919 209.973648 15.287132
v -27.000000 210.396896 15.461141
v -27.000000 210.437454 15.269058
v -26.700024 211.273224 18.916077
v -27.000000 211.666397 18.560112
v -27.000000 211.509872 18.441628
v -26.702047 214.877045 19.369993
v -27.000000 214.657867 18.902187
v -26.766722 210.081131 15.037829
v -27.000000 210.490005 15.079903
v -26.739439 211.104324 18.689289
v -27.000000 211.361084 18.313547
v -26.740919 214.596664 19.402815
v -27.000000 214.473953 18.970863
v -26.765831 210.941422 18.470541
v -27.000000 211.220642 18.176380
v -26.780853 210.189102 14.787406
v -27.000000 210.554321 14.894420
v -26.766722 214.327026 19.434378
v -27.000000 214.286087 19.027857
v -27.000000 214.095016 19.072941
v -26.783058 210.287567 14.559031
v -27.000000 210.630157 14.713341
v -27.000000 210.717209 14.537380
v -26.780512 210.778183 18.251350
v -27.000000 211.089081 18.030663
v -27.000000 210.966934 17.876974
v -26.780853 214.056168 19.466085
v -27.000000 213.901489 19.105938
v -26.774906 210.385620 14.331600
v -27.000000 210.815140 14.367233
v -26.783175 210.629364 18.051523
v -27.000000 210.854675 17.715918
v -26.783058 213.809143 19.494999
v -27.000000 213.706284 19.126720
v -26.755404 210.489258 14.091226
v -27.000000 210.923553 14.203571
v -26.775524 210.481094 17.852430
v -27.000000 210.752762 17.548130
v -26.774906 213.563156 19.523794
v -27.000000 213.510147 19.135202
v -27.000000 213.313873 19.131353
v -26.725380 210.592300 13.852239
v -27.000000 211.042038 14.047041
v -26.757002 210.327103 17.645674
v -27.000000 210.661575 17.374275
v -26.755404 213.303177 19.554228
v -26.681515 210.703842 13.593540
v -27.000000 211.170120 13.898258
v -27.000000 211.307297 13.757812
v -27.000000 213.118210 19.115189
v -26.728121 210.173569 17.439516
v -27.000000 210.581482 17.195038
v -27.000000 210.512802 17.011124
v -26.725380 213.044678 19.584486
v -27.000000 212.923965 19.086769
v -26.626829 210.814758 13.336268
v -27.000000 211.453003 13.626255
v -26.684225 210.002930 17.210381
v -27.000000 210.455811 16.823261
v -26.554420 210.937347 13.051948
v -27.000000 211.606689 13.504107
v -26.681515 212.764877 19.617241
v -27.000000 212.731888 19.046209
v -26.628798 209.832809 16.981947
v -27.000000 210.410736 16.632193
v -26.470886 211.059296 12.769094
v -26.626829 212.486603 19.649813
v -27.000000 212.542725 18.993668
v -27.000000 212.357254 18.929354
v -24.230667 216.032562 18.914585
v -24.148144 216.178970 18.575001
v -26.626829 216.131729 18.684574
v -26.554420 216.009140 18.968895
v -24.245579 217.365341 15.823399
v -24.329113 217.487289 15.540545
v -26.470886 217.487289 15.540545
v -26.569334 217.341919 15.877708
v -24.173170 217.242752 16.107719
v -26.651857 217.195511 16.217293
v -24.118484 217.131836 16.364990
v -26.702047 217.084625 16.474478
v -24.074619 217.020294 16.623690
v -26.740919 216.972855 16.733709
v -24.044598 216.917252 16.862677
v -26.766722 216.865372 16.983013
v -24.025093 216.813614 17.103052
v -26.780853 216.757401 17.233437
v -24.016941 216.715561 17.330482
v -26.783058 216.658936 17.461811
v -24.019146 216.617096 17.558857
v -26.774906 216.560867 17.689243
v -24.033278 216.509125 17.809280
v -26.755404 216.457230 17.929617
v -24.059080 216.401627 18.058584
v -26.725380 216.354202 18.168604
v -24.097954 216.289856 18.317816
v -26.681515 216.242661 18.427303
v -24.232338 217.272064 15.251539
v -26.629950 217.110672 15.034833
v -26.555996 217.299896 15.288918
v -24.150560 217.054367 14.959231
v -24.244747 215.259125 12.548675
v -24.329113 215.073349 12.299219
v -26.470886 215.073349 12.299219
v -26.565722 215.284058 12.582160
v -24.171202 215.446945 12.800869
v -26.646347 215.497269 12.868437
v -24.115774 215.617065 13.029303
v -26.698027 215.665894 13.094871
v -24.071880 215.787720 13.258438
v -26.738104 215.835007 13.321935
v -24.042997 215.941254 13.464596
v -26.765020 215.997665 13.540356
v -24.024475 216.095230 13.671353
v -26.780159 216.160843 13.759459
v -24.016825 216.243500 13.870446
v -26.783304 216.308411 13.957610
v -24.019487 216.392319 14.070272
v -26.776167 216.456604 14.156582
v -24.034170 216.555557 14.289463
v -26.758167 216.610855 14.363713
v -24.060560 216.718475 14.508211
v -26.729895 216.764557 14.570085
v -24.099977 216.887375 14.734999
v -26.685686 216.938583 14.803774
v -24.230667 214.708664 12.341908
v -24.148144 214.341370 12.384902
v -26.626829 214.459885 12.371029
v -26.554420 214.767410 12.335032
v -24.245579 211.365234 12.733283
v -26.569334 211.423981 12.726406
v -24.173170 211.672760 12.697285
v -26.651857 211.791275 12.683412
v -24.118484 211.951019 12.664712
v -26.702047 212.069443 12.650849
v -24.074619 212.230835 12.631958
v -26.740919 212.349838 12.618028
v -24.044598 212.489319 12.601700
v -26.766722 212.619476 12.586464
v -24.025093 212.749313 12.571266
v -26.780853 212.890335 12.554758
v -24.016941 212.995300 12.542471
v -26.783058 213.137344 12.525843
v -24.019146 213.242310 12.513556
v -26.774906 213.383331 12.497048
v -24.033278 213.513168 12.481850
v -26.755404 213.643326 12.466615
v -24.059080 213.782822 12.450286
v -26.725380 213.901810 12.436357
v -24.097954 214.063202 12.417464
v -26.681515 214.181625 12.403603
v -27.000000 211.836929 16.851479
v -27.000000 211.911972 16.983732
v -27.000000 215.639206 18.263031
v -27.000000 215.776382 18.122583
v -27.000000 211.997681 17.109337
v -27.000000 215.493484 18.394587
v -27.000000 212.093460 17.227436
v -27.000000 214.446564 17.571699
v -27.000000 212.198685 17.337219
v -27.000000 214.314301 17.646742
v -27.000000 214.022522 12.934073
v -27.000000 213.828278 12.905654
v -27.000000 213.632629 12.889488
v -27.000000 212.312592 17.437941
v -27.000000 214.176300 17.710608
v -27.000000 214.214615 12.974633
v -27.000000 214.403763 13.027175
v -27.000000 213.436356 12.885639
v -27.000000 212.434448 17.528912
v -27.000000 214.033508 17.762857
v -27.000000 214.589249 13.091489
v -27.000000 212.563385 17.609509
v -27.000000 213.886871 17.803139
v -27.000000 213.240219 12.894122
v -27.000000 212.698547 17.679182
v -27.000000 213.044998 12.914904
v -27.000000 212.851471 12.947902
v -27.000000 213.737427 17.831173
v -27.000000 214.946289 13.254377
v -27.000000 214.770325 13.167323
v -27.000000 212.839005 17.737457
v -27.000000 213.586166 17.846769
v -27.000000 212.660400 12.992986
v -27.000000 212.983780 17.783934
v -27.000000 213.434128 17.849821
v -27.000000 213.282364 17.840309
v -27.000000 215.116440 13.352309
v -27.000000 213.131912 17.818296
v -27.000000 215.280090 13.460731
v -27.000000 212.472549 13.049979
v -27.000000 215.585419 13.707294
v -27.000000 215.436630 13.579215
v -27.000000 212.288635 13.118655
v -27.000000 212.109390 13.198745
v -27.000000 211.935532 13.289929
v -27.000000 215.725861 13.844462
v -27.000000 215.857422 13.990179
v -27.000000 211.767746 13.391851
v -27.000000 216.091812 14.304925
v -27.000000 215.979568 14.143868
v -27.000000 216.193741 14.472712
v -27.000000 212.256241 14.630639
v -27.000000 216.284927 14.646567
v -27.000000 212.146454 14.735852
v -27.000000 216.433685 15.009718
v -27.000000 216.365021 14.825805
v -27.000000 212.045731 14.849771
v -27.000000 216.490677 15.197580
v -27.000000 211.954758 14.971620
v -27.000000 216.535767 15.388651
v -27.000000 211.874161 15.100563
v -27.000000 216.589554 15.777389
v -27.000000 216.568771 15.582174
v -27.000000 211.804489 15.235723
v -27.000000 216.598038 15.973523
v -27.000000 211.746216 15.376174
v -27.000000 216.594177 16.169802
v -27.000000 211.699738 15.520958
v -27.000000 216.578018 16.365454
v -27.000000 211.665375 15.669085
v -27.000000 211.643356 15.819544
v -27.000000 216.549591 16.559702
v -27.000000 211.633850 15.971307
v -27.000000 216.509033 16.751783
v -27.000000 211.636902 16.123337
v -27.000000 216.456497 16.940939
v -27.000000 211.652496 16.274595
v -27.000000 216.392181 17.126423
v -27.000000 216.316345 17.307503
v -27.000000 211.680527 16.424049
v -27.000000 216.229294 17.483461
v -27.000000 211.720810 16.570679
v -27.000000 216.131363 17.653608
v -27.000000 211.773056 16.713480
v -27.000000 216.022934 17.817270
v -27.000000 215.904449 17.973801
v -23.799999 211.702087 16.939381
v -23.799999 211.780426 17.075481
v -23.799999 215.639206 18.263031
v -23.799999 215.776382 18.122583
v -23.799999 211.869202 17.205015
v -23.799999 215.493484 18.394587
v -23.799999 211.967880 17.327185
v -23.799999 214.538315 17.703243
v -23.799999 212.075836 17.441235
v -23.799999 214.402206 17.781590
v -23.799999 212.192398 17.546463
v -23.799999 213.828278 12.905654
v -23.799999 214.022522 12.934073
v -23.799999 213.632629 12.889488
v -23.799999 214.260376 17.849014
v -23.799999 212.316864 17.642223
v -23.799999 214.113693 17.905104
v -23.799999 214.214615 12.974633
v -23.799999 213.436356 12.885639
v -23.799999 213.240219 12.894122
v -23.799999 212.448456 17.727921
v -23.799999 214.403763 13.027175
v -23.799999 214.589249 13.091489
v -23.799999 213.963074 17.949512
v -23.799999 213.044998 12.914904
v -23.799999 212.586365 17.803032
v -23.799999 213.809418 17.981966
v -23.799999 214.770325 13.167323
v -23.799999 212.729752 17.867088
v -23.799999 213.653702 18.002264
v -23.799999 212.851471 12.947902
v -23.799999 212.877716 17.919699
v -23.799999 213.496857 18.010283
v -23.799999 214.946289 13.254377
v -23.799999 212.660400 12.992986
v -23.799999 213.029358 17.960539
v -23.799999 213.339890 18.005970
v -23.799999 213.183731 17.989355
v -23.799999 215.116440 13.352309
v -23.799999 212.472549 13.049979
v -23.799999 212.288635 13.118655
v -23.799999 215.280090 13.460731
v -23.799999 215.436630 13.579215
v -23.799999 212.109390 13.198745
v -23.799999 215.585419 13.707294
v -23.799999 211.935532 13.289929
v -23.799999 215.725861 13.844462
v -23.799999 211.767746 13.391851
v -23.799999 215.857422 13.990179
v -23.799999 215.979568 14.143868
v -23.799999 216.091812 14.304925
v -23.799999 212.156479 14.505052
v -23.799999 216.193741 14.472712
v -23.799999 212.042435 14.613005
v -23.799999 216.284927 14.646567
v -23.799999 211.937210 14.729572
v -23.799999 216.365021 14.825805
v -23.799999 211.841446 14.854037
v -23.799999 216.433685 15.009718
v -23.799999 216.490677 15.197580
v -23.799999 211.755753 14.985632
v -23.799999 216.535767 15.388651
v -23.799999 211.680634 15.123545
v -23.799999 216.568771 15.582174
v -23.799999 211.616577 15.266925
v -23.799999 216.589554 15.777389
v -23.799999 211.563965 15.414889
v -23.799999 216.598038 15.973523
v -23.799999 216.594177 16.169802
v -23.799999 211.523132 15.566525
v -23.799999 216.578018 16.365454
v -23.799999 211.494308 15.720899
v -23.799999 216.549591 16.559702
v -23.799999 211.477707 15.877056
v -23.799999 216.509033 16.751783
v -23.799999 211.473389 16.034037
v -23.799999 216.456497 16.940939
v -23.799999 211.481400 16.190870
v -23.799999 216.392181 17.126423
v -23.799999 211.501709 16.346592
v -23.799999 216.316345 17.307503
v -23.799999 211.534164 16.500242
v -23.799999 216.229294 17.483461
v -23.799999 211.578568 16.650871
v -23.799999 216.131363 17.653608
v -23.799999 216.022934 17.817270
v -23.799999 211.634659 16.797552
v -23.799999 215.904449 17.973801
v -26.621000 212.831467 17.498960
v -26.621000 212.963638 17.549231
v -24.018816 212.831467 17.498960
v -24.018816 212.704163 17.437361
v -26.621000 211.895874 15.636865
v -26.621000 211.869324 15.775763
v -24.018816 211.895874 15.636865
v -24.018816 211.869324 15.775763
v -26.621000 212.704163 17.437361
v -24.018816 212.582733 17.364901
v -26.621000 211.934433 15.500809
v -24.018816 211.934433 15.500809
v -26.621000 212.582733 17.364901
v -24.018816 211.984711 15.368632
v -24.018816 212.468063 17.282131
v -24.018816 214.324478 17.389935
v -26.621000 211.984711 15.368632
v -26.621000 212.468063 17.282131
v -24.018816 212.046310 15.241340
v -26.621000 214.324478 17.389935
v -24.018816 212.361053 17.189686
v -26.621000 212.046310 15.241340
v -26.621000 212.361053 17.189686
v -24.018816 212.118774 15.119901
v -26.621000 214.201004 17.458874
v -24.018816 214.201004 17.458874
v -26.621000 212.118774 15.119901
v -24.018816 212.262512 17.088264
v -24.018816 212.201538 15.005239
v -26.621000 212.262512 17.088264
v -26.621000 212.201538 15.005239
v -24.018816 212.293991 14.898227
v -26.621000 214.071991 17.516790
v -24.018816 214.071991 17.516790
v -26.621000 212.293991 14.898227
v -26.621000 212.173172 16.978640
v -24.018816 212.173172 16.978640
v -24.018816 212.395401 14.799679
v -24.018816 213.938431 17.563242
v -26.621000 212.395401 14.799679
v -26.621000 213.938431 17.563242
v -26.621000 212.093735 16.861647
v -24.018816 212.093735 16.861647
v -24.018816 213.801315 17.597876
v -26.621000 213.801315 17.597876
v -26.621000 212.024796 16.738174
v -24.018816 212.024796 16.738174
v -24.018816 213.661713 17.620428
v -26.621000 211.966873 16.609163
v -24.018816 211.966873 16.609163
v -26.621000 213.661713 17.620428
v -24.018816 213.520676 17.630728
v -24.018816 211.920425 16.475597
v -26.621000 211.920425 16.475597
v -26.621000 213.520676 17.630728
v -24.018816 213.379272 17.628695
v -26.621000 211.885788 16.338490
v -24.018816 211.885788 16.338490
v -26.621000 213.379272 17.628695
v -24.018816 211.863235 16.198885
v -24.018816 213.238586 17.614347
v -26.621000 211.863235 16.198885
v -26.621000 213.238586 17.614347
v -24.018816 213.099686 17.587791
v -26.621000 211.852936 16.057846
v -24.018816 211.852936 16.057846
v -26.621000 213.099686 17.587791
v -24.018816 212.963638 17.549231
v -26.621000 211.854980 15.916447
v -24.018816 211.854980 15.916447
f 1 2 3
f 4 1 3
f 5 6 7
f 4 3 8
f 9 4 8
f 9 8 10
f 11 12 13
f 14 9 15
f 16 11 13
f 9 10 15
f 14 15 17
f 18 16 19
f 20 14 17
f 16 13 19
f 21 20 22
f 23 18 24
f 20 17 22
f 18 19 24
f 25 21 26
f 21 22 26
f 27 23 28
f 23 24 28
f 29 25 30
f 25 26 30
f 31 27 32
f 27 28 32
f 33 29 34
f 29 30 34
f 31 32 35
f 36 31 35
f 37 33 38
f 33 34 38
f 39 37 40
f 36 35 41
f 42 36 41
f 37 38 40
f 42 41 43
f 44 42 43
f 39 40 45
f 46 39 45
f 44 43 47
f 48 44 47
f 46 45 49
f 48 47 50
f 46 49 51
f 52 46 51
f 48 50 53
f 54 48 53
f 52 51 55
f 56 52 55
f 54 53 57
f 58 54 57
f 56 55 59
f 60 56 59
f 58 57 61
f 62 58 61
f 60 59 63
f 64 60 63
f 62 61 65
f 66 62 65
f 64 63 67
f 68 64 67
f 66 65 69
f 68 67 70
f 71 66 69
f 72 68 70
f 72 70 73
f 71 69 74
f 75 71 74
f 76 72 73
f 76 73 77
f 78 76 77
f 75 74 2
f 1 75 2
f 78 77 6
f 5 78 6
f 79 80 81
f 82 83 84
f 85 79 81
f 86 82 84
f 85 81 87
f 86 84 88
f 89 86 88
f 89 88 90
f 91 89 92
f 93 94 95
f 89 90 92
f 96 93 95
f 97 91 98
f 91 92 98
f 99 96 100
f 96 95 100
f 101 97 102
f 103 99 104
f 97 98 102
f 99 100 104
f 105 101 106
f 107 103 108
f 101 102 106
f 103 104 108
f 109 105 110
f 107 108 111
f 105 106 110
f 112 107 111
f 113 109 114
f 109 110 114
f 112 111 115
f 116 112 115
f 117 113 118
f 113 114 118
f 116 115 119
f 120 116 119
f 121 117 122
f 117 118 122
f 120 119 123
f 124 120 123
f 125 121 126
f 121 122 126
f 124 123 127
f 128 124 127
f 129 125 130
f 125 126 130
f 128 127 131
f 132 128 131
f 133 129 134
f 132 131 135
f 136 132 135
f 129 130 134
f 133 134 137
f 138 133 137
f 136 135 139
f 140 136 139
f 138 137 141
f 142 138 141
f 140 139 143
f 144 140 143
f 142 141 145
f 146 142 145
f 144 143 147
f 148 144 147
f 146 145 149
f 150 146 149
f 148 147 151
f 152 148 151
f 150 149 153
f 154 150 153
f 152 151 83
f 82 152 83
f 154 153 80
f 79 154 80
f 155 156 157
f 155 157 158
f 155 158 159
f 155 160 156
f 161 155 159
f 162 163 164
f 161 159 165
f 162 166 163
f 162 167 166
f 168 169 170
f 171 161 165
f 171 165 172
f 173 164 174
f 168 175 169
f 176 170 177
f 173 162 164
f 176 168 170
f 176 177 178
f 179 171 172
f 179 172 180
f 179 180 181
f 182 174 183
f 182 183 184
f 185 178 186
f 182 173 174
f 187 179 181
f 188 184 189
f 185 176 178
f 187 181 190
f 188 182 184
f 191 186 192
f 191 185 186
f 193 189 194
f 195 190 196
f 195 187 190
f 193 188 189
f 197 191 192
f 197 192 198
f 197 198 199
f 200 196 201
f 200 201 202
f 200 195 196
f 203 194 204
f 203 204 205
f 203 193 194
f 206 199 207
f 208 202 209
f 206 197 199
f 208 200 202
f 210 205 211
f 210 203 205
f 212 207 213
f 214 209 215
f 212 206 207
f 214 208 209
f 216 211 217
f 216 210 211
f 218 213 219
f 218 219 220
f 221 215 222
f 221 214 215
f 218 212 213
f 223 217 224
f 223 216 217
f 225 222 226
f 227 220 228
f 225 226 229
f 227 218 220
f 230 223 224
f 225 221 222
f 230 224 231
f 230 231 232
f 233 228 234
f 235 229 236
f 237 230 232
f 233 227 228
f 237 232 238
f 235 225 229
f 239 236 240
f 241 234 242
f 239 235 236
f 241 233 234
f 243 237 238
f 243 238 244
f 243 244 157
f 245 239 240
f 246 242 247
f 246 247 248
f 246 241 242
f 156 243 157
f 166 248 163
f 166 246 248
f 249 250 251
f 249 252 250
f 249 253 252
f 249 254 253
f 255 256 257
f 255 258 256
f 259 251 260
f 255 261 258
f 259 249 251
f 262 263 264
f 265 260 266
f 262 267 263
f 265 259 260
f 268 257 269
f 268 255 257
f 270 262 264
f 270 271 272
f 270 264 271
f 273 274 275
f 273 266 274
f 276 277 278
f 273 265 266
f 276 269 277
f 276 268 269
f 279 270 272
f 279 272 280
f 281 275 282
f 281 273 275
f 283 278 284
f 283 276 278
f 285 279 280
f 285 280 286
f 287 284 288
f 289 281 282
f 287 283 284
f 289 282 290
f 291 285 286
f 291 292 293
f 294 295 296
f 291 286 292
f 294 290 295
f 294 289 290
f 297 298 299
f 297 288 298
f 297 287 288
f 300 291 293
f 300 293 301
f 302 296 303
f 302 294 296
f 304 299 305
f 304 297 299
f 306 300 301
f 306 301 307
f 308 303 309
f 310 305 311
f 308 302 303
f 310 304 305
f 312 306 307
f 312 313 314
f 312 307 313
f 315 309 316
f 315 308 309
f 317 311 318
f 317 310 311
f 319 312 314
f 320 321 322
f 319 314 323
f 320 316 321
f 324 325 326
f 324 318 325
f 320 315 316
f 324 317 318
f 327 323 328
f 327 319 323
f 329 322 330
f 331 324 326
f 331 326 332
f 329 320 322
f 333 330 334
f 335 327 328
f 335 328 336
f 333 329 330
f 337 331 332
f 337 338 252
f 337 332 338
f 339 333 334
f 340 341 342
f 340 336 341
f 340 335 336
f 253 337 252
f 258 342 256
f 258 340 342
f 132 39 46
f 113 117 62
f 113 62 66
f 124 128 52
f 128 46 52
f 109 113 66
f 109 66 71
f 120 124 56
f 124 52 56
f 105 109 71
f 120 56 60
f 105 71 75
f 85 11 16
f 116 120 60
f 101 105 75
f 116 60 64
f 79 85 16
f 101 75 1
f 112 116 64
f 97 101 1
f 112 64 68
f 154 79 18
f 79 16 18
f 107 112 68
f 97 1 4
f 107 68 72
f 91 97 4
f 103 107 72
f 103 72 76
f 150 154 23
f 154 18 23
f 99 103 76
f 89 91 9
f 91 4 9
f 99 76 78
f 150 23 27
f 96 99 78
f 96 78 5
f 93 96 5
f 146 150 27
f 86 89 14
f 89 9 14
f 146 27 31
f 142 146 31
f 82 86 20
f 86 14 20
f 142 31 36
f 152 82 21
f 138 142 36
f 82 20 21
f 138 36 42
f 148 152 25
f 152 21 25
f 133 138 42
f 148 25 29
f 133 42 44
f 144 148 29
f 129 133 44
f 129 44 48
f 140 144 33
f 144 29 33
f 125 129 48
f 125 48 54
f 136 140 37
f 140 33 37
f 121 125 54
f 121 54 58
f 132 136 39
f 136 37 39
f 117 121 58
f 117 58 62
f 128 132 46
f 343 344 345
f 245 346 267
f 245 343 346
f 347 348 349
f 347 349 350
f 351 350 352
f 351 347 350
f 353 352 354
f 353 351 352
f 355 354 356
f 355 353 354
f 357 356 358
f 357 355 356
f 359 358 360
f 359 357 358
f 361 360 362
f 361 359 360
f 363 362 364
f 363 361 362
f 365 364 366
f 365 363 364
f 367 366 368
f 367 365 366
f 369 368 370
f 369 367 368
f 344 370 345
f 344 369 370
f 343 345 346
f 371 372 373
f 371 374 372
f 348 373 349
f 348 371 373
f 375 376 377
f 375 377 378
f 379 378 380
f 379 375 378
f 381 380 382
f 381 379 380
f 383 382 384
f 383 381 382
f 385 384 386
f 385 383 384
f 387 386 388
f 387 385 386
f 389 388 390
f 389 387 388
f 391 390 392
f 391 389 390
f 393 392 394
f 393 391 392
f 395 394 396
f 395 393 394
f 397 396 398
f 397 395 396
f 374 398 372
f 374 397 398
f 399 400 401
f 376 402 377
f 376 399 402
f 403 175 339
f 403 339 404
f 405 404 406
f 405 403 404
f 407 406 408
f 407 405 406
f 409 408 410
f 409 407 408
f 411 410 412
f 411 409 410
f 413 412 414
f 413 411 412
f 415 414 416
f 415 413 414
f 417 416 418
f 417 415 416
f 419 418 420
f 419 417 418
f 421 420 422
f 421 419 420
f 423 422 424
f 423 421 422
f 400 424 401
f 400 423 424
f 399 401 402
f 168 329 333
f 168 176 329
f 175 333 339
f 175 168 333
f 166 167 254
f 166 254 249
f 246 249 259
f 246 166 249
f 241 259 265
f 241 246 259
f 233 265 273
f 233 241 265
f 227 273 281
f 227 233 273
f 218 281 289
f 218 227 281
f 212 289 294
f 212 218 289
f 206 294 302
f 206 212 294
f 197 302 308
f 197 206 302
f 191 308 315
f 191 197 308
f 185 315 320
f 185 191 315
f 176 320 329
f 176 185 320
f 243 268 237
f 156 261 255
f 156 255 243
f 160 261 156
f 167 253 254
f 162 337 253
f 162 253 167
f 173 331 337
f 173 337 162
f 182 324 331
f 182 331 173
f 188 317 324
f 188 324 182
f 193 310 317
f 193 317 188
f 203 304 310
f 203 310 193
f 210 297 304
f 210 304 203
f 216 287 297
f 216 297 210
f 223 283 287
f 223 287 216
f 230 276 283
f 230 283 223
f 237 268 276
f 237 276 230
f 243 255 268
f 155 161 340
f 160 258 261
f 160 155 258
f 239 245 267
f 239 267 262
f 235 262 270
f 235 239 262
f 225 270 279
f 225 235 270
f 221 279 285
f 221 225 279
f 214 285 291
f 214 221 285
f 208 291 300
f 208 214 291
f 200 300 306
f 200 208 300
f 195 306 312
f 195 200 306
f 187 312 319
f 187 195 312
f 179 319 327
f 179 187 319
f 171 327 335
f 171 179 327
f 161 335 340
f 161 171 335
f 155 340 258
f 425 318 311
f 426 425 311
f 100 95 427
f 428 100 427
f 429 426 305
f 426 311 305
f 427 95 430
f 95 94 430
f 429 305 299
f 430 94 263
f 431 429 298
f 429 299 298
f 94 432 264
f 263 94 264
f 433 431 288
f 431 298 288
f 432 434 271
f 435 436 130
f 436 437 130
f 264 432 271
f 433 288 284
f 438 433 284
f 434 439 272
f 271 434 272
f 440 435 126
f 435 130 126
f 438 284 278
f 441 440 122
f 440 126 122
f 272 439 280
f 130 437 134
f 437 442 134
f 443 438 277
f 438 278 277
f 439 444 286
f 280 439 286
f 443 277 269
f 445 441 118
f 446 443 269
f 441 122 118
f 286 444 292
f 444 447 292
f 442 448 137
f 446 269 257
f 449 446 257
f 134 442 137
f 448 450 141
f 292 447 293
f 450 451 141
f 447 452 293
f 449 257 256
f 137 448 141
f 293 452 301
f 453 454 114
f 454 445 114
f 449 256 342
f 445 118 114
f 455 449 342
f 452 456 307
f 451 457 145
f 301 452 307
f 455 342 341
f 458 455 341
f 307 456 313
f 456 459 313
f 141 451 145
f 313 459 314
f 459 460 314
f 461 453 110
f 458 341 336
f 453 114 110
f 462 458 336
f 462 336 328
f 460 462 328
f 463 461 106
f 314 460 323
f 460 328 323
f 461 110 106
f 457 464 149
f 145 457 149
f 465 466 102
f 466 463 102
f 463 106 102
f 464 467 153
f 467 468 153
f 149 464 153
f 468 469 80
f 153 468 80
f 470 465 98
f 465 102 98
f 471 470 92
f 470 98 92
f 469 472 81
f 80 469 81
f 473 474 90
f 474 471 90
f 471 92 90
f 472 334 87
f 334 330 87
f 81 472 87
f 473 90 88
f 475 473 88
f 330 322 476
f 87 330 476
f 475 88 84
f 477 475 84
f 322 321 478
f 476 322 478
f 477 84 83
f 479 480 83
f 480 477 83
f 321 316 481
f 316 309 481
f 478 321 481
f 479 83 151
f 482 479 151
f 309 303 483
f 481 309 483
f 482 151 147
f 484 482 147
f 303 296 485
f 483 303 485
f 484 147 143
f 486 487 143
f 487 484 143
f 485 296 488
f 296 295 488
f 295 290 488
f 486 143 139
f 489 486 139
f 488 290 490
f 290 282 490
f 489 139 135
f 491 489 135
f 282 275 492
f 490 282 492
f 491 135 131
f 493 491 131
f 275 274 494
f 492 275 494
f 493 131 127
f 494 274 266
f 495 494 266
f 493 127 496
f 495 266 260
f 497 495 260
f 127 123 498
f 496 127 498
f 499 497 251
f 497 260 251
f 123 119 500
f 498 123 500
f 501 499 250
f 499 251 250
f 119 115 502
f 500 119 502
f 501 250 252
f 502 115 503
f 504 501 338
f 501 252 338
f 115 111 505
f 503 115 505
f 504 338 332
f 506 504 332
f 111 108 507
f 505 111 507
f 506 332 326
f 508 506 326
f 108 104 509
f 507 108 509
f 508 326 325
f 509 104 510
f 508 325 318
f 425 508 318
f 510 104 428
f 104 100 428
f 194 189 511
f 194 511 512
f 513 6 77
f 513 77 514
f 204 194 512
f 204 512 515
f 516 7 6
f 516 6 513
f 205 204 515
f 240 7 516
f 211 515 517
f 211 205 515
f 236 518 7
f 236 7 240
f 217 517 519
f 217 211 517
f 229 520 518
f 229 518 236
f 224 217 519
f 224 519 521
f 50 522 523
f 226 520 229
f 47 524 522
f 226 525 520
f 231 521 526
f 47 522 50
f 53 50 523
f 231 224 521
f 222 525 226
f 222 527 525
f 53 523 528
f 232 231 526
f 43 524 47
f 43 529 524
f 43 530 529
f 215 527 222
f 238 232 526
f 57 53 528
f 238 526 531
f 57 532 533
f 209 527 215
f 57 528 532
f 41 530 43
f 209 534 527
f 41 535 530
f 244 531 536
f 244 238 531
f 202 534 209
f 61 57 533
f 202 537 534
f 157 244 536
f 61 533 538
f 157 536 539
f 201 537 202
f 201 540 537
f 35 541 535
f 158 157 539
f 158 539 542
f 35 535 41
f 196 540 201
f 196 543 540
f 65 61 538
f 159 158 542
f 190 543 196
f 65 538 544
f 32 541 35
f 165 159 542
f 32 545 541
f 165 542 546
f 181 543 190
f 181 547 543
f 172 165 546
f 172 546 548
f 180 547 181
f 180 172 548
f 180 548 547
f 69 544 549
f 69 65 544
f 28 545 32
f 28 550 545
f 28 551 550
f 74 552 553
f 74 549 552
f 74 69 549
f 24 554 551
f 24 551 28
f 2 74 553
f 2 553 555
f 19 554 24
f 19 556 554
f 3 555 557
f 3 2 555
f 13 556 19
f 13 558 556
f 8 557 559
f 8 3 557
f 12 558 13
f 12 169 558
f 12 170 169
f 10 560 561
f 10 559 560
f 10 8 559
f 562 177 170
f 562 170 12
f 15 10 561
f 15 561 563
f 564 178 177
f 564 177 562
f 17 563 565
f 17 15 563
f 566 186 178
f 566 178 564
f 22 17 565
f 22 565 567
f 568 186 566
f 568 192 186
f 568 198 192
f 26 22 567
f 26 569 570
f 26 567 569
f 571 198 568
f 571 199 198
f 30 26 570
f 30 570 572
f 573 199 571
f 573 207 199
f 34 30 572
f 34 572 574
f 575 207 573
f 575 213 207
f 38 34 574
f 38 574 576
f 577 213 575
f 577 219 213
f 40 38 576
f 40 576 578
f 220 219 577
f 579 40 578
f 580 220 577
f 45 40 579
f 228 220 580
f 581 45 579
f 582 228 580
f 49 45 581
f 234 228 582
f 583 49 581
f 584 234 582
f 51 49 583
f 242 234 584
f 585 51 583
f 586 242 584
f 55 51 585
f 247 242 586
f 587 55 585
f 248 586 588
f 248 247 586
f 589 59 55
f 589 55 587
f 163 588 590
f 163 248 588
f 591 63 59
f 591 59 589
f 164 590 592
f 164 163 590
f 593 67 63
f 593 63 591
f 174 164 592
f 174 592 594
f 595 70 67
f 595 67 593
f 183 174 594
f 596 70 595
f 184 594 597
f 184 183 594
f 598 73 70
f 598 70 596
f 189 184 597
f 189 597 511
f 514 77 73
f 514 73 598
f 599 600 601
f 599 601 602
f 603 604 605
f 604 606 605
f 607 599 602
f 607 602 608
f 609 603 610
f 603 605 610
f 611 607 608
f 609 610 612
f 611 608 613
f 93 5 614
f 615 609 612
f 616 611 613
f 615 612 617
f 618 93 614
f 616 613 619
f 620 615 617
f 621 616 619
f 620 617 622
f 623 618 624
f 618 614 624
f 625 620 622
f 621 619 626
f 625 622 627
f 628 621 626
f 629 625 627
f 629 627 630
f 631 623 632
f 623 624 632
f 633 629 630
f 634 628 635
f 628 626 635
f 633 630 636
f 631 632 637
f 638 633 636
f 638 636 11
f 85 638 11
f 639 631 637
f 640 634 641
f 634 635 641
f 639 637 642
f 643 639 642
f 644 640 645
f 640 641 645
f 643 642 646
f 647 644 648
f 649 643 646
f 644 645 648
f 649 646 650
f 647 648 651
f 652 647 651
f 653 649 650
f 653 650 654
f 655 652 656
f 652 651 656
f 657 653 654
f 655 656 658
f 657 654 659
f 660 655 658
f 661 657 659
f 661 659 662
f 663 660 664
f 660 658 664
f 665 661 662
f 665 662 666
f 667 663 668
f 663 664 668
f 600 665 666
f 600 666 601
f 604 667 606
f 667 668 606
f 350 486 489
f 350 487 486
f 350 373 487
f 350 349 373
f 378 454 453
f 352 489 491
f 378 402 454
f 352 350 489
f 378 377 402
f 404 339 334
f 354 491 493
f 354 352 491
f 404 334 472
f 380 453 461
f 380 378 453
f 406 404 472
f 406 469 468
f 406 472 469
f 356 496 498
f 356 493 496
f 356 354 493
f 382 463 466
f 382 461 463
f 382 380 461
f 408 406 468
f 408 468 467
f 384 466 465
f 358 498 500
f 358 356 498
f 384 382 466
f 410 408 467
f 386 465 470
f 410 467 464
f 360 500 502
f 386 384 465
f 360 358 500
f 362 503 505
f 412 410 464
f 362 502 503
f 362 360 502
f 412 457 451
f 412 464 457
f 388 471 474
f 388 470 471
f 388 386 470
f 414 412 451
f 364 505 507
f 414 451 450
f 364 362 505
f 390 474 473
f 390 388 474
f 416 414 450
f 366 507 509
f 416 450 448
f 366 364 507
f 392 473 475
f 392 390 473
f 418 416 448
f 368 509 510
f 418 442 437
f 368 366 509
f 418 448 442
f 394 475 477
f 394 392 475
f 370 428 427
f 420 418 437
f 370 510 428
f 370 368 510
f 420 437 436
f 396 480 479
f 396 477 480
f 396 394 477
f 345 427 430
f 422 436 435
f 422 420 436
f 398 479 482
f 345 370 427
f 346 430 263
f 398 396 479
f 346 345 430
f 424 435 440
f 372 398 482
f 424 422 435
f 372 484 487
f 372 482 484
f 267 346 263
f 401 424 440
f 401 441 445
f 401 440 441
f 373 372 487
f 402 445 454
f 402 401 445
f 399 375 538
f 399 538 533
f 399 533 532
f 399 376 375
f 371 574 572
f 400 399 532
f 371 347 574
f 400 532 528
f 371 348 347
f 343 245 240
f 343 240 516
f 423 400 528
f 374 572 570
f 423 528 523
f 344 516 513
f 374 371 572
f 344 343 516
f 344 513 514
f 421 423 523
f 397 570 569
f 421 523 522
f 397 569 567
f 421 522 524
f 369 514 598
f 397 374 570
f 369 344 514
f 419 421 524
f 395 567 565
f 419 524 529
f 367 598 596
f 395 397 567
f 367 369 598
f 393 565 563
f 393 395 565
f 417 419 529
f 417 529 530
f 365 367 596
f 365 596 595
f 365 595 593
f 415 530 535
f 415 417 530
f 415 535 541
f 391 563 561
f 391 561 560
f 363 593 591
f 391 393 563
f 363 365 593
f 413 541 545
f 389 560 559
f 413 415 541
f 389 391 560
f 361 591 589
f 361 363 591
f 411 545 550
f 387 559 557
f 411 413 545
f 387 389 559
f 359 589 587
f 359 587 585
f 359 361 589
f 409 550 551
f 409 411 550
f 385 557 555
f 385 387 557
f 357 585 583
f 407 551 554
f 357 359 585
f 407 554 556
f 383 385 555
f 383 555 553
f 383 553 552
f 407 409 551
f 355 583 581
f 355 357 583
f 405 556 558
f 381 383 552
f 381 552 549
f 405 407 556
f 403 558 169
f 353 581 579
f 353 355 581
f 403 405 558
f 379 381 549
f 379 549 544
f 379 544 538
f 175 403 169
f 351 579 578
f 351 578 576
f 351 353 579
f 375 379 538
f 347 576 574
f 347 351 576
f 618 434 432
f 644 508 425
f 93 618 432
f 640 644 425
f 93 432 94
f 640 425 426
f 634 640 426
f 634 426 429
f 628 634 431
f 85 87 476
f 638 85 476
f 634 429 431
f 628 431 433
f 621 628 433
f 633 638 478
f 638 476 478
f 616 621 438
f 629 633 481
f 621 433 438
f 633 478 481
f 611 616 443
f 616 438 443
f 625 629 483
f 629 481 483
f 607 611 446
f 625 483 485
f 611 443 446
f 620 625 485
f 599 607 449
f 607 446 449
f 620 485 488
f 615 620 488
f 600 599 455
f 599 449 455
f 615 488 490
f 609 615 490
f 665 600 458
f 600 455 458
f 609 490 492
f 603 609 492
f 661 665 462
f 665 458 462
f 603 492 494
f 604 603 494
f 657 661 460
f 661 462 460
f 604 494 495
f 667 604 495
f 653 657 459
f 667 495 497
f 663 667 497
f 657 460 459
f 653 459 456
f 649 653 456
f 663 497 499
f 660 663 499
f 649 456 452
f 643 649 452
f 660 499 501
f 655 660 501
f 643 452 447
f 639 643 447
f 655 501 504
f 652 655 504
f 639 447 444
f 631 639 444
f 652 504 506
f 647 652 506
f 631 444 439
f 623 631 439
f 647 506 508
f 644 647 508
f 623 439 434
f 618 623 434
f 619 521 519
f 626 619 519
f 11 562 12
f 626 519 517
f 635 626 517
f 635 517 515
f 5 7 518
f 641 635 512
f 614 5 518
f 635 515 512
f 645 641 511
f 624 614 520
f 641 512 511
f 614 518 520
f 648 645 597
f 632 624 525
f 645 511 597
f 624 520 525
f 651 648 594
f 648 597 594
f 637 632 527
f 632 525 527
f 656 651 592
f 651 594 592
f 642 637 534
f 637 527 534
f 658 656 590
f 656 592 590
f 642 534 537
f 646 642 537
f 664 658 588
f 658 590 588
f 668 664 586
f 646 537 540
f 650 646 540
f 664 588 586
f 650 540 543
f 654 650 543
f 668 586 584
f 606 668 584
f 654 543 547
f 659 654 547
f 606 584 582
f 659 547 548
f 606 582 580
f 605 606 580
f 659 548 546
f 662 659 546
f 605 580 577
f 610 605 577
f 662 546 542
f 666 662 542
f 610 577 575
f 612 610 575
f 666 542 539
f 601 666 539
f 612 575 573
f 617 612 573
f 601 539 536
f 602 601 536
f 617 573 571
f 622 617 571
f 602 536 531
f 622 571 568
f 608 602 531
f 627 622 568
f 627 568 566
f 608 531 526
f 613 608 526
f 630 627 566
f 630 566 564
f 636 630 564
f 613 526 521
f 619 613 521
f 636 564 562
f 11 636 562
