# Created by FreeCAD <http://www.freecadweb.org>
v 6.820736 33.112194 493.018829
v 6.463957 33.280849 492.799988
v 6.569187 33.397415 492.799988
v 6.922157 33.210743 493.018829
v 9.300075 32.968220 493.018829
v 9.505369 33.316761 492.799988
v 9.604041 33.194595 492.799988
v 6.683238 33.505371 492.799988
v 7.031782 33.300076 493.018829
v 6.805407 33.604042 492.799988
v 6.699925 31.031782 493.018829
v 6.395959 30.805407 492.799988
v 6.307178 30.934940 492.799988
v 7.148775 33.379513 493.018829
v 6.934941 33.692822 492.799988
v 6.620486 31.148775 493.018829
v 7.071041 33.771168 492.799988
v 6.551547 31.272247 493.018829
v 6.228832 31.071041 492.799988
v 7.272247 33.448452 493.018829
v 7.401258 33.506371 493.018829
v 7.212869 33.838593 492.799988
v 6.493631 31.401257 493.018829
v 6.161407 31.212870 492.799988
v 7.534824 33.552822 493.018829
v 7.359550 33.894684 492.799988
v 6.447179 31.534824 493.018829
v 6.105317 31.359550 492.799988
v 7.671932 33.587456 493.018829
v 7.510180 33.939091 492.799988
v 6.412545 31.671932 493.018829
v 6.060908 31.510180 492.799988
v 7.811536 33.610008 493.018829
v 7.663829 33.971546 492.799988
v 6.028455 31.663828 492.799988
v 6.389993 31.811537 493.018829
v 7.952575 33.620308 493.018829
v 7.819551 33.991844 492.799988
v 8.093974 33.618275 493.018829
v 7.976385 33.999859 492.799988
v 6.008157 31.819551 492.799988
v 6.379694 31.952574 493.018829
v 6.000139 31.976385 492.799988
v 6.381726 32.093975 493.018829
v 8.133365 33.995548 492.799988
v 8.234658 33.603924 493.018829
v 6.004452 32.133366 492.799988
v 6.396075 32.234657 493.018829
v 8.289523 33.978931 492.799988
v 6.021067 32.289524 492.799988
v 8.443895 33.950115 492.799988
v 8.373557 33.577370 493.018829
v 6.049883 32.443897 492.799988
v 6.422630 32.373558 493.018829
v 8.595531 33.909279 492.799988
v 8.509612 33.538811 493.018829
v 6.090722 32.595531 492.799988
v 6.461190 32.509613 493.018829
v 8.743496 33.856667 492.799988
v 8.641788 33.488541 493.018829
v 6.143332 32.743496 492.799988
v 6.511461 32.641788 493.018829
v 8.886877 33.792610 492.799988
v 8.769081 33.426937 493.018829
v 6.207390 32.886875 492.799988
v 6.573061 32.769081 493.018829
v 9.024789 33.717499 492.799988
v 8.890521 33.354481 493.018829
v 6.282500 33.024788 492.799988
v 9.156384 33.631802 492.799988
v 6.645521 32.890522 493.018829
v 9.005182 33.271709 493.018829
v 9.280849 33.536041 492.799988
v 6.368198 33.156384 492.799988
v 6.728289 33.005184 493.018829
v 9.112195 33.179264 493.018829
v 9.397417 33.430813 492.799988
v 9.210742 33.077843 493.018829
v 6.620486 31.148775 495.621002
v 6.363679 31.158943 496.000000
v 6.438723 31.026690 496.000000
v 7.272247 33.448452 495.621002
v 7.296941 33.700184 496.000000
v 7.158943 33.636322 496.000000
v 6.699925 31.031782 495.621002
v 7.148775 33.379513 495.621002
v 6.524430 30.901085 496.000000
v 7.026689 33.561279 496.000000
v 7.031782 33.300076 495.621002
v 6.901084 33.475571 496.000000
v 6.922157 33.210743 495.621002
v 6.782986 33.379784 496.000000
v 9.300075 32.968220 495.621002
v 9.475570 33.098915 496.000000
v 9.379782 33.217014 496.000000
v 9.210742 33.077843 495.621002
v 6.820736 33.112194 495.621002
v 6.673201 33.274570 496.000000
v 9.112195 33.179264 495.621002
v 9.274570 33.326797 496.000000
v 6.728289 33.005184 495.621002
v 6.572480 33.160648 496.000000
v 9.005182 33.271709 495.621002
v 9.160649 33.427521 496.000000
v 6.645521 32.890522 495.621002
v 6.481510 33.038803 496.000000
v 8.890521 33.354481 495.621002
v 9.038802 33.518490 496.000000
v 6.573061 32.769081 495.621002
v 6.400912 32.909859 496.000000
v 8.909858 33.599087 496.000000
v 8.769081 33.426937 495.621002
v 6.511461 32.641788 495.621002
v 6.331239 32.774700 496.000000
v 8.774698 33.668762 496.000000
v 8.641788 33.488541 495.621002
v 6.461190 32.509613 495.621002
v 6.272964 32.634247 496.000000
v 8.634248 33.727036 496.000000
v 8.509612 33.538811 495.621002
v 6.422630 32.373558 495.621002
v 6.226487 32.489464 496.000000
v 8.489464 33.773514 496.000000
v 8.373557 33.577370 495.621002
v 6.396075 32.234657 495.621002
v 6.192125 32.341335 496.000000
v 8.341336 33.807877 496.000000
v 8.234658 33.603924 495.621002
v 6.381726 32.093975 495.621002
v 6.170113 32.190876 496.000000
v 8.190877 33.829887 496.000000
v 8.093974 33.618275 495.621002
v 6.379694 31.952574 495.621002
v 6.160600 32.039116 496.000000
v 8.039115 33.839401 496.000000
v 7.952575 33.620308 495.621002
v 6.163652 31.887085 496.000000
v 6.389993 31.811537 495.621002
v 7.887084 33.836346 496.000000
v 7.811536 33.610008 495.621002
v 6.179249 31.735826 496.000000
v 6.412545 31.671932 495.621002
v 7.735826 33.820751 496.000000
v 7.671932 33.587456 495.621002
v 6.207283 31.586372 496.000000
v 6.447179 31.534824 495.621002
v 7.586371 33.792717 496.000000
v 7.534824 33.552822 495.621002
v 6.247563 31.439743 496.000000
v 6.493631 31.401257 495.621002
v 7.439743 33.752438 496.000000
v 7.401258 33.506371 495.621002
v 6.299815 31.296942 496.000000
v 6.551547 31.272247 495.621002
v 11.668513 30.764578 493.230652
v 11.459573 30.212503 493.244019
v 10.843098 30.702919 492.799988
v 10.918932 30.883999 492.799988
v 10.983247 31.069481 492.799988
v 11.711202 30.399902 493.329102
v 11.625519 31.131874 493.148132
v 8.752816 28.196672 493.234283
v 8.428246 28.904482 492.799988
v 8.621771 28.937481 492.799988
v 11.035788 31.258638 492.799988
v 8.187022 28.107908 493.245575
v 8.469875 27.985956 493.329102
v 5.095836 29.440685 493.230652
v 5.493687 30.133448 492.799988
v 5.615834 29.979757 492.799988
v 11.592957 31.410046 493.097961
v 11.076347 31.450720 492.799988
v 9.039092 28.409874 493.153656
v 8.812840 28.982565 492.799988
v 4.758674 29.586054 493.329102
v 5.435421 29.294271 493.148132
v 5.747391 29.834042 492.799988
v 5.887837 29.696873 492.799988
v 11.560136 31.690430 493.059082
v 11.104767 31.644968 492.799988
v 11.120933 31.840618 492.799988
v 9.265527 28.578510 493.101959
v 9.000703 29.039558 492.799988
v 9.184616 29.108234 492.799988
v 5.692605 29.183386 493.097961
v 6.036620 29.568794 492.799988
v 11.528571 31.960077 493.033264
v 9.492591 28.747612 493.061890
v 9.363854 29.188324 492.799988
v 11.124783 32.036900 492.799988
v 5.951837 29.071617 493.059082
v 6.193151 29.450310 492.799988
v 9.711012 28.910280 493.034973
v 9.537709 29.279509 492.799988
v 11.496865 32.230938 493.019135
v 11.116300 32.233032 492.799988
v 6.201140 28.964128 493.033264
v 6.356812 29.341888 492.799988
v 6.526959 29.243958 492.799988
v 11.467951 32.477947 493.016937
v 11.095518 32.428246 492.799988
v 11.062520 32.621769 492.799988
v 9.930115 29.073454 493.019836
v 9.705497 29.381430 492.799988
v 9.866552 29.493687 492.799988
v 6.451564 28.856157 493.019135
v 6.702919 29.156902 492.799988
v 11.439156 32.723938 493.025085
v 11.017435 32.812840 492.799988
v 10.128265 29.221025 493.016693
v 10.020242 29.615833 492.799988
v 6.679939 28.757692 493.016937
v 6.883998 29.081068 492.799988
v 11.408722 32.983925 493.044586
v 10.960443 33.000702 492.799988
v 10.327238 29.369207 493.023834
v 10.165958 29.747391 492.799988
v 6.907370 28.659636 493.025085
v 7.069482 29.016754 492.799988
v 7.258637 28.964212 492.799988
v 11.378464 33.242416 493.074615
v 10.891766 33.184616 492.799988
v 10.534369 29.523466 493.041840
v 10.303127 29.887836 492.799988
v 11.345710 33.522224 493.118500
v 10.811677 33.363853 492.799988
v 7.147744 28.555998 493.044586
v 7.450719 28.923653 492.799988
v 10.720491 33.537708 492.799988
v 10.740741 29.677160 493.070099
v 10.431206 30.036619 492.799988
v 10.549690 30.193151 492.799988
v 7.386731 28.452957 493.074615
v 7.644969 28.895233 492.799988
v 11.313136 33.800491 493.173157
v 10.618569 33.705498 492.799988
v 10.974430 29.851198 493.114319
v 10.658112 30.356812 492.799988
v 11.277139 34.108013 493.245575
v 10.506313 33.866550 492.799988
v 7.645430 28.341419 493.118500
v 7.840619 28.879066 492.799988
v 11.205488 30.023277 493.170044
v 10.756043 30.526958 492.799988
v 11.241326 34.413944 493.329102
v 7.902702 28.230495 493.173157
v 8.036899 28.875217 492.799988
v 8.233032 28.883701 492.799988
v 8.132712 28.131325 495.569336
v 8.233032 28.883701 496.000000
v 8.036899 28.875217 496.000000
v 8.428246 28.904482 496.000000
v 8.719331 28.171736 495.555267
v 8.469875 27.985956 495.470886
v 11.422195 30.184668 495.567657
v 10.843098 30.702919 496.000000
v 10.756043 30.526958 496.000000
v 11.675390 30.705837 495.554413
v 7.793128 28.277739 495.651855
v 7.840619 28.879066 496.000000
v 11.711202 30.399902 495.470886
v 11.284015 34.049271 495.569336
v 10.506313 33.866550 496.000000
v 10.618569 33.705498 496.000000
v 7.535944 28.388624 495.702057
v 7.644969 28.895233 496.000000
v 11.241326 34.413944 495.470886
v 11.129888 29.966974 495.649445
v 10.658112 30.356812 496.000000
v 11.327009 33.681973 495.651855
v 10.720491 33.537708 496.000000
v 10.811677 33.363853 496.000000
v 7.276711 28.500393 495.740906
v 7.450719 28.923653 496.000000
v 7.258637 28.964212 496.000000
v 10.905655 29.799978 495.700012
v 10.549690 30.193151 496.000000
v 10.431206 30.036619 496.000000
v 11.359571 33.403805 495.702057
v 10.891766 33.184616 496.000000
v 7.027408 28.607882 495.766724
v 7.069482 29.016754 496.000000
v 10.678867 29.631081 495.739441
v 10.303127 29.887836 496.000000
v 11.392393 33.123417 495.740906
v 10.960443 33.000702 496.000000
v 10.460119 29.468170 495.765839
v 10.165958 29.747391 496.000000
v 6.776985 28.715853 495.780853
v 6.883998 29.081068 496.000000
v 11.423957 32.853771 495.766724
v 11.017435 32.812840 496.000000
v 11.062520 32.621769 496.000000
v 6.548609 28.814316 495.783051
v 6.702919 29.156902 496.000000
v 6.526959 29.243958 496.000000
v 10.240929 29.304930 495.780518
v 10.020242 29.615833 496.000000
v 9.866552 29.493687 496.000000
v 11.455664 32.582912 495.780853
v 11.095518 32.428246 496.000000
v 6.321179 28.912374 495.774902
v 6.356812 29.341888 496.000000
v 10.041102 29.156111 495.783173
v 9.705497 29.381430 496.000000
v 11.484578 32.335899 495.783051
v 11.116300 32.233032 496.000000
v 6.080804 29.016012 495.755402
v 6.193151 29.450310 496.000000
v 9.842009 29.007839 495.775513
v 9.537709 29.279509 496.000000
v 11.513373 32.089912 495.774902
v 11.124783 32.036900 496.000000
v 11.120933 31.840618 496.000000
v 5.841818 29.119053 495.725372
v 6.036620 29.568794 496.000000
v 9.635252 28.853859 495.756989
v 9.363854 29.188324 496.000000
v 11.543807 31.829922 495.755402
v 5.583119 29.230591 495.681519
v 5.887837 29.696873 496.000000
v 5.747391 29.834042 496.000000
v 11.104767 31.644968 496.000000
v 9.429094 28.700325 495.728119
v 9.184616 29.108234 496.000000
v 9.000703 29.039558 496.000000
v 11.574065 31.571434 495.725372
v 11.076347 31.450720 496.000000
v 5.325847 29.341515 495.626831
v 5.615834 29.979757 496.000000
v 9.199959 28.529678 495.684235
v 8.812840 28.982565 496.000000
v 5.041526 29.464102 495.554413
v 5.493687 30.133448 496.000000
v 11.606819 31.291624 495.681519
v 11.035788 31.258638 496.000000
v 8.971525 28.359554 495.628784
v 8.621771 28.937481 496.000000
v 4.758674 29.586054 495.470886
v 11.639392 31.013359 495.626831
v 10.983247 31.069481 496.000000
v 10.918932 30.883999 496.000000
v 10.904163 34.559315 493.230652
v 10.564579 34.705727 493.148132
v 10.674153 34.658485 495.626831
v 10.958473 34.535900 495.554413
v 7.812978 35.892090 493.245575
v 7.530125 36.014046 493.329102
v 7.530125 36.014046 495.470886
v 7.867288 35.868675 495.569336
v 8.097299 35.769505 493.173157
v 8.206872 35.722263 495.651855
v 8.354569 35.658581 493.118500
v 8.464057 35.611378 495.702057
v 8.613269 35.547043 493.074615
v 8.723289 35.499607 495.740906
v 8.852256 35.444004 493.044586
v 8.972591 35.392120 495.766724
v 9.092630 35.340363 493.025085
v 9.223016 35.284149 495.780853
v 9.320061 35.242306 493.016937
v 9.451390 35.185684 495.783051
v 9.548436 35.143841 493.019135
v 9.678822 35.087627 495.774902
v 9.798860 35.035870 493.033264
v 9.919195 34.983986 495.755402
v 10.048162 34.928383 493.059082
v 10.158182 34.880947 495.725372
v 10.307395 34.816616 493.097961
v 10.416882 34.769409 495.681519
v 7.241118 35.798809 493.232330
v 7.024412 35.637421 495.629944
v 7.278496 35.826645 495.556000
v 6.948810 35.581116 493.150574
v 4.538253 33.785877 493.244751
v 4.288798 33.600098 493.329102
v 4.288798 33.600098 495.470886
v 4.571739 33.810814 495.565735
v 4.790448 33.973698 493.171204
v 4.858015 34.024017 495.646332
v 5.018882 34.143822 493.115784
v 5.084450 34.192650 495.698029
v 5.248017 34.314468 493.071869
v 5.311513 34.361755 495.738098
v 5.454175 34.468002 493.042999
v 5.529935 34.524422 495.765015
v 5.660932 34.621983 493.024475
v 5.749037 34.687595 495.780151
v 5.860025 34.770252 493.016815
v 5.947188 34.835167 495.783295
v 6.059851 34.919071 493.019501
v 6.146161 34.983349 495.776154
v 6.279042 35.082314 493.034180
v 6.353292 35.137608 495.758179
v 6.497790 35.245224 493.060547
v 6.559664 35.291302 495.729889
v 6.724577 35.414120 493.099976
v 6.793353 35.465340 495.685699
v 4.331486 33.235420 493.230652
v 4.374481 32.868126 493.148132
v 4.360608 32.986641 495.626831
v 4.324610 33.294163 495.554413
v 4.722861 29.891989 493.245575
v 4.715985 29.950729 495.569336
v 4.686863 30.199511 493.173157
v 4.672990 30.318026 495.651855
v 4.654290 30.477776 493.118500
v 4.640429 30.596197 495.702057
v 4.621537 30.757586 493.074615
v 4.607607 30.876583 495.740906
v 4.591279 31.016073 493.044586
v 4.576043 31.146229 495.766724
v 4.560844 31.276064 493.025085
v 4.544336 31.417088 495.780853
v 4.532050 31.522053 493.016937
v 4.515422 31.664099 495.783051
v 4.503135 31.769064 493.019135
v 4.486627 31.910089 495.774902
v 4.471429 32.039921 493.033264
v 4.456193 32.170078 495.755402
v 4.439865 32.309570 493.059082
v 4.425935 32.428566 495.725372
v 4.407043 32.589954 493.097961
v 4.393181 32.708378 495.681519
v 8.841058 30.363680 496.000000
v 8.973311 30.438723 496.000000
v 10.252609 34.165958 496.000000
v 10.112163 34.303127 496.000000
v 9.098916 30.524431 496.000000
v 10.384166 34.020241 496.000000
v 9.217014 30.620218 496.000000
v 9.561277 32.973312 496.000000
v 9.636320 32.841057 496.000000
v 9.326799 30.725431 496.000000
v 9.700186 32.703060 496.000000
v 4.923652 32.549282 496.000000
v 4.895233 32.355030 496.000000
v 4.879067 32.159382 496.000000
v 9.427521 30.839350 496.000000
v 4.964212 32.741364 496.000000
v 9.518491 30.961199 496.000000
v 9.752437 32.560257 496.000000
v 5.016753 32.930519 496.000000
v 9.792717 32.413628 496.000000
v 4.875218 31.963102 496.000000
v 9.599088 31.090141 496.000000
v 9.820751 32.264175 496.000000
v 5.081068 33.116001 496.000000
v 4.883701 31.766968 496.000000
v 9.668761 31.225302 496.000000
v 4.904482 31.571753 496.000000
v 4.937480 31.378229 496.000000
v 9.836348 32.112915 496.000000
v 9.727036 31.365753 496.000000
v 9.839400 31.960886 496.000000
v 5.243957 33.473042 496.000000
v 5.156902 33.297081 496.000000
v 9.773513 31.510536 496.000000
v 9.829887 31.809122 496.000000
v 9.807875 31.658663 496.000000
v 5.341888 33.643188 496.000000
v 4.982565 31.187159 496.000000
v 5.450310 33.806850 496.000000
v 5.039558 30.999296 496.000000
v 5.696873 34.112164 496.000000
v 5.568794 33.963379 496.000000
v 5.108234 30.815384 496.000000
v 5.188323 30.636147 496.000000
v 5.834042 34.252609 496.000000
v 5.279509 30.462290 496.000000
v 5.979758 34.384167 496.000000
v 5.381430 30.294504 496.000000
v 6.294504 34.618568 496.000000
v 6.133448 34.506313 496.000000
v 6.462290 34.720493 496.000000
v 6.620218 30.782986 496.000000
v 6.636146 34.811676 496.000000
v 6.725431 30.673201 496.000000
v 6.999297 34.960442 496.000000
v 6.815384 34.891766 496.000000
v 6.839350 30.572479 496.000000
v 7.187159 35.017437 496.000000
v 6.961198 30.481510 496.000000
v 7.378229 35.062519 496.000000
v 7.090142 30.400913 496.000000
v 7.766968 35.116299 496.000000
v 7.571754 35.095516 496.000000
v 7.225301 30.331238 496.000000
v 7.963101 35.124783 496.000000
v 7.365753 30.272964 496.000000
v 8.159381 35.120934 496.000000
v 7.510536 30.226488 496.000000
v 8.355032 35.104767 496.000000
v 7.658664 30.192125 496.000000
v 8.549281 35.076347 496.000000
v 7.809123 30.170113 496.000000
v 8.741363 35.035789 496.000000
v 7.960886 30.160601 496.000000
v 8.930518 34.983246 496.000000
v 8.112915 30.163652 496.000000
v 9.116002 34.918934 496.000000
v 8.264174 30.179249 496.000000
v 9.297081 34.843098 496.000000
v 9.473041 34.756042 496.000000
v 8.413629 30.207283 496.000000
v 9.643188 34.658112 496.000000
v 8.560257 30.247564 496.000000
v 9.806849 34.549690 496.000000
v 8.703058 30.299814 496.000000
v 9.963381 34.431206 496.000000
v 10.252609 34.165958 492.799988
v 10.112163 34.303127 492.799988
v 8.928959 30.228832 492.799988
v 9.065060 30.307177 492.799988
v 10.384166 34.020241 492.799988
v 9.194593 30.395960 492.799988
v 9.692822 33.065060 492.799988
v 9.316763 30.494631 492.799988
v 9.771168 32.928959 492.799988
v 9.430813 30.602583 492.799988
v 9.838593 32.787132 492.799988
v 9.536042 30.719151 492.799988
v 4.895233 32.355030 492.799988
v 4.923652 32.549282 492.799988
v 9.894683 32.640450 492.799988
v 4.879067 32.159382 492.799988
v 9.631802 30.843616 492.799988
v 4.964212 32.741364 492.799988
v 4.875218 31.963102 492.799988
v 4.883701 31.766968 492.799988
v 9.939092 32.489822 492.799988
v 9.717501 30.975210 492.799988
v 5.016753 32.930519 492.799988
v 5.081068 33.116001 492.799988
v 9.971545 32.336170 492.799988
v 4.904482 31.571753 492.799988
v 9.792610 31.113123 492.799988
v 9.856668 31.256504 492.799988
v 9.991843 32.180450 492.799988
v 5.156902 33.297081 492.799988
v 9.909278 31.404469 492.799988
v 9.999861 32.023617 492.799988
v 5.243957 33.473042 492.799988
v 9.995548 31.866634 492.799988
v 4.937480 31.378229 492.799988
v 9.950117 31.556105 492.799988
v 9.978933 31.710478 492.799988
v 4.982565 31.187159 492.799988
v 5.341888 33.643188 492.799988
v 5.450310 33.806850 492.799988
v 5.568794 33.963379 492.799988
v 5.039558 30.999296 492.799988
v 5.108234 30.815384 492.799988
v 5.696873 34.112164 492.799988
v 5.188323 30.636147 492.799988
v 5.834042 34.252609 492.799988
v 5.279509 30.462290 492.799988
v 5.979758 34.384167 492.799988
v 5.381430 30.294504 492.799988
v 6.133448 34.506313 492.799988
v 6.294504 34.618568 492.799988
v 6.462290 34.720493 492.799988
v 6.494631 30.683237 492.799988
v 6.636146 34.811676 492.799988
v 6.602583 30.569187 492.799988
v 6.815384 34.891766 492.799988
v 6.719151 30.463957 492.799988
v 6.999297 34.960442 492.799988
v 7.187159 35.017437 492.799988
v 6.843616 30.368198 492.799988
v 7.378229 35.062519 492.799988
v 6.975211 30.282499 492.799988
v 7.571754 35.095516 492.799988
v 7.113123 30.207390 492.799988
v 7.256504 30.143333 492.799988
v 7.766968 35.116299 492.799988
v 7.963101 35.124783 492.799988
v 7.404468 30.090723 492.799988
v 8.159381 35.120934 492.799988
v 7.556104 30.049883 492.799988
v 8.355032 35.104767 492.799988
v 7.710477 30.021067 492.799988
v 8.549281 35.076347 492.799988
v 7.866635 30.004452 492.799988
v 8.741363 35.035789 492.799988
v 8.023615 30.000139 492.799988
v 8.930518 34.983246 492.799988
v 9.116002 34.918934 492.799988
v 8.180449 30.008158 492.799988
v 9.297081 34.843098 492.799988
v 8.336171 30.028456 492.799988
v 9.473041 34.756042 492.799988
v 8.489820 30.060909 492.799988
v 9.643188 34.658112 492.799988
v 8.640450 30.105316 492.799988
v 9.806849 34.549690 492.799988
v 9.963381 34.431206 492.799988
v 8.787131 30.161407 492.799988
v 7.906026 30.381727 495.621002
v 7.906026 30.381727 493.018829
v 7.765342 30.396074 493.018829
v 9.488539 31.358212 495.621002
v 9.538810 31.490389 495.621002
v 9.488539 31.358212 493.018829
v 9.426939 31.230919 493.018829
v 7.626443 30.422630 495.621002
v 7.765342 30.396074 495.621002
v 7.626443 30.422630 493.018829
v 9.426939 31.230919 495.621002
v 9.354479 31.109480 493.018829
v 7.490388 30.461189 495.621002
v 7.490388 30.461189 493.018829
v 9.354479 31.109480 495.621002
v 7.358211 30.511461 493.018829
v 9.271711 30.994818 493.018829
v 9.379514 32.851223 493.018829
v 7.358211 30.511461 495.621002
v 9.271711 30.994818 495.621002
v 7.230918 30.573061 493.018829
v 9.379514 32.851223 495.621002
v 9.179264 30.887806 493.018829
v 7.230918 30.573061 495.621002
v 9.179264 30.887806 495.621002
v 7.109479 30.645521 493.018829
v 9.448453 32.727753 495.621002
v 9.448453 32.727753 493.018829
v 7.109479 30.645521 495.621002
v 9.077843 30.789257 493.018829
v 6.994817 30.728289 493.018829
v 9.077843 30.789257 495.621002
v 6.994817 30.728289 495.621002
v 6.887805 30.820736 493.018829
v 9.506370 32.598743 495.621002
v 9.506370 32.598743 493.018829
v 6.887805 30.820736 495.621002
v 8.968218 30.699924 495.621002
v 8.968218 30.699924 493.018829
v 6.789258 30.922157 493.018829
v 9.552821 32.465176 493.018829
v 6.789258 30.922157 495.621002
v 9.552821 32.465176 495.621002
v 8.851225 30.620487 495.621002
v 8.851225 30.620487 493.018829
v 9.587455 32.328068 493.018829
v 9.587455 32.328068 495.621002
v 8.727753 30.551546 495.621002
v 8.727753 30.551546 493.018829
v 9.610007 32.188465 493.018829
v 8.598742 30.493631 495.621002
v 8.598742 30.493631 493.018829
v 9.610007 32.188465 495.621002
v 9.620306 32.047424 493.018829
v 8.465176 30.447180 493.018829
v 8.465176 30.447180 495.621002
v 9.620306 32.047424 495.621002
v 9.618274 31.906027 493.018829
v 8.328068 30.412546 495.621002
v 8.328068 30.412546 493.018829
v 9.618274 31.906027 495.621002
v 8.188464 30.389994 493.018829
v 9.603926 31.765341 493.018829
v 8.188464 30.389994 495.621002
v 9.603926 31.765341 495.621002
v 9.577370 31.626444 493.018829
v 8.047425 30.379694 495.621002
v 8.047425 30.379694 493.018829
v 9.577370 31.626444 495.621002
v 9.538810 31.490389 493.018829
f 1 2 3
f 4 1 3
f 5 6 7
f 4 3 8
f 9 4 8
f 9 8 10
f 11 12 13
f 14 9 15
f 16 11 13
f 9 10 15
f 14 15 17
f 18 16 19
f 20 14 17
f 16 13 19
f 21 20 22
f 23 18 24
f 20 17 22
f 18 19 24
f 25 21 26
f 21 22 26
f 27 23 28
f 23 24 28
f 29 25 30
f 25 26 30
f 31 27 32
f 27 28 32
f 33 29 34
f 29 30 34
f 31 32 35
f 36 31 35
f 37 33 38
f 33 34 38
f 39 37 40
f 36 35 41
f 42 36 41
f 37 38 40
f 42 41 43
f 44 42 43
f 39 40 45
f 46 39 45
f 44 43 47
f 48 44 47
f 46 45 49
f 48 47 50
f 46 49 51
f 52 46 51
f 48 50 53
f 54 48 53
f 52 51 55
f 56 52 55
f 54 53 57
f 58 54 57
f 56 55 59
f 60 56 59
f 58 57 61
f 62 58 61
f 60 59 63
f 64 60 63
f 62 61 65
f 66 62 65
f 64 63 67
f 68 64 67
f 66 65 69
f 68 67 70
f 71 66 69
f 72 68 70
f 72 70 73
f 71 69 74
f 75 71 74
f 76 72 73
f 76 73 77
f 78 76 77
f 75 74 2
f 1 75 2
f 78 77 6
f 5 78 6
f 79 80 81
f 82 83 84
f 85 79 81
f 86 82 84
f 85 81 87
f 86 84 88
f 89 86 88
f 89 88 90
f 91 89 92
f 93 94 95
f 89 90 92
f 96 93 95
f 97 91 98
f 91 92 98
f 99 96 100
f 96 95 100
f 101 97 102
f 103 99 104
f 97 98 102
f 99 100 104
f 105 101 106
f 107 103 108
f 101 102 106
f 103 104 108
f 109 105 110
f 107 108 111
f 105 106 110
f 112 107 111
f 113 109 114
f 109 110 114
f 112 111 115
f 116 112 115
f 117 113 118
f 113 114 118
f 116 115 119
f 120 116 119
f 121 117 122
f 117 118 122
f 120 119 123
f 124 120 123
f 125 121 126
f 121 122 126
f 124 123 127
f 128 124 127
f 129 125 130
f 125 126 130
f 128 127 131
f 132 128 131
f 133 129 134
f 132 131 135
f 136 132 135
f 129 130 134
f 133 134 137
f 138 133 137
f 136 135 139
f 140 136 139
f 138 137 141
f 142 138 141
f 140 139 143
f 144 140 143
f 142 141 145
f 146 142 145
f 144 143 147
f 148 144 147
f 146 145 149
f 150 146 149
f 148 147 151
f 152 148 151
f 150 149 153
f 154 150 153
f 152 151 83
f 82 152 83
f 154 153 80
f 79 154 80
f 155 156 157
f 155 157 158
f 155 158 159
f 155 160 156
f 161 155 159
f 162 163 164
f 161 159 165
f 162 166 163
f 162 167 166
f 168 169 170
f 171 161 165
f 171 165 172
f 173 164 174
f 168 175 169
f 176 170 177
f 173 162 164
f 176 168 170
f 176 177 178
f 179 171 172
f 179 172 180
f 179 180 181
f 182 174 183
f 182 183 184
f 185 178 186
f 182 173 174
f 187 179 181
f 188 184 189
f 185 176 178
f 187 181 190
f 188 182 184
f 191 186 192
f 191 185 186
f 193 189 194
f 195 190 196
f 195 187 190
f 193 188 189
f 197 191 192
f 197 192 198
f 197 198 199
f 200 196 201
f 200 201 202
f 200 195 196
f 203 194 204
f 203 204 205
f 203 193 194
f 206 199 207
f 208 202 209
f 206 197 199
f 208 200 202
f 210 205 211
f 210 203 205
f 212 207 213
f 214 209 215
f 212 206 207
f 214 208 209
f 216 211 217
f 216 210 211
f 218 213 219
f 218 219 220
f 221 215 222
f 221 214 215
f 218 212 213
f 223 217 224
f 223 216 217
f 225 222 226
f 227 220 228
f 225 226 229
f 227 218 220
f 230 223 224
f 225 221 222
f 230 224 231
f 230 231 232
f 233 228 234
f 235 229 236
f 237 230 232
f 233 227 228
f 237 232 238
f 235 225 229
f 239 236 240
f 241 234 242
f 239 235 236
f 241 233 234
f 243 237 238
f 243 238 244
f 243 244 157
f 245 239 240
f 246 242 247
f 246 247 248
f 246 241 242
f 156 243 157
f 166 248 163
f 166 246 248
f 249 250 251
f 249 252 250
f 249 253 252
f 249 254 253
f 255 256 257
f 255 258 256
f 259 251 260
f 255 261 258
f 259 249 251
f 262 263 264
f 265 260 266
f 262 267 263
f 265 259 260
f 268 257 269
f 268 255 257
f 270 262 264
f 270 271 272
f 270 264 271
f 273 274 275
f 273 266 274
f 276 277 278
f 273 265 266
f 276 269 277
f 276 268 269
f 279 270 272
f 279 272 280
f 281 275 282
f 281 273 275
f 283 278 284
f 283 276 278
f 285 279 280
f 285 280 286
f 287 284 288
f 289 281 282
f 287 283 284
f 289 282 290
f 291 285 286
f 291 292 293
f 294 295 296
f 291 286 292
f 294 290 295
f 294 289 290
f 297 298 299
f 297 288 298
f 297 287 288
f 300 291 293
f 300 293 301
f 302 296 303
f 302 294 296
f 304 299 305
f 304 297 299
f 306 300 301
f 306 301 307
f 308 303 309
f 310 305 311
f 308 302 303
f 310 304 305
f 312 306 307
f 312 313 314
f 312 307 313
f 315 309 316
f 315 308 309
f 317 311 318
f 317 310 311
f 319 312 314
f 320 321 322
f 319 314 323
f 320 316 321
f 324 325 326
f 324 318 325
f 320 315 316
f 324 317 318
f 327 323 328
f 327 319 323
f 329 322 330
f 331 324 326
f 331 326 332
f 329 320 322
f 333 330 334
f 335 327 328
f 335 328 336
f 333 329 330
f 337 331 332
f 337 338 252
f 337 332 338
f 339 333 334
f 340 341 342
f 340 336 341
f 340 335 336
f 253 337 252
f 258 342 256
f 258 340 342
f 132 39 46
f 113 117 62
f 113 62 66
f 124 128 52
f 128 46 52
f 109 113 66
f 109 66 71
f 120 124 56
f 124 52 56
f 105 109 71
f 120 56 60
f 105 71 75
f 85 11 16
f 116 120 60
f 101 105 75
f 116 60 64
f 79 85 16
f 101 75 1
f 112 116 64
f 97 101 1
f 112 64 68
f 154 79 18
f 79 16 18
f 107 112 68
f 97 1 4
f 107 68 72
f 91 97 4
f 103 107 72
f 103 72 76
f 150 154 23
f 154 18 23
f 99 103 76
f 89 91 9
f 91 4 9
f 99 76 78
f 150 23 27
f 96 99 78
f 96 78 5
f 93 96 5
f 146 150 27
f 86 89 14
f 89 9 14
f 146 27 31
f 142 146 31
f 82 86 20
f 86 14 20
f 142 31 36
f 152 82 21
f 138 142 36
f 82 20 21
f 138 36 42
f 148 152 25
f 152 21 25
f 133 138 42
f 148 25 29
f 133 42 44
f 144 148 29
f 129 133 44
f 129 44 48
f 140 144 33
f 144 29 33
f 125 129 48
f 125 48 54
f 136 140 37
f 140 33 37
f 121 125 54
f 121 54 58
f 132 136 39
f 136 37 39
f 117 121 58
f 117 58 62
f 128 132 46
f 343 344 345
f 245 346 267
f 245 343 346
f 347 348 349
f 347 349 350
f 351 350 352
f 351 347 350
f 353 352 354
f 353 351 352
f 355 354 356
f 355 353 354
f 357 356 358
f 357 355 356
f 359 358 360
f 359 357 358
f 361 360 362
f 361 359 360
f 363 362 364
f 363 361 362
f 365 364 366
f 365 363 364
f 367 366 368
f 367 365 366
f 369 368 370
f 369 367 368
f 344 370 345
f 344 369 370
f 343 345 346
f 371 372 373
f 371 374 372
f 348 373 349
f 348 371 373
f 375 376 377
f 375 377 378
f 379 378 380
f 379 375 378
f 381 380 382
f 381 379 380
f 383 382 384
f 383 381 382
f 385 384 386
f 385 383 384
f 387 386 388
f 387 385 386
f 389 388 390
f 389 387 388
f 391 390 392
f 391 389 390
f 393 392 394
f 393 391 392
f 395 394 396
f 395 393 394
f 397 396 398
f 397 395 396
f 374 398 372
f 374 397 398
f 399 400 401
f 376 402 377
f 376 399 402
f 403 175 339
f 403 339 404
f 405 404 406
f 405 403 404
f 407 406 408
f 407 405 406
f 409 408 410
f 409 407 408
f 411 410 412
f 411 409 410
f 413 412 414
f 413 411 412
f 415 414 416
f 415 413 414
f 417 416 418
f 417 415 416
f 419 418 420
f 419 417 418
f 421 420 422
f 421 419 420
f 423 422 424
f 423 421 422
f 400 424 401
f 400 423 424
f 399 401 402
f 168 176 329
f 175 333 339
f 175 168 333
f 166 167 254
f 166 254 249
f 246 249 259
f 246 166 249
f 241 259 265
f 241 246 259
f 233 265 273
f 233 241 265
f 227 273 281
f 227 233 273
f 218 281 289
f 218 227 281
f 212 289 294
f 212 218 289
f 206 294 302
f 206 212 294
f 197 302 308
f 197 206 302
f 191 308 315
f 191 197 308
f 185 315 320
f 185 191 315
f 176 320 329
f 176 185 320
f 168 329 333
f 156 261 255
f 156 255 243
f 160 261 156
f 167 253 254
f 162 337 253
f 162 253 167
f 173 331 337
f 173 337 162
f 182 324 331
f 182 331 173
f 188 317 324
f 188 324 182
f 193 310 317
f 193 317 188
f 203 304 310
f 203 310 193
f 210 297 304
f 210 304 203
f 216 287 297
f 216 297 210
f 223 283 287
f 223 287 216
f 230 276 283
f 230 283 223
f 237 268 276
f 237 276 230
f 243 255 268
f 243 268 237
f 155 340 258
f 155 161 340
f 160 258 261
f 160 155 258
f 239 245 267
f 239 267 262
f 235 262 270
f 235 239 262
f 225 270 279
f 225 235 270
f 221 279 285
f 221 225 279
f 214 285 291
f 214 221 285
f 208 291 300
f 208 214 291
f 200 300 306
f 200 208 300
f 195 306 312
f 195 200 306
f 187 312 319
f 187 195 312
f 179 319 327
f 179 187 319
f 171 327 335
f 171 179 327
f 161 335 340
f 161 171 335
f 425 318 311
f 426 425 311
f 100 95 427
f 428 100 427
f 429 426 305
f 426 311 305
f 95 94 430
f 427 95 430
f 429 305 299
f 430 94 263
f 431 429 298
f 429 299 298
f 94 432 264
f 263 94 264
f 432 433 271
f 264 432 271
f 434 431 288
f 431 298 288
f 433 435 272
f 271 433 272
f 436 437 130
f 437 438 130
f 439 434 284
f 434 288 284
f 272 435 280
f 439 284 278
f 436 130 126
f 440 436 126
f 441 439 277
f 439 278 277
f 280 435 286
f 435 442 286
f 443 440 122
f 440 126 122
f 286 442 292
f 442 444 292
f 130 438 134
f 438 445 134
f 441 277 269
f 446 441 269
f 444 447 293
f 448 443 118
f 292 444 293
f 446 269 257
f 443 122 118
f 445 449 137
f 450 446 257
f 450 257 256
f 293 447 301
f 134 445 137
f 449 451 141
f 451 452 141
f 301 447 307
f 447 453 307
f 450 256 342
f 137 449 141
f 454 450 342
f 307 453 313
f 453 455 313
f 456 457 114
f 457 448 114
f 448 118 114
f 454 342 341
f 458 454 341
f 313 455 314
f 455 459 314
f 458 341 336
f 460 458 336
f 461 456 110
f 460 336 328
f 456 114 110
f 314 459 323
f 460 328 323
f 459 460 323
f 452 462 145
f 141 452 145
f 463 461 106
f 461 110 106
f 462 464 149
f 145 462 149
f 465 466 102
f 466 463 102
f 463 106 102
f 464 467 153
f 467 468 153
f 149 464 153
f 469 465 98
f 465 102 98
f 468 470 80
f 153 468 80
f 471 469 92
f 469 98 92
f 470 472 81
f 80 470 81
f 473 474 90
f 474 471 90
f 471 92 90
f 472 334 87
f 334 330 87
f 81 472 87
f 473 90 88
f 475 473 88
f 87 330 476
f 330 322 476
f 475 88 84
f 477 475 84
f 322 321 478
f 476 322 478
f 479 480 83
f 480 477 83
f 477 84 83
f 321 316 481
f 316 309 481
f 478 321 481
f 482 479 151
f 479 83 151
f 309 303 483
f 481 309 483
f 482 151 147
f 484 482 147
f 483 303 485
f 303 296 485
f 484 147 143
f 486 487 143
f 487 484 143
f 485 296 488
f 296 295 488
f 295 290 488
f 486 143 139
f 489 486 139
f 290 282 490
f 488 290 490
f 489 139 135
f 491 489 135
f 282 275 492
f 490 282 492
f 491 135 131
f 493 491 131
f 275 274 494
f 492 275 494
f 131 127 495
f 493 131 495
f 494 274 266
f 496 494 266
f 127 123 497
f 495 127 497
f 496 266 260
f 498 496 260
f 123 119 499
f 497 123 499
f 500 498 251
f 498 260 251
f 119 115 501
f 499 119 501
f 502 500 250
f 500 251 250
f 501 115 503
f 502 250 252
f 115 111 504
f 503 115 504
f 505 502 338
f 502 252 338
f 111 108 506
f 504 111 506
f 505 338 332
f 507 505 332
f 108 104 508
f 506 108 508
f 507 332 326
f 509 507 326
f 509 326 325
f 508 104 510
f 509 325 318
f 425 509 318
f 510 104 428
f 104 100 428
f 511 6 77
f 511 77 512
f 194 189 513
f 194 513 514
f 515 7 6
f 515 6 511
f 204 194 514
f 204 514 516
f 240 7 515
f 205 204 516
f 236 517 7
f 236 7 240
f 211 516 518
f 211 205 516
f 229 517 236
f 229 519 517
f 217 518 520
f 217 211 518
f 226 521 519
f 226 519 229
f 224 520 522
f 50 523 524
f 224 217 520
f 222 521 226
f 47 523 50
f 222 525 521
f 47 526 523
f 231 522 527
f 231 224 522
f 53 50 524
f 215 525 222
f 232 231 527
f 53 524 528
f 43 526 47
f 209 525 215
f 43 529 526
f 43 530 529
f 209 531 525
f 238 232 527
f 238 527 532
f 57 53 528
f 202 531 209
f 57 533 534
f 202 535 531
f 57 528 533
f 41 530 43
f 244 238 532
f 41 536 530
f 244 532 537
f 157 537 538
f 157 244 537
f 61 57 534
f 201 535 202
f 201 539 535
f 61 534 540
f 158 538 541
f 158 157 538
f 196 539 201
f 196 542 539
f 65 61 540
f 159 158 541
f 190 542 196
f 65 540 543
f 181 542 190
f 181 544 542
f 35 545 536
f 165 159 541
f 165 541 546
f 172 165 546
f 172 546 547
f 35 536 41
f 180 172 547
f 180 544 181
f 32 545 35
f 180 547 544
f 32 548 545
f 69 65 543
f 69 543 549
f 74 550 551
f 74 549 550
f 74 69 549
f 28 552 548
f 28 553 552
f 28 548 32
f 2 74 551
f 2 551 554
f 24 555 553
f 24 553 28
f 3 554 556
f 3 2 554
f 19 555 24
f 19 557 555
f 8 3 556
f 8 556 558
f 13 559 557
f 13 557 19
f 10 560 561
f 10 558 560
f 10 8 558
f 12 169 559
f 12 170 169
f 12 559 13
f 15 10 561
f 15 561 562
f 563 170 12
f 563 177 170
f 17 562 564
f 17 15 562
f 565 178 177
f 565 177 563
f 22 17 564
f 22 564 566
f 567 186 178
f 567 178 565
f 26 22 566
f 26 568 569
f 26 566 568
f 570 186 567
f 570 192 186
f 570 198 192
f 30 26 569
f 30 569 571
f 572 198 570
f 572 199 198
f 34 30 571
f 34 571 573
f 574 199 572
f 574 207 199
f 575 207 574
f 575 213 207
f 38 34 573
f 38 573 576
f 40 38 576
f 40 576 577
f 578 213 575
f 578 219 213
f 579 40 577
f 220 219 578
f 580 220 578
f 45 40 579
f 581 45 579
f 228 220 580
f 49 45 581
f 582 228 580
f 583 49 581
f 234 228 582
f 51 49 583
f 584 234 582
f 585 51 583
f 242 234 584
f 55 51 585
f 586 242 584
f 587 55 585
f 247 242 586
f 588 59 55
f 588 55 587
f 248 586 589
f 248 247 586
f 590 63 59
f 590 59 588
f 163 589 591
f 163 248 589
f 592 67 63
f 592 63 590
f 164 591 593
f 164 163 591
f 594 70 67
f 594 67 592
f 174 164 593
f 174 593 595
f 596 70 594
f 183 174 595
f 597 73 70
f 597 70 596
f 184 183 595
f 184 595 598
f 512 77 73
f 512 73 597
f 189 184 598
f 189 598 513
f 599 600 601
f 602 603 604
f 602 604 605
f 606 607 608
f 607 601 608
f 609 602 605
f 609 605 610
f 611 606 612
f 606 608 612
f 613 609 610
f 611 612 614
f 613 610 615
f 93 5 616
f 617 611 614
f 618 613 615
f 617 614 619
f 620 93 616
f 618 615 621
f 622 617 619
f 623 618 621
f 622 619 624
f 625 620 626
f 620 616 626
f 627 622 624
f 623 621 628
f 627 624 629
f 630 623 628
f 631 627 629
f 631 629 632
f 633 625 634
f 625 626 634
f 635 631 632
f 636 630 637
f 630 628 637
f 635 632 638
f 633 634 639
f 640 635 638
f 640 638 11
f 85 640 11
f 641 633 639
f 642 636 643
f 636 637 643
f 641 639 644
f 645 641 644
f 646 642 647
f 642 643 647
f 645 644 648
f 649 646 650
f 651 645 648
f 646 647 650
f 651 648 652
f 649 650 653
f 654 649 653
f 655 651 652
f 655 652 656
f 657 654 658
f 654 653 658
f 659 655 656
f 657 658 660
f 659 656 661
f 662 657 660
f 663 659 661
f 663 661 664
f 665 662 666
f 662 660 666
f 667 663 664
f 667 664 668
f 599 665 600
f 665 666 600
f 603 667 668
f 603 668 604
f 607 599 601
f 350 486 489
f 350 487 486
f 350 373 487
f 350 349 373
f 378 457 456
f 352 489 491
f 378 402 457
f 352 350 489
f 378 377 402
f 404 339 334
f 354 491 493
f 354 352 491
f 404 334 472
f 380 456 461
f 380 378 456
f 406 404 472
f 406 470 468
f 406 472 470
f 356 495 497
f 356 493 495
f 356 354 493
f 382 463 466
f 382 461 463
f 382 380 461
f 408 406 468
f 408 468 467
f 384 466 465
f 358 497 499
f 358 356 497
f 384 382 466
f 410 408 467
f 386 465 469
f 410 467 464
f 360 499 501
f 386 384 465
f 360 358 499
f 362 503 504
f 412 410 464
f 362 501 503
f 362 360 501
f 412 462 452
f 412 464 462
f 388 471 474
f 388 469 471
f 388 386 469
f 414 412 452
f 364 504 506
f 414 452 451
f 364 362 504
f 390 474 473
f 390 388 474
f 416 414 451
f 366 506 508
f 416 451 449
f 366 364 506
f 392 473 475
f 392 390 473
f 418 416 449
f 368 508 510
f 418 445 438
f 368 366 508
f 418 449 445
f 394 475 477
f 394 392 475
f 370 428 427
f 420 418 438
f 370 510 428
f 370 368 510
f 420 438 437
f 396 480 479
f 396 477 480
f 396 394 477
f 345 427 430
f 422 437 436
f 422 420 437
f 398 479 482
f 345 370 427
f 346 430 263
f 398 396 479
f 346 345 430
f 424 436 440
f 372 398 482
f 424 422 436
f 372 484 487
f 372 482 484
f 267 346 263
f 401 424 440
f 401 443 448
f 401 440 443
f 373 372 487
f 402 448 457
f 402 401 448
f 399 375 540
f 399 540 534
f 399 534 533
f 399 376 375
f 371 573 571
f 400 399 533
f 371 347 573
f 400 533 528
f 371 348 347
f 343 245 240
f 343 240 515
f 423 400 528
f 374 571 569
f 423 528 524
f 344 515 511
f 374 371 571
f 344 343 515
f 344 511 512
f 421 423 524
f 397 569 568
f 421 524 523
f 397 568 566
f 421 523 526
f 369 512 597
f 397 374 569
f 369 344 512
f 419 421 526
f 395 566 564
f 419 526 529
f 367 597 596
f 395 397 566
f 367 369 597
f 393 564 562
f 393 395 564
f 417 419 529
f 417 529 530
f 365 367 596
f 365 596 594
f 365 594 592
f 415 530 536
f 415 417 530
f 415 536 545
f 391 562 561
f 391 561 560
f 363 592 590
f 391 393 562
f 363 365 592
f 413 545 548
f 389 560 558
f 413 415 545
f 389 391 560
f 361 590 588
f 361 363 590
f 411 548 552
f 387 558 556
f 411 413 548
f 387 389 558
f 359 588 587
f 359 587 585
f 359 361 588
f 409 552 553
f 409 411 552
f 385 556 554
f 385 387 556
f 357 585 583
f 407 553 555
f 357 359 585
f 407 555 557
f 383 385 554
f 383 554 551
f 383 551 550
f 407 409 553
f 355 583 581
f 355 357 583
f 405 557 559
f 381 383 550
f 381 550 549
f 405 407 557
f 403 559 169
f 353 581 579
f 353 355 581
f 403 405 559
f 379 381 549
f 379 549 543
f 379 543 540
f 175 403 169
f 351 579 577
f 351 577 576
f 351 353 579
f 375 379 540
f 347 576 573
f 347 351 576
f 620 433 432
f 646 509 425
f 93 620 432
f 642 646 425
f 93 432 94
f 642 425 426
f 636 642 426
f 636 426 429
f 630 636 431
f 85 87 476
f 640 85 476
f 636 429 431
f 630 431 434
f 623 630 434
f 635 640 478
f 640 476 478
f 618 623 439
f 631 635 481
f 623 434 439
f 635 478 481
f 613 618 441
f 618 439 441
f 627 631 483
f 631 481 483
f 609 613 446
f 627 483 485
f 613 441 446
f 622 627 485
f 602 609 450
f 609 446 450
f 622 485 488
f 617 622 488
f 603 602 454
f 602 450 454
f 617 488 490
f 611 617 490
f 667 603 458
f 603 454 458
f 611 490 492
f 606 611 492
f 663 667 460
f 667 458 460
f 606 492 494
f 607 606 494
f 659 663 459
f 663 460 459
f 607 494 496
f 599 607 496
f 655 659 455
f 599 496 498
f 665 599 498
f 659 459 455
f 655 455 453
f 651 655 453
f 665 498 500
f 662 665 500
f 651 453 447
f 645 651 447
f 662 500 502
f 657 662 502
f 645 447 444
f 641 645 444
f 657 502 505
f 654 657 505
f 641 444 442
f 633 641 442
f 654 505 507
f 649 654 507
f 633 442 435
f 625 633 435
f 649 507 509
f 646 649 509
f 625 435 433
f 620 625 433
f 621 522 520
f 628 621 520
f 11 563 12
f 628 520 518
f 637 628 518
f 637 518 516
f 5 7 517
f 643 637 514
f 616 5 517
f 637 516 514
f 647 643 513
f 626 616 519
f 643 514 513
f 616 517 519
f 650 647 598
f 634 626 521
f 647 513 598
f 626 519 521
f 653 650 595
f 650 598 595
f 639 634 525
f 634 521 525
f 658 653 593
f 653 595 593
f 644 639 531
f 639 525 531
f 660 658 591
f 658 593 591
f 644 531 535
f 648 644 535
f 666 660 589
f 660 591 589
f 600 666 586
f 648 535 539
f 652 648 539
f 666 589 586
f 652 539 542
f 656 652 542
f 600 586 584
f 601 600 584
f 656 542 544
f 661 656 544
f 601 584 582
f 661 544 547
f 601 582 580
f 608 601 580
f 661 547 546
f 664 661 546
f 608 580 578
f 612 608 578
f 664 546 541
f 668 664 541
f 612 578 575
f 614 612 575
f 668 541 538
f 604 668 538
f 614 575 574
f 619 614 574
f 604 538 537
f 605 604 537
f 619 574 572
f 624 619 572
f 605 537 532
f 624 572 570
f 610 605 532
f 629 624 570
f 629 570 567
f 610 532 527
f 615 610 527
f 632 629 567
f 632 567 565
f 638 632 565
f 615 527 522
f 621 615 522
f 638 565 563
f 11 638 563
