# Created by FreeCAD <http://www.freecadweb.org>
v -13.350000 197.714325 49.995838
v -13.000000 197.473251 49.404202
v -13.000000 197.833984 49.356712
v -13.350000 197.473251 50.010422
v -13.350000 197.951874 49.952305
v -13.350000 198.182465 49.880455
v -13.000000 198.170135 49.217472
v -13.350000 198.402695 49.781334
v -13.350000 198.609375 49.656387
v -13.000000 198.458801 48.995975
v -13.350000 198.799500 49.507442
v -13.350000 198.970276 49.336666
v -13.350000 199.119217 49.146549
v -13.000000 198.680298 48.707314
v -13.350000 199.244156 48.939869
v -13.350000 199.343277 48.719631
v -13.000000 198.819534 48.371159
v -13.350000 199.415131 48.489052
v -13.350000 199.458664 48.251495
v -13.000000 198.867035 48.010422
v -13.350000 199.473251 48.010422
v -13.350000 199.458664 47.769348
v -13.000000 198.819534 47.649685
v -13.350000 199.415131 47.531792
v -13.350000 199.343277 47.301212
v -13.000000 198.680298 47.313530
v -13.350000 199.244156 47.080975
v -13.350000 199.119217 46.874290
v -13.000000 198.458801 47.024868
v -13.350000 198.970276 46.684177
v -13.350000 198.799500 46.513401
v -13.350000 198.609375 46.364452
v -13.000000 198.170135 46.803371
v -13.350000 198.402695 46.239510
v -13.350000 198.182465 46.140388
v -13.000000 197.833984 46.664131
v -13.350000 197.951874 46.068539
v -13.350000 197.714325 46.025005
v -13.000000 197.473251 46.616638
v -13.350000 197.473251 46.010422
v -35.836243 196.633392 46.965096
v -35.812397 197.108505 46.760422
v -35.900002 196.751556 46.760422
v -35.794510 196.513535 47.172695
v -35.836243 196.148041 48.215096
v -35.830833 196.160599 47.784008
v -35.900002 196.029877 48.010422
v -35.789001 196.293640 47.553551
v -35.794510 196.267899 48.422695
v -35.830833 196.620834 49.034008
v -35.900002 196.751556 49.260422
v -35.812397 197.108505 49.260422
v -35.779602 196.403931 47.362545
v -35.450001 197.049057 47.426563
v -35.779423 197.473251 46.760422
v -35.450001 196.786880 47.787407
v -35.779602 196.377502 48.612545
v -35.450001 196.786880 48.233437
v -35.779423 197.473251 49.260422
v -35.450001 197.049057 48.594280
v -35.789001 196.487793 48.803551
v -35.000000 197.473251 48.010422
v -35.224998 197.361740 47.667236
v -35.224998 197.261154 47.718491
v -35.224998 197.181320 47.798321
v -35.224998 197.261154 48.302349
v -35.224998 197.361740 48.353603
v -35.224998 197.116852 48.066868
v -35.112499 197.312485 48.092331
v -35.000000 195.491119 48.964966
v -35.000000 195.396698 48.737034
v -34.993187 195.445557 48.719940
v -34.993187 195.378876 48.488449
v -34.799999 195.531372 47.531792
v -34.799999 195.487823 47.769348
v -34.851765 195.524750 47.530159
v -34.900002 195.505356 47.525379
v -34.900002 195.578156 47.291710
v -34.851765 195.596848 47.298794
v -34.993187 195.338516 48.250946
v -34.973206 195.425903 48.477715
v -34.973206 195.386459 48.245548
v -34.941422 195.414673 48.010422
v -34.941422 195.427612 48.240910
v -34.900002 195.461227 47.766117
v -34.900002 195.446457 48.010422
v -34.993187 195.537750 48.942505
v -34.851765 195.481064 47.768528
v -34.973206 195.491089 48.704006
v -34.941422 195.466278 48.468498
v -34.900002 195.459198 48.237350
v -35.000000 195.610458 49.180893
v -34.993187 195.654282 49.153351
v -35.000000 195.753220 49.382099
v -34.799999 195.473251 48.010422
v -34.851765 195.466431 48.010422
v -34.973206 195.581207 48.921577
v -34.941422 195.530197 48.690327
v -34.900002 195.497269 48.461426
v -34.993187 195.793686 49.349823
v -34.799999 195.487823 48.251495
v -34.851765 195.479050 48.235115
v -34.973206 195.695129 49.127689
v -34.941422 195.618530 48.903606
v -34.900002 195.560196 48.679829
v -35.000000 195.917618 49.566055
v -34.993187 195.954224 49.529453
v -34.799999 195.531372 48.489052
v -34.851765 195.516754 48.456978
v -34.973206 195.831406 49.319748
v -34.941422 195.730194 49.105652
v -34.900002 195.647171 48.889816
v -35.000000 196.101578 49.730450
v -34.993187 196.133850 49.689980
v -34.851765 195.579056 48.673229
v -34.799999 195.603210 48.719631
v -34.973206 195.988327 49.495346
v -35.000000 196.302780 49.873215
v -34.993187 196.252914 49.778385
v -34.941422 195.863785 49.293922
v -34.900002 195.757111 49.088741
v -34.799999 195.702332 48.939869
v -34.851765 195.665176 48.881145
v -34.973206 196.163925 49.652267
v -34.941422 196.017609 49.466057
v -35.000000 196.518707 49.992554
v -34.993187 196.474915 49.912590
v -34.973206 196.280319 49.738686
v -34.900002 195.888641 49.274109
v -34.799999 195.827286 49.146549
v -34.851765 195.774033 49.078110
v -34.941422 196.189743 49.619884
v -34.993187 196.711472 50.019058
v -35.000000 196.746628 50.086964
v -34.900002 196.040085 49.443581
v -34.973206 196.497330 49.869881
v -34.941422 196.303848 49.704597
v -34.851765 195.904251 49.261650
v -34.799999 195.976227 49.336666
v -34.993187 196.959137 50.096233
v -35.000000 196.983704 50.155262
v -35.000000 197.473251 50.210423
v -35.000000 197.226929 50.196587
v -34.993187 197.473251 50.158657
v -34.900002 196.209564 49.595032
v -34.973206 196.728577 49.973957
v -34.851765 196.054214 49.429455
v -34.799999 196.147003 49.507442
v -34.941422 196.516586 49.833202
v -34.900002 196.321899 49.678440
v -34.993187 197.214310 50.142994
v -34.973206 196.970688 50.049400
v -34.799999 196.337112 49.656387
v -34.851765 196.222015 49.579411
v -34.941422 196.743271 49.935226
v -34.851765 197.473251 50.017235
v -34.799999 197.232178 49.995838
v -34.799999 197.473251 50.010422
v -35.000000 197.473251 45.810421
v -34.993187 197.473251 45.862186
v -34.993187 197.232727 45.875694
v -35.000000 197.226929 45.824253
v -34.900002 196.531357 49.805058
v -35.000000 196.983704 45.865582
v -34.993187 196.995224 45.916046
v -35.000000 196.746628 45.933876
v -34.851765 196.333252 49.661999
v -34.973206 197.473251 50.110420
v -34.973206 197.220123 50.095108
v -34.973206 197.473251 45.910419
v -34.973206 197.238129 45.923626
v -34.941422 197.473251 45.951843
v -34.941422 196.980591 50.009182
v -34.993187 196.763733 45.982738
v -35.000000 196.518707 46.028290
v -34.900002 196.754532 49.905506
v -34.973206 197.005951 45.963074
v -34.799999 196.543808 49.781334
v -34.851765 196.540634 49.787369
v -34.941422 197.473251 50.069000
v -34.941422 197.225113 50.053989
v -34.941422 197.242767 45.964787
v -34.900002 196.988205 49.978321
v -34.993187 196.541168 46.074928
v -34.851765 196.761627 49.886826
v -34.799999 196.764038 49.880455
v -34.973206 196.779663 46.028267
v -34.900002 197.473251 50.037216
v -34.900002 197.228943 50.022438
v -34.941422 197.015167 46.003456
v -34.851765 196.992981 49.958923
v -34.900002 197.246323 45.996372
v -34.900002 197.473251 45.983627
v -34.799999 196.994614 49.952305
v -34.851765 197.231354 50.002605
v -35.000000 196.302780 46.147629
v -34.993187 196.330322 46.191456
v -35.000000 196.101578 46.290394
v -34.973206 196.562088 46.118385
v -34.941422 196.793350 46.067364
v -34.900002 197.022247 46.034443
v -34.993187 196.133850 46.330864
v -34.799999 197.473251 46.010422
v -34.799999 197.232178 46.025005
v -34.851765 197.248550 46.016224
v -34.851765 197.473251 46.003605
v -34.973206 196.355988 46.232300
v -34.941422 196.580063 46.155704
v -34.900002 196.803833 46.097363
v -35.000000 195.917618 46.454784
v -34.993187 195.954224 46.491390
v -34.799999 196.994614 46.068539
v -34.851765 197.026688 46.053921
v -34.973206 196.163925 46.368576
v -34.941422 196.378021 46.267372
v -34.900002 196.593857 46.184341
v -35.000000 195.753220 46.638744
v -34.993187 195.793686 46.671017
v -34.799999 196.764038 46.140388
v -34.851765 196.810440 46.116222
v -34.973206 195.988327 46.525497
v -34.993187 195.705292 46.790085
v -35.000000 195.610458 46.839951
v -34.941422 196.189743 46.400959
v -34.900002 196.394928 46.294285
v -34.799999 196.543808 46.239510
v -34.851765 196.602524 46.202343
v -34.973206 195.831406 46.701092
v -34.941422 196.017609 46.554787
v -34.993187 195.571075 47.012085
v -35.000000 195.491119 47.055878
v -34.973206 195.744980 46.817486
v -34.900002 196.209564 46.425808
v -34.799999 196.337112 46.364452
v -34.851765 196.405563 46.311203
v -34.941422 195.863785 46.726917
v -34.993187 195.464615 47.248646
v -35.000000 195.396698 47.283806
v -34.900002 196.040085 46.577259
v -34.973206 195.613785 47.034504
v -34.941422 195.779068 46.841015
v -34.799999 196.147003 46.513401
v -34.851765 196.222015 46.441429
v -34.993187 195.387436 47.496315
v -35.000000 195.328400 47.520874
v -34.900002 195.888641 46.746735
v -34.973206 195.509720 47.265751
v -34.851765 196.054214 46.591389
v -34.799999 195.976227 46.684177
v -34.941422 195.650467 47.053753
v -34.900002 195.805222 46.859070
v -35.000000 195.287079 47.764099
v -34.993187 195.340668 47.751480
v -34.973206 195.434265 47.507858
v -34.799999 195.827286 46.874290
v -34.851765 195.904251 46.759193
v -34.941422 195.548447 47.280437
v -34.900002 195.678604 47.068523
v -34.851765 195.821671 46.870419
v -34.993187 195.325012 48.010422
v -35.000000 195.273254 48.010422
v -34.973206 195.388565 47.757294
v -34.941422 195.474487 47.517773
v -35.000000 195.287079 48.256744
v -34.799999 195.702332 47.080975
v -34.851765 195.696304 47.077808
v -34.973206 195.373245 48.010422
v -34.941422 195.429672 47.762287
v -35.000000 195.328400 48.499966
v -34.799999 195.603210 47.301212
v -35.771660 194.943298 45.669544
v -35.000000 195.293655 44.897644
v -35.000000 195.030655 45.099453
v -35.000000 194.786240 45.323414
v -35.000000 194.562286 45.567829
v -35.000000 194.360474 45.830830
v -35.000000 194.182358 46.110420
v -35.485630 194.088623 46.780647
v -36.439434 194.791519 46.780647
v -36.525990 195.815750 45.669544
v -35.000000 193.730972 47.350559
v -35.000000 193.673248 48.010422
v -35.338722 193.804047 48.010422
v -35.664215 193.964966 48.010422
v -37.200001 196.337112 46.364452
v -37.200001 196.764038 46.140388
v -37.200001 195.976227 46.684177
v -37.131519 195.753189 46.780647
v -35.973804 194.154678 48.010422
v -35.656937 196.084534 44.784328
v -35.000000 196.813385 44.268150
v -35.000000 196.489731 44.339905
v -35.000000 196.173569 44.439590
v -35.000000 195.867294 44.566452
v -35.000000 195.573242 44.719524
v -36.928459 196.896576 45.669544
v -37.200001 197.232178 46.025005
v -37.131519 199.193314 46.780647
v -37.200001 198.970276 46.684177
v -37.200001 199.244156 47.080975
v -36.928459 198.049911 45.669544
v -37.200001 197.714325 46.025005
v -37.200001 198.182465 46.140388
v -36.053486 196.982452 44.784328
v -35.000000 197.473251 44.210423
v -35.000000 197.142059 44.224880
v -35.000000 201.215515 47.350559
v -35.338722 201.142456 48.010422
v -35.000000 201.273254 48.010422
v -35.664215 200.981537 48.010422
v -35.973804 200.791824 48.010422
v -37.200001 195.531372 47.531792
v -36.782539 194.879944 48.010422
v -37.004723 195.167130 48.010422
v -37.200001 195.473251 48.010422
v -36.439434 200.154984 46.780647
v -37.200001 199.415131 47.531792
v -36.782539 200.066544 48.010422
v -36.264957 200.574860 48.010422
v -36.535275 200.332443 48.010422
v -36.525990 199.130753 45.669544
v -37.200001 198.609375 46.364452
v -36.053486 197.964050 44.784328
v -35.000000 198.133118 44.268150
v -35.000000 197.804443 44.224880
v -35.485630 200.857864 46.780647
v -35.000000 201.044083 46.710743
v -35.000000 200.917221 46.404472
v -35.000000 200.764145 46.110420
v -35.771660 200.003189 45.669544
v -35.000000 200.586029 45.830830
v -35.000000 200.384216 45.567829
v -35.000000 200.160248 45.323414
v -35.000000 199.915848 45.099453
v -35.000000 199.652832 44.897644
v -35.656937 198.861969 44.784328
v -35.000000 199.373245 44.719524
v -35.000000 199.079193 44.566452
v -35.000000 198.772919 44.439590
v -35.000000 198.456757 44.339905
v -36.382725 196.439285 45.192741
v -36.576611 197.515564 45.192741
v -36.382725 198.507217 45.192741
v -37.200001 199.473251 48.010422
v -37.004723 199.779358 48.010422
v -35.000000 194.029282 46.404472
v -35.000000 193.902420 46.710743
v -36.264957 194.371643 48.010422
v -36.535275 194.614059 48.010422
v -37.200001 195.702332 47.080975
v -34.799999 199.415131 47.531792
v -34.799999 199.458664 47.769348
v -34.799999 199.343277 47.301212
v -34.799999 199.244156 47.080975
v -34.799999 197.714325 49.995838
v -34.799999 199.119217 46.874290
v -34.799999 197.951874 49.952305
v -34.799999 198.970276 46.684177
v -34.799999 198.182465 49.880455
v -34.799999 198.799500 46.513401
v -34.799999 198.402695 49.781334
v -34.799999 198.609375 46.364452
v -34.799999 198.609375 49.656387
v -34.799999 198.402695 46.239510
v -34.799999 198.799500 49.507442
v -34.799999 198.182465 46.140388
v -34.799999 197.951874 46.068539
v -34.799999 198.970276 49.336666
v -34.799999 197.714325 46.025005
v -34.799999 199.119217 49.146549
v -34.799999 199.244156 48.939869
v -34.799999 199.343277 48.719631
v -34.799999 199.415131 48.489052
v -34.799999 199.458664 48.251495
v -34.799999 199.473251 48.010422
v -13.350000 195.531372 48.489052
v -13.350000 195.603210 48.719631
v -13.350000 195.702332 48.939869
v -13.350000 197.232178 46.025005
v -13.350000 195.827286 49.146549
v -13.350000 196.994614 46.068539
v -13.350000 195.976227 49.336666
v -13.350000 196.764038 46.140388
v -13.350000 196.543808 46.239510
v -13.350000 196.147003 49.507442
v -13.350000 196.337112 49.656387
v -13.350000 196.337112 46.364452
v -13.350000 196.543808 49.781334
v -13.350000 196.764038 49.880455
v -13.350000 196.994614 49.952305
v -13.350000 196.147003 46.513401
v -13.350000 195.976227 46.684177
v -13.350000 197.232178 49.995838
v -13.350000 195.827286 46.874290
v -13.350000 195.702332 47.080975
v -13.350000 195.603210 47.301212
v -13.350000 195.531372 47.531792
v -13.350000 195.487823 47.769348
v -13.350000 195.473251 48.010422
v -13.350000 195.487823 48.251495
v -37.200001 198.916626 48.010422
v -37.200001 199.415131 48.489052
v -37.200001 197.473251 46.567047
v -37.200001 195.976227 49.336666
v -37.200001 196.337112 49.656387
v -37.200001 196.452621 49.031040
v -37.200001 197.846817 46.616226
v -37.200001 198.867447 47.636848
v -37.200001 195.702332 48.939869
v -37.200001 196.223251 48.732109
v -37.200001 198.194931 46.760422
v -37.200001 196.764038 49.880455
v -37.200001 196.751556 49.260422
v -37.200001 198.723251 47.288734
v -37.200001 195.531372 48.489052
v -37.200001 196.079056 48.383995
v -37.200001 198.493866 46.989799
v -37.200001 197.232178 49.995838
v -37.200001 197.099670 49.404613
v -37.200001 196.029877 48.010422
v -37.200001 197.714325 49.995838
v -37.200001 197.473251 49.453796
v -37.200001 198.182465 49.880455
v -37.200001 197.846817 49.404613
v -37.200001 196.079056 47.636848
v -37.200001 198.194931 49.260422
v -37.200001 196.223251 47.288734
v -37.200001 198.609375 49.656387
v -37.200001 196.452621 46.989799
v -37.200001 198.493866 49.031040
v -37.200001 198.970276 49.336666
v -37.200001 196.751556 46.760422
v -37.200001 198.723251 48.732109
v -37.200001 199.244156 48.939869
v -37.200001 198.867447 48.383995
v -37.200001 197.099670 46.616226
v -36.525990 195.815750 50.351299
v -35.771660 194.943298 50.351299
v -35.656937 196.084534 51.236515
v -36.439434 194.791519 49.240196
v -35.485630 194.088623 49.240196
v -36.053486 197.964050 51.236515
v -35.000000 197.473251 51.810421
v -35.000000 197.804443 51.795959
v -35.000000 198.133118 51.752689
v -36.053486 196.982452 51.236515
v -36.928459 196.896576 50.351299
v -37.131519 195.753189 49.240196
v -36.928459 198.049911 50.351299
v -35.656937 198.861969 51.236515
v -35.000000 198.456757 51.680939
v -35.000000 198.772919 51.581253
v -35.000000 199.079193 51.454391
v -35.000000 199.373245 51.301319
v -35.000000 199.652832 51.123199
v -36.525990 199.130753 50.351299
v -35.771660 200.003189 50.351299
v -35.000000 199.915848 50.921391
v -35.000000 200.160248 50.697426
v -35.000000 200.384216 50.453014
v -35.000000 200.586029 50.190010
v -35.000000 200.764145 49.910419
v -37.131519 199.193314 49.240196
v -36.439434 200.154984 49.240196
v -35.000000 193.730972 48.670284
v -35.485630 200.857864 49.240196
v -35.000000 200.917221 49.616371
v -35.000000 201.044083 49.310097
v -35.000000 201.215515 48.670284
v -36.382725 196.439285 50.828102
v -36.576611 197.515564 50.828102
v -36.382725 198.507217 50.828102
v -35.000000 195.293655 51.123199
v -35.000000 195.573242 51.301319
v -35.000000 195.867294 51.454391
v -35.000000 196.173569 51.581253
v -35.000000 196.489731 51.680939
v -35.000000 196.813385 51.752689
v -35.000000 194.182358 49.910419
v -35.000000 194.360474 50.190010
v -35.000000 194.562286 50.453014
v -35.000000 194.786240 50.697426
v -35.000000 195.030655 50.921391
v -35.000000 193.902420 49.310097
v -35.000000 194.029282 49.616371
v -35.000000 197.142059 51.795959
v -35.000000 197.719574 45.824253
v -35.000000 197.962799 45.865582
v -35.000000 198.199860 45.933876
v -35.000000 198.427795 46.028290
v -35.000000 198.643723 46.147629
v -35.000000 198.844925 46.290394
v -35.000000 199.028885 46.454784
v -35.000000 199.193283 46.638744
v -35.000000 199.336044 46.839951
v -35.000000 199.455383 47.055878
v -35.000000 199.549789 47.283806
v -35.000000 199.618088 47.520874
v -35.000000 199.659409 47.764099
v -35.000000 199.659409 48.256744
v -35.000000 199.673248 48.010422
v -35.000000 197.719574 50.196587
v -35.000000 197.962799 50.155262
v -35.000000 199.618088 48.499966
v -35.000000 198.199860 50.086964
v -35.000000 199.455383 48.964966
v -35.000000 199.549789 48.737034
v -35.000000 198.427795 49.992554
v -35.000000 198.643723 49.873215
v -35.000000 199.336044 49.180893
v -35.000000 198.844925 49.730450
v -35.000000 199.193283 49.382099
v -35.000000 199.028885 49.566055
v -34.993187 199.567627 47.532394
v -34.993187 199.607971 47.769894
v -34.973206 199.520599 47.543129
v -34.973206 199.560043 47.775295
v -34.973206 199.573242 48.010422
v -34.941422 199.518890 47.779934
v -34.941422 199.531830 48.010422
v -34.900002 199.485260 48.254723
v -34.900002 199.500046 48.010422
v -34.993187 199.408737 47.078335
v -34.993187 199.500931 47.300903
v -34.851765 199.465439 48.252316
v -34.851765 199.421753 48.490685
v -34.973206 199.455399 47.316833
v -34.941422 199.480209 47.552345
v -34.900002 199.487305 47.783493
v -34.993187 199.292206 46.867489
v -34.851765 199.480057 48.010422
v -34.973206 199.365280 47.099266
v -34.941422 199.416306 47.330517
v -34.900002 199.449234 47.559418
v -34.993187 199.152802 46.671017
v -34.851765 199.467438 47.785728
v -34.973206 199.251373 46.893154
v -34.941422 199.327957 47.117237
v -34.900002 199.386307 47.341015
v -34.993187 198.992279 46.491390
v -34.851765 199.429749 47.563862
v -34.973206 199.115097 46.701092
v -34.993187 198.897797 46.402443
v -34.941422 199.216293 46.915192
v -34.900002 199.299332 47.131027
v -34.851765 199.367447 47.347610
v -34.973206 198.958176 46.525497
v -34.993187 198.693588 46.242458
v -34.941422 199.082703 46.726917
v -34.973206 198.865799 46.438549
v -34.900002 199.189392 46.932102
v -34.851765 199.281326 47.139698
v -34.941422 198.928879 46.554787
v -34.993187 198.471588 46.108253
v -34.973206 198.666183 46.282154
v -34.900002 199.057861 46.746735
v -34.941422 198.838333 46.469551
v -34.851765 199.172470 46.942730
v -34.993187 198.235016 46.001785
v -34.900002 198.906403 46.577259
v -34.973206 198.449173 46.150963
v -34.941422 198.642654 46.316246
v -34.851765 199.042236 46.759193
v -34.900002 198.817261 46.493343
v -34.993187 197.987350 45.924610
v -34.973206 198.217926 46.046886
v -34.851765 198.892288 46.591389
v -34.941422 198.429916 46.187641
v -34.900002 198.624603 46.342403
v -34.851765 198.804016 46.508297
v -34.993187 197.732193 45.877850
v -34.973206 197.975815 45.971443
v -34.941422 198.203232 46.085617
v -34.900002 198.415146 46.215782
v -34.851765 198.613251 46.358845
v -34.973206 197.726379 45.925732
v -34.993187 197.713776 50.145149
v -34.941422 197.965897 46.011662
v -34.993187 197.951279 50.104797
v -34.900002 198.191956 46.115334
v -34.973206 197.708374 50.097218
v -34.851765 198.405869 46.233475
v -34.941422 197.721390 45.966850
v -34.993187 198.182770 50.038105
v -34.900002 197.958298 46.042522
v -34.973206 197.940536 50.057770
v -34.851765 198.184875 46.134018
v -34.900002 197.717545 45.998405
v -34.941422 197.703735 50.056057
v -34.851765 197.953506 46.061920
v -34.993187 198.405334 49.945915
v -34.851765 197.715149 46.018238
v -34.973206 198.166840 49.992577
v -34.941422 197.931320 50.017387
v -34.900002 197.700180 50.024471
v -34.993187 198.616180 49.829384
v -34.973206 198.384399 49.902454
v -34.941422 198.153152 49.953480
v -34.900002 197.924255 49.986401
v -34.993187 198.812653 49.689980
v -34.851765 197.697937 50.004616
v -34.973206 198.590515 49.788544
v -34.941422 198.366425 49.865135
v -34.900002 198.142654 49.923481
v -34.993187 198.992279 49.529453
v -34.851765 197.919800 49.966923
v -34.973206 198.782578 49.652267
v -34.941422 198.568481 49.753471
v -34.900002 198.352646 49.836502
v -34.993187 199.152802 49.349823
v -34.851765 198.136063 49.904621
v -34.973206 198.958176 49.495346
v -34.993187 199.241211 49.230759
v -34.941422 198.756744 49.619884
v -34.900002 198.551575 49.726559
v -34.851765 198.343979 49.818501
v -34.973206 199.115097 49.319748
v -34.941422 198.928879 49.466057
v -34.993187 199.375412 49.008755
v -34.973206 199.201508 49.203358
v -34.900002 198.736938 49.595032
v -34.851765 198.540939 49.709641
v -34.941422 199.082703 49.293922
v -34.993187 199.481888 48.772198
v -34.900002 198.906403 49.443581
v -34.973206 199.332703 48.986340
v -34.941422 199.167419 49.179829
v -34.851765 198.724472 49.579411
v -34.993187 199.559067 48.524529
v -34.900002 199.057861 49.274109
v -34.973206 199.436783 48.755093
v -34.851765 198.892288 49.429455
v -34.941422 199.296036 48.967091
v -34.900002 199.141266 49.161774
v -34.993187 199.605820 48.269363
v -34.973206 199.512222 48.512985
v -34.851765 199.042236 49.261650
v -34.941422 199.398056 48.740402
v -34.900002 199.267883 48.952320
v -34.851765 199.124832 49.150421
v -34.993187 199.621490 48.010422
v -34.973206 199.557938 48.263550
v -34.941422 199.472015 48.503071
v -34.900002 199.368332 48.729134
v -34.851765 199.250198 48.943035
v -34.941422 199.516815 48.258556
v -34.900002 199.441147 48.495464
v -34.851765 199.349655 48.722046
v -37.161011 197.795013 46.760422
v -37.177303 197.995071 46.760422
v -37.151989 197.594742 46.760422
v -37.151100 197.394196 46.760422
v -37.166637 197.072632 46.760422
v -37.160950 198.716156 47.663200
v -37.177246 198.816391 47.836811
v -37.151958 198.615921 47.489590
v -37.151115 198.515686 47.315975
v -37.166641 198.355316 47.038200
v -37.160950 198.395401 48.913200
v -37.177246 198.295166 49.086811
v -37.151958 198.495636 48.739590
v -37.151115 198.595871 48.565975
v -37.166641 198.756256 48.288200
v -37.160942 197.153046 49.260422
v -37.177258 196.952087 49.260422
v -37.151943 197.354034 49.260422
v -37.151134 197.554657 49.260422
v -37.166702 197.875061 49.260422
v -37.160950 196.230347 48.357643
v -37.177246 196.130112 48.184032
v -37.151958 196.330582 48.531254
v -37.151115 196.430817 48.704865
v -37.166641 196.591187 48.982643
v -37.160950 196.551086 47.107643
v -37.177246 196.651321 46.934032
v -37.151958 196.450851 47.281254
v -37.151115 196.350616 47.454865
v -37.166641 196.190247 47.732643
v -35.836243 198.313110 49.055748
v -35.812244 197.839798 49.260422
v -35.900002 198.194931 49.260422
v -35.794510 198.432968 48.848148
v -35.836243 198.798462 47.805748
v -35.830833 198.785904 48.236832
v -35.900002 198.916626 48.010422
v -35.789001 198.652847 48.467289
v -35.794510 198.678604 47.598148
v -35.830833 198.325653 46.986832
v -35.900002 198.194931 46.760422
v -35.812244 197.839798 46.760422
v -35.779602 198.542572 48.658298
v -35.450001 197.897446 48.594280
v -35.450001 198.159607 48.233437
v -35.779602 198.568985 47.408298
v -35.450001 198.159607 47.787407
v -35.450001 197.897446 47.426563
v -35.789001 198.458710 47.217289
v -35.224998 197.584763 48.353603
v -35.224998 197.685349 48.302349
v -35.224998 197.765182 47.798321
v -35.224998 197.685349 47.718491
v -35.224998 197.584763 47.667236
v -35.112499 197.634003 48.092331
v -35.224998 197.829651 48.066868
v -13.000000 197.112518 46.664131
v -13.000000 196.776352 46.803371
v -13.000000 196.487701 47.024868
v -13.000000 196.266205 47.313530
v -13.000000 196.126953 47.649685
v -13.000000 196.079468 48.010422
v -13.000000 196.126953 48.371159
v -13.000000 196.266205 48.707314
v -13.000000 196.487701 48.995975
v -13.000000 196.776352 49.217472
v -13.000000 197.112518 49.356712
f 1 2 3
f 1 4 2
f 5 1 3
f 6 3 7
f 6 5 3
f 8 6 7
f 9 7 10
f 9 8 7
f 11 9 10
f 12 11 10
f 13 10 14
f 13 12 10
f 15 13 14
f 16 14 17
f 16 15 14
f 18 16 17
f 19 17 20
f 19 18 17
f 21 19 20
f 22 20 23
f 22 21 20
f 24 22 23
f 25 23 26
f 25 24 23
f 27 25 26
f 28 26 29
f 28 27 26
f 30 28 29
f 31 30 29
f 32 31 29
f 32 29 33
f 34 32 33
f 35 33 36
f 35 34 33
f 37 35 36
f 38 36 39
f 38 37 36
f 40 38 39
f 41 42 43
f 42 41 44
f 45 46 47
f 48 46 49
f 46 45 49
f 50 51 52
f 44 53 54
f 55 42 54
f 42 44 54
f 53 48 56
f 54 53 56
f 48 49 56
f 49 57 58
f 56 49 58
f 52 59 60
f 57 61 60
f 61 50 60
f 50 52 60
f 58 57 60
f 62 55 63
f 55 54 63
f 62 63 64
f 63 54 64
f 62 64 65
f 54 56 65
f 64 54 65
f 58 60 66
f 59 62 67
f 60 59 67
f 62 66 67
f 66 60 67
f 65 56 68
f 58 66 68
f 56 58 68
f 68 66 69
f 66 62 69
f 62 65 69
f 65 68 69
f 70 71 72
f 71 73 72
f 74 75 76
f 77 78 76
f 78 79 76
f 79 74 76
f 73 80 81
f 80 82 81
f 82 83 84
f 83 85 86
f 84 83 86
f 70 72 87
f 76 75 88
f 85 77 88
f 86 85 88
f 77 76 88
f 72 73 89
f 87 72 89
f 73 81 89
f 81 82 90
f 82 84 90
f 84 86 91
f 92 70 93
f 70 87 93
f 94 92 93
f 75 95 96
f 88 75 96
f 86 88 96
f 91 86 96
f 87 89 97
f 89 81 98
f 81 90 98
f 97 89 98
f 90 84 99
f 84 91 99
f 94 93 100
f 95 101 102
f 96 95 102
f 91 96 102
f 93 87 103
f 87 97 103
f 97 98 104
f 90 99 105
f 104 98 105
f 98 90 105
f 106 94 107
f 94 100 107
f 101 108 109
f 102 101 109
f 99 91 109
f 91 102 109
f 93 103 110
f 100 93 110
f 103 97 111
f 97 104 111
f 104 105 112
f 113 106 114
f 106 107 114
f 112 105 115
f 105 99 115
f 108 116 115
f 99 109 115
f 109 108 115
f 100 110 117
f 107 100 117
f 118 113 119
f 113 114 119
f 103 111 120
f 110 103 120
f 104 112 121
f 111 104 121
f 116 122 123
f 115 116 123
f 112 115 123
f 107 117 124
f 114 107 124
f 110 120 125
f 117 110 125
f 126 118 127
f 118 119 127
f 114 124 128
f 119 114 128
f 127 119 128
f 120 111 129
f 111 121 129
f 122 130 131
f 112 123 131
f 121 112 131
f 123 122 131
f 117 125 132
f 124 117 132
f 126 127 133
f 134 126 133
f 120 129 135
f 125 120 135
f 127 128 136
f 128 124 137
f 124 132 137
f 131 130 138
f 130 139 138
f 129 121 138
f 121 131 138
f 134 133 140
f 141 134 140
f 142 143 144
f 132 125 145
f 125 135 145
f 127 136 146
f 133 127 146
f 138 139 147
f 139 148 147
f 135 129 147
f 129 138 147
f 136 128 149
f 128 137 149
f 137 132 150
f 132 145 150
f 144 143 151
f 143 141 151
f 141 140 151
f 133 146 152
f 140 133 152
f 151 140 152
f 148 153 154
f 147 148 154
f 145 135 154
f 135 147 154
f 136 149 155
f 146 136 155
f 156 157 158
f 159 160 161
f 162 159 161
f 149 137 163
f 137 150 163
f 164 162 165
f 166 164 165
f 154 153 167
f 150 145 167
f 145 154 167
f 162 161 165
f 168 144 169
f 151 152 169
f 160 170 171
f 144 151 169
f 170 172 171
f 169 152 173
f 161 160 171
f 165 161 171
f 152 146 173
f 166 165 174
f 146 155 173
f 175 166 174
f 155 149 176
f 149 163 176
f 165 171 177
f 153 178 179
f 167 153 179
f 163 150 179
f 150 167 179
f 180 168 181
f 171 172 182
f 168 169 181
f 169 173 181
f 173 155 183
f 155 176 183
f 181 173 183
f 175 174 184
f 163 179 185
f 176 163 185
f 178 186 185
f 174 165 187
f 165 177 187
f 179 178 185
f 188 180 189
f 171 182 190
f 180 181 189
f 181 183 189
f 177 171 190
f 176 185 191
f 185 186 191
f 182 172 192
f 189 183 191
f 172 193 192
f 186 194 191
f 183 176 191
f 156 188 195
f 189 191 195
f 191 194 195
f 194 157 195
f 188 189 195
f 196 175 197
f 157 156 195
f 198 196 197
f 175 184 197
f 197 184 199
f 184 174 199
f 174 187 199
f 177 190 200
f 187 177 200
f 182 192 201
f 190 182 201
f 198 197 202
f 203 204 205
f 192 193 205
f 193 206 205
f 206 203 205
f 197 199 207
f 187 200 208
f 199 187 208
f 190 201 209
f 200 190 209
f 210 198 211
f 198 202 211
f 204 212 213
f 192 205 213
f 201 192 213
f 205 204 213
f 202 197 214
f 197 207 214
f 199 208 215
f 207 199 215
f 200 209 216
f 208 200 216
f 217 210 218
f 210 211 218
f 212 219 220
f 201 213 220
f 213 212 220
f 209 201 220
f 202 214 221
f 211 202 221
f 217 218 222
f 223 217 222
f 214 207 224
f 207 215 224
f 215 208 225
f 208 216 225
f 219 226 227
f 209 220 227
f 216 209 227
f 225 216 227
f 220 219 227
f 211 221 228
f 222 218 228
f 218 211 228
f 214 224 229
f 221 214 229
f 223 222 230
f 231 223 230
f 230 222 232
f 222 228 232
f 224 215 233
f 215 225 233
f 226 234 235
f 225 227 235
f 227 226 235
f 228 221 236
f 221 229 236
f 232 228 236
f 231 230 237
f 238 231 237
f 229 224 239
f 224 233 239
f 230 232 240
f 237 230 240
f 240 232 241
f 232 236 241
f 234 242 243
f 235 234 243
f 233 225 243
f 225 235 243
f 238 237 244
f 245 238 244
f 236 229 246
f 229 239 246
f 241 236 246
f 244 237 247
f 237 240 247
f 233 243 248
f 242 249 248
f 243 242 248
f 239 233 248
f 240 241 250
f 241 246 251
f 250 241 251
f 252 245 253
f 245 244 253
f 244 247 254
f 249 255 256
f 248 249 256
f 246 239 256
f 239 248 256
f 251 246 256
f 247 240 257
f 240 250 257
f 250 251 258
f 258 251 259
f 251 256 259
f 256 255 259
f 252 253 260
f 261 252 260
f 260 253 262
f 253 244 262
f 244 254 262
f 254 247 263
f 247 257 263
f 257 250 78
f 250 258 78
f 264 261 80
f 261 260 80
f 255 265 266
f 259 255 266
f 258 259 266
f 80 260 267
f 260 262 267
f 267 262 268
f 262 254 268
f 254 263 268
f 263 257 77
f 257 78 77
f 269 264 73
f 71 269 73
f 264 80 73
f 78 258 79
f 258 266 79
f 265 270 79
f 270 74 79
f 266 265 79
f 80 267 82
f 82 267 83
f 267 268 83
f 83 268 85
f 268 263 85
f 263 77 85
f 271 272 273
f 271 273 274
f 271 274 275
f 271 275 276
f 271 276 277
f 271 277 278
f 271 278 279
f 280 271 279
f 281 282 283
f 281 283 284
f 280 285 286
f 280 287 285
f 280 288 287
f 289 281 284
f 280 279 288
f 290 291 292
f 290 292 293
f 290 293 294
f 290 294 295
f 290 295 272
f 290 272 271
f 290 271 280
f 296 280 286
f 296 286 297
f 298 299 300
f 301 302 303
f 301 297 302
f 301 296 297
f 304 291 290
f 304 305 306
f 307 308 309
f 304 306 291
f 307 310 308
f 307 311 310
f 312 313 314
f 312 314 315
f 316 317 318
f 316 300 317
f 316 319 311
f 316 320 319
f 316 318 320
f 316 298 300
f 321 301 303
f 321 299 298
f 321 322 299
f 321 303 322
f 321 298 316
f 323 324 325
f 323 325 305
f 323 305 304
f 326 307 327
f 326 327 328
f 326 328 329
f 326 311 307
f 326 316 311
f 330 329 331
f 330 331 332
f 330 332 333
f 330 333 334
f 330 334 335
f 330 316 326
f 330 326 329
f 330 321 316
f 336 335 337
f 336 337 338
f 336 338 339
f 336 339 340
f 336 340 324
f 336 324 323
f 336 321 330
f 336 330 335
f 341 304 290
f 341 290 280
f 341 280 296
f 342 323 304
f 342 304 341
f 342 341 296
f 342 296 301
f 343 321 336
f 343 301 321
f 343 342 301
f 343 323 342
f 343 336 323
f 317 344 345
f 278 277 346
f 278 346 347
f 318 317 345
f 278 347 281
f 278 281 289
f 279 289 348
f 279 348 349
f 279 349 313
f 279 312 350
f 279 278 289
f 279 313 312
f 288 279 350
f 288 350 287
f 351 352 22
f 351 22 24
f 353 24 25
f 353 351 24
f 354 25 27
f 354 353 25
f 355 4 1
f 355 1 5
f 355 158 4
f 356 27 28
f 356 354 27
f 357 5 6
f 357 355 5
f 358 28 30
f 358 356 28
f 359 357 6
f 360 30 31
f 360 358 30
f 361 6 8
f 361 359 6
f 362 31 32
f 362 360 31
f 363 8 9
f 363 361 8
f 364 32 34
f 364 362 32
f 365 9 11
f 365 11 12
f 366 34 35
f 365 363 9
f 366 364 34
f 367 35 37
f 368 12 13
f 367 366 35
f 368 365 12
f 369 367 37
f 369 37 38
f 369 38 40
f 203 369 40
f 370 368 13
f 371 13 15
f 371 15 16
f 371 370 13
f 372 16 18
f 372 371 16
f 373 372 18
f 374 373 18
f 374 18 19
f 375 19 21
f 375 374 19
f 352 21 22
f 352 375 21
f 108 376 377
f 108 101 376
f 116 108 377
f 122 377 378
f 122 116 377
f 204 203 40
f 204 40 379
f 130 378 380
f 130 122 378
f 212 379 381
f 139 380 382
f 212 204 379
f 139 130 380
f 219 381 383
f 219 383 384
f 148 382 385
f 148 385 386
f 219 212 381
f 148 139 382
f 226 384 387
f 226 219 384
f 153 148 386
f 178 386 388
f 234 226 387
f 178 153 386
f 186 388 389
f 186 389 390
f 242 387 391
f 242 391 392
f 186 178 388
f 242 234 387
f 194 390 393
f 194 186 390
f 157 194 393
f 157 393 4
f 249 242 392
f 158 157 4
f 255 392 394
f 255 249 392
f 265 394 395
f 265 395 396
f 265 255 394
f 270 396 397
f 270 265 396
f 74 270 397
f 75 74 397
f 75 397 398
f 75 398 399
f 95 75 399
f 95 399 400
f 101 400 376
f 101 95 400
f 401 402 344
f 297 403 302
f 404 405 406
f 403 407 302
f 401 344 317
f 408 401 317
f 409 404 410
f 302 407 303
f 404 406 410
f 407 411 303
f 405 412 413
f 414 408 300
f 406 405 413
f 408 317 300
f 415 409 416
f 411 417 322
f 409 410 416
f 303 411 322
f 412 418 419
f 417 414 299
f 322 417 299
f 414 300 299
f 413 412 419
f 312 315 420
f 315 415 420
f 415 416 420
f 418 421 422
f 419 418 422
f 421 423 424
f 422 421 424
f 312 420 425
f 312 425 350
f 424 423 426
f 350 425 427
f 426 423 428
f 350 427 287
f 287 427 429
f 426 428 430
f 430 428 431
f 287 429 285
f 285 429 432
f 430 431 433
f 433 431 434
f 433 434 435
f 285 432 286
f 432 436 286
f 435 434 402
f 401 435 402
f 286 436 297
f 436 403 297
f 437 405 404
f 437 412 405
f 437 438 439
f 440 289 441
f 440 348 289
f 440 349 348
f 440 313 349
f 440 415 313
f 440 438 437
f 440 441 438
f 440 409 415
f 442 443 444
f 314 313 415
f 442 444 445
f 442 446 443
f 315 314 415
f 447 418 412
f 447 421 418
f 447 412 437
f 448 440 437
f 448 409 440
f 448 404 409
f 448 437 404
f 449 421 447
f 449 423 421
f 450 445 451
f 450 451 452
f 450 452 453
f 450 453 454
f 450 454 455
f 450 442 445
f 456 423 449
f 456 428 423
f 456 431 428
f 457 450 455
f 457 455 458
f 457 458 459
f 457 459 460
f 457 460 461
f 457 461 462
f 457 456 450
f 463 431 456
f 463 434 431
f 464 434 463
f 464 456 457
f 464 311 319
f 464 319 320
f 464 320 318
f 464 402 434
f 283 282 465
f 464 318 402
f 464 463 456
f 466 311 464
f 466 462 467
f 466 467 468
f 466 468 469
f 466 457 462
f 466 469 311
f 466 464 457
f 470 447 437
f 470 437 439
f 470 439 446
f 284 283 465
f 471 470 446
f 471 447 470
f 345 344 402
f 289 284 465
f 471 446 442
f 471 449 447
f 472 449 471
f 472 456 449
f 472 450 456
f 472 442 450
f 472 471 442
f 318 345 402
f 310 311 469
f 308 310 469
f 309 308 469
f 439 473 474
f 439 474 475
f 439 475 476
f 439 476 477
f 439 477 478
f 438 479 480
f 438 480 481
f 438 481 482
f 438 482 483
f 438 483 473
f 438 473 439
f 441 289 465
f 441 465 484
f 441 484 485
f 441 485 479
f 441 479 438
f 446 478 486
f 446 486 443
f 446 439 478
f 274 273 210
f 275 274 210
f 276 275 217
f 275 210 217
f 273 272 198
f 210 273 198
f 277 276 223
f 276 217 223
f 272 295 196
f 198 272 196
f 346 277 231
f 347 346 231
f 277 223 231
f 294 293 175
f 295 294 175
f 196 295 175
f 347 231 238
f 293 292 166
f 175 293 166
f 281 347 245
f 347 238 245
f 292 291 164
f 166 292 164
f 282 281 252
f 281 245 252
f 291 306 162
f 164 291 162
f 282 252 261
f 305 325 159
f 306 305 159
f 162 306 159
f 465 282 264
f 282 261 264
f 325 324 487
f 159 325 487
f 484 465 269
f 465 264 269
f 487 324 488
f 324 340 488
f 484 269 71
f 485 484 71
f 340 339 489
f 488 340 489
f 479 485 70
f 485 71 70
f 489 339 490
f 338 337 490
f 339 338 490
f 479 70 92
f 480 479 92
f 337 335 491
f 490 337 491
f 480 92 94
f 481 480 94
f 335 334 492
f 491 335 492
f 481 94 106
f 482 481 106
f 492 334 493
f 493 334 333
f 106 113 483
f 482 106 483
f 493 333 332
f 494 493 332
f 113 118 473
f 483 113 473
f 494 332 331
f 495 494 331
f 118 126 474
f 473 118 474
f 495 331 329
f 496 495 329
f 474 126 475
f 496 329 328
f 497 496 328
f 126 134 476
f 475 126 476
f 498 497 327
f 497 328 327
f 134 141 477
f 476 134 477
f 141 143 478
f 477 141 478
f 499 498 307
f 498 327 307
f 143 142 486
f 478 143 486
f 486 142 443
f 500 501 309
f 501 499 309
f 499 307 309
f 443 142 444
f 142 502 444
f 444 502 445
f 502 503 445
f 504 500 469
f 500 309 469
f 445 503 451
f 503 505 451
f 451 505 452
f 504 469 468
f 506 507 468
f 507 504 468
f 452 505 453
f 505 508 453
f 506 468 467
f 508 509 454
f 453 508 454
f 506 467 462
f 510 506 462
f 454 509 455
f 509 511 455
f 510 462 461
f 512 510 461
f 455 511 458
f 511 513 458
f 512 461 460
f 513 512 460
f 458 513 459
f 513 460 459
f 514 515 516
f 502 142 144
f 517 518 519
f 518 520 519
f 520 521 522
f 496 497 523
f 497 524 523
f 373 374 525
f 374 375 525
f 526 373 525
f 521 526 525
f 522 521 525
f 524 514 527
f 514 516 527
f 517 519 528
f 516 517 528
f 519 520 529
f 520 522 529
f 495 496 530
f 496 523 530
f 529 522 531
f 522 525 531
f 525 375 531
f 524 527 532
f 523 524 532
f 527 516 533
f 516 528 533
f 528 519 534
f 519 529 534
f 494 495 535
f 493 494 535
f 495 530 535
f 375 352 536
f 531 375 536
f 534 529 536
f 529 531 536
f 530 523 537
f 523 532 537
f 532 527 538
f 527 533 538
f 533 528 539
f 528 534 539
f 493 535 540
f 352 351 541
f 536 352 541
f 534 536 541
f 535 530 542
f 530 537 542
f 492 493 543
f 493 540 543
f 537 532 544
f 532 538 544
f 538 533 545
f 533 539 545
f 351 353 546
f 541 351 546
f 539 534 546
f 534 541 546
f 540 535 547
f 535 542 547
f 491 492 548
f 492 543 548
f 542 537 549
f 537 544 549
f 543 540 550
f 540 547 550
f 544 538 551
f 538 545 551
f 551 545 552
f 545 539 552
f 353 354 552
f 539 546 552
f 546 353 552
f 547 542 553
f 542 549 553
f 491 548 554
f 490 491 554
f 548 543 555
f 543 550 555
f 549 544 556
f 544 551 556
f 547 553 557
f 550 547 557
f 555 550 557
f 552 354 558
f 354 356 558
f 551 552 558
f 489 490 559
f 490 554 559
f 553 549 560
f 549 556 560
f 548 555 561
f 559 554 561
f 554 548 561
f 555 557 562
f 356 358 563
f 558 356 563
f 556 551 563
f 551 558 563
f 560 556 563
f 553 560 564
f 557 553 564
f 488 489 565
f 489 559 565
f 559 561 566
f 565 559 566
f 159 487 160
f 358 360 567
f 563 358 567
f 560 563 567
f 564 560 567
f 561 555 568
f 566 561 568
f 555 562 568
f 562 557 569
f 557 564 569
f 567 360 570
f 564 567 570
f 569 564 570
f 160 487 571
f 487 488 571
f 488 565 571
f 565 566 572
f 572 566 573
f 566 568 573
f 562 569 574
f 568 562 574
f 573 568 574
f 574 569 575
f 360 362 575
f 206 369 203
f 570 360 575
f 569 570 575
f 160 571 576
f 170 160 576
f 502 144 577
f 565 572 576
f 571 565 576
f 576 572 578
f 502 577 579
f 503 502 579
f 572 573 578
f 505 503 579
f 578 573 580
f 577 144 581
f 573 574 580
f 144 168 581
f 580 574 582
f 362 364 582
f 364 366 582
f 574 575 582
f 575 362 582
f 172 170 583
f 576 578 583
f 505 579 584
f 170 576 583
f 578 580 585
f 579 577 586
f 585 580 587
f 582 366 587
f 577 581 586
f 580 582 587
f 583 578 588
f 578 585 588
f 172 583 588
f 168 180 589
f 193 172 588
f 581 168 589
f 588 585 590
f 587 366 590
f 508 505 591
f 366 367 590
f 509 508 591
f 585 587 590
f 505 584 591
f 193 588 592
f 590 367 592
f 367 369 592
f 588 590 592
f 206 193 592
f 579 586 593
f 369 206 592
f 584 579 593
f 586 581 594
f 581 589 594
f 593 586 594
f 180 188 595
f 188 156 595
f 589 180 595
f 511 509 596
f 509 591 596
f 591 584 597
f 596 591 597
f 584 593 597
f 593 594 598
f 594 589 599
f 589 595 599
f 511 596 600
f 158 355 601
f 156 158 601
f 595 156 601
f 599 595 601
f 596 597 602
f 597 593 603
f 593 598 603
f 602 597 603
f 598 594 604
f 594 599 604
f 511 600 605
f 513 511 605
f 512 513 605
f 355 357 606
f 599 601 606
f 601 355 606
f 604 599 606
f 600 596 607
f 596 602 607
f 602 603 608
f 598 604 609
f 603 598 609
f 608 603 609
f 512 605 610
f 357 359 611
f 606 357 611
f 604 606 611
f 609 604 611
f 600 607 612
f 605 600 612
f 512 610 613
f 510 512 613
f 607 602 614
f 602 608 614
f 608 609 615
f 359 361 616
f 609 611 616
f 615 609 616
f 611 359 616
f 610 605 617
f 605 612 617
f 607 614 618
f 612 607 618
f 510 613 619
f 506 510 619
f 613 610 620
f 610 617 620
f 619 613 620
f 608 615 621
f 614 608 621
f 361 363 622
f 621 615 622
f 615 616 622
f 616 361 622
f 617 612 623
f 612 618 623
f 506 619 624
f 507 506 624
f 618 614 625
f 614 621 625
f 619 620 626
f 626 620 627
f 620 617 627
f 617 623 627
f 363 365 628
f 621 622 628
f 625 621 628
f 622 363 628
f 507 624 629
f 504 507 629
f 623 618 630
f 618 625 630
f 629 624 631
f 624 619 631
f 619 626 631
f 365 368 632
f 625 628 632
f 630 625 632
f 628 365 632
f 626 627 633
f 627 623 634
f 623 630 634
f 633 627 634
f 500 504 635
f 504 629 635
f 629 631 636
f 635 629 636
f 368 370 637
f 632 368 637
f 630 632 637
f 634 630 637
f 631 626 638
f 626 633 638
f 636 631 638
f 633 634 639
f 370 371 640
f 639 634 640
f 637 370 640
f 634 637 640
f 501 500 641
f 499 501 641
f 500 635 641
f 635 636 642
f 641 635 642
f 636 638 643
f 642 636 643
f 638 633 644
f 633 639 644
f 643 638 644
f 499 641 515
f 371 372 645
f 644 639 645
f 640 371 645
f 639 640 645
f 641 642 518
f 518 642 646
f 642 643 646
f 643 644 647
f 646 643 647
f 498 499 514
f 499 515 514
f 644 645 648
f 647 644 648
f 645 372 648
f 515 641 517
f 641 518 517
f 518 646 520
f 646 647 521
f 520 646 521
f 497 498 524
f 498 514 524
f 372 373 526
f 648 372 526
f 647 648 526
f 521 647 526
f 515 517 516
f 649 650 407
f 650 411 407
f 649 407 651
f 652 651 403
f 651 407 403
f 653 652 436
f 652 403 436
f 653 436 432
f 654 655 408
f 655 401 408
f 654 408 656
f 657 656 414
f 656 408 414
f 658 657 417
f 657 414 417
f 658 417 411
f 659 660 430
f 660 426 430
f 659 430 661
f 662 661 433
f 661 430 433
f 663 662 435
f 662 433 435
f 663 435 401
f 664 665 419
f 665 413 419
f 664 419 666
f 667 666 422
f 666 419 422
f 668 667 424
f 667 422 424
f 668 424 426
f 669 670 416
f 670 420 416
f 669 416 671
f 672 671 410
f 671 416 410
f 673 672 406
f 672 410 406
f 673 406 413
f 674 675 429
f 675 432 429
f 674 429 676
f 677 676 427
f 676 429 427
f 678 677 425
f 677 427 425
f 678 425 420
f 679 680 681
f 680 679 682
f 683 684 685
f 686 684 687
f 684 683 687
f 688 689 690
f 682 691 692
f 59 680 692
f 680 682 692
f 691 686 693
f 692 691 693
f 686 687 693
f 687 694 695
f 693 687 695
f 690 55 696
f 694 697 696
f 697 688 696
f 688 690 696
f 695 694 696
f 62 59 698
f 59 692 698
f 692 693 699
f 62 698 699
f 698 692 699
f 695 696 700
f 62 700 701
f 700 696 701
f 55 62 702
f 701 696 702
f 696 55 702
f 62 701 702
f 62 699 703
f 700 62 703
f 695 700 704
f 703 699 704
f 693 695 704
f 699 693 704
f 700 703 704
f 658 411 689
f 657 658 688
f 658 689 688
f 657 688 697
f 656 657 694
f 657 697 694
f 656 694 687
f 654 656 683
f 656 687 683
f 655 654 685
f 401 655 685
f 654 683 685
f 432 43 653
f 43 42 653
f 42 55 652
f 653 42 652
f 55 690 651
f 652 55 651
f 690 689 649
f 651 690 649
f 649 689 650
f 650 689 411
f 678 420 47
f 677 678 46
f 678 47 46
f 677 46 48
f 676 677 53
f 677 48 53
f 676 53 44
f 674 676 41
f 676 44 41
f 675 674 43
f 432 675 43
f 674 41 43
f 673 413 51
f 672 673 50
f 673 51 50
f 672 50 61
f 671 672 57
f 672 61 57
f 671 57 49
f 669 671 45
f 671 49 45
f 670 669 47
f 420 670 47
f 669 45 47
f 668 426 681
f 667 668 680
f 668 681 680
f 666 667 59
f 667 680 59
f 664 666 52
f 666 59 52
f 665 664 51
f 413 665 51
f 664 52 51
f 663 401 685
f 662 663 684
f 663 685 684
f 662 684 686
f 661 662 691
f 662 686 691
f 661 691 682
f 659 661 679
f 661 682 679
f 660 659 681
f 426 660 681
f 659 679 681
f 379 40 39
f 379 39 705
f 381 379 705
f 383 705 706
f 383 381 705
f 384 383 706
f 387 706 707
f 387 384 706
f 391 387 707
f 392 391 707
f 394 707 708
f 394 392 707
f 395 394 708
f 396 708 709
f 396 395 708
f 397 396 709
f 398 709 710
f 398 397 709
f 399 398 710
f 400 710 711
f 400 399 710
f 376 400 711
f 377 711 712
f 377 376 711
f 378 377 712
f 380 712 713
f 380 378 712
f 382 380 713
f 385 382 713
f 386 385 713
f 386 713 714
f 388 386 714
f 389 714 715
f 389 388 714
f 390 389 715
f 393 715 2
f 393 390 715
f 4 393 2
f 707 706 705
f 705 39 36
f 36 33 29
f 705 36 29
f 707 705 26
f 705 29 26
f 708 707 23
f 709 708 23
f 707 26 23
f 710 709 20
f 711 710 20
f 709 23 20
f 715 714 2
f 712 711 17
f 713 712 17
f 711 20 17
f 714 713 3
f 2 714 3
f 7 3 10
f 17 14 10
f 713 17 10
f 3 713 10
