# Created by FreeCAD <http://www.freecadweb.org>
v -26.350000 215.457672 496.259521
v -26.000000 214.839142 496.287872
v -26.000000 214.862625 496.121185
v -26.350000 215.423706 496.452820
v -26.350000 215.472534 496.063812
v -26.000000 214.865845 495.952911
v -26.350000 215.468140 495.867584
v -26.000000 214.848755 495.785492
v -26.350000 213.030838 497.960876
v -26.000000 213.033188 497.332916
v -26.000000 213.195801 497.376312
v -26.350000 212.841797 497.908112
v -26.350000 215.444534 495.672760
v -26.350000 213.224152 497.994843
v -26.000000 213.362473 497.399780
v -26.350000 215.401947 495.481140
v -26.000000 214.811615 495.621307
v -26.350000 213.419846 498.009705
v -26.000000 213.530746 497.403015
v -26.350000 215.340790 495.294647
v -26.000000 214.754959 495.462830
v -26.350000 213.616074 498.005310
v -26.000000 213.698181 497.385925
v -26.350000 215.261627 495.115051
v -26.000000 214.679611 495.312347
v -26.350000 215.165253 494.944061
v -26.000000 214.586670 495.172028
v -26.350000 213.810913 497.981720
v -26.350000 214.002518 497.939117
v -26.000000 213.862350 497.348785
v -26.350000 215.052597 494.783356
v -26.000000 214.477493 495.043915
v -26.350000 214.189011 497.877960
v -26.000000 214.020828 497.292145
v -26.350000 214.924713 494.634460
v -26.350000 214.368622 497.798798
v -26.000000 214.171341 497.216797
v -26.350000 214.782852 494.498810
v -26.000000 214.353668 494.929932
v -26.350000 214.628387 494.377747
v -26.000000 214.217010 494.831665
v -26.350000 214.539597 497.702423
v -26.000000 214.311661 497.123840
v -26.350000 214.462799 494.272369
v -26.000000 214.069504 494.750610
v -26.350000 214.287674 494.183746
v -26.000000 213.913300 494.687927
v -26.350000 214.700302 497.589752
v -26.000000 214.439743 497.014679
v -26.350000 214.104706 494.112732
v -26.350000 214.849197 497.461884
v -26.350000 214.984848 497.320038
v -26.000000 214.553757 496.890839
v -26.350000 215.105927 497.165558
v -26.000000 214.651993 496.754181
v -26.350000 215.211288 496.999969
v -26.000000 214.733047 496.606689
v -26.350000 215.299911 496.824860
v -26.000000 214.795731 496.450470
v -26.350000 215.370941 496.641876
v -34.779423 213.867905 494.824371
v -34.450001 213.255096 495.322510
v -34.224998 213.475800 495.649597
v -34.000000 213.473251 496.010406
v -34.224998 213.364166 495.666473
v -34.450001 212.892395 495.582123
v -34.224998 213.263214 495.717010
v -34.450001 212.751572 496.005310
v -34.450001 212.886414 496.430481
v -34.224998 213.179825 496.220459
v -34.779423 213.078583 497.196472
v -34.224998 213.259094 496.300842
v -34.812397 213.521820 494.709198
v -34.850430 213.351089 494.652405
v -34.841705 213.024170 494.737610
v -34.224998 213.117249 495.951447
v -34.112499 213.294846 496.037384
v -34.900002 213.183136 494.596497
v -34.800873 212.863205 494.880493
v -34.817741 212.347946 495.337891
v -34.854034 212.225098 495.446930
v -34.841705 212.146423 495.762939
v -34.900002 212.103699 495.554718
v -34.800873 212.189682 495.973785
v -34.817741 212.328171 496.648682
v -34.854034 212.361191 496.809601
v -34.850430 212.561768 497.024506
v -34.900002 212.393814 496.968628
v -34.812397 212.732498 497.081329
v -34.782917 212.731079 494.997772
v -34.788021 213.694397 494.766632
v -34.780411 212.597382 495.116486
v -34.792679 212.472092 495.227692
v -34.782917 212.225204 496.146851
v -34.780411 212.261139 496.321991
v -34.788021 212.905075 497.138733
v -34.792679 212.294800 496.486084
v -33.973206 212.128159 494.397736
v -33.941422 212.306183 494.314636
v -33.941422 212.154694 494.429535
v -33.973206 212.028503 494.486389
v -33.993187 211.719559 494.769653
v -33.993187 211.849609 494.603760
v -33.973206 211.886078 494.635345
v -33.799999 212.757492 494.142883
v -33.799999 212.577881 494.222046
v -33.851765 212.658661 494.176361
v -33.900002 212.483154 494.241913
v -33.900002 212.650558 494.158112
v -33.851765 212.831360 494.109039
v -33.941422 212.467621 494.214172
v -33.900002 212.324203 494.340820
v -34.000000 211.548950 494.944061
v -34.000000 211.655548 494.771057
v -33.993187 211.606384 494.947540
v -33.941422 212.056992 494.516449
v -33.973206 211.758926 494.797516
v -33.851765 212.492920 494.259338
v -33.799999 212.406906 494.318420
v -33.900002 212.175049 494.453949
v -34.000000 211.458771 495.126160
v -33.993187 211.511200 495.135620
v -33.941422 211.917374 494.662445
v -33.799999 212.246185 494.431091
v -33.851765 212.335526 494.357269
v -33.973206 211.648300 494.971405
v -33.900002 212.078857 494.539520
v -34.000000 211.385773 495.315826
v -33.993187 211.434891 495.332153
v -34.000000 211.330597 495.511383
v -33.941422 211.792740 494.821442
v -33.851765 212.187851 494.469299
v -33.799999 212.097290 494.558960
v -33.973206 211.555252 495.155273
v -33.900002 211.941406 494.683258
v -34.000000 211.293686 495.711212
v -33.993187 211.381012 495.523132
v -33.941422 211.684296 494.991882
v -33.851765 212.092606 494.554016
v -33.973206 211.480667 495.347382
v -33.900002 211.818695 494.839813
v -33.993187 211.344971 495.718262
v -33.941422 211.593079 495.172150
v -33.851765 211.956497 494.696350
v -33.799999 211.961655 494.700806
v -33.799999 211.840561 494.855286
v -33.973206 211.427994 495.534058
v -33.900002 211.711914 495.007629
v -34.000000 211.275375 495.913605
v -33.993187 211.327087 495.915863
v -34.000000 211.275818 496.116791
v -33.941422 211.519974 495.360474
v -33.799999 211.735199 495.020874
v -33.851765 211.835007 494.851349
v -33.973206 211.392761 495.724823
v -33.900002 211.622116 495.185089
v -34.000000 211.295013 496.319092
v -33.993187 211.327530 496.114288
v -33.941422 211.468323 495.543457
v -33.851765 211.729279 495.017487
v -33.973206 211.375290 495.917999
v -33.900002 211.550125 495.370514
v -33.993187 211.346268 496.311829
v -33.941422 211.433792 495.730438
v -33.851765 211.640350 495.193207
v -33.799999 211.646576 495.195984
v -33.799999 211.575546 495.378967
v -33.973206 211.375702 496.111969
v -33.900002 211.499283 495.550690
v -33.993187 211.383148 496.506805
v -34.000000 211.332779 496.518768
v -34.000000 211.388824 496.714081
v -33.941422 211.416672 495.919830
v -33.851765 211.569077 495.376801
v -33.973206 211.394028 496.305084
v -33.900002 211.465286 495.734772
v -33.993187 211.437866 496.697540
v -34.000000 211.462631 496.903412
v -33.941422 211.417084 496.109955
v -33.799999 211.522797 495.568024
v -33.851765 211.518738 495.555206
v -33.973206 211.430084 496.495667
v -33.900002 211.448410 495.921204
v -33.993187 211.509949 496.882416
v -33.941422 211.435028 496.299255
v -33.851765 211.485077 495.737488
v -33.799999 211.488815 495.761322
v -33.973206 211.483566 496.682098
v -33.900002 211.448822 496.108429
v -33.993187 211.598785 497.059845
v -34.000000 211.553604 497.085114
v -34.000000 212.778641 498.097900
v -34.000000 212.589005 498.024902
v -33.993187 212.794983 498.048767
v -33.941422 211.470383 496.486084
v -33.799999 211.473969 495.957031
v -33.851765 211.468384 495.922089
v -33.973206 211.554031 496.862823
v -33.900002 211.466507 496.294800
v -34.000000 211.660965 497.257660
v -33.993187 211.703598 497.228333
v -33.941422 211.522812 496.668854
v -33.799999 211.478348 496.153259
v -33.851765 211.468781 496.107452
v -33.973206 211.640869 497.036285
v -33.851765 212.839645 497.914581
v -33.799999 212.658829 497.837097
v -33.799999 212.841797 497.908112
v -34.000000 214.167847 493.922943
v -33.993187 214.151505 493.972076
v -33.993187 213.960541 493.918182
v -33.900002 211.501297 496.478760
v -34.000000 213.972290 493.867767
v -34.000000 213.772461 493.830872
v -33.993187 213.765411 493.882141
v -33.993187 211.823532 497.386414
v -34.000000 213.570068 493.812561
v -34.000000 211.783768 497.419556
v -33.973206 213.949600 493.965149
v -33.941422 211.591888 496.846008
v -33.973206 214.136276 494.017853
v -33.941422 214.123199 494.057129
v -33.851765 211.486282 496.291992
v -33.799999 211.501953 496.348083
v -33.993187 213.567795 493.864258
v -33.973206 211.743332 497.200958
v -33.973206 213.758850 493.929932
v -33.993187 211.914200 497.488342
v -33.993187 213.369370 493.864685
v -34.000000 213.366867 493.812988
v -34.000000 211.921005 497.569427
v -33.900002 211.552933 496.658691
v -33.941422 213.940201 494.005493
v -33.941422 211.677017 497.016052
v -33.973206 213.565674 493.912445
v -33.851765 211.520737 496.474121
v -33.993187 213.171829 493.883423
v -33.799999 211.544556 496.539673
v -34.000000 213.164566 493.832184
v -34.000000 212.964905 493.869965
v -33.973206 211.860565 497.355499
v -33.941422 213.753220 493.970978
v -33.993187 212.066574 497.634064
v -34.000000 212.071472 497.705994
v -33.973206 213.371704 493.912872
v -33.900002 211.620926 496.833130
v -33.900002 213.932999 494.036469
v -33.900002 214.113174 494.087311
v -33.941422 211.777466 497.177490
v -33.993187 212.976868 493.920319
v -34.000000 212.769577 493.925995
v -33.973206 211.949203 497.455170
v -33.941422 213.563843 493.953827
v -33.851765 211.571854 496.652313
v -33.799999 211.605713 496.726196
v -33.973206 213.178604 493.931183
v -33.993187 212.232483 497.764099
v -34.000000 212.233902 497.828125
v -33.900002 211.704742 497.000519
v -33.900002 213.748901 494.002472
v -33.993187 212.786133 493.975037
v -33.941422 211.892380 497.328979
v -33.941422 213.373703 493.954254
v -33.973206 212.098160 497.597595
v -33.799999 214.104706 494.112732
v -33.799999 213.915665 494.059967
v -33.851765 213.928467 494.055908
v -33.851765 211.639191 496.825012
v -33.799999 211.684860 496.905792
v -33.851765 214.106857 494.106262
v -33.900002 211.803635 497.159454
v -33.973206 212.988007 493.967255
v -33.993187 212.410355 497.877289
v -33.900002 213.562454 493.985596
v -34.000000 212.406906 497.934723
v -33.941422 211.979263 497.426666
v -34.000000 212.580246 493.999817
v -33.993187 212.601257 494.047119
v -33.973206 212.260345 497.724731
v -33.799999 211.781235 497.076782
v -33.851765 211.722183 496.990753
v -33.941422 213.184418 493.972198
v -33.851765 213.746185 494.022247
v -33.799999 213.722351 494.026001
v -33.900002 211.916779 497.308624
v -33.993187 212.598465 497.972473
v -33.973206 212.801559 494.020752
v -33.900002 213.375244 493.985992
v -33.941422 212.125275 497.566284
v -33.799999 211.893906 497.237488
v -33.851765 211.820099 497.148132
v -34.000000 212.398544 494.090790
v -33.993187 212.423828 494.135956
v -33.973206 212.434219 497.835358
v -33.900002 212.002335 497.404816
v -33.941422 212.997574 494.007538
v -33.799999 213.526642 494.011139
v -33.851765 213.561569 494.005554
v -33.941422 212.284271 497.690918
v -33.973206 212.620834 494.091217
v -33.799999 212.021790 497.386383
v -33.851765 211.932129 497.295807
v -33.973206 212.810211 498.002991
v -33.973206 212.618103 497.928436
v -33.900002 213.188873 494.003662
v -34.000000 212.225998 494.198120
v -33.993187 212.255356 494.240784
v -33.900002 212.146088 497.542267
v -34.000000 212.064102 494.320953
v -33.941422 212.454712 497.799377
v -33.851765 212.016830 497.391052
v -33.900002 212.302628 497.664978
v -33.941422 212.814804 494.059998
v -33.799999 213.330429 494.015533
v -33.851765 213.376205 494.005951
v -33.941422 212.823288 497.963715
v -33.941422 212.634964 497.890594
v -33.851765 212.159180 497.527161
v -33.973206 212.447388 494.178040
v -33.799999 212.163635 497.522003
v -33.799999 212.318100 497.643097
v -33.900002 213.004929 494.038483
v -33.900002 212.470444 497.771759
v -33.993187 212.097260 494.360687
v -33.851765 212.314178 497.648651
v -33.799999 212.483704 497.748474
v -33.900002 212.833328 497.933533
v -33.900002 212.647919 497.861572
v -33.941422 212.637650 494.129059
v -33.851765 212.480331 497.754395
v -33.799999 213.135574 494.039124
v -33.851765 213.191681 494.023468
v -33.851765 212.656052 497.843323
v -33.973206 212.282700 494.280518
v -34.000000 211.914230 494.458160
v -33.993187 211.995316 494.451385
v -33.900002 212.824966 494.090088
v -33.799999 212.943985 494.081726
v -33.851765 213.009537 494.057922
v -34.000000 211.777664 494.608643
v -36.131519 215.493607 495.386627
v -36.200001 215.401947 495.481140
v -36.200001 215.468140 495.867584
v -36.200001 215.261627 495.115051
v -34.000000 209.962402 494.556488
v -34.000000 209.867615 494.810638
v -34.271950 209.964584 494.842926
v -34.535778 210.079987 494.881317
v -35.928459 214.759506 493.971344
v -36.200001 214.462799 494.272369
v -36.200001 214.782852 494.498810
v -36.200001 214.104706 494.112732
v -36.200001 215.457672 496.259521
v -36.200001 215.370941 496.641876
v -36.045986 215.604675 496.719666
v -34.000000 210.075073 494.309723
v -35.874527 215.827194 496.793701
v -35.053486 214.026123 492.794373
v -34.000000 214.673019 492.404785
v -34.000000 214.412735 492.328400
v -34.000000 214.147675 492.270752
v -34.790104 210.213211 494.925659
v -34.656937 213.174133 492.510895
v -35.439434 216.406082 495.690247
v -35.686531 216.037354 496.863617
v -35.264957 216.416214 496.989685
v -35.033588 216.582916 497.045166
v -35.482986 216.234039 496.929077
v -35.525990 215.785049 494.312592
v -36.200001 215.052597 494.783356
v -35.053486 214.957520 493.104309
v -34.000000 215.173935 492.612244
v -34.000000 214.927185 492.499573
v -34.485630 217.073013 495.912170
v -34.000000 217.212921 496.684845
v -34.000000 217.251511 496.416351
v -34.000000 217.270844 496.145782
v -34.000000 217.270813 495.874512
v -34.000000 217.251450 495.603943
v -34.000000 217.212814 495.335449
v -34.790104 216.733276 497.095184
v -34.771660 216.612869 494.588074
v -34.000000 217.155136 495.070374
v -34.000000 217.078705 494.810120
v -34.000000 216.983887 494.555969
v -34.000000 216.871185 494.309235
v -34.000000 216.741165 494.071167
v -34.000000 216.594482 493.842957
v -34.656937 215.809509 493.387817
v -34.000000 216.431915 493.625824
v -34.000000 216.254257 493.420837
v -34.000000 216.062424 493.229034
v -34.000000 215.857407 493.051392
v -36.200001 211.735199 495.020874
v -35.686531 210.909134 495.157227
v -35.874527 211.119293 495.227142
v -34.000000 215.640244 492.888855
v -36.045986 211.341827 495.301178
v -34.000000 215.412033 492.742218
v -36.200001 211.575546 495.378967
v -35.382725 213.381790 493.010406
v -35.525990 212.639618 493.265961
v -35.928459 213.665161 493.607208
v -35.576611 214.322708 493.323517
v -34.485630 210.650024 493.774933
v -34.000000 210.883652 493.229401
v -34.000000 210.691864 493.421234
v -34.000000 210.514236 493.626251
v -34.000000 210.351685 493.843414
v -35.382725 215.343948 493.663330
v -34.000000 210.205048 494.071625
v -35.033588 210.363586 494.975677
v -35.439434 211.316971 493.996857
v -35.264957 210.530289 495.031158
v -35.482986 210.712463 495.091766
v -36.200001 211.961655 494.700806
v -36.131519 212.229446 494.300476
v -36.200001 212.246185 494.431091
v -36.200001 212.577881 494.222046
v -34.771660 211.811798 492.990509
v -34.000000 212.272949 492.404968
v -34.000000 212.018799 492.499786
v -34.000000 217.155273 496.949921
v -34.271950 216.981918 497.177917
v -34.000000 217.078873 497.210205
v -34.000000 211.772049 492.612488
v -34.535778 216.866516 497.139526
v -34.000000 211.533981 492.742523
v -34.000000 211.305786 492.889191
v -34.000000 211.088654 493.051758
v -36.200001 212.943985 494.081726
v -36.200001 213.330429 494.015533
v -34.000000 213.879166 492.232178
v -34.000000 213.608597 492.212830
v -34.000000 213.337341 492.212860
v -34.000000 213.066772 492.232239
v -34.000000 212.798264 492.270844
v -34.000000 212.533218 492.328522
v -36.200001 213.722351 494.026001
v -33.799999 215.105927 497.165558
v -33.799999 214.628387 494.377747
v -33.799999 214.782852 494.498810
v -33.799999 214.462799 494.272369
v -33.799999 214.984848 497.320038
v -33.799999 214.287674 494.183746
v -33.799999 215.211288 496.999969
v -33.799999 215.299911 496.824860
v -33.799999 213.030838 497.960876
v -33.799999 215.370941 496.641876
v -33.799999 213.224152 497.994843
v -33.799999 215.423706 496.452820
v -33.799999 215.457672 496.259521
v -33.799999 213.419846 498.009705
v -33.799999 213.616074 498.005310
v -33.799999 215.472534 496.063812
v -33.799999 215.468140 495.867584
v -33.799999 213.810913 497.981720
v -33.799999 214.002518 497.939117
v -33.799999 215.444534 495.672760
v -33.799999 215.401947 495.481140
v -33.799999 214.189011 497.877960
v -33.799999 215.340790 495.294647
v -33.799999 214.368622 497.798798
v -33.799999 215.261627 495.115051
v -33.799999 215.165253 494.944061
v -33.799999 214.539597 497.702423
v -33.799999 214.700302 497.589752
v -33.799999 215.052597 494.783356
v -33.799999 214.849197 497.461884
v -33.799999 214.924713 494.634460
v -26.350000 212.318100 497.643097
v -26.350000 212.483704 497.748474
v -26.350000 212.658829 497.837097
v -26.350000 211.840561 494.855286
v -26.350000 211.735199 495.020874
v -26.350000 211.646576 495.195984
v -26.350000 213.915665 494.059967
v -26.350000 211.575546 495.378967
v -26.350000 211.522797 495.568024
v -26.350000 211.488815 495.761322
v -26.350000 213.722351 494.026001
v -26.350000 213.526642 494.011139
v -26.350000 213.330429 494.015533
v -26.350000 211.473969 495.957031
v -26.350000 211.478348 496.153259
v -26.350000 213.135574 494.039124
v -26.350000 211.501953 496.348083
v -26.350000 211.544556 496.539673
v -26.350000 212.943985 494.081726
v -26.350000 211.605713 496.726196
v -26.350000 212.757492 494.142883
v -26.350000 212.577881 494.222046
v -26.350000 211.684860 496.905792
v -26.350000 211.781235 497.076782
v -26.350000 212.406906 494.318420
v -26.350000 211.893906 497.237488
v -26.350000 212.246185 494.431091
v -26.350000 212.021790 497.386383
v -26.350000 212.163635 497.522003
v -26.350000 212.097290 494.558960
v -26.350000 211.961655 494.700806
v -36.200001 214.890564 496.283478
v -36.200001 214.842789 496.466125
v -36.200001 213.616074 498.005310
v -36.200001 214.002518 497.939117
v -36.200001 213.763367 497.424347
v -36.200001 213.576324 497.450104
v -36.200001 214.771591 496.640991
v -36.200001 215.211288 496.999969
v -36.200001 212.515045 494.931000
v -36.200001 212.382355 495.065277
v -36.200001 213.928970 494.640869
v -36.200001 214.103821 494.712067
v -36.200001 213.746307 494.593109
v -36.200001 213.945435 497.374390
v -36.200001 212.664139 494.815155
v -36.200001 214.914078 496.096130
v -36.200001 212.827072 494.719757
v -36.200001 214.368622 497.798798
v -36.200001 214.119431 497.301086
v -36.200001 214.267899 494.805481
v -36.200001 211.684860 496.905792
v -36.200001 211.893906 497.237488
v -36.200001 212.277985 496.819519
v -36.200001 212.182587 496.656586
v -36.200001 211.544556 496.539673
v -36.200001 212.109299 496.482605
v -36.200001 214.912933 495.907349
v -36.200001 214.887161 495.720306
v -36.200001 214.282364 497.205688
v -36.200001 214.418381 494.919525
v -36.200001 214.552689 495.052216
v -36.200001 213.001068 494.646454
v -36.200001 211.478348 496.153259
v -36.200001 212.059326 496.300537
v -36.200001 214.837204 495.538239
v -36.200001 213.183136 494.596497
v -36.200001 212.163635 497.522003
v -36.200001 212.393814 496.968628
v -36.200001 214.668518 495.201324
v -36.200001 214.700302 497.589752
v -36.200001 214.431458 497.089844
v -36.200001 212.033554 496.113495
v -36.200001 214.763901 495.364258
v -36.200001 212.528122 497.101318
v -36.200001 212.032425 495.924713
v -36.200001 211.488815 495.761322
v -36.200001 213.370178 494.570740
v -36.200001 213.558975 494.569580
v -36.200001 212.678589 497.215363
v -36.200001 212.483704 497.748474
v -36.200001 214.564148 496.955536
v -36.200001 214.984848 497.320038
v -36.200001 214.678177 496.805084
v -36.200001 212.055939 495.737366
v -36.200001 212.842667 497.308777
v -36.200001 212.841797 497.908112
v -36.200001 213.017532 497.379974
v -36.200001 212.103699 495.554718
v -36.200001 213.224152 497.994843
v -36.200001 213.200195 497.427734
v -36.200001 212.174896 495.379852
v -36.200001 213.387527 497.451263
v -36.200001 212.268311 495.215759
v -35.928459 213.281342 498.413635
v -34.656937 213.772369 499.509949
v -34.000000 212.798828 499.750092
v -34.000000 213.067322 499.788666
v -34.000000 213.337906 499.808014
v -34.000000 213.609161 499.807983
v -34.000000 213.879730 499.788605
v -34.000000 214.148224 499.750000
v -34.000000 214.413284 499.692322
v -34.000000 214.673553 499.615875
v -35.053486 212.920364 499.226471
v -35.525990 214.306885 498.754883
v -34.771660 215.134705 499.030334
v -34.000000 214.927704 499.521057
v -34.000000 215.174438 499.408356
v -34.000000 215.412521 499.278320
v -34.000000 215.640701 499.131653
v -34.000000 215.857849 498.969086
v -34.000000 216.062836 498.791443
v -36.131519 214.717056 497.720367
v -35.439434 215.629532 498.023987
v -34.485630 216.296463 498.245911
v -34.000000 216.871429 497.711121
v -34.000000 216.254639 498.599609
v -34.000000 216.432266 498.394592
v -34.000000 216.594803 498.177429
v -34.000000 216.741440 497.949219
v -35.382725 211.602554 498.357513
v -34.656937 211.136993 498.633026
v -35.053486 211.988983 498.916534
v -35.525990 211.161453 497.708252
v -35.928459 212.186996 498.049500
v -35.576611 212.623779 498.697327
v -35.382725 213.564697 499.010437
v -34.000000 216.984100 497.464355
v -34.000000 210.352005 498.177887
v -34.000000 210.514587 498.395020
v -34.000000 210.692245 498.600006
v -34.000000 210.884064 498.791809
v -34.000000 211.089081 498.969421
v -34.000000 211.306259 499.131989
v -34.000000 211.534470 499.278625
v -34.000000 211.772552 499.408600
v -34.771660 210.333633 497.432770
v -34.000000 209.733673 496.685394
v -34.000000 209.791351 496.950470
v -34.000000 209.867798 497.210724
v -34.000000 209.962616 497.464874
v -34.000000 210.075317 497.711609
v -34.000000 210.205338 497.949677
v -34.000000 209.791214 495.070923
v -34.485630 209.873474 496.108673
v -34.000000 209.733582 495.335999
v -34.000000 209.694992 495.604492
v -34.000000 209.675659 495.875061
v -34.000000 209.675674 496.146332
v -34.000000 209.695053 496.416901
v -34.000000 212.019318 499.521271
v -34.000000 212.273483 499.616058
v -35.439434 210.540421 496.330597
v -34.000000 212.533752 499.692444
v -36.131519 211.452896 496.634216
v -34.000000 212.974213 498.153076
v -34.000000 215.487717 496.894684
v -34.000000 215.560715 496.705017
v -34.000000 213.174042 498.189972
v -34.000000 215.397537 497.076782
v -34.000000 213.376419 498.208282
v -34.000000 215.290939 497.249786
v -34.000000 213.579636 498.207855
v -34.000000 215.168839 497.412201
v -34.000000 213.781921 498.188660
v -34.000000 215.032257 497.562683
v -34.000000 213.981598 498.150879
v -34.000000 214.882385 497.699890
v -34.000000 214.176926 498.094849
v -34.000000 214.720490 497.822723
v -34.000000 214.547958 497.930054
v -34.000000 214.366241 498.021027
v -34.000000 214.357498 493.995941
v -34.000000 214.539597 494.086121
v -34.000000 214.712601 494.192719
v -34.000000 214.875031 494.314850
v -34.000000 215.025497 494.451416
v -34.000000 215.162720 494.601288
v -34.000000 215.285538 494.763184
v -34.000000 215.392883 494.935730
v -34.000000 215.483856 495.117432
v -34.000000 215.557678 495.306732
v -34.000000 215.613708 495.502075
v -34.000000 215.651489 495.701752
v -34.000000 215.670670 495.904053
v -34.000000 215.671112 496.107239
v -34.000000 215.652802 496.309631
v -34.000000 215.615906 496.509460
v -33.941422 214.478867 497.806671
v -33.941422 214.308838 497.891785
v -33.900002 214.463348 497.778931
v -33.900002 214.295944 497.862732
v -33.973206 214.818329 497.623108
v -33.973206 214.663803 497.740326
v -33.941422 214.791809 497.591278
v -33.941422 214.640320 497.706207
v -33.973206 214.917999 497.534454
v -33.993187 215.226944 497.251190
v -33.993187 215.096878 497.417084
v -33.973206 215.060425 497.385498
v -33.993187 214.951187 497.569458
v -33.851765 214.287827 497.844482
v -33.851765 214.115128 497.911804
v -33.900002 214.121521 497.930756
v -33.900002 214.622299 497.680023
v -33.993187 215.340118 497.073303
v -33.941422 214.889496 497.504395
v -33.973206 215.187561 497.223328
v -33.851765 214.453583 497.761505
v -33.900002 214.771454 497.566895
v -33.993187 215.435303 496.885223
v -33.941422 215.029114 497.358398
v -33.851765 214.610962 497.663574
v -33.973206 215.298187 497.049438
v -33.900002 214.867630 497.481323
v -33.993187 215.511597 496.688690
v -33.941422 215.153748 497.199402
v -33.851765 214.758652 497.551544
v -33.973206 215.391251 496.865570
v -33.900002 215.005096 497.337585
v -33.993187 215.565491 496.497711
v -33.941422 215.262192 497.028961
v -33.851765 214.853897 497.466827
v -33.973206 215.465836 496.673462
v -33.900002 215.127808 497.181030
v -33.993187 215.601517 496.302582
v -33.941422 215.353424 496.848694
v -33.851765 214.989990 497.324493
v -33.973206 215.518509 496.486786
v -33.900002 215.234573 497.013214
v -33.993187 215.619400 496.104980
v -33.941422 215.426529 496.660370
v -33.851765 215.111496 497.169495
v -33.973206 215.553741 496.296021
v -33.900002 215.324387 496.835754
v -33.993187 215.618973 495.906555
v -33.941422 215.478165 496.477386
v -33.851765 215.217209 497.003326
v -33.973206 215.571213 496.102844
v -33.900002 215.396378 496.650330
v -33.993187 215.600235 495.709015
v -33.941422 215.512695 496.290405
v -33.851765 215.306137 496.827606
v -33.973206 215.570786 495.908875
v -33.900002 215.447205 496.470154
v -33.993187 215.563354 495.514038
v -33.941422 215.529831 496.101013
v -33.851765 215.377411 496.644043
v -33.973206 215.552475 495.715759
v -33.900002 215.481216 496.286072
v -33.993187 215.508636 495.323303
v -33.941422 215.529419 495.910889
v -33.851765 215.427750 496.465637
v -33.973206 215.516418 495.525177
v -33.900002 215.498077 496.099609
v -33.993187 215.436554 495.138428
v -33.941422 215.511459 495.721588
v -33.851765 215.461411 496.283356
v -33.973206 215.462936 495.338745
v -33.900002 215.497665 495.912415
v -33.993187 215.347717 494.960999
v -33.941422 215.476120 495.534760
v -33.851765 215.478119 496.098755
v -33.973206 215.392471 495.158020
v -33.900002 215.479996 495.726044
v -33.993187 215.242889 494.792511
v -33.993187 212.985962 498.102661
v -33.993187 213.181076 498.138702
v -33.941422 215.423691 495.351990
v -33.851765 215.477722 495.913391
v -33.973206 212.996902 498.055695
v -33.993187 213.378708 498.156586
v -33.973206 215.305634 494.984558
v -33.900002 215.445190 495.542084
v -33.973206 213.187637 498.090912
v -33.993187 213.577133 498.156158
v -33.993187 215.122971 494.634430
v -33.941422 215.354614 495.174835
v -33.941422 213.006287 498.015350
v -33.851765 215.460205 495.728851
v -33.973206 213.380829 498.108398
v -33.973206 215.203156 494.819885
v -33.993187 213.774658 498.137421
v -33.993187 215.032288 494.532471
v -33.941422 213.193283 498.049866
v -33.900002 215.393570 495.362152
v -33.973206 213.574799 498.107971
v -33.900002 213.013504 497.984375
v -33.941422 215.269485 495.004791
v -33.851765 215.425751 495.546722
v -33.993187 213.969635 498.100525
v -33.973206 215.085922 494.665344
v -33.941422 213.382645 498.067017
v -33.993187 214.879929 494.386780
v -33.900002 215.325562 495.187714
v -33.973206 213.767899 498.089661
v -33.941422 215.169037 494.843353
v -33.900002 213.197601 498.018372
v -33.993187 214.160370 498.045807
v -33.973206 214.997284 494.565674
v -33.941422 213.572784 498.066589
v -33.851765 215.374634 495.368530
v -33.851765 213.018036 497.964935
v -33.993187 214.714005 494.256714
v -33.973206 213.958481 498.053589
v -33.900002 215.241760 495.020325
v -33.900002 213.384048 498.035248
v -33.941422 215.054123 494.691864
v -33.993187 214.345230 497.973724
v -33.973206 214.848343 494.423248
v -33.851765 215.307297 495.195831
v -33.941422 213.762085 498.048645
v -33.851765 213.200317 497.998596
v -33.900002 215.142853 494.861359
v -33.993187 214.536133 494.143555
v -33.973206 214.144943 498.000092
v -33.941422 214.967224 494.594177
v -33.900002 213.571259 498.034851
v -33.973206 214.686142 494.296112
v -33.993187 214.522675 497.884888
v -33.851765 215.224319 495.030090
v -33.900002 215.029709 494.712219
v -33.941422 213.948914 498.013306
v -33.993187 214.348038 494.048370
v -33.851765 213.384918 498.015289
v -33.941422 214.821213 494.454559
v -33.973206 214.325653 497.929626
v -33.851765 215.126389 494.872711
v -33.900002 213.757629 498.017181
v -33.973206 214.512268 494.185486
v -33.900002 214.944153 494.616028
v -33.993187 214.691147 497.780060
v -33.941422 214.662216 494.329926
v -33.941422 214.131683 497.960846
v -33.851765 215.014374 494.725006
v -33.851765 213.570282 498.014893
v -33.973206 214.328400 494.092407
v -33.900002 214.800400 494.478577
v -33.973206 214.499100 497.842804
v -33.941422 214.491776 494.221466
v -33.900002 213.941574 497.982361
v -33.851765 214.929657 494.629791
v -33.900002 214.643860 494.355865
v -33.993187 214.849228 497.660156
v -33.941422 214.311523 494.130249
v -33.851765 213.754822 497.997375
v -33.851765 214.787323 494.493683
v -33.900002 214.476059 494.249084
v -33.851765 214.632324 494.372162
v -33.900002 214.298584 494.159271
v -33.851765 214.466171 494.266449
v -33.851765 214.290451 494.177521
v -33.851765 213.936951 497.962921
v -36.177303 214.363037 494.989105
v -36.161011 214.173218 494.925964
v -36.151989 213.983185 494.862732
v -36.151100 213.792892 494.799408
v -36.156414 213.640381 494.748657
v -36.166637 213.487793 494.697876
v -36.181320 213.335312 494.647125
v -36.177246 214.802505 496.269745
v -36.160950 214.762207 496.073395
v -36.151958 214.721909 495.877014
v -36.151115 214.681625 495.680634
v -36.156429 214.649384 495.523529
v -36.166641 214.617157 495.366425
v -36.181309 214.584915 495.209320
v -36.177246 213.913284 497.291260
v -36.160950 214.063202 497.158173
v -36.151958 214.213120 497.025085
v -36.151115 214.363052 496.891998
v -36.156429 214.482986 496.785553
v -36.166641 214.602921 496.679077
v -36.181309 214.722855 496.572601
v -36.177258 212.584091 497.031952
v -36.160942 212.774765 497.095398
v -36.151943 212.965469 497.158844
v -36.151134 213.155823 497.222198
v -36.156479 213.307907 497.272797
v -36.166702 213.459854 497.323334
v -36.181358 213.611664 497.373871
v -36.177246 212.143997 495.751068
v -36.160950 212.184296 495.947449
v -36.151958 212.224579 496.143829
v -36.151115 212.264877 496.340210
v -36.156429 212.297104 496.497314
v -36.166641 212.329346 496.654419
v -36.181309 212.361572 496.811523
v -36.177246 213.033218 494.729584
v -36.160950 212.883301 494.862671
v -36.151958 212.733368 494.995758
v -36.151115 212.583450 495.128845
v -36.156429 212.463516 495.235291
v -36.166641 212.343582 495.341766
v -36.181309 212.223633 495.448242
v -34.450001 213.691406 496.698334
v -34.224998 213.470703 496.371246
v -34.224998 213.582321 496.354370
v -34.450001 214.054092 496.438721
v -34.224998 213.683273 496.303833
v -34.450001 214.194916 496.015533
v -34.450001 214.060089 495.590363
v -34.224998 213.766663 495.800385
v -34.224998 213.687408 495.720001
v -34.812244 213.426392 497.312225
v -34.850471 213.596466 497.368805
v -34.841705 213.922318 497.283234
v -34.224998 213.829239 496.069397
v -34.112499 213.651642 495.983459
v -34.900002 213.763367 497.424347
v -34.800873 214.083298 497.140350
v -34.817741 214.598541 496.682953
v -34.854034 214.721390 496.573914
v -34.841705 214.800064 496.257904
v -34.900002 214.842789 496.466125
v -34.800873 214.756805 496.047058
v -34.817741 214.618332 495.372162
v -34.854034 214.585312 495.211243
v -34.850471 214.385788 494.996674
v -34.900002 214.552689 495.052216
v -34.812244 214.215714 494.940094
v -34.782917 214.215408 497.023071
v -34.787888 213.252914 497.254486
v -34.780411 214.349121 496.904358
v -34.792679 214.474396 496.793152
v -34.782917 214.721298 495.873993
v -34.780411 214.685364 495.698853
v -34.787888 214.042236 494.882355
v -34.792679 214.651688 495.534760
v -26.000000 212.107361 495.732971
v -26.000000 212.083878 495.899658
v -26.000000 212.080658 496.067932
v -26.000000 212.097733 496.235352
v -26.000000 213.750687 494.644531
v -26.000000 213.584030 494.621063
v -26.000000 212.134872 496.399506
v -26.000000 213.415741 494.617828
v -26.000000 212.191544 496.558014
v -26.000000 213.248306 494.634918
v -26.000000 212.266891 496.708496
v -26.000000 212.359833 496.848816
v -26.000000 213.084152 494.672058
v -26.000000 212.469009 496.976929
v -26.000000 212.925659 494.728699
v -26.000000 212.775162 494.804047
v -26.000000 212.592819 497.090912
v -26.000000 212.729492 497.189178
v -26.000000 212.634842 494.897003
v -26.000000 212.876984 497.270233
v -26.000000 212.506744 495.006165
v -26.000000 212.392746 495.130005
v -26.000000 212.294495 495.266663
v -26.000000 212.213440 495.414154
v -26.000000 212.150757 495.570374
f 1 2 3
f 1 4 2
f 5 3 6
f 5 1 3
f 7 6 8
f 7 5 6
f 9 10 11
f 9 12 10
f 13 7 8
f 14 11 15
f 16 8 17
f 14 9 11
f 16 13 8
f 18 15 19
f 18 14 15
f 20 17 21
f 20 16 17
f 22 19 23
f 24 21 25
f 22 18 19
f 24 20 21
f 26 25 27
f 28 22 23
f 26 24 25
f 29 23 30
f 31 27 32
f 31 26 27
f 29 28 23
f 33 30 34
f 35 31 32
f 33 29 30
f 36 34 37
f 38 32 39
f 36 33 34
f 38 35 32
f 40 39 41
f 42 37 43
f 40 38 39
f 42 36 37
f 44 41 45
f 44 40 41
f 46 45 47
f 48 43 49
f 46 44 45
f 48 42 43
f 50 46 47
f 51 48 49
f 52 51 49
f 52 49 53
f 54 53 55
f 54 52 53
f 56 55 57
f 56 54 55
f 58 57 59
f 58 56 57
f 60 58 59
f 4 59 2
f 4 60 59
f 61 62 63
f 64 63 65
f 63 62 65
f 62 66 67
f 65 62 67
f 64 65 67
f 68 69 70
f 71 64 72
f 64 70 72
f 70 69 72
f 69 71 72
f 73 74 75
f 66 68 76
f 67 66 76
f 68 70 76
f 75 74 78
f 70 64 77
f 76 70 77
f 64 67 77
f 67 76 77
f 73 75 79
f 80 81 82
f 82 81 83
f 80 82 84
f 85 86 87
f 87 86 88
f 85 87 89
f 79 90 62
f 61 91 62
f 91 73 62
f 73 79 62
f 90 92 66
f 92 93 66
f 93 80 66
f 62 90 66
f 80 84 66
f 84 94 68
f 94 95 68
f 66 84 68
f 89 96 69
f 96 71 69
f 95 97 69
f 97 85 69
f 68 95 69
f 85 89 69
f 64 61 63
f 98 99 100
f 101 98 100
f 102 103 104
f 103 101 104
f 105 106 107
f 108 109 107
f 110 105 107
f 109 110 107
f 111 108 112
f 99 111 112
f 100 99 112
f 113 114 115
f 114 102 115
f 101 100 116
f 104 101 116
f 102 104 117
f 107 106 118
f 108 107 118
f 106 119 118
f 112 108 118
f 116 100 120
f 100 112 120
f 121 113 122
f 113 115 122
f 117 104 123
f 104 116 123
f 119 124 125
f 118 119 125
f 112 118 125
f 120 112 125
f 102 117 126
f 115 102 126
f 122 115 126
f 116 120 127
f 123 116 127
f 128 121 129
f 130 128 129
f 121 122 129
f 117 123 131
f 127 120 132
f 124 133 132
f 120 125 132
f 125 124 132
f 122 126 134
f 129 122 134
f 131 123 135
f 123 127 135
f 136 130 137
f 130 129 137
f 126 117 138
f 134 126 138
f 117 131 138
f 127 132 139
f 132 133 139
f 135 127 139
f 129 134 140
f 131 135 141
f 136 137 142
f 134 138 143
f 140 134 143
f 139 133 144
f 133 145 144
f 145 146 144
f 135 139 144
f 141 135 144
f 137 129 147
f 129 140 147
f 142 137 147
f 138 131 148
f 131 141 148
f 143 138 148
f 149 136 150
f 136 142 150
f 151 149 150
f 140 143 152
f 147 140 152
f 146 153 154
f 144 146 154
f 141 144 154
f 142 147 155
f 143 148 156
f 152 143 156
f 157 151 158
f 151 150 158
f 155 147 159
f 147 152 159
f 141 154 160
f 156 148 160
f 148 141 160
f 154 153 160
f 142 155 161
f 150 142 161
f 152 156 162
f 159 152 162
f 157 158 163
f 155 159 164
f 156 160 165
f 153 166 165
f 166 167 165
f 162 156 165
f 160 153 165
f 150 161 168
f 158 150 168
f 164 159 169
f 159 162 169
f 157 163 170
f 171 157 170
f 172 171 170
f 155 164 173
f 161 155 173
f 162 165 174
f 165 167 174
f 169 162 174
f 158 168 175
f 163 158 175
f 164 169 176
f 172 170 177
f 178 172 177
f 161 173 179
f 175 168 179
f 168 161 179
f 167 180 181
f 169 174 181
f 174 167 181
f 176 169 181
f 170 163 182
f 177 170 182
f 163 175 182
f 164 176 183
f 173 164 183
f 179 173 183
f 178 177 184
f 182 175 185
f 175 179 185
f 181 180 186
f 180 187 186
f 176 181 186
f 177 182 188
f 179 183 189
f 185 179 189
f 178 184 190
f 191 178 190
f 192 193 194
f 182 185 195
f 188 182 195
f 187 196 197
f 183 176 197
f 186 187 197
f 176 186 197
f 189 183 197
f 184 177 198
f 177 188 198
f 185 189 199
f 195 185 199
f 200 191 201
f 191 190 201
f 188 195 202
f 196 203 204
f 197 196 204
f 189 197 204
f 199 189 204
f 184 198 205
f 206 207 208
f 190 184 205
f 209 210 211
f 202 195 212
f 213 209 211
f 214 213 211
f 214 211 215
f 195 199 212
f 200 201 216
f 217 214 215
f 218 200 216
f 211 210 219
f 188 202 220
f 215 211 219
f 210 221 219
f 221 222 219
f 205 198 220
f 198 188 220
f 199 204 223
f 203 224 223
f 212 199 223
f 217 215 225
f 204 203 223
f 190 205 226
f 215 219 227
f 201 190 226
f 218 216 228
f 217 225 229
f 230 217 229
f 231 218 228
f 220 202 232
f 219 222 233
f 202 212 232
f 226 205 234
f 229 225 235
f 225 215 235
f 205 220 234
f 215 227 235
f 212 223 236
f 232 212 236
f 230 229 237
f 224 238 236
f 223 224 236
f 239 230 237
f 240 239 237
f 228 216 241
f 201 226 241
f 216 201 241
f 219 233 242
f 227 219 242
f 231 228 243
f 244 231 243
f 229 235 245
f 234 220 246
f 242 233 247
f 233 222 247
f 220 232 246
f 222 248 247
f 226 234 249
f 240 237 250
f 251 240 250
f 243 228 252
f 228 241 252
f 235 227 253
f 232 236 254
f 227 242 253
f 246 232 254
f 238 255 254
f 250 237 256
f 236 238 254
f 229 245 256
f 244 243 257
f 258 244 257
f 237 229 256
f 234 246 259
f 242 247 260
f 253 242 260
f 249 234 259
f 251 250 261
f 241 226 262
f 252 241 262
f 226 249 262
f 245 235 263
f 235 253 263
f 243 252 264
f 265 266 267
f 246 254 268
f 255 269 268
f 248 270 267
f 259 246 268
f 260 247 267
f 254 255 268
f 270 265 267
f 247 248 267
f 249 259 271
f 250 256 272
f 258 257 273
f 263 253 274
f 253 260 274
f 275 258 273
f 252 262 276
f 277 251 278
f 264 252 276
f 251 261 278
f 257 243 279
f 243 264 279
f 269 280 281
f 272 256 282
f 259 268 281
f 245 263 282
f 268 269 281
f 256 245 282
f 271 259 281
f 274 260 283
f 266 284 283
f 267 266 283
f 262 249 285
f 260 267 283
f 249 271 285
f 276 262 285
f 194 193 286
f 261 250 287
f 275 273 286
f 250 272 287
f 193 275 286
f 263 274 288
f 264 276 289
f 282 263 288
f 280 290 291
f 281 280 291
f 271 281 291
f 292 277 293
f 273 257 294
f 257 279 294
f 286 273 294
f 277 278 293
f 276 285 295
f 289 276 295
f 287 272 296
f 272 282 296
f 284 297 298
f 274 283 298
f 288 274 298
f 279 264 299
f 264 289 299
f 283 284 298
f 293 278 300
f 290 301 302
f 278 261 300
f 291 290 302
f 285 271 302
f 271 291 302
f 261 287 300
f 295 285 302
f 303 194 304
f 286 294 304
f 194 286 304
f 282 288 305
f 296 282 305
f 306 292 307
f 289 295 308
f 309 306 307
f 279 299 310
f 304 294 310
f 292 293 307
f 294 279 310
f 308 295 311
f 295 302 311
f 302 301 311
f 299 289 312
f 287 296 313
f 297 314 315
f 298 297 315
f 288 298 315
f 289 308 312
f 305 288 315
f 316 303 317
f 304 310 317
f 303 304 317
f 311 301 318
f 293 300 319
f 308 311 318
f 301 320 318
f 320 321 318
f 296 305 322
f 313 296 322
f 317 310 323
f 299 312 323
f 310 299 323
f 309 307 324
f 308 318 325
f 312 308 325
f 318 321 325
f 321 326 325
f 327 316 328
f 316 317 328
f 317 323 328
f 300 287 329
f 287 313 329
f 323 312 330
f 312 325 330
f 319 300 329
f 314 331 332
f 325 326 330
f 315 314 332
f 328 323 330
f 305 315 332
f 206 327 333
f 322 305 332
f 327 328 333
f 207 206 333
f 326 207 333
f 330 326 333
f 328 330 333
f 324 307 334
f 307 293 334
f 293 319 334
f 335 309 336
f 309 324 336
f 313 322 337
f 319 329 111
f 331 338 339
f 332 331 339
f 322 332 339
f 337 322 339
f 324 334 98
f 336 324 98
f 340 335 103
f 335 336 103
f 329 313 109
f 313 337 109
f 111 329 109
f 98 334 99
f 334 319 99
f 319 111 99
f 336 98 101
f 103 336 101
f 338 105 110
f 339 338 110
f 337 339 110
f 109 337 110
f 114 340 102
f 340 103 102
f 111 109 108
f 341 342 343
f 341 344 342
f 345 346 347
f 348 345 347
f 349 350 351
f 349 352 350
f 353 354 355
f 356 345 348
f 357 353 355
f 358 359 360
f 358 360 361
f 362 356 348
f 358 361 363
f 364 341 343
f 365 353 357
f 364 353 365
f 364 343 353
f 364 366 367
f 364 368 366
f 364 365 368
f 369 344 341
f 369 341 364
f 369 349 351
f 369 370 344
f 369 351 370
f 371 372 373
f 371 373 359
f 371 359 358
f 374 375 376
f 374 376 377
f 374 377 378
f 374 378 379
f 374 379 380
f 374 367 381
f 374 381 375
f 374 364 367
f 382 380 383
f 382 383 384
f 382 384 385
f 382 385 386
f 382 386 387
f 382 387 388
f 382 374 380
f 382 364 374
f 382 369 364
f 389 369 382
f 389 388 390
f 389 390 391
f 389 391 392
f 389 392 393
f 394 395 396
f 389 393 397
f 394 396 398
f 389 397 399
f 394 398 400
f 389 399 372
f 389 382 388
f 389 372 371
f 401 358 363
f 401 402 403
f 401 363 402
f 404 352 349
f 404 401 403
f 404 371 358
f 405 406 407
f 404 403 352
f 405 407 408
f 404 358 401
f 405 408 409
f 410 389 371
f 405 409 411
f 410 349 369
f 405 411 356
f 410 404 349
f 405 362 412
f 410 371 404
f 410 369 389
f 405 356 362
f 413 395 394
f 413 405 412
f 413 412 414
f 413 414 415
f 413 415 395
f 413 394 416
f 417 413 416
f 417 418 419
f 417 416 418
f 420 406 405
f 420 405 413
f 420 421 422
f 423 424 425
f 420 422 426
f 423 427 424
f 420 426 428
f 420 428 429
f 420 429 430
f 420 430 406
f 402 420 413
f 375 381 427
f 402 417 419
f 375 427 423
f 402 413 417
f 402 431 432
f 402 419 431
f 363 361 433
f 363 433 434
f 363 434 435
f 363 435 436
f 363 436 437
f 363 437 438
f 363 438 421
f 363 420 402
f 363 421 420
f 403 402 432
f 403 439 352
f 403 432 439
f 440 52 54
f 441 442 38
f 443 40 44
f 440 444 52
f 443 441 40
f 445 44 46
f 446 54 56
f 445 46 50
f 445 443 44
f 265 445 50
f 446 440 54
f 447 56 58
f 447 58 60
f 447 446 56
f 448 12 9
f 448 9 14
f 449 447 60
f 449 60 4
f 448 208 12
f 450 14 18
f 450 448 14
f 451 449 4
f 452 4 1
f 452 1 5
f 453 450 18
f 452 451 4
f 454 18 22
f 454 22 28
f 455 452 5
f 454 453 18
f 456 5 7
f 456 7 13
f 456 455 5
f 457 454 28
f 458 28 29
f 459 456 13
f 458 457 28
f 460 13 16
f 461 458 29
f 460 459 13
f 461 29 33
f 462 16 20
f 462 460 16
f 463 461 33
f 463 33 36
f 463 36 42
f 464 20 24
f 464 462 20
f 465 464 24
f 465 24 26
f 466 463 42
f 467 42 48
f 468 26 31
f 467 466 42
f 468 31 35
f 468 465 26
f 469 48 51
f 469 467 48
f 470 468 35
f 444 51 52
f 442 35 38
f 444 469 51
f 442 470 35
f 441 38 40
f 326 321 471
f 207 472 473
f 146 145 474
f 207 326 472
f 208 473 12
f 153 475 476
f 208 207 473
f 153 146 475
f 265 50 477
f 166 153 476
f 167 476 478
f 167 478 479
f 167 166 476
f 266 265 477
f 180 167 479
f 180 479 480
f 284 477 481
f 284 266 477
f 187 180 480
f 297 481 482
f 297 482 483
f 196 480 484
f 297 284 481
f 196 484 485
f 196 187 480
f 314 483 486
f 203 485 487
f 314 297 483
f 203 196 485
f 224 487 488
f 331 314 486
f 224 203 487
f 338 486 489
f 338 331 486
f 238 224 488
f 255 488 490
f 105 338 489
f 105 489 491
f 105 491 492
f 255 238 488
f 269 490 493
f 269 493 494
f 106 492 495
f 269 255 490
f 106 105 492
f 280 494 496
f 119 106 495
f 119 495 497
f 280 269 494
f 124 119 497
f 290 280 496
f 301 496 498
f 301 498 499
f 133 497 500
f 133 500 501
f 301 290 496
f 133 124 497
f 320 499 471
f 320 301 499
f 145 501 474
f 145 133 501
f 321 320 471
f 326 471 472
f 146 474 475
f 502 503 354
f 504 505 506
f 507 504 506
f 503 508 354
f 508 509 354
f 418 416 510
f 416 511 510
f 512 513 352
f 514 512 352
f 439 514 352
f 506 505 515
f 418 510 516
f 517 502 353
f 418 516 419
f 502 354 353
f 419 516 518
f 515 505 519
f 520 515 519
f 513 521 350
f 522 523 524
f 525 522 524
f 352 513 350
f 517 353 343
f 526 522 527
f 528 517 343
f 522 525 527
f 529 528 343
f 520 519 530
f 531 532 351
f 419 518 533
f 521 531 351
f 350 521 351
f 529 343 342
f 534 526 535
f 536 529 342
f 526 527 535
f 351 532 370
f 533 537 431
f 523 538 539
f 419 533 431
f 532 540 370
f 530 519 541
f 542 530 541
f 524 523 539
f 534 535 543
f 536 342 344
f 370 540 344
f 544 536 344
f 540 544 344
f 539 538 545
f 534 543 546
f 547 534 546
f 548 549 432
f 545 538 550
f 537 548 432
f 431 537 432
f 538 551 550
f 552 542 553
f 554 552 553
f 542 541 553
f 400 547 555
f 547 546 555
f 550 551 556
f 551 557 556
f 556 557 558
f 400 555 559
f 549 514 439
f 432 549 439
f 557 560 561
f 508 554 509
f 558 557 561
f 554 553 509
f 394 400 562
f 400 559 562
f 561 560 563
f 560 504 563
f 416 394 564
f 394 562 564
f 563 504 507
f 416 564 511
f 565 504 560
f 566 567 568
f 566 568 569
f 566 569 570
f 566 570 571
f 566 571 572
f 566 572 573
f 566 573 574
f 566 575 567
f 576 504 565
f 576 505 504
f 576 519 505
f 355 354 509
f 577 566 574
f 577 576 566
f 577 574 578
f 577 578 579
f 577 579 580
f 577 580 581
f 577 581 582
f 577 582 583
f 357 355 509
f 584 519 576
f 365 357 509
f 584 541 519
f 584 553 541
f 585 365 509
f 585 367 366
f 585 366 368
f 585 368 365
f 585 576 577
f 585 584 576
f 585 553 584
f 585 509 553
f 586 367 585
f 586 587 381
f 586 585 577
f 586 583 588
f 586 588 589
f 586 589 590
f 586 590 591
f 586 591 587
f 586 381 367
f 586 577 583
f 592 593 594
f 592 595 593
f 592 596 595
f 597 594 575
f 597 565 557
f 597 557 596
f 597 592 594
f 597 596 592
f 598 597 575
f 598 565 597
f 598 566 576
f 427 381 587
f 598 575 566
f 598 576 565
f 599 427 587
f 547 396 395
f 424 427 599
f 425 424 599
f 593 600 601
f 593 601 602
f 593 602 603
f 593 603 604
f 593 604 605
f 593 605 606
f 593 606 607
f 398 396 547
f 608 609 610
f 608 610 611
f 608 611 612
f 608 612 613
f 608 613 614
f 400 398 547
f 608 614 600
f 608 600 593
f 347 346 615
f 616 412 362
f 616 362 617
f 616 609 608
f 616 617 618
f 616 618 619
f 616 619 620
f 616 620 621
f 616 621 609
f 348 615 617
f 594 593 607
f 594 607 622
f 594 622 623
f 348 347 615
f 595 523 522
f 595 538 523
f 595 608 593
f 624 414 412
f 362 348 617
f 624 415 414
f 624 395 415
f 624 608 595
f 624 616 608
f 624 534 547
f 624 547 395
f 624 412 616
f 575 623 625
f 575 625 567
f 575 594 623
f 596 538 595
f 596 551 538
f 596 557 551
f 626 595 522
f 626 534 624
f 626 526 534
f 626 522 526
f 626 624 595
f 565 560 557
f 622 192 623
f 623 192 625
f 192 627 625
f 628 629 599
f 629 425 599
f 625 627 567
f 627 630 567
f 631 628 587
f 628 599 587
f 630 632 568
f 567 630 568
f 633 631 591
f 631 587 591
f 568 632 569
f 633 591 590
f 569 632 570
f 632 634 570
f 635 633 589
f 633 590 589
f 634 636 571
f 570 634 571
f 637 635 588
f 635 589 588
f 571 636 572
f 636 638 572
f 637 588 583
f 639 637 583
f 572 638 573
f 638 640 573
f 639 583 582
f 426 422 277
f 641 639 582
f 573 640 574
f 641 582 581
f 428 426 292
f 641 581 580
f 642 641 580
f 574 640 578
f 640 643 578
f 426 277 292
f 642 580 579
f 578 643 579
f 428 292 306
f 643 642 579
f 429 428 306
f 430 429 306
f 421 438 251
f 422 421 251
f 277 422 251
f 438 437 240
f 251 438 240
f 406 430 309
f 430 306 309
f 240 437 239
f 437 436 239
f 407 406 335
f 406 309 335
f 239 436 230
f 436 435 230
f 407 335 340
f 408 407 340
f 434 433 217
f 435 434 217
f 230 435 217
f 408 340 114
f 409 408 114
f 411 409 114
f 217 433 214
f 433 361 214
f 356 411 113
f 411 114 113
f 361 360 213
f 214 361 213
f 356 113 121
f 345 356 121
f 213 360 209
f 359 373 209
f 360 359 209
f 346 345 128
f 615 346 128
f 345 121 128
f 373 372 644
f 209 373 644
f 615 128 130
f 617 615 130
f 372 399 645
f 644 372 645
f 618 617 136
f 617 130 136
f 397 393 646
f 399 397 646
f 645 399 646
f 619 618 149
f 620 619 149
f 618 136 149
f 393 392 647
f 646 393 647
f 621 620 151
f 620 149 151
f 392 391 648
f 647 392 648
f 609 621 157
f 621 151 157
f 391 390 649
f 648 391 649
f 610 609 171
f 609 157 171
f 390 388 650
f 649 390 650
f 611 610 172
f 610 171 172
f 650 388 387
f 611 172 612
f 650 387 651
f 612 172 178
f 651 387 386
f 612 178 613
f 651 386 652
f 613 178 191
f 652 386 385
f 613 191 614
f 652 385 653
f 614 191 200
f 653 385 384
f 614 200 600
f 653 384 383
f 654 653 383
f 600 200 601
f 200 218 601
f 655 654 380
f 654 383 380
f 601 218 602
f 218 231 602
f 656 655 379
f 655 380 379
f 231 244 603
f 602 231 603
f 656 379 378
f 657 656 378
f 603 244 604
f 244 258 604
f 657 378 377
f 604 258 605
f 658 657 376
f 657 377 376
f 258 275 606
f 605 258 606
f 659 658 375
f 658 376 375
f 275 193 607
f 606 275 607
f 629 659 423
f 659 375 423
f 607 193 622
f 193 192 622
f 629 423 425
f 660 661 662
f 661 663 662
f 627 192 194
f 664 665 666
f 665 667 666
f 668 664 666
f 669 670 671
f 670 672 671
f 672 668 671
f 461 463 673
f 674 461 673
f 663 675 673
f 675 674 673
f 667 660 676
f 660 662 676
f 631 633 677
f 633 669 677
f 668 666 678
f 677 669 679
f 669 671 679
f 662 663 680
f 663 673 680
f 463 466 680
f 673 463 680
f 667 676 681
f 666 667 681
f 678 666 681
f 628 631 682
f 631 677 682
f 668 678 683
f 679 671 683
f 671 668 683
f 466 467 684
f 676 662 684
f 680 466 684
f 662 680 684
f 677 679 685
f 678 681 686
f 629 628 687
f 628 682 687
f 679 683 688
f 467 469 689
f 681 676 689
f 684 467 689
f 676 684 689
f 687 682 690
f 677 685 690
f 682 677 690
f 678 686 691
f 683 678 691
f 688 683 691
f 659 629 692
f 658 659 692
f 629 687 692
f 685 679 693
f 679 688 693
f 690 685 693
f 689 469 694
f 686 681 694
f 681 689 694
f 687 690 695
f 688 691 696
f 693 688 696
f 657 658 697
f 658 692 697
f 690 693 698
f 469 444 699
f 691 686 699
f 686 694 699
f 696 691 699
f 694 469 699
f 692 687 700
f 687 695 700
f 697 692 700
f 693 696 701
f 657 697 702
f 695 690 703
f 690 698 703
f 444 440 704
f 440 446 704
f 696 699 704
f 699 444 704
f 697 700 705
f 702 697 705
f 698 693 706
f 693 701 706
f 703 698 706
f 656 657 707
f 657 702 707
f 695 703 708
f 700 695 708
f 696 704 709
f 704 446 709
f 701 696 709
f 702 705 710
f 707 702 710
f 703 706 711
f 656 707 712
f 655 656 712
f 705 700 713
f 700 708 713
f 710 705 713
f 446 447 714
f 701 709 714
f 706 701 714
f 709 446 714
f 707 710 715
f 708 703 716
f 703 711 716
f 655 712 717
f 654 655 717
f 653 654 717
f 715 710 718
f 710 713 718
f 447 449 719
f 706 714 719
f 711 706 719
f 714 447 719
f 707 715 720
f 717 712 720
f 712 707 720
f 708 716 721
f 713 708 721
f 718 713 721
f 653 717 722
f 652 653 722
f 715 718 723
f 449 451 724
f 719 449 724
f 716 711 724
f 711 719 724
f 717 720 725
f 718 721 726
f 652 722 727
f 651 652 727
f 715 723 728
f 725 720 728
f 720 715 728
f 451 452 729
f 724 451 729
f 716 724 729
f 726 721 729
f 721 716 729
f 209 644 210
f 727 722 730
f 722 717 730
f 717 725 730
f 723 718 731
f 718 726 731
f 651 727 732
f 725 728 733
f 452 455 734
f 729 452 734
f 726 729 734
f 732 727 735
f 727 730 735
f 728 723 736
f 723 731 736
f 650 651 737
f 649 650 737
f 627 194 738
f 651 732 737
f 627 738 739
f 630 627 739
f 730 725 740
f 725 733 740
f 735 730 740
f 455 456 741
f 738 194 742
f 194 303 742
f 734 455 741
f 731 726 741
f 726 734 741
f 739 738 742
f 632 630 743
f 634 632 743
f 732 735 744
f 740 733 745
f 630 739 743
f 733 728 745
f 739 742 746
f 728 736 745
f 743 739 746
f 634 743 747
f 649 737 748
f 744 735 749
f 742 303 750
f 735 740 749
f 303 316 750
f 316 327 750
f 731 741 751
f 746 742 750
f 456 459 751
f 741 456 751
f 743 746 752
f 736 731 751
f 747 743 752
f 732 744 753
f 748 737 753
f 634 747 754
f 737 732 753
f 636 634 754
f 649 748 755
f 648 649 755
f 746 750 756
f 740 745 757
f 747 752 758
f 327 206 759
f 744 749 760
f 750 327 759
f 745 736 761
f 751 459 761
f 459 460 761
f 736 751 761
f 636 754 762
f 638 636 762
f 748 753 763
f 755 748 763
f 746 756 764
f 648 755 765
f 647 648 765
f 752 746 764
f 740 757 766
f 754 747 767
f 749 740 766
f 762 754 767
f 747 758 767
f 760 749 766
f 763 753 768
f 764 756 769
f 750 759 769
f 756 750 769
f 638 762 770
f 744 760 768
f 753 744 768
f 640 638 770
f 765 755 771
f 752 764 772
f 755 763 771
f 460 462 773
f 757 745 773
f 758 752 772
f 761 460 773
f 208 448 774
f 745 761 773
f 759 206 774
f 647 765 775
f 206 208 774
f 646 647 775
f 762 767 776
f 770 762 776
f 760 766 777
f 764 769 778
f 763 768 779
f 771 763 779
f 640 770 780
f 775 765 781
f 643 640 780
f 765 771 781
f 462 464 782
f 766 757 782
f 773 462 782
f 758 772 783
f 757 773 782
f 777 766 782
f 767 758 783
f 448 450 784
f 768 760 785
f 774 448 784
f 760 777 785
f 759 774 784
f 769 759 784
f 646 775 786
f 645 646 786
f 770 776 787
f 771 779 788
f 772 764 789
f 775 781 790
f 764 778 789
f 642 643 791
f 641 642 791
f 464 465 792
f 782 464 792
f 777 782 792
f 779 768 793
f 643 780 791
f 788 779 793
f 768 785 793
f 767 783 794
f 787 776 794
f 210 644 795
f 776 767 794
f 644 645 795
f 450 453 796
f 645 786 795
f 778 769 796
f 221 210 795
f 784 450 796
f 769 784 796
f 781 771 797
f 780 770 798
f 771 788 797
f 465 468 799
f 770 787 798
f 792 465 799
f 785 777 799
f 777 792 799
f 772 789 800
f 786 775 801
f 775 790 801
f 783 772 800
f 795 786 801
f 788 793 802
f 639 641 803
f 797 788 802
f 641 791 803
f 790 781 804
f 781 797 804
f 798 787 805
f 787 794 805
f 799 468 806
f 468 470 806
f 453 454 807
f 802 793 806
f 796 453 807
f 793 785 806
f 778 796 807
f 785 799 806
f 789 778 807
f 221 795 808
f 795 801 808
f 797 802 809
f 780 798 810
f 791 780 810
f 804 797 809
f 790 804 811
f 808 801 811
f 783 800 812
f 794 783 812
f 801 790 811
f 802 806 813
f 806 470 813
f 470 442 813
f 804 809 814
f 639 803 815
f 221 808 816
f 798 805 661
f 222 221 816
f 808 811 816
f 454 457 817
f 813 442 818
f 807 454 817
f 800 789 817
f 789 807 817
f 809 802 818
f 802 813 818
f 816 811 819
f 804 814 819
f 803 791 665
f 811 804 819
f 791 810 665
f 814 809 820
f 809 818 820
f 639 815 672
f 442 441 820
f 637 639 672
f 818 442 820
f 816 819 821
f 222 816 821
f 248 222 821
f 270 248 821
f 819 814 822
f 821 819 822
f 805 794 675
f 820 441 822
f 794 812 675
f 814 820 822
f 441 443 822
f 443 445 823
f 445 265 823
f 821 822 823
f 270 821 823
f 810 798 660
f 822 443 823
f 798 661 660
f 265 270 823
f 457 458 824
f 817 457 824
f 812 800 824
f 800 817 824
f 672 815 664
f 815 803 664
f 803 665 664
f 635 637 670
f 637 672 670
f 661 805 663
f 805 675 663
f 665 810 667
f 810 660 667
f 672 664 668
f 458 461 674
f 675 812 674
f 824 458 674
f 812 824 674
f 633 635 669
f 635 670 669
f 825 532 531
f 826 825 521
f 825 531 521
f 827 826 513
f 826 521 513
f 828 827 512
f 827 513 512
f 829 828 514
f 828 512 514
f 830 829 549
f 829 514 549
f 831 830 548
f 830 549 548
f 831 548 537
f 832 503 502
f 833 832 517
f 832 502 517
f 834 833 528
f 833 517 528
f 835 834 529
f 834 528 529
f 836 835 536
f 835 529 536
f 837 836 544
f 836 536 544
f 838 837 540
f 837 544 540
f 838 540 532
f 839 506 515
f 840 839 520
f 839 515 520
f 841 840 530
f 840 520 530
f 842 841 542
f 841 530 542
f 843 842 552
f 842 542 552
f 844 843 554
f 843 552 554
f 845 844 508
f 844 554 508
f 845 508 503
f 846 539 545
f 847 846 550
f 846 545 550
f 848 847 556
f 847 550 556
f 849 848 558
f 848 556 558
f 850 849 561
f 849 558 561
f 851 850 563
f 850 561 563
f 852 851 507
f 851 563 507
f 852 507 506
f 853 559 555
f 854 853 546
f 853 555 546
f 855 854 543
f 854 546 543
f 856 855 535
f 855 543 535
f 857 856 527
f 856 535 527
f 858 857 525
f 857 527 525
f 859 858 524
f 858 525 524
f 859 524 539
f 860 537 533
f 861 860 518
f 860 533 518
f 862 861 516
f 861 518 516
f 863 862 510
f 862 516 510
f 864 863 511
f 863 510 511
f 865 864 564
f 864 511 564
f 866 865 562
f 865 564 562
f 866 562 559
f 71 867 868
f 64 868 869
f 868 867 869
f 867 870 871
f 869 867 871
f 64 869 871
f 872 873 874
f 61 64 875
f 64 874 875
f 874 873 875
f 873 61 875
f 876 877 878
f 870 872 879
f 871 870 879
f 872 874 879
f 878 877 881
f 874 64 880
f 879 874 880
f 64 871 880
f 871 879 880
f 876 878 882
f 883 884 885
f 885 884 886
f 883 885 887
f 888 889 890
f 890 889 891
f 888 890 892
f 882 893 867
f 71 894 867
f 894 876 867
f 876 882 867
f 893 895 870
f 895 896 870
f 896 883 870
f 867 893 870
f 883 887 870
f 887 897 872
f 897 898 872
f 870 887 872
f 892 899 873
f 899 61 873
f 898 900 873
f 900 888 873
f 872 898 873
f 888 892 873
f 64 71 868
f 838 532 891
f 837 838 891
f 836 837 889
f 837 891 889
f 836 889 888
f 835 836 900
f 836 888 900
f 835 900 898
f 834 835 897
f 835 898 897
f 833 834 887
f 834 897 887
f 833 887 885
f 832 833 886
f 503 832 886
f 833 885 886
f 537 78 831
f 78 74 830
f 831 78 830
f 73 91 829
f 74 73 829
f 830 74 829
f 91 61 828
f 829 91 828
f 899 892 827
f 61 899 827
f 828 61 827
f 890 891 826
f 892 890 826
f 827 892 826
f 826 891 825
f 825 891 532
f 866 559 83
f 865 866 83
f 864 865 81
f 865 83 81
f 864 81 80
f 863 864 93
f 864 80 93
f 863 93 92
f 862 863 90
f 863 92 90
f 861 862 79
f 862 90 79
f 861 79 75
f 860 861 78
f 537 860 78
f 861 75 78
f 859 539 88
f 858 859 88
f 857 858 86
f 858 88 86
f 857 86 85
f 856 857 97
f 857 85 97
f 856 97 95
f 855 856 94
f 856 95 94
f 854 855 84
f 855 94 84
f 854 84 82
f 853 854 83
f 559 853 83
f 854 82 83
f 852 506 881
f 851 852 881
f 850 851 877
f 851 881 877
f 850 877 876
f 849 850 894
f 850 876 894
f 848 849 71
f 849 894 71
f 848 71 96
f 847 848 89
f 848 96 89
f 847 89 87
f 846 847 88
f 539 846 88
f 847 87 88
f 845 503 886
f 844 845 886
f 843 844 884
f 844 886 884
f 843 884 883
f 842 843 896
f 843 883 896
f 842 896 895
f 841 842 893
f 842 895 893
f 840 841 882
f 841 893 882
f 840 882 878
f 839 840 881
f 506 839 881
f 840 878 881
f 480 901 902
f 480 479 901
f 484 902 903
f 484 480 902
f 485 903 904
f 485 484 903
f 477 50 47
f 477 47 905
f 487 485 904
f 481 905 906
f 488 904 907
f 481 477 905
f 488 487 904
f 482 906 908
f 482 481 906
f 490 907 909
f 490 488 907
f 483 908 910
f 493 909 911
f 483 482 908
f 493 490 909
f 494 493 911
f 494 911 912
f 486 483 910
f 489 910 913
f 496 912 914
f 496 494 912
f 489 486 910
f 491 913 915
f 498 496 914
f 491 489 913
f 492 915 916
f 499 914 917
f 492 491 915
f 499 498 914
f 471 917 918
f 495 916 919
f 471 499 917
f 495 492 916
f 472 918 920
f 472 471 918
f 473 920 10
f 497 919 921
f 473 472 920
f 497 495 919
f 12 473 10
f 500 497 921
f 501 500 921
f 501 921 922
f 474 922 923
f 474 501 922
f 475 923 924
f 475 474 923
f 476 924 925
f 476 475 924
f 478 476 925
f 479 925 901
f 479 478 925
f 912 908 917
f 917 905 918
f 916 915 921
f 8 6 3
f 919 916 921
f 8 3 2
f 913 910 923
f 915 913 923
f 922 921 923
f 921 915 923
f 27 25 11
f 918 905 11
f 908 906 905
f 920 918 11
f 10 920 11
f 905 45 11
f 45 39 11
f 39 27 11
f 924 923 925
f 2 59 57
f 11 25 15
f 21 8 15
f 25 21 15
f 905 47 45
f 15 8 19
f 57 55 53
f 901 925 902
f 923 910 902
f 925 923 902
f 19 8 23
f 2 57 49
f 8 2 49
f 57 53 49
f 45 41 39
f 30 23 34
f 903 902 904
f 49 43 37
f 8 49 37
f 23 8 37
f 34 23 37
f 39 32 27
f 907 904 909
f 904 902 909
f 909 902 912
f 910 908 912
f 911 909 912
f 902 910 912
f 21 17 8
f 914 912 917
f 908 905 917
