# Created by FreeCAD <http://www.freecadweb.org>
v -7.950000 -2.405080 74.793259
v -7.600000 -2.828234 75.245285
v -7.600000 -2.927748 75.109550
v -7.950000 -2.294478 74.955399
v -7.950000 -2.531042 74.642738
v -7.600000 -3.042898 74.986794
v -7.950000 -2.671150 74.505287
v -7.600000 -3.172004 74.878815
v -7.950000 -2.955396 77.705521
v -7.600000 -3.392030 77.254196
v -7.600000 -3.245286 77.171768
v -7.950000 -3.127597 77.799698
v -7.950000 -2.824056 74.382240
v -7.950000 -2.793256 77.594917
v -7.600000 -3.109548 77.072250
v -7.950000 -2.988287 74.274765
v -7.600000 -3.313185 74.787186
v -7.950000 -2.642737 77.468956
v -7.600000 -2.986795 76.957100
v -7.950000 -3.162261 74.183907
v -7.600000 -3.464381 74.713242
v -7.950000 -2.505290 77.328850
v -7.600000 -2.878817 76.827995
v -7.950000 -3.344304 74.110542
v -7.600000 -3.623388 74.658066
v -7.950000 -3.532660 74.055367
v -7.600000 -3.787886 74.622452
v -7.950000 -2.382237 77.175941
v -7.950000 -2.274765 77.011711
v -7.600000 -2.787187 76.686813
v -7.950000 -3.725518 74.018921
v -7.600000 -3.955478 74.606926
v -7.950000 -2.183907 76.837738
v -7.600000 -2.713244 76.535622
v -7.950000 -3.921019 74.001556
v -7.950000 -2.110539 76.655693
v -7.600000 -2.658064 76.376610
v -7.950000 -4.117281 74.003441
v -7.600000 -4.123719 74.611717
v -7.950000 -4.312413 74.024551
v -7.600000 -4.290155 74.636757
v -7.950000 -2.055368 76.467339
v -7.600000 -2.622453 76.212112
v -7.950000 -4.504537 74.064682
v -7.600000 -4.452361 74.681671
v -7.950000 -4.691801 74.123459
v -7.600000 -4.607970 74.745804
v -7.950000 -2.018925 76.274483
v -7.600000 -2.606929 76.044525
v -7.950000 -4.872403 74.200302
v -7.950000 -2.001560 76.078979
v -7.950000 -2.003442 75.882721
v -7.600000 -2.611720 75.876282
v -7.950000 -2.024551 75.687584
v -7.600000 -2.636754 75.709846
v -7.950000 -2.064685 75.495461
v -7.600000 -2.681668 75.547638
v -7.950000 -2.123458 75.308197
v -7.600000 -2.745806 75.392029
v -7.950000 -2.200302 75.127594
v -16.379423 -4.545252 74.875191
v -16.049999 -4.636394 75.659653
v -15.825000 -4.250036 75.739830
v -15.600000 -4.000000 76.000000
v -15.825000 -4.318197 75.829826
v -16.049999 -4.714905 76.098717
v -15.825000 -4.355210 75.936485
v -16.049999 -4.520347 76.500076
v -16.049999 -4.127034 76.710419
v -15.825000 -4.063517 76.355209
v -16.379423 -3.454748 77.124809
v -15.825000 -3.950642 76.357452
v -16.412395 -4.873466 75.034286
v -16.450430 -5.035377 75.112778
v -16.441704 -5.210001 75.402000
v -15.825000 -4.296084 76.206261
v -15.712500 -4.108928 76.143829
v -16.500000 -5.194662 75.189987
v -16.400873 -5.225533 75.616676
v -16.417740 -5.275252 76.303856
v -16.454033 -5.287106 76.467697
v -16.441704 -5.122886 76.748894
v -16.500000 -5.298820 76.629601
v -16.400873 -4.944733 76.869682
v -16.417740 -4.374478 77.256332
v -16.454033 -4.238515 77.348518
v -16.450430 -3.944873 77.362396
v -16.500000 -4.104158 77.439613
v -16.412395 -3.782962 77.283913
v -16.382917 -5.238282 75.792885
v -16.388020 -4.709800 74.954956
v -16.380409 -5.251184 75.971207
v -16.392679 -5.263273 76.138290
v -16.382917 -4.798510 76.968826
v -16.380409 -4.650530 77.069160
v -16.388020 -3.619296 77.204575
v -16.392679 -4.511875 77.163170
v -15.573205 -6.088865 75.784027
v -15.541421 -6.019394 75.600258
v -15.541421 -6.047663 75.788292
v -15.573205 -6.098362 75.917068
v -15.593185 -6.121865 76.335571
v -15.593185 -6.144539 76.125977
v -15.573205 -6.096386 76.123146
v -15.400000 -5.816093 75.162262
v -15.400000 -5.889461 75.344307
v -15.451764 -5.863491 75.255211
v -15.500000 -5.943420 75.424660
v -15.500000 -5.882044 75.247795
v -15.451764 -5.786821 75.086449
v -15.541421 -5.973896 75.415634
v -15.500000 -5.988215 75.606430
v -15.600000 -6.122294 76.579544
v -15.600000 -6.166714 76.381248
v -15.593185 -6.078756 76.541931
v -15.541421 -6.056973 75.918709
v -15.573205 -6.074221 76.328033
v -15.451764 -5.924262 75.430328
v -15.400000 -5.944632 75.532661
v -15.500000 -6.016048 75.791557
v -15.600000 -6.059768 76.772888
v -15.593185 -6.015628 76.743073
v -15.541421 -6.055036 76.120712
v -15.400000 -5.981075 75.725517
v -15.451764 -5.968616 75.610306
v -15.573205 -6.032081 76.529762
v -15.500000 -6.025214 75.919960
v -15.600000 -5.979668 76.959641
v -15.593185 -5.933088 76.937065
v -15.600000 -5.882678 77.138214
v -15.541421 -6.033309 76.321564
v -15.451764 -5.996174 75.793610
v -15.400000 -5.998440 75.921021
v -15.573205 -5.970369 76.726395
v -15.500000 -6.023307 76.118851
v -15.600000 -5.769626 77.307068
v -15.593185 -5.838381 77.111427
v -15.541421 -5.991999 76.519318
v -15.451764 -6.005250 75.920753
v -15.573205 -5.889683 76.916023
v -15.500000 -6.001915 76.316597
v -15.593185 -5.727989 77.276314
v -15.541421 -5.931505 76.712067
v -15.451764 -6.003361 76.117683
v -15.400000 -5.996558 76.117279
v -15.400000 -5.975449 76.312416
v -15.573205 -5.797102 77.086472
v -15.500000 -5.961243 76.511299
v -15.600000 -5.641476 77.464775
v -15.593185 -5.602854 77.430305
v -15.600000 -5.499322 77.609978
v -15.541421 -5.852410 76.897957
v -15.400000 -5.935315 76.504539
v -15.451764 -5.982180 76.313477
v -15.573205 -5.689188 77.247658
v -15.500000 -5.901683 76.701073
v -15.600000 -5.344376 77.741455
v -15.593185 -5.464045 77.572098
v -15.541421 -5.761655 77.065041
v -15.451764 -5.941909 76.506256
v -15.573205 -5.566864 77.398193
v -15.500000 -5.823809 76.884094
v -15.593185 -5.312744 77.700478
v -15.541421 -5.655870 77.223045
v -15.451764 -5.882936 76.694160
v -15.400000 -5.876543 76.691803
v -15.400000 -5.799698 76.872406
v -15.573205 -5.431171 77.536797
v -15.500000 -5.734456 77.048599
v -15.593185 -5.150244 77.814346
v -15.600000 -5.177960 77.858063
v -15.600000 -5.001494 77.958832
v -15.541421 -5.535958 77.370613
v -15.451764 -5.805830 76.875374
v -15.573205 -5.283268 77.662292
v -15.500000 -5.630304 77.204163
v -15.593185 -4.977931 77.912743
v -15.600000 -4.816484 78.042877
v -15.541421 -5.402942 77.506485
v -15.400000 -5.705522 77.044601
v -15.451764 -5.717358 77.038261
v -15.573205 -5.124417 77.773605
v -15.500000 -5.512244 77.349449
v -15.593185 -4.797274 77.994812
v -15.541421 -5.257956 77.629509
v -15.451764 -5.614233 77.192291
v -15.400000 -5.594920 77.206741
v -15.573205 -4.955972 77.869789
v -15.500000 -5.381281 77.483223
v -15.593185 -4.609815 78.059868
v -15.600000 -4.624508 78.109497
v -15.600000 -3.040357 77.979668
v -15.600000 -3.227111 78.059769
v -15.593185 -3.062936 77.933090
v -15.541421 -5.102238 77.738625
v -15.400000 -5.468958 77.357262
v -15.451764 -5.497336 77.336151
v -15.573205 -4.779372 77.950020
v -15.500000 -5.238534 77.604347
v -15.600000 -4.427204 78.158127
v -15.593185 -4.417153 78.107346
v -15.541421 -4.937116 77.832909
v -15.400000 -5.328850 77.494713
v -15.451764 -5.367664 77.468605
v -15.573205 -4.596122 78.013611
v -15.451764 -3.124624 77.805832
v -15.400000 -3.308199 77.876541
v -15.400000 -3.127597 77.799698
v -15.600000 -4.959643 74.020332
v -15.593185 -4.937064 74.066910
v -15.593185 -5.111430 74.161621
v -15.500000 -5.085220 77.711784
v -15.600000 -5.138210 74.117325
v -15.600000 -5.307067 74.230377
v -15.593185 -5.276313 74.272011
v -15.593185 -4.220932 78.136848
v -15.600000 -5.464771 74.358521
v -15.600000 -4.226255 78.188332
v -15.573205 -5.086473 74.202896
v -15.541421 -4.763999 77.911560
v -15.573205 -4.916023 74.110313
v -15.541421 -4.897955 74.147591
v -15.451764 -5.226325 77.588531
v -15.400000 -5.175944 77.617760
v -15.593185 -5.430307 74.397148
v -15.573205 -4.407786 78.060028
v -15.573205 -5.247654 74.310814
v -15.593185 -4.084835 78.146561
v -15.593185 -5.572098 74.535957
v -15.600000 -5.609979 74.500679
v -15.600000 -4.023376 78.199875
v -15.500000 -4.922647 77.804611
v -15.541421 -5.065043 74.238342
v -15.541421 -4.584363 77.973892
v -15.573205 -5.398191 74.433136
v -15.451764 -5.074522 77.694908
v -15.593185 -5.700477 74.687256
v -15.400000 -5.011713 77.725235
v -15.600000 -5.741451 74.655624
v -15.600000 -5.858066 74.822037
v -15.573205 -4.215971 78.088867
v -15.541421 -5.223045 74.344131
v -15.593185 -3.874027 78.144539
v -15.600000 -3.820298 78.192650
v -15.573205 -5.536798 74.568832
v -15.500000 -4.752203 77.882042
v -15.500000 -5.048600 74.265541
v -15.500000 -4.884091 74.176193
v -15.541421 -4.399743 78.019394
v -15.593185 -5.814348 74.849754
v -15.600000 -5.958828 74.998505
v -15.573205 -4.082930 78.098358
v -15.541421 -5.370613 74.464043
v -15.451764 -4.913552 77.786819
v -15.400000 -4.837739 77.816093
v -15.573205 -5.662294 74.716728
v -15.593185 -3.664432 78.121864
v -15.600000 -3.618752 78.166718
v -15.500000 -4.575341 77.943420
v -15.500000 -5.204162 74.369698
v -15.593185 -5.912739 75.022072
v -15.541421 -4.211711 78.047661
v -15.541421 -5.506486 74.597061
v -15.573205 -3.876855 78.096390
v -15.400000 -4.872403 74.200302
v -15.400000 -5.044603 74.294479
v -15.451764 -5.038262 74.282646
v -15.451764 -4.744788 77.863487
v -15.400000 -4.655696 77.889458
v -15.451764 -4.875376 74.194168
v -15.500000 -4.393571 77.988213
v -15.573205 -5.773609 74.875580
v -15.593185 -3.458068 78.078758
v -15.500000 -5.349451 74.487755
v -15.600000 -3.420459 78.122292
v -15.541421 -4.081294 78.056976
v -15.600000 -6.042879 75.183517
v -15.593185 -5.994812 75.202728
v -15.573205 -3.671966 78.074219
v -15.400000 -4.467340 77.944633
v -15.451764 -4.569670 77.924263
v -15.541421 -5.629507 74.742043
v -15.451764 -5.192291 74.385765
v -15.400000 -5.206744 74.405083
v -15.500000 -4.208443 78.016045
v -15.593185 -3.256924 78.015625
v -15.573205 -5.869791 75.044029
v -15.500000 -5.483226 74.618721
v -15.541421 -3.879284 78.055038
v -15.400000 -4.274482 77.981079
v -15.451764 -4.389691 77.968613
v -15.600000 -6.109500 75.375488
v -15.593185 -6.059865 75.390182
v -15.573205 -3.470237 78.032082
v -15.500000 -4.080039 78.025215
v -15.541421 -5.738625 74.897758
v -15.400000 -5.357263 74.531044
v -15.451764 -5.336148 74.502663
v -15.541421 -3.678437 78.033310
v -15.573205 -5.950020 75.220627
v -15.400000 -4.078981 77.998444
v -15.451764 -4.206388 77.996170
v -15.573205 -3.083977 77.889687
v -15.573205 -3.273609 77.970367
v -15.500000 -5.604348 74.761467
v -15.600000 -6.158123 75.572792
v -15.593185 -6.107345 75.582848
v -15.500000 -3.881148 78.023308
v -15.600000 -6.188334 75.773743
v -15.541421 -3.480686 77.991997
v -15.451764 -4.079250 78.005249
v -15.500000 -3.683401 78.001915
v -15.541421 -5.832910 75.062881
v -15.400000 -5.494710 74.671150
v -15.451764 -5.468605 74.632332
v -15.541421 -3.102045 77.852409
v -15.541421 -3.287937 77.931503
v -15.451764 -3.882319 78.003365
v -15.573205 -6.013613 75.403877
v -15.400000 -3.882719 77.996559
v -15.400000 -3.687587 77.975449
v -15.500000 -5.711782 74.914780
v -15.500000 -3.488704 77.961243
v -15.593185 -6.136845 75.779068
v -15.451764 -3.686522 77.982178
v -15.400000 -3.495464 77.935318
v -15.500000 -3.115909 77.823807
v -15.500000 -3.298931 77.901680
v -15.541421 -5.911557 75.236000
v -15.451764 -3.493744 77.941910
v -15.400000 -5.617763 74.824059
v -15.451764 -5.588532 74.773674
v -15.451764 -3.305842 77.882935
v -15.573205 -6.060027 75.592216
v -15.600000 -6.199876 75.976624
v -15.593185 -6.146561 75.915169
v -15.500000 -5.804611 75.077354
v -15.400000 -5.725235 74.988289
v -15.451764 -5.694907 74.925476
v -15.600000 -6.192648 76.179703
v -17.731518 -2.988635 74.143097
v -17.799999 -2.988287 74.274765
v -17.799999 -2.671150 74.505287
v -17.799999 -3.344304 74.110542
v -15.600000 -7.528963 77.409401
v -15.600000 -7.419426 77.657562
v -15.871948 -7.327472 77.612991
v -16.135778 -7.218032 77.559937
v -17.528458 -4.502182 73.642021
v -17.799999 -4.504537 74.064682
v -17.799999 -4.117281 74.003441
v -17.799999 -4.872403 74.200302
v -17.799999 -2.405080 74.793259
v -17.799999 -2.200302 75.127594
v -17.645985 -1.978644 75.020149
v -15.600000 -7.620518 77.154060
v -16.653488 -5.848869 73.311089
v -15.600000 -5.657566 72.580574
v -15.600000 -5.897282 72.707535
v -17.474527 -1.767609 74.917847
v -15.600000 -6.127329 72.851273
v -16.256939 -6.656867 73.702766
v -16.390104 -7.091680 77.498688
v -17.039433 -2.123276 73.723618
v -17.286531 -1.568306 74.821236
v -16.864956 -1.209017 74.647072
v -16.633591 -1.050920 74.570435
v -17.082985 -1.381782 74.730820
v -17.125992 -3.529596 73.170563
v -17.799999 -3.725518 74.018921
v -16.653488 -4.965585 72.882919
v -15.600000 -5.154059 72.379486
v -15.600000 -5.409404 72.471039
v -16.085630 -1.490780 73.417015
v -15.600000 -0.851275 73.872673
v -15.600000 -1.011059 73.653465
v -15.600000 -1.186075 73.446213
v -15.600000 -1.375430 73.251976
v -15.600000 -1.578158 73.071747
v -15.600000 -1.793228 72.906433
v -16.390104 -0.908320 74.501312
v -16.371658 -2.744527 72.790001
v -15.600000 -2.019543 72.756882
v -15.600000 -2.255951 72.623863
v -15.600000 -2.501245 72.508049
v -15.600000 -2.754177 72.410027
v -15.600000 -3.013457 72.330292
v -15.600000 -3.277764 72.269264
v -16.256939 -4.157587 72.491241
v -15.600000 -3.545752 72.227249
v -15.600000 -3.816054 72.204453
v -15.600000 -4.087294 72.201004
v -15.600000 -4.358089 72.216911
v -15.600000 -4.627059 72.252098
v -17.799999 -5.935315 76.504539
v -17.286531 -6.431694 77.178764
v -17.474527 -6.232390 77.082153
v -15.600000 -4.892834 72.306381
v -17.645985 -6.021356 76.979851
v -17.799999 -5.799698 76.872406
v -16.982725 -6.159489 73.915527
v -17.125992 -6.512593 74.616570
v -17.528458 -5.540008 74.145103
v -17.176609 -5.267161 73.482971
v -16.085630 -7.582078 76.369766
v -15.600000 -7.795545 75.816055
v -15.600000 -7.798997 76.087296
v -15.600000 -7.783090 76.358086
v -15.600000 -7.747906 76.627060
v -16.982725 -4.298664 73.013496
v -15.600000 -7.693623 76.892838
v -16.633591 -6.949080 77.429565
v -17.039433 -6.949582 76.063164
v -16.864956 -6.790983 77.352928
v -17.082985 -6.618218 77.269180
v -17.799999 -5.996558 76.117279
v -17.731518 -6.084224 75.643684
v -17.799999 -5.981075 75.725517
v -17.799999 -5.889461 75.344307
v -16.371658 -7.297662 74.997131
v -15.600000 -7.376136 74.255951
v -15.600000 -7.491953 74.501244
v -15.600000 -0.707536 74.102715
v -15.871948 -0.672528 74.387009
v -15.600000 -0.580574 74.342438
v -15.600000 -7.589975 74.754173
v -16.135778 -0.781968 74.440063
v -15.600000 -7.669705 75.013458
v -15.600000 -7.730734 75.277763
v -15.600000 -7.772752 75.545753
v -17.799999 -5.725235 74.988289
v -17.799999 -5.494710 74.671150
v -15.600000 -6.346537 73.011063
v -15.600000 -6.553787 73.186073
v -15.600000 -6.748023 73.375427
v -15.600000 -6.928256 73.578156
v -15.600000 -7.093567 73.793228
v -15.600000 -7.243114 74.019547
v -17.799999 -5.206744 74.405083
v -15.400000 -4.312413 74.024551
v -15.400000 -4.117281 74.003441
v -15.400000 -2.024551 75.687584
v -15.400000 -2.003442 75.882721
v -15.400000 -4.504537 74.064682
v -15.400000 -4.691801 74.123459
v -15.400000 -2.064685 75.495461
v -15.400000 -2.123458 75.308197
v -15.400000 -2.955396 77.705521
v -15.400000 -2.200302 75.127594
v -15.400000 -2.294478 74.955399
v -15.400000 -2.793256 77.594917
v -15.400000 -2.405080 74.793259
v -15.400000 -2.642737 77.468956
v -15.400000 -2.505290 77.328850
v -15.400000 -2.531042 74.642738
v -15.400000 -2.671150 74.505287
v -15.400000 -2.382237 77.175941
v -15.400000 -2.824056 74.382240
v -15.400000 -2.274765 77.011711
v -15.400000 -2.988287 74.274765
v -15.400000 -2.183907 76.837738
v -15.400000 -3.162261 74.183907
v -15.400000 -2.110539 76.655693
v -15.400000 -3.344304 74.110542
v -15.400000 -3.532660 74.055367
v -15.400000 -2.055368 76.467339
v -15.400000 -2.018925 76.274483
v -15.400000 -3.725518 74.018921
v -15.400000 -2.001560 76.078979
v -15.400000 -3.921019 74.001556
v -7.950000 -5.975449 76.312416
v -7.950000 -5.935315 76.504539
v -7.950000 -3.687587 77.975449
v -7.950000 -3.495464 77.935318
v -7.950000 -3.308199 77.876541
v -7.950000 -5.876543 76.691803
v -7.950000 -5.044603 74.294479
v -7.950000 -5.799698 76.872406
v -7.950000 -5.705522 77.044601
v -7.950000 -5.594920 77.206741
v -7.950000 -5.206744 74.405083
v -7.950000 -5.357263 74.531044
v -7.950000 -5.494710 74.671150
v -7.950000 -5.468958 77.357262
v -7.950000 -5.617763 74.824059
v -7.950000 -5.328850 77.494713
v -7.950000 -5.175944 77.617760
v -7.950000 -5.011713 77.725235
v -7.950000 -5.725235 74.988289
v -7.950000 -5.816093 75.162262
v -7.950000 -5.889461 75.344307
v -7.950000 -4.837739 77.816093
v -7.950000 -5.944632 75.532661
v -7.950000 -4.655696 77.889458
v -7.950000 -5.981075 75.725517
v -7.950000 -4.467340 77.944633
v -7.950000 -4.274482 77.981079
v -7.950000 -5.998440 75.921021
v -7.950000 -4.078981 77.998444
v -7.950000 -5.996558 76.117279
v -7.950000 -3.882719 77.996559
v -17.799999 -2.505290 77.328850
v -17.799999 -2.274765 77.011711
v -17.799999 -2.805338 76.810013
v -17.799999 -2.921286 76.959015
v -17.799999 -5.439612 75.895844
v -17.799999 -5.440892 76.084641
v -17.799999 -2.794471 75.206253
v -17.799999 -2.701180 75.370399
v -17.799999 -2.709831 76.647148
v -17.799999 -2.630112 75.545311
v -17.799999 -2.064685 75.495461
v -17.799999 -5.413701 75.708824
v -17.799999 -4.629603 74.701180
v -17.799999 -4.454686 74.630112
v -17.799999 -4.793746 74.794472
v -17.799999 -5.363601 75.526794
v -17.799999 -5.011713 77.725235
v -17.799999 -4.655696 77.889458
v -17.799999 -4.647145 77.290169
v -17.799999 -4.473208 77.363602
v -17.799999 -2.110539 76.655693
v -17.799999 -2.636399 76.473206
v -17.799999 -4.274482 77.981079
v -17.799999 -4.291174 77.413704
v -17.799999 -2.908389 75.055695
v -17.799999 -2.586299 76.291176
v -17.799999 -5.290169 75.352852
v -17.799999 -4.271990 74.582481
v -17.799999 -4.104158 77.439613
v -17.799999 -3.882719 77.996559
v -17.799999 -3.040985 74.921288
v -17.799999 -3.189990 74.805336
v -17.799999 -4.810010 77.194664
v -17.799999 -5.328850 77.494713
v -17.799999 -4.084640 74.559105
v -17.799999 -3.895842 74.560387
v -17.799999 -5.194662 75.189987
v -17.799999 -4.959015 77.078712
v -17.799999 -2.560387 76.104156
v -17.799999 -2.018925 76.274483
v -17.799999 -3.352854 74.709831
v -17.799999 -3.915360 77.440895
v -17.799999 -3.708826 74.586296
v -17.799999 -5.594920 77.206741
v -17.799999 -5.091611 76.944305
v -17.799999 -3.526792 74.636398
v -17.799999 -3.495464 77.935318
v -17.799999 -3.728010 77.417519
v -17.799999 -3.545314 77.369888
v -17.799999 -5.078714 75.040985
v -17.799999 -4.944309 74.908386
v -17.799999 -3.127597 77.799698
v -17.799999 -5.205529 76.793747
v -17.799999 -2.559108 75.915359
v -17.799999 -2.003442 75.882721
v -17.799999 -2.582483 75.728012
v -17.799999 -3.370397 77.298820
v -17.799999 -5.298820 76.629601
v -17.799999 -3.206254 77.205528
v -17.799999 -2.793256 77.594917
v -17.799999 -5.369888 76.454689
v -17.799999 -3.055691 77.091614
v -17.799999 -5.417517 76.271988
v -16.256939 -1.343133 78.297234
v -15.600000 -1.872671 79.148727
v -15.600000 -1.653463 78.988937
v -15.600000 -1.446213 78.813927
v -15.600000 -1.251977 78.624573
v -15.600000 -1.071744 78.421844
v -15.600000 -0.906433 78.206772
v -15.600000 -0.756885 77.980453
v -15.600000 -0.623864 77.744049
v -16.653488 -2.151131 78.688911
v -17.125992 -1.487407 77.383430
v -17.528458 -2.459993 77.854897
v -16.371658 -0.702338 77.002869
v -15.600000 -0.508047 77.498756
v -15.600000 -0.410024 77.245827
v -15.600000 -0.330295 76.986542
v -15.600000 -0.269266 76.722237
v -15.600000 -0.227248 76.454247
v -15.600000 -0.204455 76.183945
v -17.731518 -1.915776 76.356316
v -17.039433 -1.050418 75.936836
v -16.085630 -0.417922 75.630234
v -15.600000 -0.379482 74.845940
v -15.600000 -0.201003 75.912704
v -15.600000 -0.216910 75.641914
v -15.600000 -0.252094 75.372940
v -15.600000 -0.306377 75.107162
v -16.982725 -3.701336 78.986504
v -16.256939 -3.842413 79.508759
v -16.653488 -3.034415 79.117081
v -17.125992 -4.470405 78.829437
v -17.528458 -3.497818 78.357979
v -17.176609 -2.732839 78.517029
v -16.982725 -1.840511 78.084473
v -15.600000 -0.471037 74.590599
v -15.600000 -4.722236 79.730736
v -15.600000 -4.454248 79.772751
v -15.600000 -4.183946 79.795547
v -15.600000 -3.912706 79.798996
v -15.600000 -3.641911 79.783089
v -15.600000 -3.372941 79.747902
v -15.600000 -3.107166 79.693619
v -15.600000 -2.845941 79.620514
v -16.371658 -5.255473 79.209999
v -15.600000 -6.206772 79.093567
v -15.600000 -5.980456 79.243118
v -15.600000 -5.744050 79.376137
v -15.600000 -5.498755 79.491951
v -15.600000 -5.245823 79.589973
v -15.600000 -4.986543 79.669708
v -15.600000 -7.292464 77.897285
v -16.085630 -6.509220 78.582985
v -15.600000 -7.148725 78.127327
v -15.600000 -6.988941 78.346535
v -15.600000 -6.813925 78.553787
v -15.600000 -6.624570 78.748024
v -15.600000 -6.421842 78.928253
v -15.600000 -2.590596 79.528961
v -15.600000 -2.342434 79.419426
v -17.039433 -5.876724 78.276382
v -15.600000 -2.102718 79.292465
v -17.731518 -5.011365 77.856903
v -15.600000 -2.861789 77.882675
v -15.600000 -2.692933 77.769623
v -15.600000 -1.877706 75.420456
v -15.600000 -1.940232 75.227112
v -15.600000 -2.535228 77.641479
v -15.600000 -1.833286 75.618752
v -15.600000 -2.390021 77.499321
v -15.600000 -1.807352 75.820297
v -15.600000 -2.258548 77.344376
v -15.600000 -1.800124 76.023376
v -15.600000 -2.141934 77.177963
v -15.600000 -1.811665 76.226257
v -15.600000 -2.041172 77.001495
v -15.600000 -1.841877 76.427208
v -15.600000 -1.957121 76.816483
v -15.600000 -1.890500 76.624512
v -15.600000 -4.772889 73.940231
v -15.600000 -4.579541 73.877708
v -15.600000 -4.381248 73.833282
v -15.600000 -4.179702 73.807350
v -15.600000 -3.976624 73.800125
v -15.600000 -3.773745 73.811668
v -15.600000 -3.572796 73.841873
v -15.600000 -3.375492 73.890503
v -15.600000 -3.183516 73.957123
v -15.600000 -2.998505 74.041168
v -15.600000 -2.822040 74.141937
v -15.600000 -2.655624 74.258545
v -15.600000 -2.500678 74.390022
v -15.600000 -2.358524 74.535225
v -15.600000 -2.230374 74.692932
v -15.600000 -2.117322 74.861786
v -15.600000 -2.020332 75.040359
v -15.541421 -2.026104 76.584366
v -15.541421 -2.088443 76.764000
v -15.500000 -2.056580 76.575340
v -15.500000 -2.117956 76.752205
v -15.573205 -1.911135 76.215973
v -15.573205 -1.939973 76.407784
v -15.541421 -1.952337 76.211708
v -15.541421 -1.980606 76.399742
v -15.573205 -1.901638 76.082932
v -15.593185 -1.878135 75.664429
v -15.593185 -1.855461 75.874023
v -15.573205 -1.903614 75.876854
v -15.593185 -1.853440 76.084831
v -15.451764 -2.136509 76.744789
v -15.451764 -2.213179 76.913551
v -15.500000 -2.195389 76.922646
v -15.500000 -2.011785 76.393570
v -15.593185 -1.921243 75.458069
v -15.541421 -1.943027 76.081291
v -15.573205 -1.925779 75.671967
v -15.451764 -2.075738 76.569672
v -15.500000 -1.983952 76.208443
v -15.593185 -1.984372 75.256927
v -15.541421 -1.944964 75.879288
v -15.451764 -2.031384 76.389694
v -15.573205 -1.967920 75.470238
v -15.500000 -1.974786 76.080040
v -15.593185 -2.066912 75.062935
v -15.541421 -1.966692 75.678436
v -15.451764 -2.003826 76.206390
v -15.573205 -2.029630 75.273605
v -15.500000 -1.976693 75.881149
v -15.593185 -2.161619 74.888573
v -15.541421 -2.008001 75.480682
v -15.451764 -1.994751 76.079247
v -15.573205 -2.110317 75.083977
v -15.500000 -1.998085 75.683403
v -15.593185 -2.272012 74.723686
v -15.541421 -2.068495 75.287933
v -15.451764 -1.996639 75.882317
v -15.573205 -2.202898 74.913528
v -15.500000 -2.038757 75.488701
v -15.593185 -2.397146 74.569695
v -15.541421 -2.147590 75.102043
v -15.451764 -2.017820 75.686523
v -15.573205 -2.310812 74.752342
v -15.500000 -2.098317 75.298927
v -15.593185 -2.535955 74.427902
v -15.541421 -2.238345 74.934959
v -15.451764 -2.058091 75.493744
v -15.573205 -2.433136 74.601807
v -15.500000 -2.176191 75.115906
v -15.593185 -2.687256 74.299522
v -15.541421 -2.344130 74.776955
v -15.451764 -2.117064 75.305840
v -15.573205 -2.568829 74.463203
v -15.500000 -2.265544 74.951401
v -15.593185 -2.849756 74.185654
v -15.541421 -2.464042 74.629387
v -15.451764 -2.194170 75.124626
v -15.573205 -2.716732 74.337708
v -15.500000 -2.369696 74.795837
v -15.593185 -3.022070 74.087257
v -15.541421 -2.597058 74.493515
v -15.451764 -2.282643 74.961739
v -15.573205 -2.875583 74.226395
v -15.500000 -2.487756 74.650551
v -15.593185 -3.202727 74.005188
v -15.541421 -2.742044 74.370491
v -15.451764 -2.385767 74.807709
v -15.573205 -3.044028 74.130211
v -15.500000 -2.618719 74.516777
v -15.593185 -3.390186 73.940132
v -15.541421 -2.897762 74.261375
v -15.451764 -2.502664 74.663849
v -15.573205 -3.220628 74.049980
v -15.500000 -2.761466 74.395653
v -15.593185 -3.582847 73.892654
v -15.593185 -2.888571 77.838379
v -15.593185 -2.723687 77.727989
v -15.541421 -3.062884 74.167091
v -15.451764 -2.632336 74.531395
v -15.573205 -2.913526 77.797104
v -15.593185 -2.569693 77.602852
v -15.573205 -3.403878 73.986389
v -15.500000 -2.914780 74.288216
v -15.573205 -2.752345 77.689186
v -15.593185 -2.427902 77.464043
v -15.593185 -3.779068 73.863152
v -15.541421 -3.236001 74.088440
v -15.541421 -2.934957 77.761658
v -15.451764 -2.773676 74.411469
v -15.573205 -2.601809 77.566864
v -15.573205 -3.592214 73.939972
v -15.593185 -2.299523 77.312744
v -15.593185 -3.915165 73.853439
v -15.541421 -2.776955 77.655869
v -15.500000 -3.077353 74.195389
v -15.573205 -2.463202 77.431168
v -15.500000 -2.951400 77.734459
v -15.541421 -3.415637 74.026108
v -15.451764 -2.925478 74.305092
v -15.593185 -2.185652 77.150246
v -15.573205 -3.784029 73.911133
v -15.541421 -2.629388 77.535957
v -15.593185 -4.125973 73.855461
v -15.500000 -3.247797 74.117958
v -15.573205 -2.337705 77.283272
v -15.541421 -3.600257 73.980606
v -15.500000 -2.795838 77.630302
v -15.593185 -2.087261 76.977928
v -15.573205 -3.917070 73.901642
v -15.541421 -2.493514 77.402939
v -15.451764 -3.086448 74.213181
v -15.451764 -2.961737 77.717354
v -15.593185 -4.335568 73.878136
v -15.573205 -2.226392 77.124420
v -15.500000 -3.424659 74.056580
v -15.500000 -2.650549 77.512245
v -15.541421 -3.788289 73.952339
v -15.593185 -2.005188 76.797272
v -15.573205 -4.123145 73.903610
v -15.451764 -3.255212 74.136513
v -15.541421 -2.370493 77.257957
v -15.451764 -2.807709 77.614235
v -15.500000 -3.606429 74.011787
v -15.593185 -4.541932 73.921242
v -15.573205 -2.130209 76.955971
v -15.541421 -3.918706 73.943024
v -15.500000 -2.516774 77.381279
v -15.573205 -4.328033 73.925781
v -15.593185 -1.940135 76.609818
v -15.451764 -3.430331 74.075737
v -15.500000 -3.791558 73.983955
v -15.541421 -2.261375 77.102242
v -15.593185 -4.743076 73.984375
v -15.451764 -2.663852 77.497337
v -15.541421 -4.120716 73.944962
v -15.573205 -2.049979 76.779373
v -15.451764 -3.610309 74.031387
v -15.500000 -2.395652 77.238533
v -15.573205 -4.529763 73.967918
v -15.500000 -3.919961 73.974785
v -15.593185 -1.892655 76.417152
v -15.541421 -4.321563 73.966690
v -15.541421 -2.167090 76.937119
v -15.451764 -3.793612 74.003830
v -15.451764 -2.531395 77.367668
v -15.573205 -4.726391 74.029633
v -15.500000 -4.118852 73.976692
v -15.573205 -1.986387 76.596123
v -15.541421 -4.519314 74.008003
v -15.500000 -2.288219 77.085220
v -15.451764 -3.920750 73.994751
v -15.500000 -4.316598 73.998085
v -15.593185 -1.863155 76.220932
v -15.541421 -4.712063 74.068497
v -15.451764 -2.411468 77.226326
v -15.451764 -4.117681 73.996635
v -15.500000 -4.511296 74.038757
v -15.451764 -4.313478 74.017822
v -15.500000 -4.701069 74.098320
v -15.451764 -4.506256 74.058090
v -15.451764 -4.694158 74.117065
v -15.451764 -2.305093 77.074524
v -17.777304 -4.075689 74.647568
v -17.761009 -4.255711 74.734833
v -17.751987 -4.435930 74.822197
v -17.751101 -4.616393 74.909676
v -17.756413 -4.761025 74.979782
v -17.766640 -4.905739 75.049934
v -17.781321 -5.050348 75.120033
v -17.777248 -2.867105 75.257896
v -17.760950 -3.033031 75.145393
v -17.751961 -3.198956 75.032890
v -17.751114 -3.364881 74.920395
v -17.756430 -3.497621 74.830391
v -17.766640 -3.630362 74.740387
v -17.781309 -3.763102 74.650391
v -17.777248 -2.790872 76.610062
v -17.760950 -2.776405 76.410118
v -17.751961 -2.761939 76.210175
v -17.751114 -2.747472 76.010223
v -17.756430 -2.735899 75.850266
v -17.766640 -2.724326 75.690308
v -17.781309 -2.712753 75.530357
v -17.777258 -3.923712 77.352142
v -17.760941 -3.742880 77.264481
v -17.751944 -3.562029 77.176819
v -17.751133 -3.381496 77.089302
v -17.756479 -3.237270 77.019386
v -17.766703 -3.093176 76.949539
v -17.781359 -2.949203 76.879745
v -17.777248 -5.132895 76.742104
v -17.760950 -4.966969 76.854607
v -17.751961 -4.801044 76.967110
v -17.751114 -4.635119 77.079605
v -17.756430 -4.502379 77.169609
v -17.766640 -4.369638 77.259613
v -17.781309 -4.236898 77.349609
v -17.777248 -5.209128 75.389938
v -17.760950 -5.223595 75.589882
v -17.751961 -5.238061 75.789825
v -17.751114 -5.252528 75.989777
v -17.756430 -5.264101 76.149734
v -17.766640 -5.275674 76.309692
v -17.781309 -5.287247 76.469643
v -16.049999 -3.363607 76.340347
v -15.825000 -3.749964 76.260170
v -16.049999 -3.285095 75.901283
v -15.825000 -3.681803 76.170174
v -16.049999 -3.479653 75.499924
v -16.049999 -3.872966 75.289581
v -15.825000 -3.829826 75.681801
v -15.825000 -3.936483 75.644791
v -15.825000 -4.049357 75.642548
v -15.712500 -3.819614 76.003586
v -16.412245 -3.124903 76.964920
v -16.450472 -2.963607 76.886734
v -16.441704 -2.789999 76.598000
v -15.825000 -3.654670 75.895332
v -16.500000 -2.805338 76.810013
v -16.400873 -2.774467 76.383324
v -16.417740 -2.724748 75.696144
v -16.454033 -2.712894 75.532303
v -16.441704 -2.877114 75.251106
v -16.500000 -2.701180 75.370399
v -16.400873 -3.055267 75.130318
v -16.417740 -3.625521 74.743668
v -16.454033 -3.761485 74.651482
v -16.450472 -4.054111 74.637108
v -16.500000 -3.895842 74.560387
v -16.412245 -4.215407 74.715294
v -16.382917 -2.761718 76.207115
v -16.387886 -3.289429 77.044670
v -16.380409 -2.748816 76.028793
v -16.392679 -2.736727 75.861710
v -16.382917 -3.201490 75.031174
v -16.380409 -3.349470 74.930840
v -16.387886 -4.379933 74.795052
v -16.392679 -3.488125 74.836830
v -7.600000 -5.171766 76.754715
v -7.600000 -5.072252 76.890450
v -7.600000 -4.957102 77.013206
v -7.600000 -4.827995 77.121185
v -7.600000 -4.754714 74.828232
v -7.600000 -4.890451 74.927750
v -7.600000 -4.686815 77.212814
v -7.600000 -5.013205 75.042900
v -7.600000 -4.535619 77.286758
v -7.600000 -5.121183 75.172005
v -7.600000 -4.376612 77.341934
v -7.600000 -4.212114 77.377548
v -7.600000 -5.212812 75.313187
v -7.600000 -4.044522 77.393074
v -7.600000 -5.286756 75.464378
v -7.600000 -5.341936 75.623390
v -7.600000 -3.876281 77.388283
v -7.600000 -3.709845 77.363243
v -7.600000 -5.377547 75.787888
v -7.600000 -3.547639 77.318329
v -7.600000 -5.393071 75.955475
v -7.600000 -5.388280 76.123718
v -7.600000 -5.363245 76.290154
v -7.600000 -5.318332 76.452362
v -7.600000 -5.254193 76.607971
f 1 2 3
f 1 4 2
f 5 3 6
f 5 1 3
f 7 6 8
f 7 5 6
f 9 10 11
f 9 12 10
f 13 7 8
f 14 11 15
f 16 8 17
f 14 9 11
f 16 13 8
f 18 15 19
f 18 14 15
f 20 17 21
f 20 16 17
f 22 19 23
f 24 21 25
f 22 18 19
f 24 20 21
f 26 25 27
f 28 22 23
f 26 24 25
f 29 23 30
f 31 27 32
f 31 26 27
f 29 28 23
f 33 30 34
f 35 31 32
f 33 29 30
f 36 34 37
f 38 32 39
f 36 33 34
f 38 35 32
f 40 39 41
f 42 37 43
f 40 38 39
f 42 36 37
f 44 41 45
f 44 40 41
f 46 45 47
f 48 43 49
f 46 44 45
f 48 42 43
f 50 46 47
f 51 48 49
f 52 51 49
f 52 49 53
f 54 53 55
f 54 52 53
f 56 55 57
f 56 54 55
f 58 57 59
f 58 56 57
f 60 58 59
f 4 59 2
f 4 60 59
f 61 62 63
f 64 63 65
f 63 62 65
f 62 66 67
f 65 62 67
f 64 65 67
f 68 69 70
f 71 64 72
f 64 70 72
f 70 69 72
f 69 71 72
f 73 74 75
f 66 68 76
f 67 66 76
f 68 70 76
f 75 74 78
f 70 64 77
f 76 70 77
f 64 67 77
f 67 76 77
f 73 75 79
f 80 81 82
f 82 81 83
f 80 82 84
f 85 86 87
f 87 86 88
f 85 87 89
f 79 90 62
f 61 91 62
f 91 73 62
f 73 79 62
f 90 92 66
f 92 93 66
f 93 80 66
f 62 90 66
f 80 84 66
f 84 94 68
f 94 95 68
f 66 84 68
f 89 96 69
f 96 71 69
f 95 97 69
f 97 85 69
f 68 95 69
f 85 89 69
f 64 61 63
f 98 99 100
f 101 98 100
f 102 103 104
f 103 101 104
f 105 106 107
f 108 109 107
f 110 105 107
f 109 110 107
f 111 108 112
f 99 111 112
f 100 99 112
f 113 114 115
f 114 102 115
f 101 100 116
f 104 101 116
f 102 104 117
f 107 106 118
f 108 107 118
f 106 119 118
f 112 108 118
f 116 100 120
f 100 112 120
f 121 113 122
f 113 115 122
f 117 104 123
f 104 116 123
f 119 124 125
f 118 119 125
f 112 118 125
f 120 112 125
f 102 117 126
f 115 102 126
f 122 115 126
f 116 120 127
f 123 116 127
f 128 121 129
f 130 128 129
f 121 122 129
f 117 123 131
f 127 120 132
f 124 133 132
f 120 125 132
f 125 124 132
f 122 126 134
f 129 122 134
f 131 123 135
f 123 127 135
f 136 130 137
f 130 129 137
f 126 117 138
f 134 126 138
f 117 131 138
f 127 132 139
f 132 133 139
f 135 127 139
f 129 134 140
f 131 135 141
f 136 137 142
f 134 138 143
f 140 134 143
f 139 133 144
f 133 145 144
f 145 146 144
f 135 139 144
f 141 135 144
f 137 129 147
f 129 140 147
f 142 137 147
f 138 131 148
f 131 141 148
f 143 138 148
f 149 136 150
f 136 142 150
f 151 149 150
f 140 143 152
f 147 140 152
f 146 153 154
f 144 146 154
f 141 144 154
f 142 147 155
f 143 148 156
f 152 143 156
f 157 151 158
f 151 150 158
f 155 147 159
f 147 152 159
f 141 154 160
f 156 148 160
f 148 141 160
f 154 153 160
f 142 155 161
f 150 142 161
f 152 156 162
f 159 152 162
f 157 158 163
f 155 159 164
f 156 160 165
f 153 166 165
f 166 167 165
f 162 156 165
f 160 153 165
f 150 161 168
f 158 150 168
f 164 159 169
f 159 162 169
f 157 163 170
f 171 157 170
f 172 171 170
f 155 164 173
f 161 155 173
f 162 165 174
f 165 167 174
f 169 162 174
f 158 168 175
f 163 158 175
f 164 169 176
f 172 170 177
f 178 172 177
f 161 173 179
f 175 168 179
f 168 161 179
f 167 180 181
f 169 174 181
f 174 167 181
f 176 169 181
f 170 163 182
f 177 170 182
f 163 175 182
f 164 176 183
f 173 164 183
f 179 173 183
f 178 177 184
f 182 175 185
f 175 179 185
f 181 180 186
f 180 187 186
f 176 181 186
f 177 182 188
f 179 183 189
f 185 179 189
f 178 184 190
f 191 178 190
f 192 193 194
f 182 185 195
f 188 182 195
f 187 196 197
f 183 176 197
f 186 187 197
f 176 186 197
f 189 183 197
f 184 177 198
f 177 188 198
f 185 189 199
f 195 185 199
f 200 191 201
f 191 190 201
f 188 195 202
f 196 203 204
f 197 196 204
f 189 197 204
f 199 189 204
f 184 198 205
f 206 207 208
f 190 184 205
f 209 210 211
f 202 195 212
f 213 209 211
f 214 213 211
f 214 211 215
f 195 199 212
f 200 201 216
f 217 214 215
f 218 200 216
f 211 210 219
f 188 202 220
f 215 211 219
f 210 221 219
f 221 222 219
f 205 198 220
f 198 188 220
f 199 204 223
f 203 224 223
f 212 199 223
f 217 215 225
f 204 203 223
f 190 205 226
f 215 219 227
f 201 190 226
f 218 216 228
f 217 225 229
f 230 217 229
f 231 218 228
f 220 202 232
f 219 222 233
f 202 212 232
f 226 205 234
f 229 225 235
f 225 215 235
f 205 220 234
f 215 227 235
f 212 223 236
f 232 212 236
f 230 229 237
f 224 238 236
f 223 224 236
f 239 230 237
f 240 239 237
f 228 216 241
f 201 226 241
f 216 201 241
f 219 233 242
f 227 219 242
f 231 228 243
f 244 231 243
f 229 235 245
f 234 220 246
f 242 233 247
f 233 222 247
f 220 232 246
f 222 248 247
f 226 234 249
f 240 237 250
f 251 240 250
f 243 228 252
f 228 241 252
f 235 227 253
f 232 236 254
f 227 242 253
f 246 232 254
f 238 255 254
f 250 237 256
f 236 238 254
f 229 245 256
f 244 243 257
f 258 244 257
f 237 229 256
f 234 246 259
f 242 247 260
f 253 242 260
f 249 234 259
f 251 250 261
f 241 226 262
f 252 241 262
f 226 249 262
f 245 235 263
f 235 253 263
f 243 252 264
f 265 266 267
f 246 254 268
f 255 269 268
f 248 270 267
f 259 246 268
f 260 247 267
f 254 255 268
f 270 265 267
f 247 248 267
f 249 259 271
f 250 256 272
f 258 257 273
f 263 253 274
f 253 260 274
f 275 258 273
f 252 262 276
f 277 251 278
f 264 252 276
f 251 261 278
f 257 243 279
f 243 264 279
f 269 280 281
f 272 256 282
f 259 268 281
f 245 263 282
f 268 269 281
f 256 245 282
f 271 259 281
f 274 260 283
f 266 284 283
f 267 266 283
f 262 249 285
f 260 267 283
f 249 271 285
f 276 262 285
f 194 193 286
f 261 250 287
f 275 273 286
f 250 272 287
f 193 275 286
f 263 274 288
f 264 276 289
f 282 263 288
f 280 290 291
f 281 280 291
f 271 281 291
f 292 277 293
f 273 257 294
f 257 279 294
f 286 273 294
f 277 278 293
f 276 285 295
f 289 276 295
f 287 272 296
f 272 282 296
f 284 297 298
f 274 283 298
f 288 274 298
f 279 264 299
f 264 289 299
f 283 284 298
f 293 278 300
f 290 301 302
f 278 261 300
f 291 290 302
f 285 271 302
f 271 291 302
f 261 287 300
f 295 285 302
f 303 194 304
f 286 294 304
f 194 286 304
f 282 288 305
f 296 282 305
f 306 292 307
f 289 295 308
f 309 306 307
f 279 299 310
f 304 294 310
f 292 293 307
f 294 279 310
f 308 295 311
f 295 302 311
f 302 301 311
f 299 289 312
f 287 296 313
f 297 314 315
f 298 297 315
f 288 298 315
f 289 308 312
f 305 288 315
f 316 303 317
f 304 310 317
f 303 304 317
f 311 301 318
f 293 300 319
f 308 311 318
f 301 320 318
f 320 321 318
f 296 305 322
f 313 296 322
f 317 310 323
f 299 312 323
f 310 299 323
f 309 307 324
f 308 318 325
f 312 308 325
f 318 321 325
f 321 326 325
f 327 316 328
f 316 317 328
f 317 323 328
f 300 287 329
f 287 313 329
f 323 312 330
f 312 325 330
f 319 300 329
f 314 331 332
f 325 326 330
f 315 314 332
f 328 323 330
f 305 315 332
f 206 327 333
f 322 305 332
f 327 328 333
f 207 206 333
f 326 207 333
f 330 326 333
f 328 330 333
f 324 307 334
f 307 293 334
f 293 319 334
f 335 309 336
f 309 324 336
f 313 322 337
f 319 329 111
f 331 338 339
f 332 331 339
f 322 332 339
f 337 322 339
f 324 334 98
f 336 324 98
f 340 335 103
f 335 336 103
f 329 313 109
f 313 337 109
f 111 329 109
f 98 334 99
f 334 319 99
f 319 111 99
f 336 98 101
f 103 336 101
f 338 105 110
f 339 338 110
f 337 339 110
f 109 337 110
f 114 340 102
f 340 103 102
f 111 109 108
f 341 342 343
f 341 344 342
f 345 346 347
f 348 345 347
f 349 350 351
f 349 352 350
f 353 354 355
f 356 345 348
f 357 358 359
f 360 353 355
f 357 359 361
f 357 361 362
f 363 356 348
f 364 341 343
f 364 353 365
f 365 353 360
f 364 343 353
f 364 366 367
f 364 368 366
f 364 365 368
f 369 344 341
f 369 341 364
f 369 349 351
f 369 370 344
f 369 351 370
f 371 372 373
f 371 373 358
f 371 358 357
f 374 375 376
f 374 376 377
f 374 377 378
f 374 378 379
f 374 379 380
f 374 367 381
f 374 381 375
f 374 364 367
f 382 380 383
f 382 383 384
f 382 384 385
f 382 385 386
f 382 386 387
f 382 387 388
f 382 374 380
f 382 364 374
f 382 369 364
f 389 369 382
f 389 388 390
f 389 390 391
f 389 391 392
f 389 392 393
f 389 393 394
f 395 396 397
f 389 394 398
f 395 397 399
f 389 398 372
f 395 399 400
f 389 382 388
f 389 372 371
f 401 357 362
f 401 402 403
f 401 362 402
f 404 352 349
f 404 401 403
f 404 371 357
f 405 406 407
f 404 403 352
f 405 407 408
f 404 357 401
f 405 408 409
f 410 389 371
f 405 409 411
f 410 349 369
f 405 411 356
f 410 404 349
f 405 363 412
f 410 371 404
f 410 369 389
f 405 356 363
f 413 396 395
f 413 405 412
f 413 412 414
f 413 414 415
f 413 415 396
f 413 395 416
f 417 413 416
f 417 418 419
f 417 416 418
f 420 406 405
f 420 405 413
f 420 421 422
f 423 424 425
f 420 422 426
f 423 427 424
f 420 426 428
f 420 428 429
f 420 429 430
f 420 430 406
f 402 420 413
f 375 381 427
f 402 417 419
f 375 427 423
f 402 413 417
f 402 431 432
f 402 419 431
f 362 361 433
f 362 433 434
f 362 434 435
f 362 435 436
f 362 436 437
f 362 437 438
f 362 438 421
f 362 420 402
f 362 421 420
f 403 402 432
f 403 439 352
f 403 432 439
f 440 38 40
f 440 40 44
f 440 441 38
f 442 443 54
f 444 440 44
f 445 44 46
f 445 46 50
f 446 54 56
f 445 444 44
f 265 445 50
f 446 442 54
f 447 56 58
f 447 58 60
f 447 446 56
f 448 12 9
f 448 9 14
f 448 208 12
f 449 447 60
f 450 60 4
f 451 14 18
f 451 448 14
f 450 449 60
f 452 4 1
f 452 1 5
f 453 451 18
f 452 450 4
f 454 18 22
f 455 452 5
f 454 453 18
f 456 5 7
f 456 7 13
f 457 22 28
f 456 455 5
f 457 454 22
f 458 456 13
f 459 28 29
f 459 457 28
f 460 13 16
f 460 16 20
f 461 459 29
f 460 458 13
f 461 29 33
f 462 460 20
f 463 461 33
f 463 33 36
f 463 36 42
f 464 20 24
f 464 462 20
f 465 464 24
f 465 24 26
f 466 463 42
f 467 42 48
f 468 26 31
f 468 31 35
f 467 466 42
f 468 465 26
f 469 48 51
f 469 467 48
f 470 468 35
f 443 51 52
f 441 35 38
f 443 52 54
f 443 469 51
f 441 470 35
f 146 471 472
f 321 320 473
f 146 145 471
f 326 473 474
f 326 474 475
f 326 321 473
f 207 475 12
f 207 326 475
f 208 207 12
f 153 146 472
f 166 472 476
f 265 50 477
f 166 153 472
f 167 476 478
f 167 166 476
f 266 265 477
f 180 478 479
f 180 479 480
f 284 477 481
f 180 167 478
f 284 266 477
f 297 481 482
f 297 482 483
f 187 180 480
f 297 284 481
f 196 480 484
f 314 483 485
f 196 187 480
f 314 297 483
f 203 484 486
f 203 486 487
f 203 196 484
f 331 314 485
f 224 487 488
f 224 203 487
f 338 485 489
f 338 331 485
f 238 224 488
f 105 338 489
f 105 489 490
f 105 490 491
f 255 488 492
f 255 238 488
f 106 491 493
f 269 492 494
f 106 105 491
f 269 255 492
f 119 106 493
f 119 493 495
f 280 269 494
f 280 494 496
f 280 496 497
f 124 119 495
f 290 280 497
f 133 495 498
f 301 497 499
f 133 124 495
f 301 290 497
f 145 498 500
f 320 499 501
f 145 500 471
f 320 501 473
f 320 301 499
f 145 133 498
f 502 503 504
f 505 502 504
f 418 416 506
f 416 507 506
f 508 509 354
f 504 503 510
f 509 511 354
f 511 512 354
f 418 506 513
f 514 515 352
f 516 514 352
f 439 516 352
f 418 513 419
f 419 513 517
f 518 519 520
f 519 521 520
f 510 503 522
f 523 510 522
f 519 524 525
f 526 508 353
f 521 519 525
f 508 354 353
f 523 522 527
f 419 517 528
f 515 529 350
f 525 524 530
f 524 531 530
f 352 515 350
f 532 526 343
f 533 532 343
f 518 520 534
f 526 353 343
f 535 518 534
f 536 537 351
f 528 538 431
f 529 536 351
f 419 528 431
f 535 534 539
f 540 527 541
f 350 529 351
f 533 343 342
f 527 522 541
f 542 533 342
f 351 537 370
f 530 531 543
f 537 544 370
f 542 342 344
f 545 535 546
f 370 544 344
f 547 542 344
f 535 539 546
f 544 547 344
f 531 548 549
f 543 531 549
f 549 548 550
f 551 552 432
f 548 553 550
f 538 551 432
f 431 538 432
f 400 545 554
f 545 546 554
f 555 540 556
f 557 555 556
f 540 541 556
f 550 553 558
f 400 554 559
f 558 553 560
f 553 561 560
f 395 400 562
f 552 516 439
f 432 552 439
f 400 559 562
f 511 557 512
f 557 556 512
f 561 502 563
f 560 561 563
f 416 395 564
f 395 562 564
f 563 502 505
f 416 564 507
f 565 566 567
f 565 567 568
f 565 568 569
f 565 569 570
f 565 570 571
f 565 571 572
f 565 572 573
f 565 574 566
f 575 502 576
f 575 503 502
f 575 522 503
f 355 354 512
f 577 565 573
f 577 575 565
f 577 573 578
f 577 578 579
f 577 579 580
f 577 580 581
f 577 581 582
f 577 582 583
f 360 355 512
f 584 522 575
f 365 360 512
f 584 541 522
f 584 556 541
f 585 365 512
f 585 367 366
f 585 366 368
f 585 368 365
f 585 575 577
f 585 584 575
f 585 556 584
f 585 512 556
f 586 367 585
f 586 587 381
f 586 585 577
f 586 583 588
f 586 588 589
f 586 589 590
f 586 590 591
f 586 591 587
f 586 381 367
f 586 577 583
f 592 593 594
f 592 595 593
f 592 596 595
f 597 594 574
f 597 576 553
f 597 553 596
f 597 592 594
f 597 596 592
f 598 597 574
f 598 576 597
f 598 565 575
f 427 381 587
f 598 574 565
f 598 575 576
f 599 427 587
f 545 397 396
f 424 427 599
f 425 424 599
f 593 600 601
f 593 601 602
f 593 602 603
f 593 603 604
f 593 604 605
f 593 605 606
f 593 606 607
f 399 397 545
f 608 609 610
f 608 610 611
f 608 611 612
f 608 612 613
f 608 613 614
f 400 399 545
f 608 614 600
f 608 600 593
f 347 346 615
f 616 412 363
f 616 363 617
f 616 609 608
f 616 617 618
f 616 618 619
f 616 619 620
f 616 620 621
f 616 621 609
f 348 615 617
f 594 593 607
f 594 607 622
f 594 622 623
f 348 347 615
f 595 524 519
f 595 531 524
f 595 608 593
f 624 414 412
f 363 348 617
f 624 415 414
f 624 396 415
f 624 608 595
f 624 616 608
f 624 535 545
f 624 545 396
f 624 412 616
f 574 623 625
f 574 625 566
f 574 594 623
f 596 531 595
f 596 548 531
f 596 553 548
f 626 595 519
f 626 535 624
f 626 518 535
f 626 519 518
f 626 624 595
f 576 561 553
f 576 502 561
f 625 627 566
f 627 628 566
f 629 630 587
f 630 599 587
f 628 631 567
f 566 628 567
f 632 629 591
f 629 587 591
f 567 631 568
f 632 591 590
f 568 631 569
f 631 633 569
f 634 632 589
f 632 590 589
f 569 633 570
f 633 635 570
f 636 634 588
f 634 589 588
f 635 637 571
f 570 635 571
f 636 588 583
f 638 636 583
f 571 637 572
f 637 639 572
f 638 583 582
f 640 638 582
f 572 639 573
f 640 582 581
f 573 639 578
f 639 641 578
f 640 581 580
f 642 640 580
f 578 641 579
f 642 580 579
f 641 642 579
f 426 422 277
f 428 426 292
f 426 277 292
f 428 292 306
f 429 428 306
f 430 429 306
f 421 438 251
f 422 421 251
f 277 422 251
f 438 437 240
f 251 438 240
f 406 430 309
f 430 306 309
f 407 406 335
f 406 309 335
f 240 437 239
f 437 436 239
f 239 436 230
f 436 435 230
f 408 407 340
f 407 335 340
f 408 340 114
f 409 408 114
f 411 409 114
f 434 433 217
f 435 434 217
f 230 435 217
f 356 411 113
f 411 114 113
f 217 433 214
f 433 361 214
f 361 359 213
f 214 361 213
f 345 356 121
f 356 113 121
f 358 373 209
f 359 358 209
f 213 359 209
f 345 121 128
f 346 345 128
f 615 346 128
f 209 373 643
f 373 372 643
f 617 615 130
f 615 128 130
f 372 398 644
f 643 372 644
f 618 617 136
f 617 130 136
f 394 393 645
f 398 394 645
f 644 398 645
f 618 136 149
f 619 618 149
f 620 619 149
f 393 392 646
f 645 393 646
f 621 620 151
f 620 149 151
f 392 391 647
f 646 392 647
f 609 621 157
f 621 151 157
f 391 390 648
f 647 391 648
f 610 609 171
f 609 157 171
f 390 388 649
f 648 390 649
f 611 610 172
f 610 171 172
f 611 172 612
f 649 388 387
f 649 387 650
f 612 172 178
f 612 178 613
f 650 387 386
f 650 386 651
f 613 178 191
f 613 191 614
f 651 386 385
f 651 385 652
f 614 191 200
f 614 200 600
f 652 385 384
f 600 200 601
f 200 218 601
f 653 652 383
f 652 384 383
f 601 218 602
f 218 231 602
f 654 653 380
f 653 383 380
f 602 231 603
f 231 244 603
f 655 654 379
f 654 380 379
f 244 258 604
f 603 244 604
f 656 655 378
f 655 379 378
f 604 258 605
f 656 378 377
f 258 275 606
f 605 258 606
f 657 656 376
f 656 377 376
f 275 193 607
f 606 275 607
f 658 657 375
f 657 376 375
f 193 192 622
f 607 193 622
f 659 658 423
f 658 375 423
f 622 192 623
f 659 423 425
f 623 192 625
f 192 627 625
f 630 659 599
f 659 425 599
f 660 661 662
f 661 663 662
f 627 192 194
f 664 665 666
f 665 667 666
f 668 664 666
f 669 670 671
f 670 672 671
f 672 668 671
f 461 463 673
f 674 461 673
f 663 675 673
f 675 674 673
f 667 660 676
f 660 662 676
f 629 632 677
f 632 669 677
f 668 666 678
f 677 669 679
f 669 671 679
f 662 663 680
f 663 673 680
f 463 466 680
f 673 463 680
f 667 676 681
f 666 667 681
f 678 666 681
f 630 629 682
f 629 677 682
f 668 678 683
f 679 671 683
f 671 668 683
f 466 467 684
f 676 662 684
f 680 466 684
f 662 680 684
f 677 679 685
f 678 681 686
f 659 630 687
f 630 682 687
f 679 683 688
f 467 469 689
f 681 676 689
f 684 467 689
f 676 684 689
f 687 682 690
f 677 685 690
f 682 677 690
f 678 686 691
f 683 678 691
f 688 683 691
f 658 659 692
f 657 658 692
f 659 687 692
f 685 679 693
f 679 688 693
f 690 685 693
f 689 469 694
f 686 681 694
f 681 689 694
f 687 690 695
f 688 691 696
f 693 688 696
f 656 657 697
f 657 692 697
f 690 693 698
f 469 443 699
f 691 686 699
f 686 694 699
f 696 691 699
f 694 469 699
f 692 687 700
f 687 695 700
f 697 692 700
f 693 696 701
f 656 697 702
f 695 690 703
f 690 698 703
f 443 442 704
f 442 446 704
f 696 699 704
f 699 443 704
f 697 700 705
f 702 697 705
f 698 693 706
f 693 701 706
f 703 698 706
f 655 656 707
f 656 702 707
f 695 703 708
f 700 695 708
f 696 704 709
f 704 446 709
f 701 696 709
f 702 705 710
f 707 702 710
f 703 706 711
f 655 707 712
f 654 655 712
f 705 700 713
f 700 708 713
f 710 705 713
f 446 447 714
f 701 709 714
f 706 701 714
f 709 446 714
f 707 710 715
f 708 703 716
f 703 711 716
f 654 712 717
f 653 654 717
f 652 653 717
f 715 710 718
f 710 713 718
f 447 449 719
f 706 714 719
f 711 706 719
f 714 447 719
f 707 715 720
f 717 712 720
f 712 707 720
f 708 716 721
f 713 708 721
f 718 713 721
f 652 717 722
f 651 652 722
f 715 718 723
f 449 450 724
f 719 449 724
f 716 711 724
f 711 719 724
f 717 720 725
f 718 721 726
f 651 722 727
f 650 651 727
f 715 723 728
f 725 720 728
f 720 715 728
f 450 452 729
f 724 450 729
f 716 724 729
f 726 721 729
f 721 716 729
f 209 643 210
f 727 722 730
f 722 717 730
f 717 725 730
f 723 718 731
f 718 726 731
f 650 727 732
f 725 728 733
f 452 455 734
f 729 452 734
f 726 729 734
f 732 727 735
f 727 730 735
f 728 723 736
f 723 731 736
f 649 650 737
f 648 649 737
f 627 194 738
f 650 732 737
f 627 738 739
f 628 627 739
f 730 725 740
f 725 733 740
f 735 730 740
f 455 456 741
f 738 194 742
f 194 303 742
f 734 455 741
f 731 726 741
f 726 734 741
f 739 738 742
f 631 628 743
f 633 631 743
f 732 735 744
f 740 733 745
f 628 739 743
f 733 728 745
f 739 742 746
f 728 736 745
f 743 739 746
f 633 743 747
f 648 737 748
f 744 735 749
f 742 303 750
f 735 740 749
f 303 316 750
f 316 327 750
f 731 741 751
f 746 742 750
f 456 458 751
f 741 456 751
f 743 746 752
f 736 731 751
f 747 743 752
f 732 744 753
f 748 737 753
f 633 747 754
f 737 732 753
f 635 633 754
f 648 748 755
f 647 648 755
f 746 750 756
f 740 745 757
f 747 752 758
f 327 206 759
f 744 749 760
f 750 327 759
f 745 736 761
f 751 458 761
f 458 460 761
f 736 751 761
f 635 754 762
f 637 635 762
f 748 753 763
f 755 748 763
f 746 756 764
f 647 755 765
f 646 647 765
f 752 746 764
f 740 757 766
f 754 747 767
f 749 740 766
f 762 754 767
f 747 758 767
f 760 749 766
f 763 753 768
f 764 756 769
f 750 759 769
f 756 750 769
f 637 762 770
f 744 760 768
f 753 744 768
f 639 637 770
f 765 755 771
f 752 764 772
f 755 763 771
f 460 462 773
f 757 745 773
f 758 752 772
f 761 460 773
f 208 448 774
f 745 761 773
f 759 206 774
f 646 765 775
f 206 208 774
f 645 646 775
f 762 767 776
f 770 762 776
f 760 766 777
f 764 769 778
f 763 768 779
f 771 763 779
f 639 770 780
f 775 765 781
f 641 639 780
f 765 771 781
f 462 464 782
f 766 757 782
f 773 462 782
f 758 772 783
f 757 773 782
f 777 766 782
f 767 758 783
f 448 451 784
f 768 760 785
f 774 448 784
f 760 777 785
f 759 774 784
f 769 759 784
f 645 775 786
f 644 645 786
f 770 776 787
f 771 779 788
f 772 764 789
f 775 781 790
f 764 778 789
f 642 641 791
f 640 642 791
f 464 465 792
f 782 464 792
f 777 782 792
f 779 768 793
f 641 780 791
f 788 779 793
f 768 785 793
f 767 783 794
f 787 776 794
f 210 643 795
f 776 767 794
f 643 644 795
f 451 453 796
f 644 786 795
f 778 769 796
f 221 210 795
f 784 451 796
f 769 784 796
f 781 771 797
f 780 770 798
f 771 788 797
f 465 468 799
f 770 787 798
f 792 465 799
f 785 777 799
f 777 792 799
f 772 789 800
f 786 775 801
f 775 790 801
f 783 772 800
f 795 786 801
f 788 793 802
f 638 640 803
f 797 788 802
f 640 791 803
f 790 781 804
f 781 797 804
f 798 787 805
f 787 794 805
f 799 468 806
f 468 470 806
f 453 454 807
f 802 793 806
f 796 453 807
f 793 785 806
f 778 796 807
f 785 799 806
f 789 778 807
f 221 795 808
f 795 801 808
f 797 802 809
f 780 798 810
f 791 780 810
f 804 797 809
f 790 804 811
f 808 801 811
f 783 800 812
f 794 783 812
f 801 790 811
f 802 806 813
f 806 470 813
f 470 441 813
f 804 809 814
f 638 803 815
f 221 808 816
f 798 805 661
f 222 221 816
f 808 811 816
f 454 457 817
f 813 441 818
f 807 454 817
f 800 789 817
f 789 807 817
f 809 802 818
f 802 813 818
f 816 811 819
f 804 814 819
f 803 791 665
f 811 804 819
f 791 810 665
f 814 809 820
f 809 818 820
f 638 815 672
f 441 440 820
f 636 638 672
f 818 441 820
f 816 819 821
f 222 816 821
f 248 222 821
f 270 248 821
f 819 814 822
f 821 819 822
f 805 794 675
f 820 440 822
f 794 812 675
f 814 820 822
f 440 444 822
f 444 445 823
f 445 265 823
f 821 822 823
f 270 821 823
f 810 798 660
f 822 444 823
f 798 661 660
f 265 270 823
f 457 459 824
f 817 457 824
f 812 800 824
f 800 817 824
f 672 815 664
f 815 803 664
f 803 665 664
f 634 636 670
f 636 672 670
f 661 805 663
f 805 675 663
f 665 810 667
f 810 660 667
f 672 664 668
f 459 461 674
f 675 812 674
f 824 459 674
f 812 824 674
f 632 634 669
f 634 670 669
f 825 537 536
f 826 825 529
f 825 536 529
f 827 826 515
f 826 529 515
f 828 827 514
f 827 515 514
f 829 828 516
f 828 514 516
f 830 829 552
f 829 516 552
f 831 830 551
f 830 552 551
f 831 551 538
f 832 509 508
f 833 832 526
f 832 508 526
f 834 833 532
f 833 526 532
f 835 834 533
f 834 532 533
f 836 835 542
f 835 533 542
f 837 836 547
f 836 542 547
f 838 837 544
f 837 547 544
f 838 544 537
f 839 504 510
f 840 839 523
f 839 510 523
f 841 840 527
f 840 523 527
f 842 841 540
f 841 527 540
f 843 842 555
f 842 540 555
f 844 843 557
f 843 555 557
f 845 844 511
f 844 557 511
f 845 511 509
f 846 530 543
f 847 846 549
f 846 543 549
f 848 847 550
f 847 549 550
f 849 848 558
f 848 550 558
f 850 849 560
f 849 558 560
f 851 850 563
f 850 560 563
f 852 851 505
f 851 563 505
f 852 505 504
f 853 559 554
f 854 853 546
f 853 554 546
f 855 854 539
f 854 546 539
f 856 855 534
f 855 539 534
f 857 856 520
f 856 534 520
f 858 857 521
f 857 520 521
f 859 858 525
f 858 521 525
f 859 525 530
f 860 538 528
f 861 860 517
f 860 528 517
f 862 861 513
f 861 517 513
f 863 862 506
f 862 513 506
f 864 863 507
f 863 506 507
f 865 864 564
f 864 507 564
f 866 865 562
f 865 564 562
f 866 562 559
f 71 867 868
f 867 869 870
f 64 868 870
f 868 867 870
f 871 872 873
f 873 872 874
f 64 873 874
f 61 64 875
f 872 61 875
f 64 874 875
f 874 872 875
f 873 64 876
f 877 878 879
f 64 870 876
f 869 871 880
f 870 869 880
f 873 876 880
f 871 873 880
f 879 878 881
f 876 870 880
f 877 879 882
f 883 884 885
f 885 884 886
f 883 885 887
f 888 889 890
f 890 889 891
f 888 890 892
f 882 893 867
f 71 894 867
f 894 877 867
f 877 882 867
f 893 895 869
f 895 896 869
f 896 883 869
f 867 893 869
f 883 887 869
f 887 897 871
f 897 898 871
f 869 887 871
f 892 899 872
f 899 61 872
f 898 900 872
f 900 888 872
f 871 898 872
f 888 892 872
f 64 71 868
f 838 537 891
f 837 838 891
f 836 837 889
f 837 891 889
f 836 889 888
f 835 836 900
f 836 888 900
f 835 900 898
f 834 835 897
f 835 898 897
f 833 834 887
f 834 897 887
f 833 887 885
f 832 833 886
f 509 832 886
f 833 885 886
f 538 78 831
f 78 74 830
f 831 78 830
f 73 91 829
f 74 73 829
f 830 74 829
f 91 61 828
f 829 91 828
f 899 892 827
f 61 899 827
f 828 61 827
f 890 891 826
f 892 890 826
f 827 892 826
f 826 891 825
f 825 891 537
f 866 559 83
f 865 866 83
f 864 865 81
f 865 83 81
f 864 81 80
f 863 864 93
f 864 80 93
f 863 93 92
f 862 863 90
f 863 92 90
f 861 862 79
f 862 90 79
f 861 79 75
f 860 861 78
f 538 860 78
f 861 75 78
f 859 530 88
f 858 859 88
f 857 858 86
f 858 88 86
f 857 86 85
f 856 857 97
f 857 85 97
f 856 97 95
f 855 856 94
f 856 95 94
f 854 855 84
f 855 94 84
f 854 84 82
f 853 854 83
f 559 853 83
f 854 82 83
f 852 504 881
f 851 852 881
f 850 851 878
f 851 881 878
f 850 878 877
f 849 850 894
f 850 877 894
f 848 849 71
f 849 894 71
f 848 71 96
f 847 848 89
f 848 96 89
f 847 89 87
f 846 847 88
f 530 846 88
f 847 87 88
f 845 509 886
f 844 845 886
f 843 844 884
f 844 886 884
f 843 884 883
f 842 843 896
f 843 883 896
f 842 896 895
f 841 842 893
f 842 895 893
f 840 841 882
f 841 893 882
f 840 882 879
f 839 840 881
f 504 839 881
f 840 879 881
f 480 901 902
f 480 479 901
f 484 902 903
f 484 480 902
f 486 903 904
f 486 484 903
f 477 50 47
f 477 47 905
f 487 486 904
f 481 905 906
f 488 904 907
f 481 477 905
f 488 487 904
f 482 906 908
f 482 481 906
f 492 907 909
f 492 488 907
f 483 908 910
f 494 909 911
f 483 482 908
f 494 492 909
f 496 494 911
f 496 911 912
f 485 483 910
f 489 910 913
f 497 912 914
f 497 496 912
f 489 485 910
f 490 913 915
f 499 497 914
f 490 489 913
f 491 915 916
f 501 914 917
f 491 490 915
f 501 499 914
f 473 917 918
f 493 916 919
f 473 501 917
f 493 491 916
f 474 918 920
f 474 473 918
f 475 920 10
f 495 919 921
f 475 474 920
f 495 493 919
f 12 475 10
f 498 495 921
f 500 498 921
f 500 921 922
f 471 922 923
f 471 500 922
f 472 923 924
f 472 471 923
f 476 924 925
f 476 472 924
f 478 476 925
f 479 925 901
f 479 478 925
f 920 917 10
f 917 912 59
f 912 2 59
f 10 917 59
f 11 10 57
f 10 59 57
f 916 915 921
f 919 916 921
f 915 913 910
f 921 915 910
f 57 55 53
f 11 57 53
f 15 11 19
f 910 908 923
f 922 921 923
f 19 11 23
f 921 910 923
f 53 49 43
f 908 906 905
f 30 23 37
f 34 30 37
f 11 53 37
f 53 43 37
f 23 11 37
f 924 923 925
f 905 47 45
f 901 925 902
f 923 908 902
f 908 905 902
f 925 923 902
f 45 41 39
f 905 45 39
f 904 903 907
f 39 32 27
f 39 27 909
f 903 902 909
f 902 905 909
f 905 39 909
f 907 903 909
f 909 27 25
f 909 25 912
f 25 21 912
f 911 909 912
f 912 21 8
f 21 17 8
f 914 912 917
f 918 917 920
f 912 8 2
f 6 3 2
f 8 6 2
