# Created by FreeCAD <http://www.freecadweb.org>
v -31.706236 200.257355 13.660421
v -31.227962 199.873276 14.010421
v -31.131395 200.027908 14.010421
v -31.812334 200.059753 13.660421
v -31.578678 200.441833 13.660421
v -31.015469 200.168625 14.010421
v -31.431271 200.610870 13.660421
v -30.882168 200.292999 14.010421
v -30.421349 197.258804 13.660421
v -30.139236 197.827118 14.010421
v -30.319061 197.857147 14.010421
v -30.199797 197.223923 13.660421
v -31.265862 200.762344 13.660421
v -30.637604 197.318283 13.660421
v -30.493425 197.910400 14.010421
v -31.084534 200.894333 13.660421
v -30.733772 200.398911 14.010421
v -30.845839 197.401581 13.660421
v -30.659348 197.985962 14.010421
v -30.889568 201.005203 13.660421
v -30.572823 200.484558 14.010421
v -31.043438 197.507690 13.660421
v -30.813988 198.082535 14.010421
v -30.683416 201.093536 13.660421
v -30.402071 200.548447 14.010421
v -31.227915 197.635239 13.660421
v -30.954700 198.198456 14.010421
v -30.468670 201.158234 13.660421
v -30.224442 200.589508 14.010421
v -30.248028 201.198486 13.660421
v -30.042969 200.607040 14.010421
v -31.396950 197.782654 13.660421
v -31.079079 198.331757 14.010421
v -30.024269 201.213776 13.660421
v -29.860764 200.600739 14.010421
v -29.800203 201.203918 13.660421
v -31.548416 197.948059 13.660421
v -31.680412 198.129395 13.660421
v -31.184992 198.480148 14.010421
v -31.791275 198.324356 13.660421
v -31.270632 198.641098 14.010421
v -31.879612 198.530502 13.660421
v -31.334530 198.811844 14.010421
v -31.944311 198.745255 13.660421
v -31.375593 198.989487 14.010421
v -31.984560 198.965897 13.660421
v -31.393120 199.170959 14.010421
v -31.999853 199.189651 13.660421
v -31.386810 199.353165 14.010421
v -31.989996 199.413712 13.660421
v -31.955112 199.635269 13.660421
v -31.356771 199.532990 14.010421
v -31.895643 199.851532 13.660421
v -31.303518 199.707352 14.010421
v -29.294788 199.367249 -0.439579
v -29.339346 198.923462 -0.439579
v -29.651020 199.122147 -0.214579
v -29.848230 199.116364 -0.102079
v -30.000000 199.213928 0.010421
v -29.688343 199.395798 -0.214579
v -29.818125 198.902267 -0.214579
v -29.512209 200.421234 -0.801974
v -29.333178 200.403259 -0.840008
v -29.069691 200.191788 -0.831283
v -29.157049 200.385574 -0.889579
v -28.981228 199.995575 -0.790453
v -28.687983 198.897186 -0.831283
v -28.690056 199.349686 -0.811053
v -28.563845 199.069733 -0.889579
v -28.813688 198.722458 -0.790453
v -29.582924 197.915756 -0.840008
v -29.227449 198.147354 -0.811053
v -29.406796 197.898087 -0.889579
v -29.761955 197.933731 -0.801974
v -28.900497 199.816483 -0.771422
v -29.519598 199.752487 -0.439579
v -29.875128 200.457672 -0.769002
v -29.693180 200.439407 -0.777598
v -28.818821 199.635315 -0.771651
v -28.928410 198.563004 -0.771422
v -29.044472 198.401688 -0.771651
v -29.942926 197.951904 -0.777598
v -29.636251 198.590607 -0.439579
v -30.124872 197.970169 -0.769002
v -29.854767 199.544250 -0.214579
v -29.759800 199.483200 -0.214579
v -29.923334 198.861313 -0.214579
v -28.065334 199.917358 0.069000
v -28.095205 199.906494 0.110421
v -28.029638 199.688873 0.110421
v -27.998741 199.696320 0.069000
v -28.208725 200.103485 0.210421
v -28.120388 199.897339 0.210421
v -28.113983 199.899673 0.158657
v -28.202621 200.106522 0.158657
v -28.184727 200.115402 0.110421
v -27.862511 198.999313 0.017236
v -27.900154 199.239410 0.037216
v -27.910505 199.004135 0.037216
v -27.916210 199.474350 0.037216
v -27.941572 199.238907 0.069000
v -27.957314 199.469208 0.069000
v -27.904533 198.543823 0.010421
v -27.896652 198.777069 0.017236
v -27.953838 198.559601 0.017236
v -27.988852 199.465271 0.110421
v -27.943880 198.786880 0.037216
v -28.055689 199.682587 0.210421
v -28.049063 199.684189 0.158657
v -28.015440 199.461945 0.210421
v -27.951719 199.008270 0.069000
v -27.986057 198.328461 0.010421
v -28.033443 198.349304 0.017236
v -28.089645 198.122803 0.010421
v -27.973354 199.238510 0.110421
v -27.999783 198.574295 0.037216
v -28.008677 199.462799 0.158657
v -27.984436 198.795303 0.069000
v -28.134594 198.148468 0.017236
v -28.214163 197.929092 0.010421
v -27.983343 199.011444 0.110421
v -28.077600 198.368713 0.037216
v -28.000147 199.238190 0.210421
v -27.993334 199.238266 0.158657
v -28.039236 198.586899 0.069000
v -28.358248 197.749466 0.010421
v -28.256182 197.959320 0.017236
v -28.015556 198.801758 0.110421
v -28.176479 198.172394 0.037216
v -28.010004 199.014130 0.210421
v -28.003223 199.013443 0.158657
v -28.115519 198.385391 0.069000
v -28.396875 197.783920 0.017236
v -28.069510 198.596588 0.110421
v -28.295338 197.987488 0.037216
v -28.035118 198.805817 0.158657
v -28.044888 198.792572 0.210421
v -28.212446 198.192947 0.069000
v -28.520319 197.585876 0.010421
v -28.555134 197.624176 0.017236
v -28.698603 197.440125 0.010421
v -28.144613 198.398178 0.110421
v -28.432873 197.816025 0.037216
v -28.104357 198.576324 0.210421
v -28.088539 198.602676 0.158657
v -28.328960 198.011688 0.069000
v -28.891144 197.313812 0.010421
v -28.729223 197.481857 0.017236
v -28.240046 198.208710 0.110421
v -28.587578 197.659882 0.037216
v -28.162905 198.406219 0.158657
v -28.187666 198.368088 0.210421
v -28.463783 197.843597 0.069000
v -28.917234 197.358521 0.017236
v -28.354761 198.030243 0.110421
v -28.757757 197.520752 0.037216
v -29.044498 197.289886 0.017236
v -29.095835 197.208313 0.010421
v -28.293764 198.170486 0.210421
v -28.257397 198.218613 0.158657
v -28.615437 197.690521 0.069000
v -28.487501 197.864761 0.110421
v -28.941547 197.400177 0.037216
v -29.265930 197.194992 0.017236
v -29.310431 197.124786 0.010421
v -28.370979 198.041916 0.158657
v -28.421322 197.986008 0.210421
v -30.219776 197.024933 0.010421
v -29.989759 197.013947 0.010421
v -30.214605 197.076431 0.017236
v -28.782259 197.554153 0.069000
v -29.065952 197.333084 0.037216
v -28.636814 197.714050 0.110421
v -28.568729 197.816971 0.210421
v -28.502413 197.878052 0.158657
v -29.532583 197.064148 0.010421
v -29.496593 197.125504 0.017236
v -28.962423 197.435944 0.069000
v -29.282413 197.240326 0.037216
v -30.200478 197.217148 0.158657
v -29.975731 197.214066 0.210421
v -30.199797 197.223923 0.210421
v -29.780224 201.402924 0.010421
v -29.785395 201.351410 0.017236
v -29.563141 201.317276 0.017236
v -28.801062 197.579773 0.110421
v -29.552616 201.367950 0.010421
v -29.345675 201.260086 0.017236
v -29.084377 197.370178 0.069000
v -29.329908 201.309387 0.010421
v -29.114544 201.227859 0.010421
v -28.734138 197.665512 0.210421
v -28.650251 197.728836 0.158657
v -29.790213 201.303421 0.037216
v -29.572950 201.270035 0.037216
v -29.794352 201.262207 0.069000
v -29.759855 197.027069 0.010421
v -29.733589 197.082275 0.017236
v -28.908880 201.124283 0.010421
v -29.135378 201.180481 0.017236
v -29.507898 197.172394 0.037216
v -29.360367 201.214142 0.037216
v -28.978443 197.463409 0.110421
v -29.797527 201.230576 0.110421
v -29.581375 201.229492 0.069000
v -28.934553 201.079330 0.017236
v -29.296568 197.279251 0.069000
v -28.715170 200.999756 0.010421
v -28.812880 197.595886 0.158657
v -28.915466 197.533508 0.210421
v -30.209787 197.124420 0.037216
v -29.973932 197.065842 0.017236
v -29.154791 201.136322 0.037216
v -29.098513 197.398651 0.110421
v -29.372984 201.174683 0.069000
v -29.739571 197.130127 0.037216
v -28.535538 200.855682 0.010421
v -28.745401 200.957733 0.017236
v -29.517605 197.212662 0.069000
v -28.988514 197.480652 0.158657
v -29.587837 201.198364 0.110421
v -29.110432 197.422653 0.210421
v -28.958477 201.037445 0.037216
v -29.307428 197.309128 0.110421
v -29.107401 197.416550 0.158657
v -29.316584 197.334305 0.210421
v -29.171463 201.098404 0.069000
v -28.569996 200.817047 0.017236
v -29.974518 197.114075 0.037216
v -28.371950 200.693604 0.010421
v -29.382664 201.144409 0.110421
v -29.744707 197.171234 0.069000
v -29.525051 197.243561 0.110421
v -28.773571 200.918579 0.037216
v -29.314255 197.327911 0.158657
v -29.800203 201.203918 0.210421
v -29.578651 201.169037 0.210421
v -29.591900 201.178802 0.158657
v -29.799522 201.210693 0.158657
v -30.205648 197.165634 0.069000
v -29.975021 197.155502 0.069000
v -28.979019 201.001480 0.069000
v -28.410257 200.658783 0.017236
v -29.748650 197.202774 0.110421
v -29.531330 197.269608 0.210421
v -29.529734 197.262985 0.158657
v -29.751972 197.229355 0.210421
v -29.184256 201.069305 0.110421
v -30.202473 197.197266 0.110421
v -29.975407 197.187271 0.110421
v -29.751127 197.222595 0.158657
v -28.602104 200.781052 0.037216
v -29.975649 197.207260 0.158657
v -29.388750 201.125381 0.158657
v -29.362396 201.109558 0.210421
v -28.797762 200.884964 0.069000
v -28.226200 200.515320 0.010421
v -28.267937 200.484695 0.017236
v -28.994783 200.973877 0.110421
v -28.445953 200.626343 0.037216
v -29.192297 201.051025 0.158657
v -29.154161 201.026260 0.210421
v -28.629677 200.750137 0.069000
v -28.099884 200.322784 0.010421
v -28.144592 200.296692 0.017236
v -28.816324 200.859161 0.110421
v -28.306828 200.456161 0.037216
v -28.075958 200.169418 0.017236
v -27.994387 200.118088 0.010421
v -29.004692 200.956528 0.158657
v -28.956562 200.920151 0.210421
v -28.476606 200.598480 0.069000
v -28.650835 200.726425 0.110421
v -28.186253 200.272369 0.037216
v -28.772085 200.792603 0.210421
v -28.827993 200.842941 0.158657
v -27.981075 199.947998 0.017236
v -27.910862 199.903488 0.010421
v -28.340225 200.431656 0.069000
v -28.119162 200.147964 0.037216
v -28.500126 200.577103 0.110421
v -28.603050 200.645187 0.210421
v -28.664135 200.711517 0.158657
v -27.911579 199.717331 0.017236
v -27.850227 199.681335 0.010421
v -28.222029 200.251495 0.069000
v -28.026407 199.931503 0.037216
v -28.365850 200.412857 0.110421
v -28.156260 200.129547 0.069000
v -28.451584 200.479782 0.210421
v -28.514912 200.563675 0.158657
v -27.868347 199.480331 0.017236
v -27.813147 199.454071 0.010421
v -27.958473 199.706024 0.037216
v -28.249479 200.235474 0.110421
v -28.319588 200.298462 0.210421
v -28.381960 200.401047 0.158657
v -27.800024 199.224167 0.010421
v -27.851921 199.239990 0.017236
v -28.266737 200.225403 0.158657
v -27.811005 198.994141 0.010421
v -27.845970 198.766541 0.010421
v -28.689726 201.914215 -1.372304
v -29.189377 202.374847 -1.043067
v -28.295944 202.285141 -0.646517
v -28.116941 201.377502 -1.515570
v -29.192368 201.485489 -1.918036
v -29.760630 202.021729 -1.566189
v -29.800203 201.203918 -2.189579
v -30.339931 201.600693 -1.918036
v -30.166059 202.472900 -1.043067
v -30.747311 202.120804 -1.372304
v -31.415358 201.708664 -1.515570
v -31.059494 202.562607 -0.646517
v -26.200880 199.132126 0.010421
v -26.219009 198.834305 0.010421
v -26.349150 198.847382 -0.328300
v -26.509260 198.863449 -0.653793
v -26.509457 200.099426 -0.475210
v -26.577827 200.865814 0.010421
v -26.458771 200.592224 0.010421
v -26.206175 199.430466 0.010421
v -26.361547 200.310135 0.010421
v -26.286757 200.021286 0.010421
v -26.234859 199.727448 0.010421
v -26.698029 198.882401 -0.963385
v -27.208832 200.169647 -1.429011
v -27.419676 198.954849 -1.772117
v -28.015440 199.461945 -2.189579
v -26.913902 198.904083 -1.254534
v -27.155111 198.928299 -1.524851
v -28.120388 199.897339 -2.189579
v -28.165691 200.265717 -2.121096
v -28.319588 200.298462 -2.189579
v -28.603050 200.645187 -2.189579
v -27.248861 201.290359 -0.761237
v -27.470474 202.049683 0.010421
v -27.255781 201.842468 0.010421
v -27.058008 201.619064 0.010421
v -26.878372 201.380814 0.010421
v -26.717983 201.129211 0.010421
v -28.956562 200.920151 -2.189579
v -29.033583 202.888977 0.010421
v -28.748220 202.801819 0.010421
v -28.470575 202.692551 0.010421
v -28.202360 202.561829 0.010421
v -27.945227 202.410461 0.010421
v -27.705421 198.983551 -1.994300
v -27.700764 202.239395 0.010421
v -28.010004 199.014130 -2.189579
v -33.739552 199.889023 0.010421
v -33.650852 199.580475 -0.328300
v -33.780991 199.593536 0.010421
v -33.490738 199.564392 -0.653793
v -29.362396 201.109558 -2.189579
v -33.675056 200.180344 0.010421
v -33.301971 199.545441 -0.963385
v -31.588604 200.609375 -2.121096
v -31.431271 200.610870 -2.189579
v -31.706236 200.257355 -2.189579
v -31.084534 200.894333 -2.189579
v -30.248028 201.198486 -2.189579
v -30.683416 201.093536 -2.189579
v -29.620386 202.994919 0.010421
v -29.324903 202.953476 0.010421
v -32.545464 200.705444 -1.429011
v -31.895643 199.851532 -2.189579
v -32.580326 199.472992 -1.772117
v -33.086098 199.523773 -1.254534
v -32.844887 199.499557 -1.524851
v -30.216537 203.007751 0.010421
v -29.918209 203.013046 0.010421
v -33.244839 200.775665 -0.475210
v -33.587902 200.465698 0.010421
v -33.478630 200.743347 0.010421
v -33.347908 201.011566 0.010421
v -33.196548 201.268692 0.010421
v -33.025478 201.513153 0.010421
v -32.283440 201.795822 -0.761237
v -32.835754 201.743454 0.010421
v -32.628548 201.958145 0.010421
v -32.405136 202.155914 0.010421
v -32.166897 202.335556 0.010421
v -31.915297 202.495941 0.010421
v -31.989996 199.413712 -2.189579
v -32.294579 199.444305 -1.994300
v -31.651888 202.636093 0.010421
v -31.378296 202.755157 0.010421
v -31.096205 202.852371 0.010421
v -30.807356 202.927170 0.010421
v -30.513529 202.979065 0.010421
v -31.989996 199.413712 0.210421
v -31.999853 199.189651 0.210421
v -31.955112 199.635269 0.210421
v -31.895643 199.851532 0.210421
v -31.812334 200.059753 0.210421
v -30.421349 197.258804 0.210421
v -31.706236 200.257355 0.210421
v -30.637604 197.318283 0.210421
v -31.578678 200.441833 0.210421
v -30.845839 197.401581 0.210421
v -31.431271 200.610870 0.210421
v -31.043438 197.507690 0.210421
v -31.265862 200.762344 0.210421
v -31.227915 197.635239 0.210421
v -31.084534 200.894333 0.210421
v -31.396950 197.782654 0.210421
v -30.889568 201.005203 0.210421
v -31.548416 197.948059 0.210421
v -30.683416 201.093536 0.210421
v -31.680412 198.129395 0.210421
v -30.468670 201.158234 0.210421
v -30.248028 201.198486 0.210421
v -31.791275 198.324356 0.210421
v -30.024269 201.213776 0.210421
v -31.879612 198.530502 0.210421
v -31.944311 198.745255 0.210421
v -31.984560 198.965897 0.210421
v -28.044888 198.792572 13.660421
v -28.104357 198.576324 13.660421
v -28.187666 198.368088 13.660421
v -29.578651 201.169037 13.660421
v -29.362396 201.109558 13.660421
v -28.293764 198.170486 13.660421
v -28.421322 197.986008 13.660421
v -29.154161 201.026260 13.660421
v -28.956562 200.920151 13.660421
v -28.568729 197.816971 13.660421
v -28.734138 197.665512 13.660421
v -28.772085 200.792603 13.660421
v -28.603050 200.645187 13.660421
v -28.915466 197.533508 13.660421
v -29.110432 197.422653 13.660421
v -29.316584 197.334305 13.660421
v -28.451584 200.479782 13.660421
v -29.531330 197.269608 13.660421
v -29.751972 197.229355 13.660421
v -28.319588 200.298462 13.660421
v -28.208725 200.103485 13.660421
v -29.975731 197.214066 13.660421
v -28.120388 199.897339 13.660421
v -28.055689 199.682587 13.660421
v -28.015440 199.461945 13.660421
v -28.000147 199.238190 13.660421
v -28.010004 199.014130 13.660421
v -31.436155 199.358109 -2.189579
v -31.442690 199.169418 -2.189579
v -28.617987 199.630295 -2.189579
v -28.684158 199.807129 -2.189579
v -31.984560 198.965897 -2.189579
v -29.855808 200.650070 -2.189579
v -30.044498 200.656616 -2.189579
v -29.669586 200.618973 -2.189579
v -30.842951 198.042267 -2.189579
v -31.043438 197.507690 -2.189579
v -31.396950 197.782654 -2.189579
v -30.988670 198.162323 -2.189579
v -28.772844 199.973801 -2.189579
v -31.349899 199.724899 -2.189579
v -31.405048 199.544342 -2.189579
v -31.271656 199.896729 -2.189579
v -31.117474 198.300369 -2.189579
v -28.568729 197.816971 -2.189579
v -28.915466 197.533508 -2.189579
v -29.086443 198.096451 -2.189579
v -29.240118 197.986771 -2.189579
v -30.232428 200.638458 -2.189579
v -30.416378 200.595932 -2.189579
v -28.882526 200.127472 -2.189579
v -28.948399 198.225250 -2.189579
v -31.171652 200.056870 -2.189579
v -29.316584 197.334305 -2.189579
v -29.406796 197.898087 -2.189579
v -31.227156 198.454041 -2.189579
v -31.680412 198.129395 -2.189579
v -30.593204 200.529770 -2.189579
v -29.011330 200.265518 -2.189579
v -31.051601 200.202591 -2.189579
v -30.913557 200.331390 -2.189579
v -28.293764 198.170486 -2.189579
v -28.828348 198.370972 -2.189579
v -31.315842 198.620712 -2.189579
v -29.583622 197.831909 -2.189579
v -30.759882 200.441086 -2.189579
v -29.751972 197.229355 -2.189579
v -29.157049 200.385574 -2.189579
v -28.104357 198.576324 -2.189579
v -28.728344 198.531113 -2.189579
v -29.767572 197.789383 -2.189579
v -31.382013 198.797546 -2.189579
v -31.879612 198.530502 -2.189579
v -28.650101 198.702942 -2.189579
v -29.317192 200.485580 -2.189579
v -29.955502 197.771240 -2.189579
v -30.199797 197.223923 -2.189579
v -28.594952 198.883514 -2.189579
v -30.144192 197.777771 -2.189579
v -28.563845 199.069733 -2.189579
v -30.330414 197.808868 -2.189579
v -31.424540 198.981491 -2.189579
v -30.637604 197.318283 -2.189579
v -28.557310 199.258423 -2.189579
v -29.489017 200.563828 -2.189579
v -30.510983 197.864029 -2.189579
v -28.575460 199.446350 -2.189579
v -30.682808 197.942261 -2.189579
v -31.310274 196.513626 -1.372304
v -31.704056 196.142700 -0.646517
v -31.883059 197.050339 -1.515570
v -30.810623 196.052994 -1.043067
v -30.323593 196.414566 -1.566189
v -30.807632 196.942368 -1.918036
v -33.793827 198.997391 0.010421
v -33.799118 199.295715 0.010421
v -28.940506 195.865234 -0.646517
v -28.084703 195.931900 0.010421
v -28.348112 195.791748 0.010421
v -28.621704 195.672699 0.010421
v -28.903795 195.575470 0.010421
v -29.192644 195.500671 0.010421
v -29.486471 195.448776 0.010421
v -29.783463 195.420090 0.010421
v -27.716562 196.632019 -0.761237
v -26.974524 196.914688 0.010421
v -27.164246 196.684402 0.010421
v -27.371450 196.469711 0.010421
v -27.594864 196.271927 0.010421
v -27.833103 196.092300 0.010421
v -26.755161 197.652176 -0.475210
v -26.324944 198.247498 0.010421
v -26.412098 197.962143 0.010421
v -26.521372 197.684494 0.010421
v -26.652092 197.416275 0.010421
v -26.803453 197.159149 0.010421
v -29.833941 195.954941 -1.043067
v -30.081791 195.414795 0.010421
v -30.379614 195.432938 0.010421
v -28.584642 196.719177 -1.515570
v -27.454536 197.722397 -1.429011
v -30.675097 195.474365 0.010421
v -30.966417 195.538864 0.010421
v -29.660069 196.827148 -1.918036
v -28.411396 197.818466 -2.121096
v -26.260448 198.538818 0.010421
v -31.251780 195.626022 0.010421
v -31.529425 195.735291 0.010421
v -31.797640 195.866013 0.010421
v -32.054771 196.017380 0.010421
v -32.299236 196.188446 0.010421
v -32.529526 196.378174 0.010421
v -32.751137 197.137497 -0.761237
v -32.744217 196.585373 0.010421
v -32.941994 196.808792 0.010421
v -33.121628 197.047028 0.010421
v -33.282017 197.298630 0.010421
v -33.422173 197.562027 0.010421
v -31.834309 198.162125 -2.121096
v -32.791168 198.258194 -1.429011
v -33.490543 198.328415 -0.475210
v -33.541229 197.835632 0.010421
v -33.638451 198.117722 0.010421
v -33.713242 198.406570 0.010421
v -33.765141 198.700394 0.010421
v -29.252689 196.307053 -1.372304
v -31.091120 197.303574 0.010421
v -32.005615 198.309753 0.010421
v -32.089138 198.524353 0.010421
v -31.284830 197.428085 0.010421
v -31.464462 197.572174 0.010421
v -31.900116 198.105072 0.010421
v -31.628050 197.734238 0.010421
v -31.773800 197.912521 0.010421
v -30.010241 201.413895 0.010421
v -30.240145 201.400772 0.010421
v -30.467417 201.363693 0.010421
v -30.689569 201.303055 0.010421
v -30.904165 201.219528 0.010421
v -31.108856 201.114044 0.010421
v -31.301397 200.987717 0.010421
v -31.479681 200.841965 0.010421
v -31.641752 200.678391 0.010421
v -31.785837 200.498749 0.010421
v -31.910355 200.305038 0.010421
v -32.013943 200.099380 0.010421
v -32.095467 199.884018 0.010421
v -32.154030 199.661301 0.010421
v -32.188995 199.433701 0.010421
v -30.447384 197.059891 0.010421
v -32.199978 199.203690 0.010421
v -30.670092 197.118454 0.010421
v -32.186855 198.973785 0.010421
v -30.885456 197.199982 0.010421
v -32.149773 198.746506 0.010421
v -32.137489 199.428528 0.017236
v -32.099846 199.188446 0.037216
v -32.089497 199.423706 0.037216
v -32.042686 198.958633 0.069000
v -32.058426 199.188950 0.069000
v -32.046162 199.868240 0.017236
v -32.103348 199.650787 0.017236
v -32.011150 198.962570 0.110421
v -31.970362 198.738968 0.110421
v -32.056118 199.640976 0.037216
v -31.950937 198.743652 0.158657
v -31.904795 198.521347 0.110421
v -31.886017 198.528183 0.158657
v -32.048283 199.419571 0.069000
v -31.966557 200.078552 0.017236
v -32.026646 199.189331 0.110421
v -32.000217 199.853561 0.037216
v -31.991323 198.965042 0.158657
v -32.015564 199.632553 0.069000
v -31.865406 200.279373 0.017236
v -32.016655 199.416397 0.110421
v -31.922400 200.059128 0.037216
v -32.006668 199.189575 0.158657
v -31.960764 199.840942 0.069000
v -31.743818 200.468521 0.017236
v -31.984444 199.626083 0.110421
v -31.823521 200.255447 0.037216
v -31.996777 199.414398 0.158657
v -31.884481 200.042465 0.069000
v -31.603125 200.643921 0.017236
v -31.930490 199.831253 0.110421
v -31.704662 200.440353 0.037216
v -31.964882 199.622025 0.158657
v -31.787554 200.234909 0.069000
v -31.444866 200.803665 0.017236
v -31.855387 200.029663 0.110421
v -31.567127 200.611816 0.037216
v -31.911461 199.825165 0.158657
v -31.671040 200.416153 0.069000
v -31.270777 200.945984 0.017236
v -31.759954 200.219131 0.110421
v -31.412422 200.767975 0.037216
v -31.837095 200.021622 0.158657
v -31.536217 200.584244 0.069000
v -31.082766 201.069336 0.017236
v -31.645239 200.397598 0.110421
v -31.242243 200.907089 0.037216
v -30.955502 201.137970 0.017236
v -31.742603 200.209229 0.158657
v -31.384563 200.737320 0.069000
v -31.512499 200.563080 0.110421
v -31.058453 201.027664 0.037216
v -30.734070 201.232849 0.017236
v -31.629021 200.385925 0.158657
v -31.217741 200.873703 0.069000
v -30.934048 201.094757 0.037216
v -31.363186 200.713791 0.110421
v -31.497587 200.549789 0.158657
v -30.503407 201.302338 0.017236
v -31.037577 200.991898 0.069000
v -30.717587 201.187515 0.037216
v -31.198938 200.848068 0.110421
v -30.915623 201.057663 0.069000
v -31.349749 200.699005 0.158657
v -30.266411 201.345581 0.017236
v -30.492102 201.255447 0.037216
v -30.436859 197.110580 0.017236
v -30.654325 197.167755 0.017236
v -31.021557 200.964447 0.110421
v -30.427050 197.157806 0.037216
v -30.703432 201.148590 0.069000
v -31.187120 200.831955 0.158657
v -30.864622 197.247360 0.017236
v -30.026068 201.362000 0.017236
v -30.639633 197.213699 0.037216
v -30.901487 201.029190 0.110421
v -30.260429 201.297714 0.037216
v -30.418625 197.198364 0.069000
v -30.482395 201.215179 0.069000
v -31.065447 197.348511 0.017236
v -31.011486 200.947189 0.158657
v -30.845209 197.291519 0.037216
v -30.692572 201.118713 0.110421
v -30.627016 197.253159 0.069000
v -30.892599 201.011307 0.158657
v -30.025482 201.313766 0.037216
v -31.254599 197.470108 0.017236
v -30.412163 197.229477 0.110421
v -30.255293 201.256607 0.069000
v -31.041523 197.390396 0.037216
v -30.474949 201.184280 0.110421
v -30.685745 201.099945 0.158657
v -30.828537 197.329437 0.069000
v -30.024979 201.272354 0.069000
v -30.251350 201.225067 0.110421
v -31.430004 197.610794 0.017236
v -30.470266 201.164856 0.158657
v -30.617336 197.283432 0.110421
v -30.024593 201.240570 0.110421
v -31.226429 197.509262 0.037216
v -30.248873 201.205246 0.158657
v -30.408100 197.249039 0.158657
v -30.024351 201.220596 0.158657
v -31.020981 197.426376 0.069000
v -31.589743 197.769058 0.017236
v -30.815744 197.358536 0.110421
v -31.397896 197.646790 0.037216
v -30.611250 197.302460 0.158657
v -31.202238 197.542877 0.069000
v -31.732063 197.943146 0.017236
v -31.005217 197.453964 0.110421
v -31.554047 197.801498 0.037216
v -30.807703 197.376831 0.158657
v -31.370323 197.677704 0.069000
v -31.855408 198.131149 0.017236
v -31.183676 197.568680 0.110421
v -31.693172 197.971680 0.037216
v -31.924042 198.258423 0.017236
v -30.995308 197.471313 0.158657
v -31.523394 197.829361 0.069000
v -31.349165 197.701431 0.110421
v -31.813747 198.155472 0.037216
v -31.172007 197.584900 0.158657
v -32.018925 198.479858 0.017236
v -31.659775 197.996185 0.069000
v -31.880838 198.279877 0.037216
v -31.499874 197.850739 0.110421
v -31.335865 197.716339 0.158657
v -32.088421 198.710510 0.017236
v -31.777971 198.176346 0.069000
v -31.973593 198.496338 0.037216
v -31.634150 198.014984 0.110421
v -31.843740 198.298294 0.069000
v -31.485088 197.864182 0.158657
v -32.131653 198.947510 0.017236
v -32.041527 198.721817 0.037216
v -31.750521 198.192368 0.110421
v -31.934666 198.510483 0.069000
v -31.618040 198.026810 0.158657
v -32.148079 199.187851 0.017236
v -31.815273 198.312439 0.110421
v -32.083790 198.953491 0.037216
v -32.001259 198.731522 0.069000
v -31.733263 198.202438 0.158657
v -31.797379 198.321320 0.158657
v -30.394341 200.509796 -2.166883
v -30.195284 200.489807 -2.150589
v -29.996008 200.469803 -2.141567
v -29.796463 200.449768 -2.140679
v -29.476522 200.417648 -2.156218
v -31.319078 199.520844 -2.166827
v -31.202002 199.683578 -2.150529
v -31.084927 199.846298 -2.141539
v -30.967850 200.009033 -2.140693
v -30.780527 200.269394 -2.156219
v -30.925341 198.225021 -2.166827
v -31.007730 198.407776 -2.150529
v -31.090118 198.590546 -2.141539
v -31.172508 198.773300 -2.140693
v -31.304333 199.065704 -2.156219
v -29.606321 197.918106 -2.166836
v -29.806274 197.938187 -2.150519
v -30.006248 197.958267 -2.141521
v -30.205872 197.978302 -2.140712
v -30.524677 198.010315 -2.156282
v -28.680922 198.906998 -2.166827
v -28.797998 198.744278 -2.150529
v -28.915073 198.581543 -2.141539
v -29.032150 198.418808 -2.140693
v -29.219473 198.158447 -2.156219
v -29.074659 200.202820 -2.166827
v -28.992270 200.020065 -2.150529
v -28.909882 199.837311 -2.141539
v -28.827492 199.654556 -2.140693
v -28.695667 199.362137 -2.156219
v -30.151770 199.311478 -0.102079
v -30.348980 199.305695 -0.214579
v -30.181875 199.525574 -0.214579
v -30.311657 199.032043 -0.214579
v -30.489595 198.006790 -0.801823
v -30.667946 198.024704 -0.840052
v -30.930309 198.236053 -0.831283
v -30.842951 198.042267 -0.889579
v -31.018772 198.432281 -0.790453
v -31.312017 199.530655 -0.831283
v -31.309944 199.078156 -0.811053
v -31.436155 199.358109 -0.889579
v -31.186312 199.705383 -0.790453
v -30.418201 200.512192 -0.840052
v -30.772551 200.280487 -0.811053
v -30.593204 200.529770 -0.889579
v -30.239849 200.494293 -0.801823
v -31.099503 198.611359 -0.771422
v -30.480402 198.675369 -0.439579
v -30.307673 197.988525 -0.777465
v -31.181179 198.792526 -0.771651
v -30.705212 199.060593 -0.439579
v -31.071590 199.864838 -0.771422
v -30.660654 199.504395 -0.439579
v -30.955528 200.026154 -0.771651
v -30.057926 200.476028 -0.777465
v -30.363749 199.837234 -0.439579
v -30.145233 198.883591 -0.214579
v -30.240200 198.944641 -0.214579
v -30.076666 199.566528 -0.214579
v -28.772038 198.554581 14.010421
v -28.868605 198.399933 14.010421
v -28.984531 198.259216 14.010421
v -29.117832 198.134842 14.010421
v -29.680939 200.570694 14.010421
v -29.506575 200.517441 14.010421
v -29.266228 198.028931 14.010421
v -29.340652 200.441879 14.010421
v -29.427177 197.943298 14.010421
v -29.186012 200.345322 14.010421
v -29.597929 197.879395 14.010421
v -29.045300 200.229385 14.010421
v -29.775558 197.838333 14.010421
v -29.957031 197.820801 14.010421
v -28.920921 200.096085 14.010421
v -28.815008 199.947693 14.010421
v -28.729368 199.786743 14.010421
v -28.665470 199.615997 14.010421
v -28.624407 199.438370 14.010421
v -28.606880 199.256897 14.010421
v -28.613190 199.074692 14.010421
v -28.643229 198.894867 14.010421
v -28.696482 198.720490 14.010421
f 1 2 3
f 1 4 2
f 5 3 6
f 5 1 3
f 7 6 8
f 7 5 6
f 9 10 11
f 9 12 10
f 13 7 8
f 14 11 15
f 14 9 11
f 16 8 17
f 18 15 19
f 16 13 8
f 18 14 15
f 20 17 21
f 20 16 17
f 22 19 23
f 22 18 19
f 24 21 25
f 24 20 21
f 26 23 27
f 28 25 29
f 26 22 23
f 28 24 25
f 30 29 31
f 32 27 33
f 30 28 29
f 32 26 27
f 34 30 31
f 34 31 35
f 36 34 35
f 37 32 33
f 38 33 39
f 38 37 33
f 40 39 41
f 40 38 39
f 42 41 43
f 42 40 41
f 44 42 43
f 44 43 45
f 46 44 45
f 46 45 47
f 48 46 47
f 48 47 49
f 50 48 49
f 51 50 49
f 51 49 52
f 53 52 54
f 53 51 52
f 4 54 2
f 4 53 54
f 55 56 57
f 60 57 58
f 57 61 58
f 59 60 58
f 61 59 58
f 62 63 64
f 64 63 65
f 62 64 66
f 67 68 69
f 68 67 70
f 71 72 73
f 72 71 74
f 66 75 76
f 77 78 76
f 78 62 76
f 62 66 76
f 75 79 55
f 79 68 55
f 76 75 55
f 68 70 55
f 70 80 56
f 80 81 56
f 55 70 56
f 74 82 83
f 82 84 83
f 81 72 83
f 56 81 83
f 72 74 83
f 59 77 85
f 77 76 85
f 85 76 86
f 59 85 86
f 59 86 60
f 76 55 60
f 86 76 60
f 56 83 61
f 84 59 87
f 61 83 87
f 83 84 87
f 59 61 87
f 60 55 57
f 56 61 57
f 88 89 90
f 91 88 90
f 92 93 94
f 95 92 94
f 89 96 94
f 96 95 94
f 97 98 99
f 98 100 101
f 100 102 101
f 103 104 105
f 91 90 106
f 102 91 106
f 104 97 107
f 97 99 107
f 105 104 107
f 93 108 109
f 108 110 109
f 89 94 109
f 90 89 109
f 94 93 109
f 99 98 111
f 98 101 111
f 112 103 113
f 114 112 113
f 103 105 113
f 101 102 115
f 102 106 115
f 105 107 116
f 106 90 117
f 90 109 117
f 109 110 117
f 99 111 118
f 107 99 118
f 116 107 118
f 114 113 119
f 120 114 119
f 111 101 121
f 101 115 121
f 113 105 122
f 105 116 122
f 119 113 122
f 110 123 124
f 106 117 124
f 117 110 124
f 115 106 124
f 116 118 125
f 126 120 127
f 120 119 127
f 118 111 128
f 111 121 128
f 125 118 128
f 119 122 129
f 123 130 131
f 124 123 131
f 121 115 131
f 115 124 131
f 122 116 132
f 116 125 132
f 126 127 133
f 125 128 134
f 127 119 135
f 119 129 135
f 134 128 136
f 130 137 136
f 131 130 136
f 128 121 136
f 121 131 136
f 129 122 138
f 122 132 138
f 139 126 140
f 141 139 140
f 126 133 140
f 125 134 142
f 132 125 142
f 133 127 143
f 127 135 143
f 137 144 145
f 134 136 145
f 136 137 145
f 129 138 146
f 135 129 146
f 147 141 148
f 141 140 148
f 138 132 149
f 132 142 149
f 140 133 150
f 148 140 150
f 133 143 150
f 145 144 151
f 142 134 151
f 144 152 151
f 149 142 151
f 134 145 151
f 143 135 153
f 135 146 153
f 147 148 154
f 146 138 155
f 138 149 155
f 148 150 156
f 147 154 157
f 158 147 157
f 152 159 160
f 149 151 160
f 151 152 160
f 143 153 161
f 150 143 161
f 146 155 162
f 153 146 162
f 148 156 163
f 154 148 163
f 158 157 164
f 165 158 164
f 160 159 166
f 159 167 166
f 155 149 166
f 149 160 166
f 168 169 170
f 156 150 171
f 150 161 171
f 157 154 172
f 164 157 172
f 154 163 172
f 161 153 173
f 153 162 173
f 167 174 175
f 166 167 175
f 162 155 175
f 155 166 175
f 176 165 177
f 165 164 177
f 163 156 178
f 156 171 178
f 164 172 179
f 180 181 182
f 183 184 185
f 171 161 186
f 187 183 185
f 161 173 186
f 187 185 188
f 172 163 189
f 163 178 189
f 190 187 188
f 191 190 188
f 174 192 193
f 175 174 193
f 173 162 193
f 162 175 193
f 186 173 193
f 184 194 195
f 194 196 195
f 197 176 198
f 185 184 195
f 176 177 198
f 199 191 200
f 191 188 200
f 177 164 201
f 164 179 201
f 188 185 202
f 185 195 202
f 178 171 203
f 171 186 203
f 196 204 205
f 195 196 205
f 199 200 206
f 179 172 207
f 172 189 207
f 208 199 206
f 193 192 209
f 192 210 209
f 186 193 209
f 211 170 212
f 197 198 212
f 169 197 212
f 170 169 212
f 200 188 213
f 188 202 213
f 178 203 214
f 195 205 215
f 189 178 214
f 202 195 215
f 198 177 216
f 177 201 216
f 217 208 218
f 201 179 219
f 208 206 218
f 179 207 219
f 203 186 220
f 209 210 220
f 205 204 221
f 210 222 220
f 186 209 220
f 206 200 223
f 207 189 224
f 200 213 223
f 189 214 224
f 203 220 225
f 222 226 225
f 213 202 227
f 220 222 225
f 202 215 227
f 214 203 225
f 217 218 228
f 198 216 229
f 230 217 228
f 212 198 229
f 211 212 229
f 215 205 231
f 205 221 231
f 216 201 232
f 201 219 232
f 219 207 233
f 228 218 234
f 218 206 234
f 207 224 233
f 206 223 234
f 224 214 235
f 214 225 235
f 236 237 238
f 225 226 235
f 204 239 238
f 239 236 238
f 240 211 241
f 221 204 238
f 213 227 242
f 211 229 241
f 229 216 241
f 216 232 241
f 223 213 242
f 230 228 243
f 219 233 244
f 232 219 244
f 226 245 246
f 245 247 246
f 224 235 246
f 233 224 246
f 235 226 246
f 215 231 248
f 249 240 250
f 240 241 250
f 227 215 248
f 241 232 250
f 232 244 250
f 244 233 251
f 228 234 252
f 246 247 251
f 233 246 251
f 180 249 253
f 238 237 254
f 181 180 253
f 237 255 254
f 249 250 253
f 244 251 253
f 247 181 253
f 221 238 254
f 250 244 253
f 231 221 254
f 251 247 253
f 223 242 256
f 234 223 256
f 252 234 256
f 257 230 258
f 230 243 258
f 227 248 259
f 242 227 259
f 243 228 260
f 258 243 260
f 228 252 260
f 231 254 261
f 255 262 261
f 248 231 261
f 254 255 261
f 252 256 263
f 264 257 265
f 257 258 265
f 242 259 266
f 256 242 266
f 258 260 267
f 264 265 268
f 269 264 268
f 259 248 270
f 262 271 270
f 261 262 270
f 248 261 270
f 260 252 272
f 252 263 272
f 263 256 273
f 256 266 273
f 265 258 274
f 258 267 274
f 271 275 276
f 270 271 276
f 266 259 276
f 259 270 276
f 273 266 276
f 269 268 277
f 278 269 277
f 260 272 279
f 267 260 279
f 277 268 280
f 268 265 280
f 265 274 280
f 272 263 281
f 263 273 281
f 275 282 283
f 273 276 283
f 276 275 283
f 278 277 284
f 285 278 284
f 274 267 286
f 267 279 286
f 277 280 287
f 279 272 288
f 272 281 288
f 280 274 289
f 274 286 289
f 282 290 291
f 283 282 291
f 281 273 291
f 273 283 291
f 288 281 291
f 285 284 292
f 293 285 292
f 284 277 294
f 292 284 294
f 277 287 294
f 279 288 295
f 286 279 295
f 287 280 88
f 280 289 88
f 290 296 297
f 291 290 297
f 288 291 297
f 298 293 299
f 293 292 299
f 289 286 96
f 286 295 96
f 292 294 100
f 299 292 100
f 287 88 91
f 294 287 91
f 296 92 300
f 295 288 300
f 297 296 300
f 288 297 300
f 96 295 300
f 301 298 97
f 298 299 97
f 88 289 89
f 289 96 89
f 96 300 95
f 300 92 95
f 97 299 98
f 299 100 98
f 100 294 102
f 294 91 102
f 302 301 104
f 103 302 104
f 301 97 104
f 303 304 305
f 303 305 306
f 303 306 307
f 308 309 310
f 308 303 307
f 308 304 303
f 308 311 304
f 308 307 309
f 312 310 313
f 312 313 314
f 315 316 317
f 312 308 310
f 312 314 311
f 312 311 308
f 318 315 317
f 319 320 321
f 322 315 318
f 319 321 323
f 319 323 324
f 319 324 325
f 319 325 322
f 326 322 318
f 319 322 326
f 327 328 329
f 327 326 330
f 327 330 331
f 327 331 328
f 327 329 332
f 327 319 326
f 333 327 332
f 333 334 335
f 333 332 334
f 336 337 338
f 336 319 327
f 336 338 339
f 336 339 340
f 336 340 341
f 336 341 320
f 336 320 319
f 306 336 327
f 306 327 333
f 306 333 335
f 306 335 342
f 305 336 306
f 305 343 344
f 305 344 345
f 305 345 346
f 305 346 347
f 329 328 348
f 305 347 349
f 329 348 350
f 305 349 337
f 351 352 353
f 305 337 336
f 351 354 352
f 307 306 342
f 307 355 309
f 307 342 355
f 356 357 354
f 356 354 351
f 358 359 360
f 358 361 359
f 310 362 363
f 310 309 362
f 304 364 365
f 304 365 343
f 304 343 305
f 366 367 368
f 366 360 367
f 366 369 357
f 366 370 369
f 366 368 370
f 366 358 360
f 313 361 358
f 313 363 361
f 313 358 366
f 313 310 363
f 311 371 372
f 311 372 364
f 311 364 304
f 373 356 374
f 373 374 375
f 373 375 376
f 373 376 377
f 373 377 378
f 373 366 357
f 373 357 356
f 379 378 380
f 379 380 381
f 379 381 382
f 379 382 383
f 379 383 384
f 379 313 366
f 367 385 386
f 379 373 378
f 379 366 373
f 368 367 386
f 314 384 387
f 314 387 388
f 314 388 389
f 314 389 390
f 314 390 391
f 314 391 371
f 314 379 384
f 314 313 379
f 314 371 311
f 392 393 48
f 394 50 51
f 394 51 53
f 394 392 50
f 395 53 4
f 395 394 53
f 396 395 4
f 397 12 9
f 397 182 12
f 398 4 1
f 398 396 4
f 399 9 14
f 399 14 18
f 399 397 9
f 400 1 5
f 400 398 1
f 401 399 18
f 402 5 7
f 402 400 5
f 403 18 22
f 403 22 26
f 403 401 18
f 404 7 13
f 404 402 7
f 405 403 26
f 406 13 16
f 406 16 20
f 406 404 13
f 407 26 32
f 407 32 37
f 407 405 26
f 408 406 20
f 409 407 37
f 410 20 24
f 410 408 20
f 411 37 38
f 412 24 28
f 412 410 24
f 411 409 37
f 413 28 30
f 413 412 28
f 414 38 40
f 415 413 30
f 415 30 34
f 414 411 38
f 236 34 36
f 236 415 34
f 416 40 42
f 416 42 44
f 416 414 40
f 417 416 44
f 418 417 44
f 418 44 46
f 393 46 48
f 393 418 46
f 392 48 50
f 137 130 419
f 137 419 420
f 144 137 420
f 152 420 421
f 152 144 420
f 237 236 36
f 237 36 422
f 237 422 423
f 159 421 424
f 159 152 421
f 167 424 425
f 255 237 423
f 167 159 424
f 262 423 426
f 262 426 427
f 174 425 428
f 262 255 423
f 174 167 425
f 192 428 429
f 271 262 427
f 192 174 428
f 275 427 430
f 275 430 431
f 210 429 432
f 275 271 427
f 210 192 429
f 282 275 431
f 222 432 433
f 222 433 434
f 222 210 432
f 290 431 435
f 226 222 434
f 290 282 431
f 245 434 436
f 245 436 437
f 296 435 438
f 296 438 439
f 245 226 434
f 296 290 435
f 247 245 437
f 181 437 440
f 181 247 437
f 92 296 439
f 182 440 12
f 182 181 440
f 93 92 439
f 93 439 441
f 108 93 441
f 108 441 442
f 108 442 443
f 110 443 444
f 110 108 443
f 123 110 444
f 130 444 445
f 130 445 419
f 130 123 444
f 446 447 385
f 332 448 449
f 447 450 385
f 451 452 309
f 453 451 309
f 355 453 309
f 454 455 456
f 332 449 334
f 454 456 457
f 334 449 458
f 459 460 367
f 461 459 367
f 457 456 462
f 463 464 465
f 460 385 367
f 465 464 466
f 467 468 362
f 334 458 469
f 452 467 362
f 463 465 470
f 309 452 362
f 461 367 360
f 471 461 360
f 362 468 363
f 464 472 473
f 474 462 475
f 468 476 363
f 462 456 475
f 469 477 335
f 334 469 335
f 466 464 473
f 478 471 359
f 479 478 359
f 480 463 481
f 471 360 359
f 363 476 361
f 463 470 481
f 474 475 482
f 473 472 483
f 479 359 361
f 484 479 361
f 476 484 361
f 472 485 483
f 335 477 486
f 487 480 488
f 480 481 488
f 483 485 489
f 490 482 491
f 482 475 491
f 487 488 492
f 486 493 342
f 335 486 342
f 489 485 494
f 485 495 494
f 487 492 496
f 350 487 496
f 494 495 497
f 350 496 498
f 497 495 499
f 500 490 450
f 495 501 499
f 447 500 450
f 490 491 450
f 329 350 502
f 503 453 355
f 493 503 355
f 342 493 355
f 350 498 502
f 499 501 504
f 329 502 505
f 504 501 506
f 501 455 506
f 332 329 448
f 329 505 448
f 506 455 454
f 460 446 385
f 507 508 509
f 507 510 508
f 507 511 510
f 507 512 511
f 354 357 513
f 514 354 513
f 352 354 514
f 353 352 514
f 515 516 517
f 515 517 518
f 515 518 519
f 515 519 520
f 515 520 521
f 515 521 522
f 523 524 525
f 523 525 526
f 523 526 527
f 523 527 528
f 523 528 516
f 523 516 515
f 529 530 531
f 529 531 532
f 348 328 487
f 529 532 533
f 529 533 534
f 529 534 524
f 529 326 530
f 529 524 523
f 535 515 522
f 535 522 536
f 535 536 537
f 350 348 487
f 538 472 464
f 538 523 515
f 539 330 326
f 539 331 330
f 539 328 331
f 539 529 523
f 539 487 328
f 539 326 529
f 539 480 487
f 539 523 538
f 510 535 537
f 510 537 540
f 510 540 541
f 542 472 538
f 542 485 472
f 542 495 485
f 543 480 539
f 543 539 538
f 543 538 464
f 543 463 480
f 317 316 544
f 543 464 463
f 512 501 495
f 512 455 501
f 318 544 530
f 508 541 545
f 508 545 546
f 508 546 547
f 508 547 548
f 508 548 549
f 318 317 544
f 508 549 550
f 508 510 541
f 509 455 512
f 326 318 530
f 509 456 455
f 551 550 552
f 551 552 553
f 551 509 508
f 551 553 554
f 551 554 555
f 551 555 556
f 551 508 550
f 557 456 509
f 557 475 456
f 557 491 475
f 558 509 551
f 386 385 450
f 558 357 369
f 558 369 370
f 558 370 368
f 558 450 491
f 558 491 557
f 558 368 450
f 558 557 509
f 559 558 551
f 559 556 560
f 368 386 450
f 559 560 561
f 559 561 562
f 559 562 563
f 559 563 513
f 559 551 556
f 559 357 558
f 559 513 357
f 564 542 538
f 564 538 515
f 564 515 535
f 511 535 510
f 511 542 564
f 511 512 495
f 511 495 542
f 511 564 535
f 507 509 512
f 547 565 548
f 566 567 560
f 567 561 560
f 548 568 549
f 568 569 549
f 570 566 556
f 566 560 556
f 549 569 550
f 570 556 555
f 550 569 552
f 569 571 552
f 570 555 554
f 572 570 554
f 572 554 553
f 552 571 553
f 571 572 553
f 340 339 257
f 339 338 230
f 257 339 230
f 341 340 264
f 320 341 264
f 340 257 264
f 337 349 217
f 338 337 217
f 230 338 217
f 321 320 269
f 320 264 269
f 349 347 208
f 217 349 208
f 323 321 278
f 321 269 278
f 347 346 199
f 208 347 199
f 324 323 285
f 325 324 285
f 323 278 285
f 345 344 191
f 346 345 191
f 199 346 191
f 322 325 293
f 325 285 293
f 344 343 190
f 191 344 190
f 315 322 298
f 322 293 298
f 343 365 187
f 190 343 187
f 316 315 301
f 544 316 301
f 315 298 301
f 364 372 183
f 365 364 183
f 187 365 183
f 530 544 302
f 544 301 302
f 183 372 573
f 372 371 573
f 530 302 103
f 531 530 103
f 573 371 574
f 371 391 574
f 531 103 112
f 532 531 112
f 533 532 112
f 574 391 575
f 390 389 575
f 391 390 575
f 533 112 114
f 534 533 114
f 389 388 576
f 575 389 576
f 524 534 120
f 534 114 120
f 388 387 577
f 576 388 577
f 524 120 126
f 525 524 126
f 387 384 578
f 577 387 578
f 525 126 526
f 578 384 383
f 526 126 139
f 578 383 579
f 526 139 527
f 579 383 382
f 527 139 141
f 579 382 580
f 527 141 528
f 580 382 381
f 528 141 147
f 580 381 581
f 528 147 516
f 581 381 380
f 147 158 517
f 516 147 517
f 582 581 378
f 581 380 378
f 158 165 518
f 517 158 518
f 582 378 377
f 583 582 377
f 165 176 519
f 518 165 519
f 583 377 376
f 584 583 376
f 519 176 520
f 584 376 375
f 520 176 521
f 176 197 521
f 584 375 374
f 585 584 374
f 521 197 522
f 197 169 522
f 585 374 356
f 586 585 356
f 169 168 536
f 522 169 536
f 586 356 351
f 587 586 351
f 536 168 537
f 587 351 353
f 537 168 540
f 168 588 540
f 587 353 514
f 589 587 514
f 540 588 541
f 588 590 541
f 589 514 513
f 591 589 513
f 541 590 545
f 590 592 545
f 591 513 563
f 593 591 563
f 545 592 546
f 593 563 562
f 592 565 547
f 546 592 547
f 567 593 561
f 593 562 561
f 565 568 548
f 594 595 596
f 595 597 598
f 588 168 170
f 585 586 599
f 586 600 599
f 598 597 601
f 597 602 601
f 594 596 603
f 600 594 603
f 416 417 604
f 602 605 604
f 606 416 604
f 605 606 604
f 601 602 604
f 596 595 607
f 595 598 607
f 585 599 608
f 584 585 608
f 583 584 608
f 598 601 609
f 607 598 609
f 599 600 610
f 600 603 610
f 417 418 611
f 604 417 611
f 601 604 611
f 609 601 611
f 603 596 612
f 596 607 612
f 610 603 612
f 583 608 613
f 607 609 614
f 608 599 615
f 599 610 615
f 613 608 615
f 418 393 616
f 393 392 616
f 611 418 616
f 609 611 616
f 610 612 617
f 582 583 618
f 581 582 618
f 583 613 618
f 612 607 619
f 607 614 619
f 617 612 619
f 613 615 620
f 614 609 621
f 609 616 621
f 616 392 621
f 615 610 622
f 610 617 622
f 620 615 622
f 581 618 623
f 617 619 624
f 623 618 625
f 618 613 625
f 613 620 625
f 392 394 626
f 619 614 626
f 614 621 626
f 621 392 626
f 620 622 627
f 580 581 628
f 581 623 628
f 617 624 629
f 627 622 629
f 622 617 629
f 628 623 630
f 623 625 630
f 619 626 631
f 624 619 631
f 394 395 631
f 626 394 631
f 630 625 632
f 620 627 632
f 625 620 632
f 579 580 633
f 580 628 633
f 627 629 634
f 628 630 635
f 624 631 636
f 629 624 636
f 395 396 636
f 631 395 636
f 634 629 636
f 630 632 637
f 578 579 638
f 579 633 638
f 637 632 639
f 632 627 639
f 627 634 639
f 633 628 640
f 628 635 640
f 577 578 641
f 578 638 641
f 396 398 642
f 636 396 642
f 634 636 642
f 635 630 643
f 630 637 643
f 637 639 644
f 643 637 644
f 633 640 645
f 638 633 645
f 577 641 646
f 576 577 646
f 642 398 647
f 398 400 647
f 634 642 647
f 644 639 647
f 639 634 647
f 640 635 648
f 635 643 648
f 638 645 649
f 641 638 649
f 643 644 650
f 648 643 650
f 400 402 651
f 647 400 651
f 644 647 651
f 183 573 184
f 650 644 651
f 576 646 652
f 575 576 652
f 645 640 653
f 640 648 653
f 652 646 654
f 641 649 654
f 646 641 654
f 648 650 655
f 653 648 655
f 645 653 656
f 649 645 656
f 402 404 657
f 651 402 657
f 650 651 657
f 575 652 658
f 574 575 658
f 239 415 236
f 652 654 659
f 588 170 660
f 588 660 661
f 656 653 662
f 590 588 661
f 653 655 662
f 660 170 663
f 170 211 663
f 211 240 663
f 654 649 664
f 649 656 664
f 650 657 665
f 661 660 663
f 404 406 665
f 657 404 665
f 592 590 666
f 655 650 665
f 565 592 666
f 573 574 667
f 590 661 666
f 184 573 667
f 574 658 667
f 661 663 668
f 656 662 669
f 652 659 670
f 667 658 670
f 658 652 670
f 668 663 671
f 663 240 671
f 670 659 672
f 659 654 672
f 568 565 673
f 565 666 673
f 654 664 672
f 655 665 674
f 662 655 674
f 666 661 675
f 665 406 674
f 406 408 674
f 669 662 674
f 673 666 675
f 664 656 676
f 661 668 675
f 656 669 676
f 672 664 676
f 668 671 677
f 408 410 678
f 669 674 678
f 674 408 678
f 667 670 679
f 569 568 680
f 184 667 679
f 194 184 679
f 568 673 680
f 671 240 681
f 240 249 681
f 670 672 682
f 677 671 681
f 673 675 683
f 672 676 684
f 682 672 684
f 680 673 683
f 676 669 685
f 669 678 685
f 675 668 686
f 678 410 685
f 679 670 687
f 668 677 686
f 670 682 687
f 683 675 686
f 194 679 687
f 196 194 687
f 687 682 688
f 682 684 688
f 569 680 689
f 410 412 690
f 677 681 691
f 684 676 690
f 686 677 691
f 676 685 690
f 685 410 690
f 196 687 692
f 687 688 692
f 689 680 693
f 204 196 692
f 680 683 693
f 688 684 694
f 182 397 695
f 412 413 694
f 413 415 694
f 684 690 694
f 249 180 695
f 690 412 694
f 180 182 695
f 681 249 695
f 694 415 696
f 415 239 696
f 688 694 696
f 692 688 696
f 204 692 696
f 693 683 697
f 239 204 696
f 683 686 697
f 571 569 698
f 572 571 698
f 569 689 698
f 697 686 699
f 686 691 699
f 689 693 700
f 397 399 701
f 691 681 701
f 695 397 701
f 681 695 701
f 693 697 702
f 700 693 702
f 572 698 703
f 697 699 704
f 702 697 704
f 689 700 705
f 698 689 705
f 399 401 706
f 691 701 706
f 699 691 706
f 701 399 706
f 704 699 706
f 700 702 707
f 572 703 708
f 570 572 708
f 707 702 709
f 702 704 709
f 698 705 710
f 703 698 710
f 570 708 711
f 566 570 711
f 401 403 712
f 706 401 712
f 709 704 712
f 704 706 712
f 700 707 713
f 705 700 713
f 710 705 713
f 707 709 714
f 713 707 714
f 711 708 715
f 703 710 715
f 708 703 715
f 403 405 716
f 712 403 716
f 709 712 716
f 714 709 716
f 566 711 717
f 567 566 717
f 710 713 718
f 711 715 719
f 717 711 719
f 713 714 720
f 718 713 720
f 405 407 721
f 716 405 721
f 714 716 721
f 593 567 722
f 567 717 722
f 710 718 723
f 719 715 723
f 715 710 723
f 717 719 724
f 722 717 724
f 718 720 725
f 723 718 725
f 719 723 726
f 407 409 727
f 720 714 727
f 714 721 727
f 721 407 727
f 591 593 728
f 593 722 728
f 722 724 729
f 728 722 729
f 726 723 730
f 723 725 730
f 724 719 731
f 719 726 731
f 409 411 732
f 727 409 732
f 725 720 732
f 720 727 732
f 589 591 733
f 591 728 733
f 726 730 734
f 731 726 734
f 733 728 735
f 728 729 735
f 735 729 736
f 729 724 736
f 724 731 736
f 411 414 737
f 732 411 737
f 730 725 737
f 725 732 737
f 734 730 737
f 587 589 594
f 589 733 594
f 736 731 605
f 731 734 605
f 734 737 738
f 414 416 738
f 737 414 738
f 733 735 595
f 594 733 595
f 735 736 597
f 595 735 597
f 586 587 600
f 587 594 600
f 597 736 602
f 736 605 602
f 738 416 606
f 605 734 606
f 734 738 606
f 739 476 468
f 740 739 467
f 739 468 467
f 741 740 452
f 740 467 452
f 742 741 451
f 741 452 451
f 742 451 453
f 742 453 743
f 743 453 503
f 743 503 493
f 743 493 486
f 744 446 460
f 745 744 459
f 744 460 459
f 746 745 461
f 745 459 461
f 747 746 471
f 746 461 471
f 747 471 478
f 747 478 748
f 748 478 479
f 748 479 484
f 748 484 476
f 749 454 457
f 750 749 462
f 749 457 462
f 751 750 474
f 750 462 474
f 752 751 482
f 751 474 482
f 752 482 490
f 752 490 753
f 753 490 500
f 753 500 447
f 753 447 446
f 754 473 483
f 755 754 489
f 754 483 489
f 756 755 494
f 755 489 494
f 757 756 497
f 756 494 497
f 757 497 499
f 757 499 758
f 758 499 504
f 758 504 506
f 758 506 454
f 759 498 496
f 760 759 492
f 759 496 492
f 761 760 488
f 760 492 488
f 762 761 481
f 761 488 481
f 762 481 470
f 762 470 763
f 763 470 465
f 763 465 466
f 763 466 473
f 764 486 477
f 765 764 469
f 764 477 469
f 766 765 458
f 765 469 458
f 767 766 449
f 766 458 449
f 767 449 448
f 767 448 768
f 768 448 505
f 768 505 502
f 768 502 498
f 770 771 769
f 772 770 769
f 771 59 769
f 59 772 769
f 773 774 775
f 775 774 776
f 773 775 777
f 778 779 780
f 779 778 781
f 782 783 784
f 783 782 785
f 777 786 787
f 84 788 787
f 788 773 787
f 773 777 787
f 786 789 790
f 789 779 790
f 787 786 790
f 779 781 790
f 781 791 792
f 791 793 792
f 790 781 792
f 785 794 795
f 794 77 795
f 793 783 795
f 792 793 795
f 783 785 795
f 59 84 796
f 84 787 796
f 796 787 797
f 59 796 797
f 59 797 772
f 787 790 772
f 797 787 772
f 792 795 771
f 77 59 798
f 771 795 798
f 59 771 798
f 795 77 798
f 772 790 770
f 792 771 770
f 790 792 770
f 748 476 784
f 747 748 783
f 748 784 783
f 747 783 793
f 746 747 791
f 747 793 791
f 745 746 781
f 746 791 781
f 745 781 778
f 744 745 780
f 446 744 780
f 745 778 780
f 486 65 743
f 63 62 743
f 65 63 743
f 78 77 742
f 62 78 742
f 743 62 742
f 794 785 741
f 77 794 741
f 742 77 741
f 782 784 740
f 785 782 740
f 741 785 740
f 740 784 739
f 739 784 476
f 768 498 69
f 767 768 68
f 768 69 68
f 767 68 79
f 766 767 75
f 767 79 75
f 765 766 66
f 766 75 66
f 765 66 64
f 764 765 65
f 486 764 65
f 765 64 65
f 763 473 73
f 762 763 72
f 763 73 72
f 762 72 81
f 761 762 80
f 762 81 80
f 760 761 70
f 761 80 70
f 760 70 67
f 759 760 69
f 498 759 69
f 760 67 69
f 758 454 776
f 758 776 774
f 757 758 773
f 758 774 773
f 757 773 788
f 756 757 84
f 757 788 84
f 756 84 82
f 755 756 74
f 756 82 74
f 755 74 71
f 754 755 73
f 473 754 73
f 755 71 73
f 753 446 780
f 752 753 779
f 753 780 779
f 752 779 789
f 751 752 786
f 752 789 786
f 750 751 777
f 751 786 777
f 750 777 775
f 749 750 776
f 454 749 776
f 750 775 776
f 424 799 800
f 424 421 799
f 425 800 801
f 425 424 800
f 428 801 802
f 428 425 801
f 422 36 35
f 422 35 803
f 429 428 802
f 423 803 804
f 423 422 803
f 432 802 805
f 426 804 806
f 432 429 802
f 426 423 804
f 433 805 807
f 433 432 805
f 427 806 808
f 427 426 806
f 434 807 809
f 434 433 807
f 430 808 810
f 436 809 811
f 430 427 808
f 436 434 809
f 437 811 812
f 431 810 813
f 437 436 811
f 431 430 810
f 440 437 812
f 440 812 10
f 12 440 10
f 435 431 813
f 438 813 814
f 438 435 813
f 439 814 815
f 439 438 814
f 441 815 816
f 441 439 815
f 442 441 816
f 442 816 817
f 443 442 817
f 443 817 818
f 444 443 818
f 444 818 819
f 445 444 819
f 419 445 819
f 419 819 820
f 420 820 821
f 420 419 820
f 421 821 799
f 421 420 821
f 805 806 807
f 8 6 3
f 807 806 809
f 8 3 2
f 806 804 811
f 809 806 811
f 8 2 54
f 818 817 819
f 811 804 10
f 35 31 10
f 803 35 10
f 804 803 10
f 812 811 10
f 54 52 49
f 11 10 15
f 816 815 821
f 10 31 15
f 817 816 821
f 820 819 821
f 819 817 821
f 25 21 15
f 29 25 15
f 31 29 15
f 49 47 45
f 54 49 45
f 815 814 799
f 821 815 799
f 15 21 19
f 54 45 43
f 17 8 23
f 21 17 23
f 19 21 23
f 23 8 27
f 43 41 39
f 8 54 39
f 54 43 39
f 27 8 33
f 8 39 33
f 813 810 801
f 814 813 801
f 800 799 801
f 799 814 801
f 808 806 805
f 810 808 805
f 802 801 805
f 801 810 805
