# Created by FreeCAD <http://www.freecadweb.org>
v -52.349998 219.270615 233.752487
v -52.000000 218.691910 233.549072
v -52.000000 218.772263 233.385406
v -52.349998 219.158798 233.946915
v -52.349998 219.359940 233.546768
v -52.000000 218.830582 233.212677
v -52.349998 219.425690 233.332336
v -52.000000 218.865845 233.033798
v -52.349998 216.045639 234.244247
v -52.000000 216.379364 233.704620
v -52.000000 216.499817 233.841492
v -52.349998 215.899048 234.074493
v -52.349998 219.467010 233.111893
v -52.349998 216.210312 234.396515
v -52.000000 216.637085 233.961472
v -52.349998 219.483383 232.888214
v -52.000000 218.877457 232.851852
v -52.349998 216.391006 234.529388
v -52.000000 216.788849 234.062500
v -52.349998 219.474609 232.664108
v -52.000000 218.865219 232.669952
v -52.349998 216.585419 234.641190
v -52.000000 216.952499 234.142853
v -52.349998 219.440796 232.442383
v -52.000000 218.829346 232.491196
v -52.349998 216.791153 234.730530
v -52.000000 217.125244 234.201157
v -52.349998 219.382385 232.225845
v -52.000000 218.770432 232.318665
v -52.349998 219.300079 232.017212
v -52.000000 218.689529 232.155289
v -52.349998 217.005585 234.796265
v -52.000000 217.304123 234.236420
v -52.349998 219.194946 231.819092
v -52.000000 218.587967 232.003876
v -52.349998 219.068283 231.634003
v -52.349998 217.226028 234.837585
v -52.349998 217.449707 234.853958
v -52.000000 217.486069 234.248032
v -52.349998 217.673813 234.845184
v -52.000000 217.667969 234.235794
v -52.349998 217.895538 234.811386
v -52.000000 217.846710 234.199921
v -52.349998 218.112076 234.752960
v -52.000000 218.019257 234.141022
v -52.349998 218.320709 234.670670
v -52.000000 218.182632 234.060104
v -52.349998 218.518814 234.565521
v -52.000000 218.334045 233.958557
v -52.349998 218.703918 234.438858
v -52.349998 218.873657 234.292267
v -52.000000 218.470917 233.838104
v -52.349998 219.025925 234.127609
v -52.000000 218.590881 233.700836
v -68.224998 217.221497 232.606308
v -68.224998 217.122971 232.864319
v -68.112503 217.320694 232.776855
v -68.000000 217.483673 232.854248
v -68.224998 217.473602 232.493546
v -68.812393 218.251511 231.802612
v -68.850426 218.141739 231.660049
v -68.836243 217.799469 231.551041
v -68.900002 218.033737 231.519791
v -68.794510 217.561859 231.582748
v -68.836243 216.512970 231.929153
v -68.826294 216.883591 231.673218
v -68.900002 216.603027 231.710648
v -68.794510 216.421616 232.150772
v -68.850426 216.160965 233.185349
v -68.826294 216.160843 232.783417
v -68.900002 216.052963 233.045105
v -68.812393 216.270752 233.327911
v -68.780029 217.366455 231.608810
v -68.449997 217.687454 232.161926
v -68.779427 218.474060 232.091599
v -68.788017 218.362488 231.946716
v -68.785202 217.169495 231.635086
v -68.449997 217.241592 232.174362
v -68.780029 216.346481 232.333038
v -68.449997 216.888214 232.446503
v -68.785202 216.270752 232.516754
v -68.788017 216.381714 233.472015
v -68.449997 216.762268 232.874374
v -68.779427 216.493286 233.616898
v -68.224998 217.687546 232.556519
v -68.224998 217.585556 232.508087
v -68.224998 217.143738 232.975281
v -67.851761 217.292877 230.856522
v -67.800003 217.293518 230.863312
v -67.851761 217.070404 230.890442
v -67.900002 217.290970 230.836639
v -67.800003 217.071808 230.897110
v -67.900002 217.066284 230.870895
v -67.993187 216.172989 231.152191
v -67.973206 216.396759 231.057404
v -67.973206 216.202408 231.190399
v -67.941422 216.418198 231.092850
v -67.941422 216.622116 230.984634
v -68.000000 215.808319 231.428329
v -67.993187 216.002243 231.298508
v -67.993187 215.847748 231.461884
v -67.941422 216.836853 230.899918
v -67.900002 216.846848 230.930099
v -67.900002 216.635422 231.013504
v -67.973206 216.035507 231.333450
v -67.800003 216.855270 230.955536
v -67.851761 216.853119 230.949066
v -67.941422 216.227692 231.223221
v -68.000000 215.668457 231.611267
v -67.993187 215.711166 231.640518
v -68.000000 215.548477 231.807816
v -67.900002 216.434647 231.120041
v -67.973206 215.884476 231.493149
v -67.800003 216.646622 231.037827
v -67.851761 216.643784 231.031647
v -67.800003 216.448517 231.142975
v -67.941422 216.064072 231.363449
v -67.993187 215.594009 231.832443
v -68.000000 215.449692 232.015839
v -67.900002 216.247070 231.248398
v -67.973206 215.750961 231.667770
v -67.800003 216.263428 231.269638
v -67.851761 216.444992 231.137146
v -67.941422 215.916016 231.520004
v -68.000000 215.373199 232.233032
v -67.993187 215.497543 232.035568
v -67.900002 216.085999 231.386459
v -67.973206 215.636429 231.855377
v -67.851761 216.259262 231.264236
v -67.941422 215.785141 231.691177
v -67.993187 215.422852 232.247650
v -67.900002 215.940231 231.540604
v -67.973206 215.542145 232.053940
v -67.851761 216.099777 231.400925
v -67.800003 216.093674 231.416214
v -67.941422 215.672867 231.875092
v -68.000000 215.319824 232.457047
v -67.993187 215.370743 232.466385
v -68.000000 215.290161 232.685410
v -67.900002 215.811371 231.709122
v -67.973206 215.469131 232.261276
v -67.800003 215.941406 231.580887
v -67.851761 215.955444 231.553543
v -67.941422 215.580444 232.069733
v -68.000000 215.284531 232.915619
v -67.993187 215.341766 232.689377
v -67.900002 215.700836 231.890198
v -67.973206 215.418182 232.475098
v -67.851761 215.827850 231.720413
v -67.800003 215.808533 231.761581
v -67.941422 215.508865 232.272964
v -67.993187 215.336273 232.914169
v -67.900002 215.609833 232.081848
v -67.973206 215.389862 232.693085
v -67.993187 215.345169 233.058487
v -68.000000 215.302994 233.145157
v -67.851761 215.718399 231.899704
v -67.800003 215.696732 231.956009
v -67.941422 215.458923 232.482574
v -67.900002 215.539352 232.281937
v -67.973206 215.384491 232.912827
v -67.993187 215.381485 233.296646
v -68.000000 215.345337 233.371506
v -67.800003 215.607391 232.161728
v -67.851761 215.628296 232.089462
v -67.941422 215.431168 232.696259
v -67.973206 215.393188 233.053894
v -68.000000 215.740601 234.196518
v -68.000000 215.609833 234.006958
v -67.993187 215.781601 234.164932
v -67.900002 215.490189 232.488312
v -67.800003 215.541656 232.376160
v -67.851761 215.558517 232.287582
v -68.000000 215.411118 233.592178
v -67.993187 215.444229 233.529221
v -67.941422 215.425888 232.911667
v -67.973206 215.428680 233.286713
v -67.900002 215.462860 232.698700
v -67.941422 215.434418 233.049957
v -68.000000 219.226746 231.511978
v -67.993187 219.185730 231.543564
v -67.993187 219.039398 231.372833
v -67.800003 215.500336 232.596603
v -67.851761 215.509827 232.491928
v -68.000000 219.076889 231.337128
v -67.993187 218.876038 231.218323
v -68.000000 215.499603 233.804779
v -67.993187 215.532623 233.753326
v -68.000000 218.909576 231.178909
v -68.000000 218.726654 231.039032
v -67.973206 215.490021 233.514069
v -67.973206 219.147522 231.572998
v -67.973206 219.004471 231.406097
v -67.941422 219.114700 231.598267
v -68.000000 218.530106 230.919052
v -67.993187 218.697403 231.081741
v -67.900002 215.457657 232.910782
v -67.941422 215.469208 233.278168
v -67.973206 218.844772 231.255051
v -67.851761 215.482773 232.700226
v -67.800003 215.483963 232.820282
v -67.941422 218.974472 231.434662
v -67.973206 215.819824 234.135498
v -67.993187 215.645554 233.966125
v -67.993187 218.505478 230.964584
v -68.000000 218.322083 230.820267
v -67.900002 215.466049 233.046936
v -67.973206 215.576431 233.733139
v -67.973206 218.670151 231.121536
v -67.941422 218.817917 231.286606
v -67.941422 215.529343 233.501053
v -67.851761 215.477631 232.910217
v -68.000000 218.104874 230.743774
v -67.993187 218.302353 230.868134
v -67.800003 215.492722 233.044388
v -67.900002 215.500320 233.271637
v -67.900002 218.951462 231.456573
v -67.900002 219.089508 231.617661
v -67.851761 215.485947 233.045044
v -67.800003 215.526535 233.266113
v -67.973206 218.482529 231.007019
v -67.941422 215.852646 234.110229
v -67.973206 215.686829 233.941162
v -67.941422 218.646744 231.155716
v -67.941422 215.614059 233.715805
v -68.000000 217.880875 230.690399
v -67.993187 218.090271 230.793427
v -67.900002 215.559525 233.491074
v -67.851761 215.519867 233.267517
v -67.900002 218.797318 231.310806
v -67.973206 218.283966 230.912720
v -67.941422 215.722275 233.919724
v -67.900002 215.642914 233.702499
v -67.800003 219.068283 231.634003
v -67.800003 218.921692 231.464249
v -67.851761 218.936981 231.470352
v -67.851761 219.073685 231.629852
v -67.800003 215.584961 233.482651
v -67.851761 215.578491 233.484787
v -67.800003 215.667252 233.691284
v -67.941422 218.462830 231.043457
v -67.900002 215.877823 234.090836
v -67.900002 215.749466 233.903275
v -67.851761 215.661072 233.694138
v -67.993187 217.871521 230.741318
v -67.851761 215.893661 234.078644
v -67.851761 215.766571 233.892929
v -67.800003 215.899048 234.074493
v -67.800003 215.772400 233.889404
v -67.900002 218.628784 231.181946
v -67.973206 218.076645 230.839706
v -67.851761 218.784363 231.326019
v -67.800003 218.757019 231.311981
v -67.941422 218.268188 230.951019
v -67.993187 217.648544 230.712341
v -68.000000 217.652512 230.660736
v -67.900002 218.447708 231.071411
v -67.973206 217.862823 230.788757
v -67.800003 218.576340 231.179108
v -67.851761 218.617508 231.198425
v -67.941422 218.064941 230.879440
v -68.000000 217.422302 230.655106
v -67.993187 217.423752 230.706848
v -67.900002 218.256073 230.980408
v -67.973206 217.644836 230.760437
v -67.993187 217.279434 230.715744
v -68.000000 217.192764 230.673569
v -67.851761 218.438217 231.088989
v -67.800003 218.381912 231.067307
v -67.941422 217.855347 230.829498
v -67.900002 218.055969 230.909927
v -67.973206 217.425095 230.755066
v -67.800003 218.176193 230.977966
v -67.851761 218.248459 230.998871
v -67.993187 217.041275 230.752060
v -68.000000 216.966415 230.715912
v -67.941422 217.641663 230.801743
v -67.973206 217.284012 230.763763
v -67.900002 217.849609 230.860764
v -67.800003 217.961761 230.912231
v -67.851761 218.050339 230.929092
v -67.993187 216.808685 230.814804
v -68.000000 216.745743 230.781708
v -67.941422 217.426254 230.796463
v -67.973206 217.051208 230.799255
v -67.900002 217.639221 230.833435
v -67.941422 217.287949 230.804993
v -67.800003 217.741318 230.870911
v -67.851761 217.845993 230.880417
v -67.993187 216.584595 230.903198
v -68.000000 216.533142 230.870193
v -67.973206 216.823853 230.860596
v -67.900002 217.427139 230.828247
v -67.941422 217.059738 230.839798
v -67.800003 217.517639 230.854538
v -67.851761 217.637695 230.853348
v -68.000000 216.330948 230.980423
v -67.993187 216.371796 231.016144
v -67.973206 216.604782 230.947006
v -67.851761 217.427689 230.848221
v -68.000000 216.141403 231.111176
v -68.000000 215.966553 231.261032
v -68.485634 216.392990 229.422272
v -68.000000 216.877609 229.102890
v -68.000000 216.569885 229.165756
v -68.000000 215.421753 229.662308
v -68.000000 215.165207 229.843475
v -68.338722 215.245010 229.947113
v -68.000000 216.268417 229.253815
v -68.000000 215.975250 229.366455
v -68.000000 215.692383 229.502930
v -68.664215 215.343185 230.074600
v -68.973808 215.458939 230.224915
v -69.439430 216.821838 229.979187
v -69.264954 215.591309 230.396820
v -69.535271 215.739212 230.588898
v -69.782539 215.901443 230.799561
v -70.199997 216.646622 231.037827
v -70.199997 217.071808 230.897110
v -70.131516 217.408585 230.741119
v -70.199997 217.517639 230.854538
v -70.199997 217.961761 230.912231
v -68.771660 217.794785 229.421539
v -68.000000 218.736099 229.266571
v -68.000000 218.435562 229.175400
v -68.000000 218.128510 229.109360
v -68.000000 217.817062 229.068893
v -68.000000 217.503326 229.054306
v -68.000000 217.189468 229.065659
v -69.525993 218.327087 230.112778
v -70.199997 218.381912 231.067307
v -68.656937 219.192429 229.785645
v -68.000000 220.071762 230.071854
v -68.000000 219.833160 229.867630
v -68.000000 219.578506 229.683807
v -68.000000 219.309540 229.521652
v -68.000000 219.028091 229.382248
v -69.928459 218.986526 230.969131
v -70.199997 218.757019 231.311981
v -70.199997 219.068283 231.634003
v -68.000000 220.042847 235.663269
v -68.338722 219.722336 235.761383
v -68.000000 219.802139 235.865021
v -68.664215 219.624161 235.633896
v -70.004723 216.076660 231.027100
v -70.199997 216.263428 231.269638
v -70.131516 219.507477 233.466751
v -70.199997 219.425690 233.332336
v -70.199997 219.270615 233.752487
v -70.199997 219.483383 232.888214
v -68.000000 220.266068 235.442352
v -68.973808 219.508408 235.483582
v -69.928459 219.690201 231.882919
v -70.199997 219.300079 232.017212
v -70.199997 219.440796 232.442383
v -69.053490 219.740280 230.497070
v -68.000000 220.494431 230.535782
v -68.000000 220.292694 230.295074
v -69.439430 220.094208 234.228683
v -70.199997 219.025925 234.127609
v -69.782539 219.065903 234.908936
v -69.264954 219.376038 235.311676
v -69.535271 219.228119 235.119598
v -69.525993 220.349640 232.739273
v -69.053490 220.339172 231.274796
v -68.000000 220.834976 231.062958
v -68.000000 220.675613 230.792328
v -68.485634 220.523056 234.785599
v -68.000000 220.470291 235.203735
v -68.000000 220.654114 234.949081
v -68.000000 220.816269 234.680115
v -68.000000 220.955673 234.398666
v -68.771660 220.881943 233.430511
v -68.000000 221.071350 234.106674
v -68.000000 221.162521 233.806137
v -68.000000 221.228561 233.499084
v -68.000000 221.269012 233.187637
v -68.000000 221.283615 232.873901
v -68.000000 221.272263 232.560043
v -68.656937 220.887024 231.986237
v -68.000000 221.235031 232.248184
v -68.000000 221.172165 231.940475
v -68.000000 221.084106 231.638992
v -68.000000 220.971451 231.345825
v -70.199997 218.703918 234.438858
v -70.004723 218.890686 234.681396
v -69.382729 219.085297 230.315903
v -69.576607 219.741959 231.168655
v -69.382729 220.346985 231.954330
v -67.800003 218.873657 234.292267
v -67.800003 218.703918 234.438858
v -67.800003 219.025925 234.127609
v -67.800003 219.158798 233.946915
v -67.800003 216.045639 234.244247
v -67.800003 219.270615 233.752487
v -67.800003 216.210312 234.396515
v -67.800003 219.359940 233.546768
v -67.800003 219.425690 233.332336
v -67.800003 216.391006 234.529388
v -67.800003 216.585419 234.641190
v -67.800003 219.467010 233.111893
v -67.800003 219.483383 232.888214
v -67.800003 216.791153 234.730530
v -67.800003 217.005585 234.796265
v -67.800003 219.474609 232.664108
v -67.800003 217.226028 234.837585
v -67.800003 219.440796 232.442383
v -67.800003 219.382385 232.225845
v -67.800003 219.300079 232.017212
v -67.800003 217.449707 234.853958
v -67.800003 217.673813 234.845184
v -67.800003 219.194946 231.819092
v -67.800003 217.895538 234.811386
v -67.800003 218.112076 234.752960
v -67.800003 218.320709 234.670670
v -67.800003 218.518814 234.565521
v -52.349998 216.448517 231.142975
v -52.349998 216.263428 231.269638
v -52.349998 216.093674 231.416214
v -52.349998 215.941406 231.580887
v -52.349998 215.808533 231.761581
v -52.349998 218.921692 231.464249
v -52.349998 215.696732 231.956009
v -52.349998 215.607391 232.161728
v -52.349998 218.757019 231.311981
v -52.349998 218.576340 231.179108
v -52.349998 218.381912 231.067307
v -52.349998 215.541656 232.376160
v -52.349998 218.176193 230.977966
v -52.349998 215.500336 232.596603
v -52.349998 215.483963 232.820282
v -52.349998 215.492722 233.044388
v -52.349998 217.961761 230.912231
v -52.349998 217.741318 230.870911
v -52.349998 215.526535 233.266113
v -52.349998 215.584961 233.482651
v -52.349998 217.517639 230.854538
v -52.349998 215.667252 233.691284
v -52.349998 217.293518 230.863312
v -52.349998 215.772400 233.889404
v -52.349998 217.071808 230.897110
v -52.349998 216.855270 230.955536
v -52.349998 216.646622 231.037827
v -70.199997 218.732422 232.130417
v -70.199997 218.630280 233.730957
v -70.199997 218.506042 233.873108
v -70.199997 217.112488 234.249084
v -70.199997 217.005585 234.796265
v -70.199997 217.297729 234.285599
v -70.199997 218.734909 233.573792
v -70.199997 217.481186 231.410873
v -70.199997 217.669617 231.422897
v -70.199997 218.818115 233.404312
v -70.199997 218.877213 232.478287
v -70.199997 218.914368 232.663391
v -70.199997 217.486145 234.297623
v -70.199997 217.449707 234.853958
v -70.199997 217.854843 231.459412
v -70.199997 218.878510 233.225433
v -70.199997 215.541656 232.376160
v -70.199997 215.483963 232.820282
v -70.199997 216.052322 232.668304
v -70.199997 218.915024 233.040192
v -70.199997 218.927048 232.851776
v -70.199997 217.674530 234.284943
v -70.199997 216.088837 232.483063
v -70.199997 216.040298 232.856720
v -70.199997 218.033737 231.519791
v -70.199997 217.859634 234.247803
v -70.199997 217.895538 234.811386
v -70.199997 215.696732 231.956009
v -70.199997 216.149216 232.304184
v -70.199997 218.203217 231.603012
v -70.199997 215.526535 233.266113
v -70.199997 216.052963 233.045105
v -70.199997 215.941406 231.580887
v -70.199997 216.232437 232.134705
v -70.199997 216.090118 233.230209
v -70.199997 215.667252 233.691284
v -70.199997 216.151108 233.408890
v -70.199997 216.337051 231.977539
v -70.199997 216.234909 233.578079
v -70.199997 215.899048 234.074493
v -70.199997 218.038315 234.186798
v -70.199997 218.320709 234.670670
v -70.199997 216.461304 231.835388
v -70.199997 218.207504 234.103012
v -70.199997 218.360367 231.707642
v -70.199997 218.502533 231.831879
v -70.199997 216.340073 233.734879
v -70.199997 216.603027 231.710648
v -70.199997 216.464798 233.876617
v -70.199997 216.210312 234.396515
v -70.199997 216.759842 231.605484
v -70.199997 216.929031 231.521698
v -70.199997 216.606964 234.000854
v -70.199997 216.585419 234.641190
v -70.199997 216.764130 234.105484
v -70.199997 217.107697 231.460693
v -70.199997 218.627274 231.973618
v -70.199997 217.292816 231.423553
v -70.199997 218.364304 233.997849
v -70.199997 216.933609 234.188705
v -70.199997 218.816223 232.299606
v -68.000000 219.545593 236.046188
v -68.656937 214.080322 233.722260
v -68.000000 213.695068 233.148453
v -68.000000 213.732315 233.460312
v -68.000000 213.795166 233.768021
v -68.000000 213.883224 234.069504
v -68.000000 213.995880 234.362671
v -68.000000 214.132355 234.645538
v -68.771660 214.085403 232.277985
v -68.000000 214.011673 231.309830
v -68.000000 213.895996 231.601822
v -68.000000 213.804825 231.902359
v -68.000000 213.738785 232.209412
v -68.000000 213.698318 232.520859
v -68.000000 213.683716 232.834595
v -68.485634 214.444275 230.922897
v -68.000000 214.701263 230.266144
v -68.000000 214.497055 230.504761
v -68.000000 214.313232 230.759415
v -68.000000 214.151062 231.028381
v -69.053490 214.628174 234.433701
v -68.000000 214.291733 234.916168
v -68.000000 214.472900 235.172714
v -69.525993 214.617691 232.969223
v -69.439430 214.873123 231.479813
v -69.053490 215.227066 235.211426
v -68.000000 214.674637 235.413422
v -68.000000 214.895569 235.636642
v -69.928459 215.277145 233.825577
v -70.131516 215.459869 232.241745
v -69.928459 215.980820 234.739365
v -68.656937 215.774902 235.922852
v -68.000000 215.134186 235.840866
v -68.000000 215.388840 236.024689
v -68.000000 215.657806 236.186844
v -68.000000 214.924500 230.045227
v -68.000000 215.939240 236.326248
v -68.000000 216.231232 236.441925
v -69.525993 216.640259 235.595718
v -68.771660 217.172546 236.286957
v -68.000000 216.531784 236.533096
v -68.000000 216.838837 236.599136
v -68.000000 217.150284 236.639587
v -68.000000 217.464020 236.654190
v -68.000000 217.777878 236.642838
v -68.000000 218.089737 236.605606
v -70.131516 217.558762 234.967377
v -69.439430 218.145493 235.729309
v -68.485634 218.574341 236.286224
v -68.000000 218.397446 236.542740
v -68.000000 218.698914 236.454681
v -68.000000 218.992096 236.342041
v -68.000000 219.274963 236.205551
v -69.382729 214.620361 233.754166
v -69.576607 215.225372 234.539841
v -69.382729 215.882050 235.392593
v -68.000000 219.357498 231.701538
v -68.000000 219.467728 231.903717
v -68.000000 219.556213 232.116318
v -68.000000 219.621994 232.336990
v -68.000000 219.664352 232.563339
v -68.000000 219.682816 232.792877
v -68.000000 219.677185 233.023087
v -68.000000 219.647522 233.251450
v -68.000000 219.594147 233.475464
v -68.000000 219.517654 233.692657
v -68.000000 219.418869 233.900681
v -68.000000 219.298889 234.097229
v -68.000000 219.159012 234.280167
v -68.000000 219.000793 234.447464
v -68.000000 218.825943 234.597321
v -68.000000 215.890442 234.371368
v -68.000000 218.636383 234.728073
v -68.000000 216.057755 234.529587
v -68.000000 218.434204 234.838303
v -68.000000 216.240692 234.669464
v -68.000000 218.221603 234.926788
v -68.000000 216.437241 234.789444
v -68.000000 218.000916 234.992584
v -68.000000 216.645264 234.888229
v -68.000000 217.774567 235.034927
v -68.000000 216.862457 234.964722
v -68.000000 217.545029 235.053391
v -68.000000 217.086472 235.018097
v -68.000000 217.314819 235.047760
v -67.993187 218.595551 234.692352
v -67.973206 218.570572 234.651093
v -67.973206 218.764923 234.518097
v -67.993187 218.794357 234.556305
v -67.941422 218.345230 234.723862
v -67.941422 218.549133 234.615646
v -67.993187 218.965088 234.409988
v -67.993187 219.119598 234.246613
v -67.900002 218.120499 234.778397
v -67.900002 218.331924 234.694992
v -67.973206 218.931824 234.375046
v -67.851761 218.114212 234.759430
v -67.851761 217.896942 234.818054
v -67.941422 218.739655 234.485275
v -67.993187 219.256180 234.067978
v -67.900002 218.532684 234.588455
v -67.973206 219.082855 234.215347
v -67.851761 218.323563 234.676849
v -67.941422 218.903259 234.345047
v -67.993187 219.373337 233.876053
v -67.900002 218.720261 234.460098
v -67.973206 219.216370 234.040726
v -67.851761 218.522354 234.571350
v -67.941422 219.051315 234.188492
v -67.993187 219.469788 233.672928
v -67.900002 218.881348 234.322037
v -67.973206 219.330902 233.853119
v -67.851761 218.708069 234.444260
v -67.941422 219.182190 234.017319
v -67.993187 219.544479 233.460846
v -67.900002 219.027115 234.167892
v -67.973206 219.425186 233.654556
v -67.851761 218.867569 234.307571
v -67.941422 219.294464 233.833405
v -67.993187 219.596603 233.242111
v -67.900002 219.155975 233.999374
v -67.973206 219.498215 233.447220
v -67.851761 219.011902 234.154953
v -67.941422 219.386902 233.638763
v -67.993187 219.625565 233.019119
v -67.900002 219.266510 233.818298
v -67.973206 219.549164 233.233398
v -67.851761 219.139481 233.988083
v -67.941422 219.458481 233.435532
v -67.993187 219.631073 232.794327
v -67.900002 219.357513 233.626648
v -67.973206 219.577469 233.015411
v -67.993187 219.622177 232.650009
v -67.851761 219.248932 233.808792
v -67.941422 219.508423 233.225922
v -67.900002 219.427979 233.426544
v -67.973206 219.582855 232.795670
v -67.851761 219.339035 233.619034
v -67.993187 219.585861 232.411850
v -67.941422 219.536179 233.012238
v -67.973206 219.574158 232.654602
v -67.900002 219.477158 233.220184
v -67.851761 219.408813 233.420914
v -67.993187 219.523117 232.179260
v -67.941422 219.541443 232.796829
v -67.973206 219.538666 232.421783
v -67.900002 219.504486 233.009796
v -67.941422 219.532928 232.658539
v -67.851761 219.457504 233.216568
v -67.993187 219.434708 231.955170
v -67.973206 219.477310 232.194427
v -67.993187 215.927933 234.335663
v -67.900002 219.509674 232.797714
v -67.993187 216.091309 234.490173
v -67.941422 219.498123 232.430313
v -67.973206 215.962860 234.302399
v -67.851761 219.484558 233.008270
v -67.993187 219.321777 231.742371
v -67.993187 216.269943 234.626755
v -67.900002 219.501282 232.661560
v -67.973206 216.122574 234.453445
v -67.973206 219.390900 231.975357
v -67.941422 219.437988 232.207443
v -67.941422 215.992859 234.273834
v -67.993187 216.461868 234.743912
v -67.851761 219.489700 232.798279
v -67.973206 216.297195 234.586945
v -67.900002 219.467026 232.436859
v -67.851761 219.481400 232.663452
v -67.941422 216.149414 234.421890
v -67.973206 219.280502 231.767334
v -67.941422 219.353287 231.992691
v -67.993187 216.664978 234.840363
v -67.900002 219.407822 232.217422
v -67.900002 216.015884 234.251923
v -67.973206 216.484802 234.701477
v -67.851761 219.447464 232.440979
v -67.941422 219.245071 231.788773
v -67.941422 216.320587 234.552780
v -67.900002 219.324417 232.005997
v -67.851761 219.388855 232.223709
v -67.993187 216.877075 234.915070
v -67.900002 219.217865 231.805222
v -67.900002 216.170013 234.397690
v -67.851761 219.306274 232.014359
v -67.973206 216.683365 234.795776
v -67.851761 216.030350 234.238144
v -67.851761 219.200775 231.815567
v -67.941422 216.504501 234.665039
v -67.993187 217.095810 234.967178
v -67.900002 216.338547 234.526550
v -67.973206 216.890701 234.868790
v -67.851761 216.182968 234.382477
v -67.941422 216.699158 234.757477
v -67.993187 217.318802 234.996155
v -67.900002 216.519623 234.637085
v -67.973206 217.104523 234.919739
v -67.851761 216.349838 234.510071
v -67.941422 216.902390 234.829056
v -67.993187 217.543594 235.001648
v -67.900002 216.711258 234.728088
v -67.973206 217.322495 234.948059
v -67.993187 217.687912 234.992752
v -67.851761 216.529129 234.619507
v -67.941422 217.112000 234.878998
v -67.900002 216.911362 234.798569
v -67.973206 217.542252 234.953430
v -67.851761 216.718872 234.709625
v -67.993187 217.926056 234.956436
v -67.941422 217.325684 234.906754
v -67.973206 217.683319 234.944733
v -67.900002 217.117737 234.847733
v -67.851761 216.917007 234.779404
v -67.993187 218.158646 234.893692
v -67.941422 217.541092 234.912018
v -67.973206 217.916122 234.909241
v -67.900002 217.328125 234.875061
v -67.941422 217.679382 234.903503
v -67.851761 217.121338 234.828079
v -67.993187 218.382751 234.805298
v -67.973206 218.143494 234.847900
v -67.900002 217.540207 234.880249
v -67.941422 217.907593 234.868698
v -67.851761 217.329651 234.855148
v -67.900002 217.676361 234.871857
v -67.973206 218.362564 234.761490
v -67.941422 218.130478 234.808578
v -67.851761 217.539642 234.860275
v -67.900002 217.901047 234.837601
v -67.851761 217.674469 234.851974
v -70.177307 218.792435 232.505035
v -70.161011 218.670364 232.346527
v -70.151985 218.548172 232.187851
v -70.151100 218.425812 232.028961
v -70.166641 218.229630 231.774185
v -70.177246 218.440704 233.812500
v -70.160950 218.517105 233.627167
v -70.151962 218.593506 233.441818
v -70.151115 218.669891 233.256485
v -70.166641 218.792130 232.959930
v -70.177246 217.132309 234.162186
v -70.160950 217.331024 234.135681
v -70.151962 217.529724 234.109177
v -70.151115 217.728439 234.082672
v -70.166641 218.046371 234.040253
v -70.177254 216.175308 233.203979
v -70.160942 216.297928 233.363205
v -70.151939 216.420547 233.522446
v -70.151131 216.542953 233.681396
v -70.166702 216.738449 233.935257
v -70.177246 216.526642 231.895996
v -70.160950 216.450241 232.081329
v -70.151962 216.373840 232.266678
v -70.151115 216.297440 232.452011
v -70.166641 216.175201 232.748550
v -70.177246 217.835022 231.546310
v -70.160950 217.636322 231.572815
v -70.151962 217.437607 231.599319
v -70.151115 217.238907 231.625824
v -70.166641 216.920975 231.668243
v -68.449997 218.079132 233.261993
v -68.224998 217.829834 232.956146
v -68.224998 217.656387 233.171066
v -68.112503 217.516861 233.031586
v -68.812241 216.716934 233.907318
v -68.850471 216.826294 234.049347
v -68.836243 217.167862 234.157455
v -68.900002 216.933609 234.188705
v -68.794510 217.405472 234.125748
v -68.836243 218.454376 233.779343
v -68.826294 218.083740 234.035278
v -68.900002 218.364304 233.997849
v -68.794510 218.545731 233.557724
v -68.850471 218.807068 232.524033
v -68.826294 218.806503 232.925079
v -68.900002 218.914368 232.663391
v -68.812241 218.697693 232.382019
v -68.780029 217.600876 234.099686
v -68.449997 217.279892 233.546570
v -68.787888 216.605377 233.762466
v -68.785202 217.797852 234.073410
v -68.449997 217.725739 233.534119
v -68.780029 218.620850 233.375458
v -68.785202 218.696579 233.191742
v -68.787888 218.586151 232.237152
v -68.449997 218.205078 232.834122
v -68.224998 217.279800 233.151978
v -68.224998 217.381775 233.200409
v -68.224998 217.844376 232.844177
v -68.224998 217.823608 232.733215
v -52.000000 216.275421 232.159424
v -52.000000 216.195068 232.323074
v -52.000000 216.136765 232.495819
v -52.000000 216.101501 232.674698
v -52.000000 218.467529 231.867004
v -52.000000 218.330246 231.747025
v -52.000000 216.089890 232.856644
v -52.000000 218.178482 231.645996
v -52.000000 216.102127 233.038544
v -52.000000 218.014832 231.565643
v -52.000000 216.138000 233.217300
v -52.000000 217.842102 231.507339
v -52.000000 216.196899 233.389832
v -52.000000 216.277817 233.553207
v -52.000000 217.663223 231.472076
v -52.000000 217.481277 231.460464
v -52.000000 217.299377 231.472702
v -52.000000 217.120621 231.508575
v -52.000000 216.948090 231.567474
v -52.000000 216.784714 231.648392
v -52.000000 216.633286 231.749939
v -52.000000 216.496429 231.870392
v -52.000000 216.376450 232.007660
f 1 2 3
f 1 4 2
f 5 3 6
f 5 1 3
f 7 6 8
f 7 5 6
f 9 10 11
f 9 12 10
f 13 7 8
f 14 11 15
f 14 9 11
f 16 8 17
f 18 15 19
f 16 13 8
f 18 14 15
f 20 17 21
f 20 16 17
f 22 19 23
f 22 18 19
f 24 21 25
f 24 20 21
f 26 23 27
f 28 25 29
f 26 22 23
f 28 24 25
f 30 29 31
f 32 27 33
f 30 28 29
f 32 26 27
f 34 30 31
f 34 31 35
f 36 34 35
f 37 32 33
f 38 33 39
f 38 37 33
f 40 39 41
f 40 38 39
f 42 41 43
f 42 40 41
f 44 42 43
f 44 43 45
f 46 44 45
f 46 45 47
f 48 46 47
f 48 47 49
f 50 48 49
f 51 50 49
f 51 49 52
f 53 52 54
f 53 51 52
f 4 54 2
f 4 53 54
f 55 56 57
f 56 58 57
f 58 59 57
f 59 55 57
f 60 61 62
f 62 61 63
f 60 62 64
f 65 66 67
f 66 65 68
f 69 70 71
f 70 69 72
f 64 73 74
f 75 76 74
f 76 60 74
f 60 64 74
f 73 77 78
f 77 66 78
f 66 68 78
f 74 73 78
f 68 79 80
f 79 81 80
f 78 68 80
f 72 82 83
f 82 84 83
f 81 70 83
f 80 81 83
f 70 72 83
f 58 75 85
f 75 74 85
f 58 85 86
f 85 74 86
f 86 74 59
f 74 78 59
f 58 86 59
f 80 83 56
f 84 58 87
f 83 84 87
f 56 83 87
f 58 56 87
f 80 56 55
f 59 78 55
f 78 80 55
f 88 89 90
f 91 88 90
f 89 92 90
f 93 91 90
f 94 95 96
f 96 95 97
f 95 98 97
f 99 100 101
f 102 103 104
f 98 102 104
f 100 94 105
f 94 96 105
f 101 100 105
f 92 106 107
f 103 93 107
f 90 92 107
f 93 90 107
f 96 97 108
f 109 99 110
f 111 109 110
f 99 101 110
f 97 98 112
f 98 104 112
f 101 105 113
f 106 114 115
f 114 116 115
f 104 103 115
f 107 106 115
f 103 107 115
f 113 105 117
f 105 96 117
f 96 108 117
f 111 110 118
f 119 111 118
f 97 112 120
f 108 97 120
f 118 110 121
f 110 101 121
f 101 113 121
f 116 122 123
f 115 116 123
f 112 104 123
f 104 115 123
f 113 117 124
f 125 119 126
f 119 118 126
f 124 117 127
f 117 108 127
f 108 120 127
f 118 121 128
f 120 112 129
f 123 122 129
f 112 123 129
f 121 113 130
f 113 124 130
f 128 121 130
f 125 126 131
f 124 127 132
f 126 118 133
f 118 128 133
f 132 127 134
f 122 135 134
f 129 122 134
f 127 120 134
f 120 129 134
f 133 128 136
f 128 130 136
f 137 125 138
f 139 137 138
f 125 131 138
f 124 132 140
f 130 124 140
f 131 126 141
f 126 133 141
f 135 142 143
f 132 134 143
f 134 135 143
f 141 133 144
f 133 136 144
f 145 139 146
f 139 138 146
f 136 130 147
f 130 140 147
f 138 131 148
f 146 138 148
f 131 141 148
f 143 142 149
f 140 132 149
f 142 150 149
f 132 143 149
f 141 144 151
f 145 146 152
f 136 147 153
f 144 136 153
f 146 148 154
f 145 152 155
f 156 145 155
f 140 149 157
f 150 158 157
f 147 140 157
f 149 150 157
f 148 141 159
f 141 151 159
f 154 148 159
f 151 144 160
f 144 153 160
f 146 154 161
f 152 146 161
f 156 155 162
f 163 156 162
f 158 164 165
f 157 158 165
f 153 147 165
f 147 157 165
f 154 159 166
f 161 154 166
f 155 152 167
f 168 169 170
f 152 161 167
f 162 155 167
f 159 151 171
f 151 160 171
f 164 172 173
f 165 164 173
f 160 153 173
f 153 165 173
f 174 163 175
f 163 162 175
f 161 166 176
f 162 167 177
f 166 159 178
f 159 171 178
f 167 161 179
f 161 176 179
f 180 181 182
f 177 167 179
f 172 183 184
f 185 180 182
f 173 172 184
f 171 160 184
f 160 173 184
f 185 182 186
f 187 174 188
f 189 185 186
f 190 189 186
f 174 175 188
f 175 162 191
f 181 192 193
f 162 177 191
f 192 194 193
f 182 181 193
f 195 190 196
f 190 186 196
f 176 166 197
f 166 178 197
f 191 177 198
f 186 182 199
f 182 193 199
f 177 179 198
f 171 184 200
f 183 201 200
f 184 183 200
f 199 193 202
f 178 171 200
f 193 194 202
f 203 170 204
f 187 188 204
f 195 196 205
f 169 187 204
f 170 169 204
f 206 195 205
f 176 197 207
f 179 176 207
f 188 175 208
f 175 191 208
f 196 186 209
f 186 199 209
f 199 202 210
f 208 191 211
f 209 199 210
f 191 198 211
f 197 178 212
f 200 201 212
f 213 206 214
f 201 215 212
f 206 205 214
f 178 200 212
f 198 179 216
f 202 194 217
f 179 207 216
f 194 218 217
f 197 212 219
f 215 220 219
f 205 196 221
f 212 215 219
f 207 197 219
f 196 209 221
f 222 203 223
f 188 208 223
f 204 188 223
f 203 204 223
f 209 210 224
f 208 211 225
f 223 208 225
f 226 213 227
f 198 216 228
f 211 198 228
f 213 214 227
f 216 207 229
f 202 217 230
f 207 219 229
f 210 202 230
f 219 220 229
f 227 214 231
f 222 223 232
f 223 225 232
f 214 205 231
f 205 221 231
f 211 228 233
f 225 211 233
f 234 235 236
f 218 237 236
f 220 238 239
f 237 234 236
f 238 240 239
f 217 218 236
f 216 229 239
f 228 216 239
f 209 224 241
f 231 221 241
f 229 220 239
f 242 222 243
f 221 209 241
f 222 232 243
f 232 225 243
f 225 233 243
f 239 240 244
f 233 228 244
f 228 239 244
f 226 227 245
f 246 242 247
f 248 246 247
f 242 243 247
f 240 249 247
f 249 248 247
f 244 240 247
f 210 230 250
f 243 233 247
f 233 244 247
f 224 210 250
f 227 231 251
f 230 217 252
f 235 253 252
f 236 235 252
f 217 236 252
f 251 231 254
f 231 241 254
f 226 245 255
f 256 226 255
f 224 250 257
f 241 224 257
f 255 245 258
f 245 227 258
f 227 251 258
f 253 259 260
f 230 252 260
f 252 253 260
f 250 230 260
f 251 254 261
f 262 256 263
f 256 255 263
f 254 241 264
f 241 257 264
f 261 254 264
f 255 258 265
f 262 263 266
f 267 262 266
f 250 260 268
f 259 269 268
f 257 250 268
f 260 259 268
f 265 258 270
f 251 261 270
f 258 251 270
f 261 264 271
f 263 255 272
f 255 265 272
f 269 273 274
f 268 269 274
f 264 257 274
f 257 268 274
f 267 266 275
f 276 267 275
f 265 270 277
f 272 265 277
f 266 263 278
f 275 266 278
f 263 272 278
f 261 271 279
f 270 261 279
f 273 280 281
f 274 273 281
f 271 264 281
f 264 274 281
f 276 275 282
f 283 276 282
f 272 277 284
f 278 272 284
f 275 278 285
f 277 270 286
f 270 279 286
f 278 284 287
f 285 278 287
f 280 288 289
f 281 280 289
f 279 271 289
f 271 281 289
f 283 282 290
f 291 283 290
f 282 275 292
f 290 282 292
f 275 285 292
f 277 286 293
f 284 277 293
f 285 287 294
f 288 295 296
f 289 288 296
f 286 279 296
f 279 289 296
f 297 291 298
f 291 290 298
f 287 284 91
f 284 293 91
f 290 292 299
f 298 290 299
f 299 292 102
f 292 285 102
f 285 294 102
f 293 286 300
f 295 89 300
f 296 295 300
f 286 296 300
f 301 297 94
f 297 298 94
f 294 287 93
f 287 91 93
f 91 293 88
f 293 300 88
f 300 89 88
f 94 298 95
f 298 299 95
f 95 299 98
f 299 102 98
f 302 301 100
f 99 302 100
f 301 94 100
f 294 93 103
f 102 294 103
f 303 304 305
f 306 307 308
f 303 305 309
f 303 309 310
f 303 310 311
f 312 306 308
f 303 311 313
f 311 306 312
f 314 313 315
f 314 315 316
f 314 316 317
f 313 311 312
f 314 318 319
f 314 303 313
f 314 317 318
f 320 314 319
f 320 321 322
f 320 319 321
f 323 303 314
f 323 324 325
f 323 325 326
f 323 326 327
f 323 327 328
f 323 328 329
f 323 329 304
f 323 304 303
f 330 320 322
f 330 314 320
f 330 322 331
f 330 323 314
f 332 333 334
f 332 334 335
f 332 335 336
f 332 336 337
f 332 337 324
f 332 323 330
f 332 324 323
f 338 339 340
f 341 342 343
f 338 331 339
f 341 344 342
f 318 317 345
f 338 330 331
f 318 345 346
f 347 348 349
f 347 350 348
f 351 352 344
f 351 344 341
f 353 354 355
f 353 340 354
f 356 357 358
f 356 358 333
f 356 333 332
f 359 360 361
f 359 349 360
f 359 362 352
f 359 363 362
f 359 361 363
f 359 347 349
f 364 353 355
f 364 355 350
f 364 347 359
f 364 350 347
f 365 357 356
f 365 366 367
f 365 367 357
f 368 351 369
f 368 369 370
f 368 370 371
f 368 371 372
f 368 352 351
f 368 359 352
f 373 364 359
f 373 372 374
f 373 374 375
f 373 375 376
f 373 376 377
f 373 377 378
f 373 378 379
f 373 359 368
f 373 368 372
f 380 379 381
f 380 381 382
f 380 382 383
f 380 383 384
f 380 384 366
f 380 373 379
f 360 385 386
f 380 364 373
f 380 366 365
f 361 360 386
f 387 356 332
f 387 332 330
f 387 330 338
f 388 356 387
f 388 365 356
f 388 387 338
f 388 340 353
f 388 338 340
f 389 353 364
f 389 380 365
f 389 364 380
f 389 388 353
f 389 365 388
f 390 50 51
f 390 391 50
f 392 51 53
f 392 390 51
f 393 53 4
f 393 4 1
f 393 392 53
f 394 12 9
f 394 9 14
f 394 248 12
f 395 393 1
f 396 14 18
f 397 1 5
f 396 394 14
f 397 395 1
f 398 5 7
f 399 396 18
f 398 397 5
f 400 18 22
f 400 22 26
f 401 7 13
f 400 399 18
f 401 398 7
f 402 13 16
f 402 16 20
f 403 400 26
f 402 401 13
f 404 26 32
f 404 32 37
f 405 20 24
f 404 403 26
f 405 402 20
f 406 37 38
f 406 404 37
f 407 405 24
f 408 24 28
f 408 407 24
f 409 28 30
f 410 406 38
f 409 408 28
f 411 410 38
f 412 30 34
f 412 34 36
f 411 38 40
f 412 409 30
f 234 412 36
f 413 40 42
f 413 42 44
f 413 411 40
f 414 44 46
f 414 413 44
f 415 46 48
f 415 414 46
f 416 48 50
f 416 415 48
f 391 416 50
f 122 116 417
f 135 418 419
f 135 419 420
f 135 122 418
f 142 135 420
f 150 420 421
f 235 234 36
f 150 142 420
f 235 36 422
f 158 421 423
f 158 423 424
f 158 150 421
f 253 422 425
f 253 235 422
f 164 158 424
f 259 425 426
f 259 426 427
f 172 424 428
f 259 253 425
f 172 164 424
f 269 427 429
f 269 259 427
f 183 428 430
f 183 172 428
f 273 269 429
f 201 430 431
f 201 431 432
f 201 183 430
f 280 429 433
f 280 273 429
f 215 201 432
f 288 433 434
f 220 432 435
f 288 280 433
f 220 435 436
f 220 215 432
f 238 220 436
f 295 434 437
f 295 288 434
f 240 436 438
f 240 238 436
f 89 437 439
f 249 240 438
f 249 438 440
f 89 295 437
f 248 440 12
f 248 249 440
f 92 439 441
f 92 89 439
f 106 92 441
f 106 441 442
f 106 442 443
f 114 106 443
f 114 443 417
f 116 114 417
f 122 417 418
f 340 444 354
f 445 446 360
f 447 448 449
f 450 445 360
f 446 385 360
f 321 451 452
f 453 450 349
f 450 360 349
f 354 454 355
f 454 455 355
f 456 449 457
f 449 448 457
f 453 349 348
f 452 458 322
f 459 453 348
f 321 452 322
f 460 461 462
f 463 459 348
f 355 455 350
f 463 348 350
f 464 463 350
f 456 457 465
f 460 462 466
f 455 464 350
f 462 461 467
f 322 458 468
f 469 465 470
f 471 460 472
f 465 457 470
f 460 466 472
f 468 473 331
f 322 468 331
f 461 474 475
f 467 461 475
f 476 471 477
f 471 472 477
f 475 474 478
f 474 479 478
f 478 479 480
f 476 477 481
f 480 479 482
f 479 483 482
f 484 469 485
f 476 481 486
f 487 484 485
f 346 476 486
f 469 470 485
f 488 489 339
f 473 488 339
f 331 473 339
f 482 483 490
f 346 486 491
f 490 483 492
f 483 493 492
f 318 346 494
f 346 491 494
f 318 494 495
f 492 493 496
f 493 497 498
f 496 493 498
f 319 318 499
f 500 444 340
f 318 495 499
f 489 500 340
f 339 489 340
f 319 499 501
f 446 502 385
f 502 487 385
f 487 485 385
f 498 497 503
f 503 497 448
f 319 501 321
f 503 448 447
f 504 454 354
f 444 504 354
f 321 501 451
f 342 344 505
f 343 342 505
f 506 507 508
f 506 508 509
f 506 509 510
f 506 510 511
f 506 511 512
f 513 514 515
f 513 515 516
f 513 516 517
f 513 517 518
f 513 518 519
f 513 519 507
f 513 507 506
f 520 521 522
f 520 522 523
f 520 523 524
f 520 524 514
f 520 313 521
f 345 317 476
f 520 514 513
f 525 506 512
f 525 512 526
f 525 526 527
f 528 474 461
f 528 513 506
f 529 315 313
f 529 316 315
f 529 317 316
f 346 345 476
f 529 313 520
f 529 476 317
f 529 513 528
f 529 471 476
f 529 520 513
f 530 527 531
f 530 531 532
f 530 525 527
f 533 479 474
f 533 483 479
f 533 474 528
f 534 529 528
f 534 471 529
f 534 460 471
f 534 461 460
f 534 528 461
f 535 493 483
f 535 497 493
f 536 532 537
f 536 537 538
f 536 538 539
f 308 307 540
f 536 539 541
f 536 530 532
f 536 541 542
f 312 540 521
f 543 497 535
f 543 448 497
f 312 308 540
f 544 542 545
f 544 545 546
f 544 546 547
f 544 547 548
f 313 312 521
f 544 536 542
f 544 548 549
f 544 549 550
f 544 543 536
f 551 448 543
f 551 457 448
f 551 470 457
f 552 543 544
f 386 385 485
f 552 352 362
f 552 362 363
f 552 363 361
f 552 470 551
f 552 485 470
f 552 361 485
f 552 551 543
f 553 550 554
f 553 554 555
f 361 386 485
f 553 555 556
f 553 556 557
f 553 544 550
f 553 352 552
f 553 552 544
f 553 557 352
f 558 533 528
f 558 528 506
f 558 506 525
f 559 558 525
f 559 535 483
f 559 533 558
f 559 483 533
f 559 525 530
f 560 543 535
f 560 535 559
f 560 530 536
f 560 536 543
f 560 559 530
f 344 352 557
f 505 344 557
f 327 326 256
f 328 327 256
f 326 325 226
f 256 326 226
f 329 328 262
f 328 256 262
f 325 324 213
f 226 325 213
f 304 329 267
f 329 262 267
f 324 337 206
f 213 324 206
f 305 304 276
f 309 305 276
f 304 267 276
f 336 335 195
f 337 336 195
f 206 337 195
f 335 334 190
f 195 335 190
f 310 309 283
f 309 276 283
f 190 334 189
f 334 333 189
f 311 310 291
f 310 283 291
f 306 311 297
f 311 291 297
f 189 333 185
f 333 358 185
f 306 297 301
f 307 306 301
f 540 307 301
f 185 358 180
f 357 367 180
f 358 357 180
f 367 366 561
f 180 367 561
f 521 540 302
f 540 301 302
f 366 384 562
f 561 366 562
f 521 302 99
f 522 521 99
f 384 383 563
f 562 384 563
f 522 99 109
f 523 522 109
f 524 523 111
f 514 524 111
f 523 109 111
f 382 381 564
f 383 382 564
f 563 383 564
f 381 379 565
f 564 381 565
f 514 111 119
f 515 514 119
f 379 378 566
f 565 379 566
f 516 515 125
f 515 119 125
f 378 377 567
f 566 378 567
f 517 516 137
f 516 125 137
f 567 377 568
f 137 139 518
f 517 137 518
f 568 377 376
f 139 145 519
f 518 139 519
f 568 376 375
f 569 568 375
f 145 156 507
f 519 145 507
f 569 375 374
f 570 569 374
f 156 163 508
f 507 156 508
f 571 570 372
f 570 374 372
f 508 163 509
f 571 372 371
f 509 163 510
f 163 174 510
f 572 571 370
f 571 371 370
f 510 174 511
f 174 187 511
f 572 370 369
f 573 572 369
f 511 187 512
f 187 169 512
f 573 369 351
f 574 573 351
f 169 168 526
f 512 169 526
f 574 351 341
f 575 574 341
f 526 168 527
f 575 341 343
f 527 168 531
f 168 576 531
f 575 343 505
f 577 575 505
f 531 576 532
f 576 578 532
f 577 505 557
f 579 577 557
f 532 578 537
f 578 580 537
f 579 557 556
f 581 579 556
f 537 580 538
f 580 582 538
f 581 556 555
f 583 581 555
f 538 582 539
f 583 555 554
f 582 584 541
f 539 582 541
f 585 583 550
f 583 554 550
f 541 584 542
f 584 586 542
f 587 585 549
f 585 550 549
f 542 586 545
f 586 588 545
f 589 587 548
f 587 549 548
f 545 588 546
f 546 588 547
f 588 589 547
f 589 548 547
f 590 591 592
f 593 590 592
f 591 594 595
f 576 168 170
f 573 596 597
f 594 598 599
f 595 594 599
f 593 592 600
f 596 593 600
f 413 414 601
f 602 413 601
f 598 602 601
f 599 598 601
f 592 591 603
f 591 595 603
f 572 573 604
f 571 572 604
f 573 597 604
f 595 599 605
f 603 595 605
f 597 596 606
f 596 600 606
f 414 415 607
f 415 416 607
f 601 414 607
f 599 601 607
f 605 599 607
f 600 592 608
f 592 603 608
f 606 600 608
f 571 604 609
f 603 605 610
f 604 597 611
f 597 606 611
f 609 604 611
f 416 391 612
f 607 416 612
f 605 607 612
f 610 605 612
f 606 608 613
f 570 571 614
f 569 570 614
f 571 609 614
f 613 608 615
f 608 603 615
f 603 610 615
f 609 611 616
f 610 612 617
f 612 391 617
f 611 606 618
f 606 613 618
f 616 611 618
f 569 614 619
f 613 615 620
f 619 614 621
f 614 609 621
f 609 616 621
f 620 615 622
f 391 390 622
f 617 391 622
f 615 610 622
f 610 617 622
f 616 618 623
f 568 569 624
f 569 619 624
f 613 620 625
f 623 618 625
f 618 613 625
f 619 621 626
f 390 392 627
f 622 390 627
f 620 622 627
f 621 616 628
f 626 621 628
f 616 623 628
f 567 568 629
f 568 624 629
f 623 625 630
f 624 619 631
f 619 626 631
f 630 625 632
f 392 393 632
f 620 627 632
f 625 620 632
f 627 392 632
f 626 628 633
f 567 629 634
f 566 567 634
f 628 623 635
f 633 628 635
f 623 630 635
f 624 631 636
f 629 624 636
f 565 566 637
f 566 634 637
f 393 395 638
f 632 393 638
f 630 632 638
f 631 626 639
f 626 633 639
f 633 635 640
f 639 633 640
f 634 629 641
f 629 636 641
f 638 395 642
f 395 397 642
f 635 630 642
f 640 635 642
f 630 638 642
f 565 637 643
f 564 565 643
f 631 639 644
f 636 631 644
f 634 641 645
f 637 634 645
f 644 639 646
f 639 640 646
f 397 398 647
f 642 397 647
f 640 642 647
f 646 640 647
f 564 643 648
f 563 564 648
f 180 561 181
f 641 636 649
f 636 644 649
f 637 645 650
f 643 637 650
f 644 646 651
f 649 644 651
f 641 649 652
f 645 641 652
f 398 401 653
f 647 398 653
f 646 647 653
f 651 646 653
f 562 563 654
f 563 648 654
f 237 412 234
f 648 643 655
f 643 650 655
f 170 203 656
f 576 170 656
f 652 649 657
f 649 651 657
f 576 656 658
f 578 576 658
f 650 645 659
f 645 652 659
f 203 222 660
f 651 653 661
f 657 651 661
f 401 402 661
f 656 203 660
f 653 401 661
f 561 562 662
f 580 578 663
f 181 561 662
f 582 580 663
f 562 654 662
f 578 658 663
f 652 657 664
f 656 660 665
f 654 648 666
f 648 655 666
f 658 656 665
f 655 650 667
f 665 660 668
f 660 222 668
f 650 659 667
f 584 582 669
f 661 402 670
f 402 405 670
f 582 663 669
f 657 661 670
f 664 657 670
f 658 665 671
f 667 659 672
f 669 663 671
f 663 658 671
f 659 652 672
f 652 664 672
f 664 670 673
f 405 407 673
f 670 405 673
f 665 668 674
f 181 662 675
f 662 654 675
f 192 181 675
f 194 192 675
f 654 666 675
f 655 667 676
f 586 584 677
f 584 669 677
f 666 655 676
f 676 667 678
f 668 222 679
f 222 242 679
f 674 668 679
f 669 671 680
f 667 672 678
f 672 664 681
f 664 673 681
f 677 669 680
f 673 407 681
f 678 672 681
f 194 675 682
f 675 666 682
f 666 676 682
f 680 671 683
f 665 674 683
f 676 678 684
f 671 665 683
f 682 676 684
f 407 408 685
f 586 677 686
f 684 678 685
f 681 407 685
f 678 681 685
f 194 682 687
f 674 679 688
f 683 674 688
f 682 684 687
f 218 194 687
f 408 409 689
f 686 677 690
f 685 408 689
f 677 680 690
f 687 684 689
f 684 685 689
f 248 394 691
f 689 409 692
f 412 237 692
f 688 679 691
f 409 412 692
f 242 246 691
f 218 687 692
f 246 248 691
f 687 689 692
f 679 242 691
f 237 218 692
f 690 680 693
f 680 683 693
f 586 686 694
f 588 586 694
f 589 588 694
f 693 683 695
f 683 688 695
f 686 690 696
f 394 396 697
f 691 394 697
f 695 688 697
f 688 691 697
f 690 693 698
f 696 690 698
f 589 694 699
f 693 695 700
f 698 693 700
f 694 686 701
f 686 696 701
f 396 399 702
f 700 695 702
f 695 697 702
f 697 396 702
f 696 698 703
f 587 589 704
f 589 699 704
f 698 700 705
f 703 698 705
f 699 694 706
f 694 701 706
f 587 704 707
f 585 587 707
f 399 400 708
f 700 702 708
f 705 700 708
f 702 399 708
f 701 696 709
f 696 703 709
f 706 701 709
f 703 705 710
f 704 699 711
f 699 706 711
f 707 704 711
f 400 403 712
f 705 708 712
f 708 400 712
f 710 705 712
f 585 707 713
f 583 585 713
f 706 709 714
f 707 711 715
f 714 709 716
f 709 703 716
f 703 710 716
f 712 403 717
f 403 404 717
f 716 710 717
f 710 712 717
f 581 583 718
f 583 713 718
f 711 706 719
f 706 714 719
f 715 711 719
f 713 707 720
f 707 715 720
f 714 716 721
f 715 719 722
f 404 406 723
f 717 404 723
f 716 717 723
f 721 716 723
f 579 581 724
f 581 718 724
f 713 720 725
f 718 713 725
f 724 718 725
f 722 719 726
f 719 714 726
f 714 721 726
f 720 715 727
f 715 722 727
f 406 410 728
f 726 721 728
f 723 406 728
f 721 723 728
f 577 579 590
f 579 724 590
f 722 726 729
f 727 722 729
f 724 725 730
f 590 724 730
f 730 725 731
f 725 720 731
f 720 727 731
f 410 411 732
f 728 410 732
f 726 728 732
f 729 726 732
f 575 577 593
f 577 590 593
f 731 727 733
f 727 729 733
f 729 732 734
f 411 413 734
f 733 729 734
f 732 411 734
f 590 730 591
f 591 730 594
f 730 731 594
f 574 575 596
f 573 574 596
f 575 593 596
f 594 731 598
f 731 733 598
f 598 733 602
f 734 413 602
f 733 734 602
f 735 455 454
f 736 735 504
f 735 454 504
f 737 736 444
f 736 504 444
f 738 737 500
f 737 444 500
f 738 500 489
f 738 489 739
f 739 489 488
f 739 488 473
f 739 473 468
f 740 502 446
f 741 740 445
f 740 446 445
f 742 741 450
f 741 445 450
f 743 742 453
f 742 450 453
f 743 453 459
f 743 459 744
f 744 459 463
f 744 463 464
f 744 464 455
f 745 503 447
f 746 745 449
f 745 447 449
f 747 746 456
f 746 449 456
f 748 747 465
f 747 456 465
f 748 465 469
f 748 469 749
f 749 469 484
f 749 484 487
f 749 487 502
f 750 475 478
f 751 750 480
f 750 478 480
f 752 751 482
f 751 480 482
f 753 752 490
f 752 482 490
f 753 490 492
f 753 492 754
f 754 492 496
f 754 496 498
f 754 498 503
f 755 491 486
f 756 755 481
f 755 486 481
f 757 756 477
f 756 481 477
f 758 757 472
f 757 477 472
f 758 472 466
f 758 466 759
f 759 466 462
f 759 462 467
f 759 467 475
f 760 468 458
f 761 760 452
f 760 458 452
f 762 761 451
f 761 452 451
f 763 762 501
f 762 451 501
f 763 501 499
f 763 499 764
f 764 499 495
f 764 495 494
f 764 494 491
f 765 766 767
f 766 768 767
f 769 770 771
f 771 770 772
f 769 771 773
f 774 775 776
f 775 774 777
f 778 779 780
f 779 778 781
f 773 782 783
f 84 784 783
f 784 769 783
f 769 773 783
f 782 785 786
f 785 775 786
f 775 777 786
f 783 782 786
f 777 787 765
f 787 788 765
f 786 777 765
f 781 789 790
f 789 75 790
f 788 779 790
f 779 781 790
f 765 788 790
f 58 84 791
f 84 783 791
f 58 791 792
f 783 786 792
f 791 783 792
f 765 790 766
f 58 766 793
f 766 790 793
f 75 58 794
f 58 793 794
f 793 790 794
f 790 75 794
f 766 58 768
f 58 792 768
f 792 786 767
f 768 792 767
f 786 765 767
f 744 455 780
f 743 744 779
f 744 780 779
f 743 779 788
f 742 743 787
f 743 788 787
f 742 787 777
f 741 742 774
f 742 777 774
f 740 741 776
f 502 740 776
f 741 774 776
f 468 63 739
f 61 60 739
f 63 61 739
f 76 75 738
f 60 76 738
f 739 60 738
f 789 781 737
f 75 789 737
f 738 75 737
f 778 780 736
f 781 778 736
f 737 781 736
f 736 780 735
f 735 780 455
f 764 491 67
f 763 764 66
f 764 67 66
f 763 66 77
f 762 763 73
f 763 77 73
f 762 73 64
f 761 762 62
f 762 64 62
f 760 761 63
f 468 760 63
f 761 62 63
f 759 475 71
f 758 759 70
f 759 71 70
f 758 70 81
f 757 758 79
f 758 81 79
f 757 79 68
f 756 757 65
f 757 68 65
f 755 756 67
f 491 755 67
f 756 65 67
f 754 503 772
f 754 772 770
f 753 754 769
f 754 770 769
f 753 769 784
f 752 753 84
f 753 784 84
f 752 84 82
f 751 752 72
f 752 82 72
f 751 72 69
f 750 751 71
f 475 750 71
f 751 69 71
f 749 502 776
f 748 749 775
f 749 776 775
f 748 775 785
f 747 748 782
f 748 785 782
f 747 782 773
f 746 747 771
f 747 773 771
f 745 746 772
f 503 745 772
f 746 771 772
f 423 795 796
f 423 421 795
f 424 796 797
f 424 423 796
f 428 797 798
f 428 424 797
f 422 36 35
f 422 35 799
f 430 428 798
f 425 799 800
f 425 422 799
f 431 798 801
f 426 800 802
f 431 430 798
f 426 425 800
f 432 801 803
f 432 431 801
f 427 802 804
f 427 426 802
f 435 803 805
f 435 432 803
f 429 804 806
f 436 805 807
f 429 427 804
f 436 435 805
f 438 807 808
f 433 806 809
f 438 436 807
f 433 429 806
f 440 438 808
f 440 808 10
f 12 440 10
f 434 433 809
f 437 809 810
f 437 434 809
f 439 810 811
f 439 437 810
f 441 811 812
f 441 439 811
f 442 441 812
f 442 812 813
f 443 442 813
f 443 813 814
f 417 443 814
f 417 814 815
f 418 417 815
f 419 418 815
f 419 815 816
f 420 816 817
f 420 419 816
f 421 817 795
f 421 420 817
f 11 10 15
f 10 805 15
f 805 49 15
f 809 806 810
f 49 47 45
f 49 45 43
f 804 802 800
f 806 804 800
f 19 15 33
f 23 19 33
f 810 806 800
f 27 23 33
f 41 39 33
f 43 41 33
f 811 810 813
f 15 49 33
f 812 811 813
f 49 43 33
f 814 813 815
f 800 799 35
f 816 815 817
f 813 810 817
f 815 813 817
f 35 31 29
f 800 35 29
f 810 800 795
f 817 810 795
f 800 29 795
f 795 29 25
f 796 795 797
f 21 17 8
f 25 21 8
f 795 25 8
f 798 797 801
f 797 795 801
f 801 795 803
f 795 8 3
f 8 6 3
f 803 795 805
f 795 3 805
f 805 3 2
f 805 2 54
f 807 805 10
f 808 807 10
f 54 52 49
f 805 54 49
