# Created by FreeCAD <http://www.freecadweb.org>
v 6.350000 516.720642 14.865657
v 6.000000 516.574341 14.269955
v 6.000000 516.403625 14.334054
v 6.350000 516.924988 14.773239
v 6.350000 516.507202 14.934612
v 6.000000 516.226074 14.375327
v 6.350000 516.287415 14.979239
v 6.000000 516.044617 14.393068
v 6.350000 517.522949 11.703610
v 6.000000 516.953491 11.983407
v 6.000000 517.078064 12.116561
v 6.350000 517.368225 11.541245
v 6.350000 516.064026 14.998975
v 6.350000 517.658508 11.882277
v 6.000000 517.184143 12.264832
v 6.350000 515.839783 14.993573
v 6.000000 515.862427 14.386973
v 6.350000 517.773254 12.075002
v 6.000000 517.269958 12.425680
v 6.350000 515.617615 14.963101
v 6.000000 515.682556 14.357147
v 6.350000 517.865662 12.279358
v 6.000000 517.334045 12.596356
v 6.350000 515.400208 14.907942
v 6.000000 515.508118 14.304099
v 6.350000 517.934631 12.492776
v 6.000000 517.375305 12.773938
v 6.350000 515.190369 14.828790
v 6.000000 515.342102 14.228738
v 6.350000 514.990662 14.726639
v 6.000000 515.187317 14.132353
v 6.350000 517.979248 12.712573
v 6.000000 517.393066 12.955388
v 6.350000 514.803711 14.602775
v 6.000000 515.046509 14.016593
v 6.350000 514.631775 14.458755
v 6.350000 517.998962 12.935985
v 6.350000 517.993591 13.160202
v 6.000000 517.386963 13.137602
v 6.350000 517.963074 13.382403
v 6.000000 517.357117 13.317461
v 6.350000 517.907959 13.599797
v 6.000000 517.304077 13.491888
v 6.350000 517.828796 13.809648
v 6.000000 517.228760 13.657899
v 6.350000 517.726624 14.009315
v 6.000000 517.132324 13.812654
v 6.350000 517.602783 14.196292
v 6.000000 517.016602 13.953503
v 6.350000 517.458740 14.368223
v 6.350000 517.296387 14.522949
v 6.000000 516.883423 14.078037
v 6.350000 517.117737 14.658523
v 6.000000 516.735168 14.184127
v 22.112499 515.826721 12.949767
v 22.225000 515.645569 13.067827
v 22.225000 515.701416 12.797354
v 22.812395 514.878845 13.662197
v 22.850430 514.747559 13.539104
v 22.836243 514.672302 13.187883
v 22.900000 514.618469 13.418007
v 22.794512 514.726929 12.954469
v 22.836243 515.173462 11.944126
v 22.826296 514.882751 12.288177
v 22.900000 514.947205 12.012569
v 22.794512 515.402893 11.874703
v 22.850430 516.457886 11.715660
v 22.826296 516.057861 11.676535
v 22.900000 516.328735 11.594563
v 22.812395 516.589111 11.838754
v 22.780025 514.771790 12.762516
v 22.450001 515.291199 13.135654
v 22.779423 515.144836 13.911721
v 22.788019 515.011475 13.786624
v 22.785200 514.817078 12.569026
v 22.450001 515.346802 12.693110
v 22.780025 515.591553 11.817614
v 22.450001 515.651917 12.367787
v 22.785200 515.781799 11.760065
v 22.788019 516.721741 11.963181
v 22.450001 516.090027 12.283949
v 22.779423 516.855164 12.088279
v 22.000000 516.000000 13.000000
v 22.225000 515.683899 13.174026
v 22.225000 515.932190 12.645588
v 22.225000 516.044983 12.641974
v 22.225000 516.153442 12.673407
v 21.851765 514.030212 12.616293
v 21.799999 514.036926 12.617597
v 21.851765 514.085571 12.398159
v 21.900000 514.010620 12.612473
v 21.799999 514.092041 12.400203
v 21.900000 514.066467 12.392167
v 21.993185 514.433105 11.530367
v 21.973206 514.317078 11.743894
v 21.973206 514.468323 11.563365
v 21.941422 514.350281 11.768670
v 21.941422 514.222778 11.961122
v 22.000000 514.743347 11.194221
v 21.993185 514.595337 11.374634
v 21.993185 514.772949 11.236710
v 21.941422 514.117676 12.166638
v 21.900000 514.146729 12.179505
v 21.900000 514.250244 11.977162
v 21.973206 514.626892 11.411130
v 21.799999 514.171204 12.190352
v 21.851765 514.164978 12.187594
v 21.941422 514.498535 11.591702
v 22.000000 514.938965 11.072759
v 21.993185 514.963928 11.118105
v 22.000000 515.146240 10.972410
v 21.900000 514.375732 11.787681
v 21.973206 514.800476 11.276302
v 21.799999 514.273376 11.990685
v 21.851765 514.267456 11.987245
v 21.799999 514.397217 11.803708
v 21.941422 514.653931 11.442470
v 21.993185 515.166321 11.020118
v 22.000000 515.362854 10.894278
v 21.900000 514.521729 11.613446
v 21.973206 514.987244 11.160360
v 21.799999 514.541260 11.631777
v 21.851765 514.391785 11.799632
v 21.941422 514.824158 11.310302
v 22.000000 515.586487 10.839214
v 21.993185 515.377869 10.943823
v 21.900000 514.674744 11.466517
v 21.973206 515.185059 11.064573
v 21.851765 514.536255 11.627114
v 21.941422 515.007202 11.196647
v 21.993185 515.596191 10.890056
v 21.900000 514.842285 11.336390
v 21.973206 515.391846 10.989992
v 21.851765 514.687805 11.481634
v 21.799999 514.703613 11.477051
v 21.941422 515.201111 11.102749
v 22.000000 515.814575 10.807826
v 21.993185 515.818970 10.859406
v 22.000000 516.044739 10.800455
v 21.900000 515.022522 11.224489
v 21.973206 515.605286 10.937432
v 21.799999 514.882263 11.341477
v 21.851765 514.853699 11.352790
v 21.941422 515.403809 11.029638
v 22.000000 516.274414 10.817183
v 21.993185 516.043701 10.852208
v 21.900000 515.213440 11.132042
v 21.973206 515.822998 10.907471
v 21.851765 515.032166 11.241992
v 21.799999 515.075012 11.226761
v 21.941422 515.613037 10.978115
v 21.993185 516.267944 10.868543
v 21.900000 515.413025 11.060060
v 21.973206 516.042725 10.900434
v 21.993185 516.410767 10.891397
v 22.000000 516.501099 10.857827
v 21.851765 515.221252 11.150456
v 21.799999 515.279358 11.134343
v 21.941422 515.826538 10.948745
v 21.900000 515.619019 11.009333
v 21.973206 516.261963 10.916403
v 21.993185 516.644226 10.950644
v 22.000000 516.722290 10.921941
v 21.799999 515.492798 11.065388
v 21.851765 515.418823 11.079184
v 21.941422 516.041870 10.941848
v 21.973206 516.401550 10.938744
v 22.000000 517.505066 11.395370
v 22.000000 517.329102 11.246840
v 21.993185 517.469604 11.433125
v 21.900000 515.829224 10.980415
v 21.799999 515.712585 11.020761
v 21.851765 515.622803 11.028956
v 22.000000 516.935547 11.008821
v 21.993185 516.869629 11.035664
v 21.941422 516.256775 10.957500
v 21.973206 516.629761 10.996660
v 21.900000 516.041260 10.973624
v 21.941422 516.393616 10.979401
v 22.000000 514.494934 14.604630
v 21.993185 514.530396 14.566875
v 21.993185 514.374634 14.404673
v 21.799999 515.935974 11.001025
v 21.851765 515.830872 11.000324
v 22.000000 514.335449 14.438519
v 21.993185 514.236694 14.227080
v 22.000000 517.138550 11.117518
v 21.993185 517.084106 11.145386
v 22.000000 514.194214 14.256648
v 22.000000 514.072754 14.061009
v 21.973206 516.850159 11.079771
v 21.973206 514.563354 14.531693
v 21.973206 514.411133 14.373132
v 21.941422 514.591675 14.501480
v 22.000000 513.972412 13.853745
v 21.993185 514.118103 14.036044
v 21.900000 516.252808 10.989036
v 21.941422 516.617371 11.036176
v 21.973206 514.276306 14.199528
v 21.851765 516.040833 10.993601
v 21.799999 516.160217 11.006427
v 21.941422 514.442444 14.346048
v 21.973206 517.436646 11.468307
v 21.993185 517.284973 11.278431
v 21.993185 514.020142 13.833657
v 22.000000 513.894287 13.637127
v 21.900000 516.387512 11.010598
v 21.973206 517.059753 11.187029
v 21.973206 514.160339 14.012781
v 21.941422 514.310303 14.175868
v 21.941422 516.833374 11.117646
v 21.851765 516.250305 11.008860
v 22.000000 513.839233 13.413529
v 21.993185 513.943848 13.622136
v 21.799999 516.382385 11.036899
v 21.900000 516.607849 11.066496
v 21.900000 514.466492 14.325266
v 21.900000 514.613464 14.478298
v 21.851765 516.383728 11.030210
v 21.799999 516.599792 11.092058
v 21.973206 514.064575 13.814939
v 21.941422 517.408325 11.498520
v 21.973206 517.256104 11.317087
v 21.941422 514.196655 13.992805
v 21.941422 517.038879 11.222789
v 22.000000 513.807800 13.185400
v 21.993185 513.890076 13.403799
v 21.900000 516.820496 11.146709
v 21.851765 516.601868 11.085557
v 21.900000 514.336365 14.157713
v 21.973206 513.989990 13.608167
v 21.941422 517.231323 11.350282
v 21.900000 517.022827 11.250229
v 21.799999 514.631775 14.458755
v 21.799999 514.477051 14.296390
v 21.851765 514.481628 14.312201
v 21.851765 514.627136 14.463725
v 21.799999 516.809631 11.171210
v 21.851765 516.812378 11.164979
v 21.799999 517.009338 11.273361
v 21.941422 514.102722 13.798864
v 21.900000 517.386536 11.521702
v 21.900000 517.212341 11.375752
v 21.851765 517.012756 11.267478
v 21.993185 513.859436 13.181038
v 21.851765 517.372864 11.536275
v 21.851765 517.200378 11.391764
v 21.799999 517.368225 11.541245
v 21.799999 517.196289 11.397225
v 21.900000 514.224487 13.977476
v 21.973206 513.937439 13.394732
v 21.851765 514.352783 14.146300
v 21.799999 514.341492 14.117723
v 21.941422 514.029663 13.596171
v 21.993185 513.852234 12.956293
v 22.000000 513.800476 12.955240
v 21.900000 514.132019 13.786530
v 21.973206 513.907471 13.176973
v 21.799999 514.226746 13.924998
v 21.851765 514.242004 13.967840
v 21.941422 513.978088 13.386947
v 22.000000 513.817200 12.725570
v 21.993185 513.868530 12.732027
v 21.900000 514.060059 13.586967
v 21.973206 513.900452 12.957274
v 21.993185 513.891418 12.589253
v 22.000000 513.857849 12.498907
v 21.851765 514.150452 13.778776
v 21.799999 514.134338 13.720642
v 21.941422 513.948730 13.173482
v 21.900000 514.009338 13.380972
v 21.973206 513.916382 12.738045
v 21.799999 514.065369 13.507224
v 21.851765 514.079163 13.581181
v 21.993185 513.950623 12.355747
v 22.000000 513.921936 12.277734
v 21.941422 513.941833 12.958117
v 21.973206 513.938721 12.598476
v 21.900000 513.980408 13.170804
v 21.799999 514.020752 13.287427
v 21.851765 514.028931 13.377216
v 21.993185 514.035645 12.130343
v 22.000000 514.008850 12.064474
v 21.941422 513.957520 12.743211
v 21.973206 513.996643 12.370214
v 21.900000 513.973633 12.958764
v 21.941422 513.979370 12.606396
v 21.799999 514.001038 13.064015
v 21.851765 514.000305 13.169120
v 21.993185 514.145386 11.915875
v 22.000000 514.117493 11.861465
v 21.973206 514.079773 12.149870
v 21.900000 513.989014 12.747176
v 21.941422 514.036194 12.382635
v 21.799999 514.006409 12.839798
v 21.851765 513.993591 12.959170
v 22.000000 514.246826 11.670929
v 21.993185 514.278442 11.715041
v 21.973206 514.187012 11.940218
v 21.851765 514.008850 12.749668
v 22.000000 514.395386 11.494954
v 22.000000 514.561462 11.335469
v 22.485632 512.690002 11.581510
v 22.000000 512.325134 12.032850
v 22.000000 512.417542 11.732686
v 22.000000 513.023132 10.638134
v 22.000000 513.228394 10.400375
v 22.338722 513.323792 10.489854
v 22.000000 512.534424 11.441178
v 22.000000 512.674988 11.160319
v 22.000000 512.838257 10.892027
v 22.664215 513.441162 10.599938
v 22.973806 513.579529 10.729726
v 23.439432 513.202698 12.062366
v 23.264956 513.737732 10.878151
v 23.535273 513.914551 11.043994
v 23.782537 514.108521 11.225895
v 24.200001 514.273376 11.990685
v 24.200001 514.092041 12.400203
v 24.131517 513.904114 12.720256
v 24.200001 514.006409 12.839798
v 24.200001 514.020752 13.287427
v 22.771658 512.553284 12.976619
v 22.000000 512.307739 13.898458
v 22.000000 512.246155 13.590486
v 22.000000 512.210205 13.278480
v 22.000000 512.200195 12.964570
v 22.000000 512.216064 12.650904
v 22.000000 512.257813 12.339622
v 23.525991 513.189636 13.573468
v 24.200001 514.134338 13.720642
v 22.656939 512.780090 14.402998
v 22.000000 512.979614 15.305948
v 22.000000 512.799500 15.048652
v 22.000000 512.641296 14.777362
v 22.000000 512.505981 14.493931
v 22.000000 512.394531 14.200294
v 23.928457 513.977966 14.312879
v 24.200001 514.341492 14.117723
v 24.200001 514.631775 14.458755
v 22.000000 518.547485 15.819625
v 22.338722 518.676208 15.510146
v 22.000000 518.771606 15.599625
v 22.664215 518.558838 15.400062
v 24.004723 514.317993 11.422360
v 24.200001 514.541260 11.631777
v 24.131517 516.413269 15.073683
v 24.200001 516.287415 14.979239
v 24.200001 516.720642 14.865657
v 24.200001 515.839783 14.993573
v 22.000000 518.305969 16.020365
v 22.973806 518.420471 15.270274
v 23.928457 514.819214 15.101888
v 24.200001 514.990662 14.726639
v 24.200001 515.400208 14.907942
v 23.053488 513.434998 15.017280
v 22.000000 513.400391 15.771633
v 22.000000 513.180359 15.547492
v 23.439432 517.114685 15.731572
v 24.200001 517.117737 14.658523
v 23.782537 517.891479 14.774105
v 23.264956 518.262268 15.121849
v 23.535273 518.085449 14.956006
v 23.525991 515.607544 15.841297
v 23.053488 514.150940 15.688798
v 22.000000 513.892029 16.161716
v 22.000000 513.638123 15.976842
v 22.485632 517.627380 16.212429
v 22.000000 518.048645 16.200472
v 22.000000 517.777344 16.358717
v 22.000000 517.493958 16.494019
v 22.000000 517.200317 16.605453
v 22.771658 516.243835 16.438147
v 22.000000 516.898438 16.692259
v 22.000000 516.590515 16.753841
v 22.000000 516.278503 16.789782
v 22.000000 515.964600 16.799835
v 22.000000 515.650879 16.783930
v 22.000000 515.339600 16.742178
v 22.656939 514.805908 16.303080
v 22.000000 515.032837 16.674864
v 22.000000 514.732666 16.582445
v 22.000000 514.441162 16.465555
v 22.000000 514.160339 16.324993
v 24.200001 517.458740 14.368223
v 24.004723 517.682007 14.577640
v 23.382725 513.318237 14.347804
v 23.576611 514.103271 15.084105
v 23.382725 514.826538 15.762499
v 21.799999 517.458740 14.368223
v 21.799999 517.602783 14.196292
v 21.799999 517.296387 14.522949
v 21.799999 517.117737 14.658523
v 21.799999 516.924988 14.773239
v 21.799999 517.522949 11.703610
v 21.799999 516.720642 14.865657
v 21.799999 517.658508 11.882277
v 21.799999 516.507202 14.934612
v 21.799999 516.287415 14.979239
v 21.799999 517.773254 12.075002
v 21.799999 517.865662 12.279358
v 21.799999 516.064026 14.998975
v 21.799999 515.839783 14.993573
v 21.799999 517.934631 12.492776
v 21.799999 517.979248 12.712573
v 21.799999 515.617615 14.963101
v 21.799999 517.998962 12.935985
v 21.799999 515.400208 14.907942
v 21.799999 515.190369 14.828790
v 21.799999 517.993591 13.160202
v 21.799999 514.990662 14.726639
v 21.799999 514.803711 14.602775
v 21.799999 517.963074 13.382403
v 21.799999 517.907959 13.599797
v 21.799999 517.828796 13.809648
v 21.799999 517.726624 14.009315
v 6.350000 514.541260 11.631777
v 6.350000 514.703613 11.477051
v 6.350000 514.882263 11.341477
v 6.350000 515.075012 11.226761
v 6.350000 514.477051 14.296390
v 6.350000 515.279358 11.134343
v 6.350000 515.492798 11.065388
v 6.350000 514.341492 14.117723
v 6.350000 514.226746 13.924998
v 6.350000 514.134338 13.720642
v 6.350000 515.712585 11.020761
v 6.350000 514.065369 13.507224
v 6.350000 515.935974 11.001025
v 6.350000 516.160217 11.006427
v 6.350000 516.382385 11.036899
v 6.350000 514.020752 13.287427
v 6.350000 514.001038 13.064015
v 6.350000 516.599792 11.092058
v 6.350000 516.809631 11.171210
v 6.350000 514.006409 12.839798
v 6.350000 514.036926 12.617597
v 6.350000 517.009338 11.273361
v 6.350000 517.196289 11.397225
v 6.350000 514.092041 12.400203
v 6.350000 514.171204 12.190352
v 6.350000 514.273376 11.990685
v 6.350000 514.397217 11.803708
v 24.200001 514.649475 12.490609
v 24.200001 514.594543 12.671243
v 24.200001 514.773743 13.761328
v 24.200001 514.883606 13.914873
v 24.200001 514.684875 13.594755
v 24.200001 517.272461 13.681309
v 24.200001 517.350525 13.509391
v 24.200001 517.726624 14.009315
v 24.200001 517.172668 13.841569
v 24.200001 517.907959 13.599797
v 24.200001 517.315125 12.405245
v 24.200001 517.865662 12.279358
v 24.200001 517.381531 12.581993
v 24.200001 517.979248 12.712573
v 24.200001 515.712585 11.020761
v 24.200001 516.160217 11.006427
v 24.200001 515.953796 11.557364
v 24.200001 514.563660 12.857502
v 24.200001 515.765869 11.575736
v 24.200001 516.142517 11.563676
v 24.200001 517.424255 12.765895
v 24.200001 514.557373 13.046199
v 24.200001 515.279358 11.134343
v 24.200001 515.581970 11.618478
v 24.200001 516.599792 11.092058
v 24.200001 516.328735 11.594563
v 24.200001 517.442627 12.953801
v 24.200001 515.012573 14.052765
v 24.200001 515.158447 14.172645
v 24.200001 514.882263 11.341477
v 24.200001 515.405273 11.684857
v 24.200001 516.509399 11.649498
v 24.200001 516.914856 14.116396
v 24.200001 517.052795 13.987431
v 24.200001 517.009338 11.273361
v 24.200001 515.238647 11.773740
v 24.200001 514.575745 13.234105
v 24.200001 517.436340 13.142498
v 24.200001 517.993591 13.160202
v 24.200001 516.681335 11.727541
v 24.200001 514.618469 13.418007
v 24.200001 515.085144 11.883604
v 24.200001 515.318665 14.272459
v 24.200001 515.490601 14.350502
v 24.200001 516.841553 11.827355
v 24.200001 517.368225 11.541245
v 24.200001 516.761353 14.226260
v 24.200001 516.594727 14.315143
v 24.200001 517.405457 13.328757
v 24.200001 514.947205 12.012569
v 24.200001 515.671265 14.405437
v 24.200001 516.987427 11.947235
v 24.200001 516.418030 14.381522
v 24.200001 514.827332 12.158431
v 24.200001 515.857483 14.436324
v 24.200001 516.046204 14.442636
v 24.200001 517.116394 12.085127
v 24.200001 516.234131 14.424264
v 24.200001 517.658508 11.882277
v 24.200001 514.727539 12.318691
v 24.200001 517.226257 12.238672
v 22.000000 518.976868 15.361866
v 22.656939 517.194092 9.696920
v 22.000000 516.660400 9.257821
v 22.000000 516.967163 9.325136
v 22.000000 517.267334 9.417555
v 22.000000 517.558838 9.534445
v 22.000000 517.839661 9.675008
v 22.000000 518.107971 9.838284
v 22.771658 515.756165 9.561853
v 22.000000 514.799683 9.394547
v 22.000000 515.101563 9.307741
v 22.000000 515.409485 9.246159
v 22.000000 515.721497 9.210217
v 22.000000 516.035400 9.200165
v 22.000000 516.349121 9.216069
v 22.485632 514.372620 9.787572
v 22.000000 513.694031 9.979635
v 22.000000 513.951355 9.799527
v 22.000000 514.222656 9.641282
v 22.000000 514.506042 9.505980
v 23.053488 517.849060 10.311202
v 22.000000 518.361877 10.023158
v 22.000000 518.599609 10.228367
v 23.525991 516.392456 10.158703
v 23.439432 514.885315 10.268428
v 23.053488 518.565002 10.982720
v 22.000000 518.819641 10.452508
v 22.000000 519.020386 10.694052
v 23.928457 517.180786 10.898112
v 24.131517 515.586731 10.926317
v 23.928457 518.022034 11.687121
v 22.656939 519.219910 11.597002
v 22.000000 519.200500 10.951348
v 22.000000 519.358704 11.222638
v 22.000000 513.452515 10.180375
v 22.000000 519.494019 11.506069
v 22.000000 519.605469 11.799706
v 22.000000 519.692261 12.101542
v 23.525991 518.810364 12.426532
v 22.771658 519.446716 13.023381
v 22.000000 519.753845 12.409514
v 22.000000 519.789795 12.721520
v 22.000000 519.799805 13.035430
v 22.000000 519.783936 13.349096
v 22.000000 519.742188 13.660378
v 22.000000 519.674866 13.967150
v 24.131517 518.095886 13.279744
v 23.439432 518.797302 13.937634
v 22.485632 519.309998 14.418490
v 22.000000 519.582458 14.267314
v 22.000000 519.465576 14.558822
v 22.000000 519.325012 14.839681
v 22.000000 519.161743 15.107973
v 23.382725 517.173462 10.237501
v 23.576611 517.896729 10.915895
v 23.382725 518.681763 11.652196
v 22.000000 514.670898 14.753160
v 22.000000 514.861450 14.882482
v 22.000000 515.064453 14.991179
v 22.000000 515.277710 15.078059
v 22.000000 515.498901 15.142173
v 22.000000 515.725586 15.182817
v 22.000000 515.955261 15.199545
v 22.000000 516.185425 15.192174
v 22.000000 516.413513 15.160786
v 22.000000 516.637146 15.105722
v 22.000000 516.853760 15.027590
v 22.000000 517.061035 14.927241
v 22.000000 517.256653 14.805779
v 22.000000 517.438538 14.664531
v 22.000000 517.604614 14.505046
v 22.000000 517.664551 11.561481
v 22.000000 517.753174 14.329071
v 22.000000 517.805786 11.743352
v 22.000000 517.882507 14.138535
v 22.000000 517.927246 11.938991
v 22.000000 517.991150 13.935526
v 22.000000 518.027588 12.146255
v 22.000000 518.078064 13.722266
v 22.000000 518.105713 12.362873
v 22.000000 518.142151 13.501093
v 22.000000 518.160767 12.586471
v 22.000000 518.182800 13.274430
v 22.000000 518.192200 12.814600
v 22.000000 518.199524 13.044760
v 21.993185 517.721558 14.284959
v 21.973206 517.682922 14.256106
v 21.973206 517.531677 14.436635
v 21.993185 517.566895 14.469633
v 21.941422 517.777222 14.038878
v 21.941422 517.649719 14.231330
v 21.993185 517.404663 14.625366
v 21.993185 517.227051 14.763290
v 21.900000 517.853271 13.820495
v 21.900000 517.749756 14.022838
v 21.973206 517.373108 14.588870
v 21.851765 517.835022 13.812406
v 21.851765 517.914429 13.601841
v 21.941422 517.501465 14.408298
v 21.993185 517.036072 14.881895
v 21.900000 517.624268 14.212319
v 21.973206 517.199524 14.723698
v 21.851765 517.732544 14.012755
v 21.941422 517.346069 14.557530
v 21.993185 516.833679 14.979882
v 21.900000 517.478271 14.386554
v 21.973206 517.012756 14.839640
v 21.851765 517.608215 14.200368
v 21.941422 517.175842 14.689698
v 21.993185 516.622131 15.056177
v 21.900000 517.325256 14.533483
v 21.973206 516.814941 14.935427
v 21.851765 517.463745 14.372886
v 21.941422 516.992798 14.803353
v 21.993185 516.403809 15.109944
v 21.900000 517.157715 14.663610
v 21.973206 516.608154 15.010008
v 21.851765 517.312195 14.518366
v 21.941422 516.798889 14.897251
v 21.993185 516.181030 15.140594
v 21.900000 516.977478 14.775511
v 21.973206 516.394714 15.062568
v 21.851765 517.146301 14.647210
v 21.941422 516.596191 14.970362
v 21.993185 515.956299 15.147792
v 21.900000 516.786560 14.867958
v 21.973206 516.177002 15.092529
v 21.851765 516.967834 14.758008
v 21.941422 516.386963 15.021885
v 21.993185 515.732056 15.131457
v 21.900000 516.586975 14.939940
v 21.973206 515.957275 15.099566
v 21.993185 515.589233 15.108603
v 21.851765 516.778748 14.849544
v 21.941422 516.173462 15.051255
v 21.900000 516.380981 14.990667
v 21.973206 515.738037 15.083597
v 21.851765 516.581177 14.920816
v 21.993185 515.355774 15.049356
v 21.941422 515.958130 15.058152
v 21.973206 515.598450 15.061256
v 21.900000 516.170776 15.019585
v 21.851765 516.377197 14.971044
v 21.993185 515.130371 14.964336
v 21.941422 515.743225 15.042500
v 21.973206 515.370239 15.003340
v 21.900000 515.958740 15.026376
v 21.941422 515.606384 15.020599
v 21.851765 516.169128 14.999676
v 21.993185 514.915894 14.854614
v 21.973206 515.149841 14.920229
v 21.993185 517.625366 11.595327
v 21.900000 515.747192 15.010964
v 21.993185 517.763306 11.772920
v 21.941422 515.382629 14.963824
v 21.973206 517.588867 11.626868
v 21.851765 515.959167 15.006399
v 21.993185 514.715027 14.721569
v 21.993185 517.881897 11.963956
v 21.900000 515.612488 14.989402
v 21.973206 517.723694 11.800472
v 21.973206 514.940247 14.812971
v 21.941422 515.166626 14.882354
v 21.941422 517.557556 11.653952
v 21.993185 517.979858 12.166343
v 21.851765 515.749695 14.991140
v 21.973206 517.839661 11.987219
v 21.900000 515.392151 14.933504
v 21.851765 515.616272 14.969790
v 21.941422 517.689697 11.824132
v 21.973206 514.743896 14.682913
v 21.941422 514.961121 14.777211
v 21.993185 518.056152 12.377864
v 21.900000 515.179504 14.853291
v 21.900000 517.533508 11.674734
v 21.973206 517.935425 12.185061
v 21.851765 515.398132 14.914443
v 21.941422 514.768677 14.649718
v 21.941422 517.803345 12.007195
v 21.900000 514.977173 14.749771
v 21.851765 515.187622 14.835021
v 21.993185 518.109924 12.596201
v 21.900000 514.787659 14.624248
v 21.900000 517.663635 11.842287
v 21.851765 514.987244 14.732522
v 21.973206 518.010010 12.391833
v 21.851765 517.518372 11.687799
v 21.851765 514.799622 14.608236
v 21.941422 517.897278 12.201136
v 21.993185 518.140564 12.818962
v 21.900000 517.775513 12.022524
v 21.973206 518.062561 12.605268
v 21.851765 517.647217 11.853700
v 21.941422 517.970337 12.403829
v 21.993185 518.147766 13.043707
v 21.900000 517.867981 12.213470
v 21.973206 518.092529 12.823027
v 21.851765 517.757996 12.032160
v 21.941422 518.021912 12.613053
v 21.993185 518.131470 13.267973
v 21.900000 517.939941 12.413033
v 21.973206 518.099548 13.042726
v 21.993185 518.108582 13.410747
v 21.851765 517.849548 12.221224
v 21.941422 518.051270 12.826518
v 21.900000 517.990662 12.619028
v 21.973206 518.083618 13.261955
v 21.851765 517.920837 12.418819
v 21.993185 518.049377 13.644253
v 21.941422 518.058167 13.041883
v 21.973206 518.061279 13.401524
v 21.900000 518.019592 12.829196
v 21.851765 517.971069 12.622784
v 21.993185 517.964355 13.869657
v 21.941422 518.042480 13.256789
v 21.973206 518.003357 13.629786
v 21.900000 518.026367 13.041236
v 21.941422 518.020630 13.393604
v 21.851765 517.999695 12.830880
v 21.993185 517.854614 14.084125
v 21.973206 517.920227 13.850130
v 21.900000 518.010986 13.252824
v 21.941422 517.963806 13.617365
v 21.851765 518.006409 13.040830
v 21.900000 517.989380 13.387527
v 21.973206 517.812988 14.059782
v 21.941422 517.882324 13.833362
v 21.851765 517.991150 13.250332
v 21.900000 517.933533 13.607833
v 21.851765 517.969788 13.383707
v 24.177303 515.525452 14.268707
v 24.161009 515.379578 14.131845
v 24.151989 515.233459 13.994834
v 24.151100 515.087219 13.857636
v 24.166639 514.852661 13.637660
v 24.177248 516.860901 14.045486
v 24.160950 516.669006 14.103543
v 24.151960 516.477112 14.161599
v 24.151114 516.285278 14.219656
v 24.166639 515.978271 14.312547
v 24.177248 517.335876 12.777193
v 24.160950 517.290222 12.972393
v 24.151960 517.244568 13.167592
v 24.151114 517.198853 13.362792
v 24.166639 517.125793 13.675111
v 24.177258 516.475037 11.731748
v 24.160940 516.621582 11.869226
v 24.151943 516.768188 12.006718
v 24.151134 516.914490 12.143969
v 24.166704 517.148193 12.363164
v 24.177248 515.139099 11.954514
v 24.160950 515.330994 11.896457
v 24.151960 515.522888 11.838401
v 24.151114 515.714722 11.780344
v 24.166639 516.021729 11.687453
v 24.177248 514.664124 13.222807
v 24.160950 514.709778 13.027607
v 24.151960 514.755432 12.832408
v 24.151114 514.801147 12.637208
v 24.166639 514.874207 12.324889
v 22.225000 516.221313 13.284990
v 22.225000 515.955017 13.358026
v 22.112499 516.061218 13.169719
v 22.812244 517.122498 12.339044
v 22.850473 517.253235 12.461669
v 22.836243 517.327698 12.812117
v 22.900000 517.381531 12.581993
v 22.794512 517.273071 13.045531
v 22.836243 516.826538 14.055874
v 22.826296 517.117249 13.711823
v 22.900000 517.052795 13.987431
v 22.794512 516.597107 14.125297
v 22.850473 515.542969 14.285112
v 22.826296 515.942139 14.323465
v 22.900000 515.671265 14.405437
v 22.812244 515.412231 14.162486
v 22.780025 517.228210 13.237484
v 22.450001 516.708801 12.864346
v 22.787886 516.989136 12.213963
v 22.785200 517.182922 13.430974
v 22.450001 516.653198 13.306890
v 22.780025 516.408447 14.182386
v 22.450001 516.348083 13.632213
v 22.785200 516.218201 14.239935
v 22.787886 515.278870 14.037405
v 22.450001 515.909973 13.716051
v 22.225000 516.316101 12.825974
v 22.225000 516.354431 12.932173
v 22.225000 516.358032 13.045012
v 22.225000 515.846558 13.326593
v 6.000000 515.425659 11.730045
v 6.000000 515.596375 11.665946
v 6.000000 515.773926 11.624673
v 6.000000 515.955383 11.606932
v 6.000000 514.921936 13.883439
v 6.000000 514.815857 13.735168
v 6.000000 516.137573 11.613027
v 6.000000 514.730042 13.574320
v 6.000000 516.317444 11.642853
v 6.000000 514.665955 13.403644
v 6.000000 516.491882 11.695901
v 6.000000 514.624695 13.226062
v 6.000000 516.657898 11.771262
v 6.000000 516.812683 11.867647
v 6.000000 514.606934 13.044612
v 6.000000 514.613037 12.862398
v 6.000000 514.642883 12.682539
v 6.000000 514.695923 12.508112
v 6.000000 514.771240 12.342101
v 6.000000 514.867676 12.187346
v 6.000000 514.983398 12.046497
v 6.000000 515.116577 11.921963
v 6.000000 515.264832 11.815873
f 1 2 3
f 1 4 2
f 5 3 6
f 5 1 3
f 7 6 8
f 7 5 6
f 9 10 11
f 9 12 10
f 13 7 8
f 14 11 15
f 14 9 11
f 16 8 17
f 18 15 19
f 16 13 8
f 18 14 15
f 20 17 21
f 20 16 17
f 22 19 23
f 22 18 19
f 24 21 25
f 24 20 21
f 26 23 27
f 28 25 29
f 26 22 23
f 28 24 25
f 30 29 31
f 32 27 33
f 30 28 29
f 32 26 27
f 34 30 31
f 34 31 35
f 36 34 35
f 37 32 33
f 38 33 39
f 38 37 33
f 40 39 41
f 40 38 39
f 42 41 43
f 42 40 41
f 44 42 43
f 44 43 45
f 46 44 45
f 46 45 47
f 48 46 47
f 48 47 49
f 50 48 49
f 51 50 49
f 51 49 52
f 53 52 54
f 53 51 52
f 4 54 2
f 4 53 54
f 55 56 57
f 58 59 60
f 60 59 61
f 58 60 62
f 63 64 65
f 64 63 66
f 67 68 69
f 68 67 70
f 62 71 72
f 73 74 72
f 74 58 72
f 58 62 72
f 71 75 76
f 75 64 76
f 64 66 76
f 72 71 76
f 66 77 78
f 77 79 78
f 76 66 78
f 70 80 81
f 80 82 81
f 79 68 81
f 78 79 81
f 68 70 81
f 83 73 84
f 73 72 84
f 83 84 56
f 72 76 56
f 84 72 56
f 78 81 85
f 83 85 86
f 85 81 86
f 82 83 87
f 81 82 87
f 83 86 87
f 86 81 87
f 85 83 55
f 83 56 55
f 78 85 57
f 85 55 57
f 76 78 57
f 56 76 57
f 88 89 90
f 91 88 90
f 89 92 90
f 93 91 90
f 94 95 96
f 96 95 97
f 95 98 97
f 99 100 101
f 102 103 104
f 98 102 104
f 100 94 105
f 94 96 105
f 101 100 105
f 92 106 107
f 103 93 107
f 90 92 107
f 93 90 107
f 96 97 108
f 109 99 110
f 111 109 110
f 99 101 110
f 97 98 112
f 98 104 112
f 101 105 113
f 106 114 115
f 114 116 115
f 104 103 115
f 107 106 115
f 103 107 115
f 113 105 117
f 105 96 117
f 96 108 117
f 111 110 118
f 119 111 118
f 97 112 120
f 108 97 120
f 118 110 121
f 110 101 121
f 101 113 121
f 116 122 123
f 115 116 123
f 112 104 123
f 104 115 123
f 113 117 124
f 125 119 126
f 119 118 126
f 124 117 127
f 117 108 127
f 108 120 127
f 118 121 128
f 120 112 129
f 123 122 129
f 112 123 129
f 121 113 130
f 113 124 130
f 128 121 130
f 125 126 131
f 124 127 132
f 126 118 133
f 118 128 133
f 132 127 134
f 122 135 134
f 129 122 134
f 127 120 134
f 120 129 134
f 133 128 136
f 128 130 136
f 137 125 138
f 139 137 138
f 125 131 138
f 124 132 140
f 130 124 140
f 131 126 141
f 126 133 141
f 135 142 143
f 132 134 143
f 134 135 143
f 141 133 144
f 133 136 144
f 145 139 146
f 139 138 146
f 136 130 147
f 130 140 147
f 138 131 148
f 146 138 148
f 131 141 148
f 143 142 149
f 140 132 149
f 142 150 149
f 132 143 149
f 141 144 151
f 145 146 152
f 136 147 153
f 144 136 153
f 146 148 154
f 145 152 155
f 156 145 155
f 140 149 157
f 150 158 157
f 147 140 157
f 149 150 157
f 148 141 159
f 141 151 159
f 154 148 159
f 151 144 160
f 144 153 160
f 146 154 161
f 152 146 161
f 156 155 162
f 163 156 162
f 158 164 165
f 157 158 165
f 153 147 165
f 147 157 165
f 154 159 166
f 161 154 166
f 155 152 167
f 168 169 170
f 152 161 167
f 162 155 167
f 159 151 171
f 151 160 171
f 164 172 173
f 165 164 173
f 160 153 173
f 153 165 173
f 174 163 175
f 163 162 175
f 161 166 176
f 162 167 177
f 166 159 178
f 159 171 178
f 167 161 179
f 161 176 179
f 180 181 182
f 177 167 179
f 172 183 184
f 185 180 182
f 173 172 184
f 171 160 184
f 160 173 184
f 185 182 186
f 187 174 188
f 189 185 186
f 190 189 186
f 174 175 188
f 175 162 191
f 181 192 193
f 162 177 191
f 192 194 193
f 182 181 193
f 195 190 196
f 190 186 196
f 176 166 197
f 166 178 197
f 191 177 198
f 186 182 199
f 182 193 199
f 177 179 198
f 171 184 200
f 183 201 200
f 184 183 200
f 199 193 202
f 178 171 200
f 193 194 202
f 203 170 204
f 187 188 204
f 195 196 205
f 169 187 204
f 170 169 204
f 206 195 205
f 176 197 207
f 179 176 207
f 188 175 208
f 175 191 208
f 196 186 209
f 186 199 209
f 199 202 210
f 208 191 211
f 209 199 210
f 191 198 211
f 197 178 212
f 200 201 212
f 213 206 214
f 201 215 212
f 206 205 214
f 178 200 212
f 198 179 216
f 202 194 217
f 179 207 216
f 194 218 217
f 197 212 219
f 215 220 219
f 205 196 221
f 212 215 219
f 207 197 219
f 196 209 221
f 222 203 223
f 188 208 223
f 204 188 223
f 203 204 223
f 209 210 224
f 208 211 225
f 223 208 225
f 226 213 227
f 198 216 228
f 211 198 228
f 213 214 227
f 216 207 229
f 202 217 230
f 207 219 229
f 210 202 230
f 219 220 229
f 227 214 231
f 222 223 232
f 223 225 232
f 214 205 231
f 205 221 231
f 211 228 233
f 225 211 233
f 234 235 236
f 218 237 236
f 220 238 239
f 237 234 236
f 238 240 239
f 217 218 236
f 216 229 239
f 228 216 239
f 209 224 241
f 231 221 241
f 229 220 239
f 242 222 243
f 221 209 241
f 222 232 243
f 232 225 243
f 225 233 243
f 239 240 244
f 233 228 244
f 228 239 244
f 226 227 245
f 246 242 247
f 248 246 247
f 242 243 247
f 240 249 247
f 249 248 247
f 244 240 247
f 210 230 250
f 243 233 247
f 233 244 247
f 224 210 250
f 227 231 251
f 230 217 252
f 235 253 252
f 236 235 252
f 217 236 252
f 251 231 254
f 231 241 254
f 226 245 255
f 256 226 255
f 224 250 257
f 241 224 257
f 255 245 258
f 245 227 258
f 227 251 258
f 253 259 260
f 230 252 260
f 252 253 260
f 250 230 260
f 251 254 261
f 262 256 263
f 256 255 263
f 254 241 264
f 241 257 264
f 261 254 264
f 255 258 265
f 262 263 266
f 267 262 266
f 250 260 268
f 259 269 268
f 257 250 268
f 260 259 268
f 265 258 270
f 251 261 270
f 258 251 270
f 261 264 271
f 263 255 272
f 255 265 272
f 269 273 274
f 268 269 274
f 264 257 274
f 257 268 274
f 267 266 275
f 276 267 275
f 265 270 277
f 272 265 277
f 266 263 278
f 275 266 278
f 263 272 278
f 261 271 279
f 270 261 279
f 273 280 281
f 274 273 281
f 271 264 281
f 264 274 281
f 276 275 282
f 283 276 282
f 272 277 284
f 278 272 284
f 275 278 285
f 277 270 286
f 270 279 286
f 278 284 287
f 285 278 287
f 280 288 289
f 281 280 289
f 279 271 289
f 271 281 289
f 283 282 290
f 291 283 290
f 282 275 292
f 290 282 292
f 275 285 292
f 277 286 293
f 284 277 293
f 285 287 294
f 288 295 296
f 289 288 296
f 286 279 296
f 279 289 296
f 297 291 298
f 291 290 298
f 287 284 91
f 284 293 91
f 290 292 299
f 298 290 299
f 299 292 102
f 292 285 102
f 285 294 102
f 293 286 300
f 295 89 300
f 296 295 300
f 286 296 300
f 301 297 94
f 297 298 94
f 294 287 93
f 287 91 93
f 91 293 88
f 293 300 88
f 300 89 88
f 94 298 95
f 298 299 95
f 95 299 98
f 299 102 98
f 302 301 100
f 99 302 100
f 301 94 100
f 294 93 103
f 102 294 103
f 303 304 305
f 306 307 308
f 303 305 309
f 303 309 310
f 303 310 311
f 312 306 308
f 303 311 313
f 311 306 312
f 314 313 315
f 314 315 316
f 314 316 317
f 313 311 312
f 314 318 319
f 314 303 313
f 314 317 318
f 320 314 319
f 320 321 322
f 320 319 321
f 323 303 314
f 323 324 325
f 323 325 326
f 323 326 327
f 323 327 328
f 323 328 329
f 323 329 304
f 323 304 303
f 330 320 322
f 330 314 320
f 330 322 331
f 330 323 314
f 332 333 334
f 332 334 335
f 332 335 336
f 332 336 337
f 332 337 324
f 332 323 330
f 332 324 323
f 338 339 340
f 341 342 343
f 338 331 339
f 341 344 342
f 318 317 345
f 338 330 331
f 318 345 346
f 347 348 349
f 347 350 348
f 351 352 344
f 351 344 341
f 353 354 355
f 353 340 354
f 356 357 358
f 356 358 333
f 356 333 332
f 359 360 361
f 359 349 360
f 359 362 352
f 359 363 362
f 359 361 363
f 359 347 349
f 364 353 355
f 364 355 350
f 364 347 359
f 364 350 347
f 365 357 356
f 365 366 367
f 365 367 357
f 368 351 369
f 368 369 370
f 368 370 371
f 368 371 372
f 368 352 351
f 368 359 352
f 373 364 359
f 373 372 374
f 373 374 375
f 373 375 376
f 373 376 377
f 373 377 378
f 373 378 379
f 373 359 368
f 373 368 372
f 380 379 381
f 380 381 382
f 380 382 383
f 380 383 384
f 380 384 366
f 380 373 379
f 360 385 386
f 380 364 373
f 380 366 365
f 361 360 386
f 387 356 332
f 387 332 330
f 387 330 338
f 388 356 387
f 388 365 356
f 388 387 338
f 388 340 353
f 388 338 340
f 389 353 364
f 389 380 365
f 389 364 380
f 389 388 353
f 389 365 388
f 390 391 50
f 392 50 51
f 392 390 50
f 393 392 51
f 393 51 53
f 393 53 4
f 394 4 1
f 394 393 4
f 395 12 9
f 395 9 14
f 395 248 12
f 396 394 1
f 397 14 18
f 398 1 5
f 397 395 14
f 398 396 1
f 399 5 7
f 400 397 18
f 399 7 13
f 399 398 5
f 401 18 22
f 401 22 26
f 401 400 18
f 402 399 13
f 403 13 16
f 404 401 26
f 403 16 20
f 403 402 13
f 405 26 32
f 405 32 37
f 406 20 24
f 405 404 26
f 406 403 20
f 407 405 37
f 408 406 24
f 409 24 28
f 410 37 38
f 409 408 24
f 411 28 30
f 410 407 37
f 411 409 28
f 412 30 34
f 413 38 40
f 412 34 36
f 412 411 30
f 413 410 38
f 234 412 36
f 414 40 42
f 414 42 44
f 414 413 40
f 415 414 44
f 416 415 44
f 416 44 46
f 391 46 48
f 391 48 50
f 391 416 46
f 135 417 418
f 135 122 417
f 142 418 419
f 142 135 418
f 150 419 420
f 150 142 419
f 235 234 36
f 235 36 421
f 158 420 422
f 158 422 423
f 158 150 420
f 253 421 424
f 253 235 421
f 164 158 423
f 259 424 425
f 259 425 426
f 172 423 427
f 259 253 424
f 172 164 423
f 269 426 428
f 183 427 429
f 269 259 426
f 183 172 427
f 201 429 430
f 273 269 428
f 201 430 431
f 201 183 429
f 280 428 432
f 280 273 428
f 215 201 431
f 288 432 433
f 220 431 434
f 220 434 435
f 288 280 432
f 220 215 431
f 238 220 435
f 295 433 436
f 295 436 437
f 240 435 438
f 295 288 433
f 240 238 435
f 249 240 438
f 249 438 439
f 89 295 437
f 248 439 12
f 248 249 439
f 92 89 437
f 92 437 440
f 92 440 441
f 106 441 442
f 106 92 441
f 114 106 442
f 114 442 443
f 116 114 443
f 116 443 417
f 122 116 417
f 319 444 445
f 446 447 339
f 448 446 339
f 331 448 339
f 449 450 451
f 452 449 451
f 450 453 451
f 454 455 456
f 319 445 321
f 456 455 457
f 458 459 460
f 321 445 461
f 458 460 462
f 460 459 463
f 456 457 464
f 321 461 465
f 466 458 467
f 458 462 467
f 459 468 469
f 464 457 470
f 463 459 469
f 471 472 340
f 447 471 340
f 339 447 340
f 473 466 474
f 466 467 474
f 469 468 475
f 476 477 385
f 468 478 475
f 477 452 385
f 452 451 385
f 473 474 479
f 321 465 322
f 465 480 322
f 481 470 482
f 470 457 482
f 475 478 483
f 322 480 484
f 473 479 485
f 346 473 485
f 486 487 354
f 472 486 354
f 483 478 488
f 478 489 488
f 340 472 354
f 490 476 360
f 491 490 360
f 481 482 492
f 476 385 360
f 346 485 493
f 487 494 355
f 354 487 355
f 491 360 349
f 488 489 495
f 496 491 349
f 346 493 497
f 484 448 331
f 355 494 350
f 318 346 497
f 322 484 331
f 498 499 350
f 450 492 453
f 494 498 350
f 492 482 453
f 496 349 348
f 350 499 348
f 495 489 500
f 501 496 348
f 489 502 500
f 499 501 348
f 318 497 503
f 500 502 504
f 319 318 444
f 318 503 444
f 504 502 454
f 502 455 454
f 342 344 505
f 343 342 505
f 506 507 508
f 506 508 509
f 506 509 510
f 506 510 511
f 506 511 512
f 513 514 515
f 513 515 516
f 513 516 517
f 513 517 518
f 513 518 519
f 513 519 507
f 513 507 506
f 520 521 522
f 520 522 523
f 520 523 524
f 520 524 514
f 520 313 521
f 345 317 473
f 520 514 513
f 525 506 512
f 525 512 526
f 525 526 527
f 528 468 459
f 528 513 506
f 529 315 313
f 529 316 315
f 346 345 473
f 529 317 316
f 529 313 520
f 529 473 317
f 529 466 473
f 529 513 528
f 529 520 513
f 530 527 531
f 530 531 532
f 530 525 527
f 533 478 468
f 533 489 478
f 533 468 528
f 534 529 528
f 534 466 529
f 534 458 466
f 534 459 458
f 534 528 459
f 535 502 489
f 535 455 502
f 536 532 537
f 536 537 538
f 308 307 539
f 536 538 540
f 536 540 541
f 536 530 532
f 536 541 542
f 312 539 521
f 543 457 455
f 312 308 539
f 543 455 535
f 544 543 536
f 544 542 545
f 313 312 521
f 544 545 546
f 544 546 547
f 544 547 548
f 544 548 549
f 544 549 550
f 544 536 542
f 551 457 543
f 551 482 457
f 551 453 482
f 552 543 544
f 386 385 451
f 552 352 362
f 552 362 363
f 552 363 361
f 552 453 551
f 552 451 453
f 552 361 451
f 552 551 543
f 553 550 554
f 553 554 555
f 361 386 451
f 553 555 556
f 553 556 557
f 553 352 552
f 553 552 544
f 553 544 550
f 553 557 352
f 558 533 528
f 558 528 506
f 558 506 525
f 559 535 489
f 559 533 558
f 559 489 533
f 559 558 525
f 559 525 530
f 560 536 543
f 560 530 536
f 560 535 559
f 560 559 530
f 560 543 535
f 344 352 557
f 505 344 557
f 327 326 256
f 328 327 256
f 326 325 226
f 256 326 226
f 329 328 262
f 328 256 262
f 325 324 213
f 226 325 213
f 304 329 267
f 329 262 267
f 324 337 206
f 213 324 206
f 305 304 276
f 309 305 276
f 304 267 276
f 336 335 195
f 337 336 195
f 206 337 195
f 310 309 283
f 309 276 283
f 335 334 190
f 195 335 190
f 311 310 291
f 310 283 291
f 334 333 189
f 190 334 189
f 306 311 297
f 311 291 297
f 333 358 185
f 189 333 185
f 307 306 301
f 539 307 301
f 306 297 301
f 185 358 180
f 357 367 180
f 358 357 180
f 539 301 302
f 521 539 302
f 180 367 561
f 367 366 561
f 366 384 562
f 561 366 562
f 521 302 99
f 522 521 99
f 384 383 563
f 562 384 563
f 522 99 109
f 523 522 109
f 524 523 111
f 514 524 111
f 523 109 111
f 382 381 564
f 383 382 564
f 563 383 564
f 381 379 565
f 564 381 565
f 514 111 119
f 515 514 119
f 379 378 566
f 565 379 566
f 516 515 125
f 515 119 125
f 378 377 567
f 566 378 567
f 517 516 137
f 516 125 137
f 567 377 568
f 137 139 518
f 517 137 518
f 568 377 376
f 139 145 519
f 518 139 519
f 568 376 375
f 569 568 375
f 145 156 507
f 519 145 507
f 569 375 374
f 570 569 374
f 156 163 508
f 507 156 508
f 571 570 372
f 570 374 372
f 508 163 509
f 571 372 371
f 163 174 510
f 509 163 510
f 571 371 370
f 572 571 370
f 510 174 511
f 174 187 511
f 572 370 369
f 573 572 369
f 511 187 512
f 187 169 512
f 573 369 351
f 574 573 351
f 169 168 526
f 512 169 526
f 574 351 341
f 575 574 341
f 526 168 527
f 575 341 343
f 527 168 531
f 168 576 531
f 575 343 505
f 577 575 505
f 531 576 532
f 576 578 532
f 577 505 557
f 579 577 557
f 532 578 537
f 578 580 537
f 579 557 556
f 581 579 556
f 537 580 538
f 580 582 538
f 581 556 555
f 583 581 555
f 538 582 540
f 583 555 554
f 582 584 541
f 540 582 541
f 585 583 550
f 583 554 550
f 541 584 542
f 584 586 542
f 587 585 549
f 585 550 549
f 542 586 545
f 586 588 545
f 589 587 548
f 587 549 548
f 545 588 546
f 546 588 547
f 588 589 547
f 589 548 547
f 590 591 592
f 593 590 592
f 591 594 595
f 576 168 170
f 573 596 597
f 594 598 599
f 595 594 599
f 593 592 600
f 596 593 600
f 414 415 601
f 602 414 601
f 598 602 601
f 599 598 601
f 592 591 603
f 591 595 603
f 572 573 604
f 571 572 604
f 573 597 604
f 595 599 605
f 603 595 605
f 597 596 606
f 596 600 606
f 415 416 607
f 416 391 607
f 601 415 607
f 599 601 607
f 605 599 607
f 600 592 608
f 592 603 608
f 606 600 608
f 571 604 609
f 603 605 610
f 604 597 611
f 597 606 611
f 609 604 611
f 391 390 612
f 607 391 612
f 605 607 612
f 610 605 612
f 606 608 613
f 570 571 614
f 569 570 614
f 571 609 614
f 613 608 615
f 608 603 615
f 603 610 615
f 609 611 616
f 610 612 617
f 612 390 617
f 611 606 618
f 606 613 618
f 616 611 618
f 569 614 619
f 613 615 620
f 619 614 621
f 614 609 621
f 609 616 621
f 620 615 622
f 390 392 622
f 617 390 622
f 615 610 622
f 610 617 622
f 616 618 623
f 568 569 624
f 569 619 624
f 613 620 625
f 623 618 625
f 618 613 625
f 619 621 626
f 392 393 627
f 622 392 627
f 620 622 627
f 621 616 628
f 626 621 628
f 616 623 628
f 567 568 629
f 568 624 629
f 623 625 630
f 624 619 631
f 619 626 631
f 630 625 632
f 393 394 632
f 620 627 632
f 625 620 632
f 627 393 632
f 626 628 633
f 567 629 634
f 566 567 634
f 628 623 635
f 633 628 635
f 623 630 635
f 624 631 636
f 629 624 636
f 565 566 637
f 566 634 637
f 394 396 638
f 632 394 638
f 630 632 638
f 631 626 639
f 626 633 639
f 633 635 640
f 639 633 640
f 634 629 641
f 629 636 641
f 638 396 642
f 396 398 642
f 635 630 642
f 640 635 642
f 630 638 642
f 565 637 643
f 564 565 643
f 631 639 644
f 636 631 644
f 634 641 645
f 637 634 645
f 644 639 646
f 639 640 646
f 398 399 647
f 642 398 647
f 640 642 647
f 646 640 647
f 564 643 648
f 563 564 648
f 180 561 181
f 641 636 649
f 636 644 649
f 637 645 650
f 643 637 650
f 644 646 651
f 649 644 651
f 641 649 652
f 645 641 652
f 399 402 653
f 647 399 653
f 646 647 653
f 651 646 653
f 562 563 654
f 563 648 654
f 237 412 234
f 648 643 655
f 643 650 655
f 170 203 656
f 576 170 656
f 652 649 657
f 649 651 657
f 576 656 658
f 578 576 658
f 650 645 659
f 645 652 659
f 203 222 660
f 651 653 661
f 657 651 661
f 402 403 661
f 656 203 660
f 653 402 661
f 561 562 662
f 580 578 663
f 181 561 662
f 582 580 663
f 562 654 662
f 578 658 663
f 652 657 664
f 656 660 665
f 654 648 666
f 648 655 666
f 658 656 665
f 655 650 667
f 665 660 668
f 660 222 668
f 650 659 667
f 584 582 669
f 661 403 670
f 403 406 670
f 582 663 669
f 657 661 670
f 664 657 670
f 658 665 671
f 667 659 672
f 669 663 671
f 663 658 671
f 659 652 672
f 652 664 672
f 664 670 673
f 406 408 673
f 670 406 673
f 665 668 674
f 181 662 675
f 662 654 675
f 192 181 675
f 194 192 675
f 654 666 675
f 655 667 676
f 586 584 677
f 584 669 677
f 666 655 676
f 676 667 678
f 668 222 679
f 222 242 679
f 674 668 679
f 669 671 680
f 667 672 678
f 672 664 681
f 664 673 681
f 677 669 680
f 673 408 681
f 678 672 681
f 194 675 682
f 675 666 682
f 666 676 682
f 680 671 683
f 665 674 683
f 676 678 684
f 671 665 683
f 682 676 684
f 408 409 685
f 586 677 686
f 684 678 685
f 681 408 685
f 678 681 685
f 194 682 687
f 674 679 688
f 683 674 688
f 682 684 687
f 218 194 687
f 409 411 689
f 686 677 690
f 685 409 689
f 677 680 690
f 687 684 689
f 684 685 689
f 248 395 691
f 689 411 692
f 412 237 692
f 688 679 691
f 411 412 692
f 242 246 691
f 218 687 692
f 246 248 691
f 687 689 692
f 679 242 691
f 237 218 692
f 690 680 693
f 680 683 693
f 586 686 694
f 588 586 694
f 589 588 694
f 693 683 695
f 683 688 695
f 686 690 696
f 395 397 697
f 691 395 697
f 695 688 697
f 688 691 697
f 690 693 698
f 696 690 698
f 589 694 699
f 693 695 700
f 698 693 700
f 694 686 701
f 686 696 701
f 397 400 702
f 700 695 702
f 695 697 702
f 697 397 702
f 696 698 703
f 587 589 704
f 589 699 704
f 698 700 705
f 703 698 705
f 699 694 706
f 694 701 706
f 587 704 707
f 585 587 707
f 400 401 708
f 700 702 708
f 705 700 708
f 702 400 708
f 701 696 709
f 696 703 709
f 706 701 709
f 703 705 710
f 704 699 711
f 699 706 711
f 707 704 711
f 401 404 712
f 705 708 712
f 708 401 712
f 710 705 712
f 585 707 713
f 583 585 713
f 706 709 714
f 707 711 715
f 714 709 716
f 709 703 716
f 703 710 716
f 712 404 717
f 404 405 717
f 716 710 717
f 710 712 717
f 581 583 718
f 583 713 718
f 711 706 719
f 706 714 719
f 715 711 719
f 713 707 720
f 707 715 720
f 714 716 721
f 715 719 722
f 405 407 723
f 717 405 723
f 716 717 723
f 721 716 723
f 579 581 724
f 581 718 724
f 713 720 725
f 718 713 725
f 724 718 725
f 722 719 726
f 719 714 726
f 714 721 726
f 720 715 727
f 715 722 727
f 407 410 728
f 726 721 728
f 723 407 728
f 721 723 728
f 577 579 590
f 579 724 590
f 722 726 729
f 727 722 729
f 724 725 730
f 590 724 730
f 730 725 731
f 725 720 731
f 720 727 731
f 410 413 732
f 728 410 732
f 726 728 732
f 729 726 732
f 575 577 593
f 577 590 593
f 731 727 733
f 727 729 733
f 729 732 734
f 413 414 734
f 733 729 734
f 732 413 734
f 590 730 591
f 591 730 594
f 730 731 594
f 574 575 596
f 573 574 596
f 575 593 596
f 594 731 598
f 731 733 598
f 598 733 602
f 734 414 602
f 733 734 602
f 735 494 487
f 736 735 486
f 735 487 486
f 737 736 472
f 736 486 472
f 738 737 471
f 737 472 471
f 738 471 447
f 738 447 739
f 739 447 446
f 739 446 448
f 739 448 484
f 740 477 476
f 741 740 490
f 740 476 490
f 742 741 491
f 741 490 491
f 743 742 496
f 742 491 496
f 743 496 501
f 743 501 744
f 744 501 499
f 744 499 498
f 744 498 494
f 745 456 464
f 746 745 470
f 745 464 470
f 747 746 481
f 746 470 481
f 748 747 492
f 747 481 492
f 748 492 450
f 748 450 749
f 749 450 449
f 749 449 452
f 749 452 477
f 750 469 475
f 751 750 483
f 750 475 483
f 752 751 488
f 751 483 488
f 753 752 495
f 752 488 495
f 753 495 500
f 753 500 754
f 754 500 504
f 754 504 454
f 754 454 456
f 755 493 485
f 756 755 479
f 755 485 479
f 757 756 474
f 756 479 474
f 758 757 467
f 757 474 467
f 758 467 462
f 758 462 759
f 759 462 460
f 759 460 463
f 759 463 469
f 760 484 480
f 761 760 465
f 760 480 465
f 762 761 461
f 761 465 461
f 763 762 445
f 762 461 445
f 763 445 444
f 763 444 764
f 764 444 503
f 764 503 497
f 764 497 493
f 765 766 767
f 768 769 770
f 770 769 771
f 768 770 772
f 773 774 775
f 774 773 776
f 777 778 779
f 778 777 780
f 772 781 782
f 82 783 782
f 783 768 782
f 768 772 782
f 781 784 785
f 784 774 785
f 774 776 785
f 782 781 785
f 776 786 787
f 786 788 787
f 785 776 787
f 780 789 790
f 789 73 790
f 788 778 790
f 778 780 790
f 787 788 790
f 83 82 791
f 82 782 791
f 83 791 792
f 791 782 792
f 782 785 793
f 792 782 793
f 83 792 793
f 787 790 766
f 73 83 794
f 766 790 794
f 790 73 794
f 83 766 794
f 793 785 765
f 785 787 765
f 787 766 765
f 766 83 767
f 793 765 767
f 83 793 767
f 744 494 779
f 743 744 778
f 744 779 778
f 743 778 788
f 742 743 786
f 743 788 786
f 742 786 776
f 741 742 773
f 742 776 773
f 740 741 775
f 477 740 775
f 741 773 775
f 484 61 739
f 59 58 739
f 61 59 739
f 74 73 738
f 58 74 738
f 739 58 738
f 789 780 737
f 73 789 737
f 738 73 737
f 777 779 736
f 780 777 736
f 737 780 736
f 736 779 735
f 735 779 494
f 764 493 65
f 763 764 64
f 764 65 64
f 763 64 75
f 762 763 71
f 763 75 71
f 762 71 62
f 761 762 60
f 762 62 60
f 760 761 61
f 484 760 61
f 761 60 61
f 759 469 69
f 758 759 68
f 759 69 68
f 758 68 79
f 757 758 77
f 758 79 77
f 757 77 66
f 756 757 63
f 757 66 63
f 755 756 65
f 493 755 65
f 756 63 65
f 754 456 771
f 754 771 769
f 753 754 768
f 754 769 768
f 753 768 783
f 752 753 82
f 753 783 82
f 752 82 80
f 751 752 70
f 752 80 70
f 751 70 67
f 750 751 69
f 469 750 69
f 751 67 69
f 749 477 775
f 748 749 774
f 749 775 774
f 748 774 784
f 747 748 781
f 748 784 781
f 747 781 772
f 746 747 770
f 747 772 770
f 745 746 771
f 456 745 771
f 746 770 771
f 422 420 795
f 423 796 797
f 423 422 796
f 427 797 798
f 427 423 797
f 421 36 35
f 421 35 799
f 429 427 798
f 424 799 800
f 424 421 799
f 430 798 801
f 425 800 802
f 430 429 798
f 425 424 800
f 431 801 803
f 431 430 801
f 426 802 804
f 426 425 802
f 434 803 805
f 434 431 803
f 428 804 806
f 435 805 807
f 428 426 804
f 435 434 805
f 438 807 808
f 432 806 809
f 438 435 807
f 432 428 806
f 439 438 808
f 439 808 10
f 12 439 10
f 433 432 809
f 436 809 810
f 436 433 809
f 437 810 811
f 437 436 810
f 440 811 812
f 440 437 811
f 441 440 812
f 441 812 813
f 442 441 813
f 442 813 814
f 443 442 814
f 443 814 815
f 417 443 815
f 418 417 815
f 418 815 816
f 419 816 817
f 419 418 816
f 420 817 795
f 420 419 817
f 422 795 796
f 809 8 6
f 810 809 3
f 811 810 3
f 812 811 3
f 809 6 3
f 812 3 2
f 812 2 54
f 813 812 54
f 800 799 35
f 805 803 807
f 54 52 49
f 814 813 49
f 815 814 49
f 816 815 49
f 35 31 29
f 813 54 49
f 808 807 10
f 802 800 25
f 804 802 25
f 49 47 45
f 800 35 25
f 817 816 45
f 35 29 25
f 816 49 45
f 11 10 15
f 807 803 15
f 10 807 15
f 806 804 21
f 795 817 43
f 804 25 21
f 817 45 43
f 795 43 41
f 796 795 41
f 797 796 41
f 806 21 17
f 19 15 23
f 15 803 23
f 803 801 23
f 809 806 8
f 797 41 39
f 798 797 39
f 806 17 8
f 27 23 33
f 23 801 33
f 801 798 33
f 798 39 33
