# Created by FreeCAD <http://www.freecadweb.org>
v -89.815117 229.133667 233.694092
v -89.217178 229.483673 233.533295
v -89.290154 229.483673 233.381638
v -89.724060 229.133667 233.867966
v -89.888695 229.133667 233.512146
v -89.344315 229.483673 233.222275
v -89.944084 229.133667 233.323853
v -89.378876 229.483673 233.057556
v -86.986282 229.133667 234.578308
v -87.179184 229.483673 233.980698
v -87.320946 229.483673 234.071426
v -86.822174 229.133667 234.470642
v -89.980751 229.133667 233.131027
v -87.160149 229.133667 234.669373
v -87.472610 229.483673 234.144394
v -89.998344 229.133667 232.935547
v -89.393326 229.483673 232.889862
v -87.342110 229.133667 234.742950
v -87.631966 229.483673 234.198563
v -89.996696 229.133667 232.739288
v -89.387459 229.483673 232.721664
v -87.530396 229.133667 234.798340
v -87.796692 229.483673 234.233124
v -89.975807 229.133667 232.544128
v -89.361366 229.483673 232.555389
v -89.935898 229.133667 232.351959
v -89.315414 229.483673 232.393478
v -87.723213 229.133667 234.835007
v -87.918694 229.133667 234.852600
v -87.964378 229.483673 234.247574
v -89.877342 229.133667 232.164627
v -89.250282 229.483673 232.238281
v -88.114960 229.133667 234.850937
v -88.132584 229.483673 234.241714
v -89.800713 229.133667 231.983932
v -88.310112 229.133667 234.830063
v -88.298859 229.483673 234.215607
v -89.706734 229.133667 231.811630
v -89.166924 229.483673 232.092056
v -89.596321 229.133667 231.649353
v -89.066544 229.483673 231.956970
v -88.502281 229.133667 234.790146
v -88.460777 229.483673 234.169662
v -89.470535 229.133667 231.498688
v -88.950607 229.483673 231.834946
v -89.330589 229.133667 231.361084
v -88.820816 229.483673 231.727798
v -88.689621 229.133667 234.731598
v -88.615967 229.483673 234.104538
v -89.177826 229.133667 231.237854
v -88.870308 229.133667 234.654953
v -89.042618 229.133667 234.560989
v -88.762184 229.483673 234.021164
v -89.204887 229.133667 234.450577
v -88.897285 229.483673 233.920792
v -89.355553 229.133667 234.324783
v -89.019302 229.483673 233.804855
v -89.493164 229.133667 234.184830
v -89.126450 229.483673 233.675064
v -89.616394 229.133667 234.032074
v -88.736137 220.704254 231.843994
v -88.001007 221.033676 232.132553
v -88.111984 221.258667 232.511215
v -88.000000 221.483673 232.854248
v -88.000504 221.258667 232.493408
v -87.576614 221.033676 232.269806
v -87.888969 221.258667 232.510910
v -87.313942 221.033676 232.630280
v -87.313324 221.033676 233.076309
v -87.656662 221.258667 232.965271
v -87.263863 220.704254 233.864487
v -87.707779 221.258667 233.065933
v -88.441353 220.671280 231.629196
v -88.295937 220.633240 231.523239
v -87.958572 220.641968 231.505173
v -87.678711 221.258667 232.689987
v -87.821838 221.371170 232.825775
v -88.152878 220.583664 231.418991
v -87.761818 220.682800 231.592453
v -87.132011 220.665924 231.871796
v -86.981857 220.629639 231.938400
v -86.810951 220.641968 232.215591
v -86.833466 220.583664 232.004227
v -86.788155 220.682800 232.429626
v -86.715187 220.665924 233.114716
v -86.697784 220.629639 233.278061
v -86.823654 220.633240 233.543732
v -86.680595 220.583664 233.439484
v -86.969078 220.671280 233.649689
v -87.600319 220.700760 231.664078
v -88.588348 220.695648 231.736313
v -87.436890 220.703262 231.736572
v -87.283760 220.690994 231.804489
v -86.769447 220.700760 232.605301
v -86.750511 220.703262 232.783081
v -87.116074 220.695648 233.756805
v -86.732765 220.690994 232.949661
v -87.208046 221.510468 230.909302
v -87.402901 221.542252 230.884171
v -87.223671 221.542252 230.947662
v -87.086174 221.510468 230.963501
v -86.705811 221.490479 231.139603
v -86.880104 221.490479 231.021011
v -86.905251 221.510468 231.062180
v -87.885040 221.683670 230.857559
v -87.689888 221.683670 230.878433
v -87.780724 221.631912 230.859451
v -87.593590 221.583664 230.868622
v -87.778542 221.583664 230.839584
v -87.965714 221.631912 230.847733
v -87.587219 221.542252 230.837479
v -87.412117 221.583664 230.914581
v -86.490311 221.483673 231.253983
v -86.644402 221.483673 231.121521
v -86.543976 221.490479 231.274719
v -87.104202 221.542252 231.000793
v -86.734871 221.510468 231.178116
v -87.597603 221.631912 230.888184
v -87.497719 221.683670 230.918350
v -87.235657 221.583664 230.977097
v -86.349098 221.483673 231.400116
v -86.396164 221.490479 231.425034
v -86.926842 221.542252 231.097519
v -87.310379 221.683670 230.976898
v -87.417908 221.631912 230.933701
v -86.576668 221.510468 231.310181
v -87.118034 221.583664 231.029404
v -86.221970 221.483673 231.558640
v -86.263802 221.490479 231.589127
v -86.110008 221.483673 231.728226
v -86.759819 221.542252 231.211166
v -87.243187 221.631912 230.995605
v -87.129692 221.683670 231.053543
v -86.432182 221.510468 231.457138
v -86.943413 221.583664 231.124649
v -86.014175 221.483673 231.907410
v -86.154480 221.490479 231.754715
v -86.604744 221.542252 231.340637
v -87.126724 221.631912 231.047394
v -86.302788 221.510468 231.617538
v -86.778969 221.583664 231.236542
v -86.060898 221.490479 231.929688
v -86.463104 221.542252 231.484695
v -86.953827 221.631912 231.141693
v -86.957382 221.683670 231.147507
v -86.795113 221.683670 231.257919
v -86.195915 221.510468 231.779404
v -86.626289 221.583664 231.364014
v -85.935280 221.483673 232.094681
v -85.983864 221.490479 232.112549
v -85.874008 221.483673 232.288437
v -86.336266 221.542252 231.641922
v -86.644447 221.683670 231.383713
v -86.791008 221.631912 231.252487
v -86.104439 221.510468 231.950455
v -86.486832 221.583664 231.505829
v -85.830872 221.483673 232.487000
v -85.924026 221.490479 232.301743
v -86.231499 221.542252 231.800613
v -86.639832 221.631912 231.378708
v -86.029137 221.510468 232.129211
v -86.361954 221.583664 231.660645
v -85.881905 221.490479 232.495651
v -86.141830 221.542252 231.968277
v -86.501747 221.631912 231.519119
v -86.506836 221.683670 231.523666
v -86.383606 221.683670 231.676422
v -85.970642 221.510468 232.314148
v -86.258804 221.583664 231.816879
v -85.857857 221.490479 232.692612
v -85.806236 221.483673 232.688721
v -85.800323 221.483673 232.891830
v -86.068008 221.542252 232.143509
v -86.378098 221.631912 231.672409
v -85.929466 221.510468 232.503693
v -86.170517 221.583664 231.981964
v -85.852074 221.490479 232.890945
v -85.813171 221.483673 233.094635
v -86.010674 221.542252 232.324799
v -86.275940 221.683670 231.840530
v -86.275970 221.631912 231.827103
v -85.905952 221.510468 232.696243
v -86.097839 221.583664 232.154480
v -85.864624 221.490479 233.088974
v -85.970306 221.542252 232.510605
v -86.188553 221.631912 231.990555
v -86.184883 221.683670 232.014404
v -85.900307 221.510468 232.890121
v -86.041382 221.583664 232.332977
v -85.895393 221.490479 233.285004
v -85.844681 221.483673 233.295380
v -86.704391 221.483673 234.632278
v -86.545860 221.483673 234.505157
v -86.734879 221.490479 234.590439
v -85.947258 221.542252 232.699356
v -86.111305 221.683670 232.196350
v -86.116585 221.631912 232.161377
v -85.912575 221.510468 233.083710
v -86.001640 221.583664 232.515915
v -85.894577 221.483673 233.492371
v -85.944115 221.490479 233.477356
v -85.941719 221.542252 232.889420
v -86.055916 221.683670 232.384644
v -86.060692 221.631912 232.338120
v -85.942650 221.510468 233.275330
v -86.818161 221.631912 234.476151
v -86.669411 221.683670 234.347412
v -86.822174 221.683670 234.470642
v -89.295609 221.483673 231.076218
v -89.265121 221.490479 231.118057
v -89.099533 221.490479 231.008728
v -85.978951 221.583664 232.701752
v -89.126022 221.483673 230.964249
v -88.946831 221.483673 230.868423
v -88.924553 221.490479 230.915146
v -86.010384 221.490479 233.664398
v -88.759567 221.483673 230.789536
v -85.962440 221.483673 233.683914
v -89.074844 221.510468 231.050171
v -85.953751 221.542252 233.079178
v -89.236717 221.510468 231.157028
v -89.212326 221.542252 231.190506
v -86.021339 221.631912 232.519257
v -86.019249 221.683670 232.577469
v -88.741692 221.490479 230.838104
v -85.990280 221.510468 233.463364
v -88.903793 221.510468 230.958679
v -86.065826 221.490479 233.789063
v -88.552505 221.490479 230.778275
v -88.565819 221.483673 230.728256
v -86.047684 221.483673 233.868378
v -85.973503 221.583664 232.888870
v -89.053642 221.542252 231.085754
v -85.983231 221.542252 233.267029
v -88.725044 221.510468 230.883377
v -85.998871 221.631912 232.703247
v -88.358604 221.490479 230.736160
v -86.001656 221.683670 232.772949
v -88.367241 221.483673 230.685120
v -88.165535 221.483673 230.660477
v -86.055054 221.510468 233.646194
v -88.885971 221.542252 230.996078
v -86.166763 221.490479 233.974136
v -86.149582 221.483673 234.044189
v -88.540100 221.510468 230.824890
v -85.985344 221.583664 233.075714
v -89.037376 221.583664 231.113052
v -89.193604 221.583664 231.216202
v -86.029922 221.542252 233.451355
v -88.161636 221.490479 230.712097
v -87.962410 221.483673 230.654572
v -86.109253 221.510468 233.768066
v -88.710739 221.542252 230.922256
v -85.993477 221.631912 232.888535
v -86.003304 221.683670 232.969208
v -88.350548 221.510468 230.783707
v -86.285362 221.490479 234.148438
v -86.267273 221.483673 234.209839
v -86.014366 221.583664 233.260651
v -88.872292 221.583664 231.024765
v -87.963295 221.490479 230.706329
v -86.093414 221.542252 233.630585
v -88.529449 221.542252 230.864914
v -86.207932 221.510468 233.949005
v -89.177826 221.683670 231.237854
v -89.013718 221.683670 231.130188
v -89.027145 221.631912 231.130219
v -86.005203 221.631912 233.073532
v -86.024193 221.683670 233.164368
v -89.181839 221.631912 231.232346
v -86.060341 221.583664 233.442139
v -88.158012 221.510468 230.760208
v -86.420471 221.490479 234.310272
v -88.699768 221.583664 230.952087
v -86.399742 221.483673 234.363937
v -86.146545 221.542252 233.750046
v -87.759613 221.483673 230.667419
v -87.765266 221.490479 230.718872
v -86.323860 221.510468 234.119385
v -86.064102 221.683670 233.356537
v -86.033943 221.631912 233.256653
v -88.343636 221.542252 230.824554
v -88.863693 221.631912 231.042801
v -88.839851 221.683670 231.039124
v -86.122856 221.583664 233.618591
v -86.570793 221.490479 234.458084
v -87.964119 221.510468 230.754547
v -88.521271 221.583664 230.895630
v -86.243279 221.542252 233.927399
v -86.122658 221.683670 233.543869
v -86.079460 221.631912 233.436340
v -87.558861 221.483673 230.698929
v -87.569244 221.490479 230.749649
v -86.455940 221.510468 234.277573
v -86.175163 221.583664 233.736221
v -88.154892 221.542252 230.801498
v -88.657890 221.683670 230.965546
v -88.692871 221.631912 230.970840
v -86.356926 221.542252 234.094421
v -87.770538 221.510468 230.766815
v -86.199287 221.683670 233.724564
v -86.141357 221.631912 233.611053
v -86.763283 221.510468 234.551468
v -86.602882 221.510468 234.422073
v -88.338333 221.583664 230.855896
v -87.361877 221.483673 230.748825
v -87.376892 221.490479 230.798370
v -86.270401 221.583664 233.910828
v -87.170334 221.483673 230.816681
v -86.486389 221.542252 234.249496
v -86.193153 221.631912 233.727524
v -86.382294 221.583664 234.075272
v -87.964828 221.542252 230.795975
v -88.469604 221.683670 230.910156
v -88.516136 221.631912 230.914948
v -86.787674 221.542252 234.517990
v -86.630440 221.542252 234.391144
v -86.287453 221.631912 233.900421
v -87.578911 221.510468 230.796906
v -86.293266 221.683670 233.896866
v -86.403679 221.683670 234.059143
v -88.152504 221.583664 230.833191
v -86.509766 221.583664 234.227966
v -87.189857 221.490479 230.864624
v -86.398239 221.631912 234.063248
v -86.529465 221.683670 234.209793
v -86.806396 221.583664 234.492294
v -86.651588 221.583664 234.367416
v -87.775063 221.542252 230.807999
v -86.524452 221.631912 234.214417
v -88.276787 221.683670 230.873489
v -88.334991 221.631912 230.875595
v -86.664879 221.631912 234.352493
v -87.390884 221.510468 230.844528
v -86.985870 221.483673 230.901932
v -87.065186 221.490479 230.920074
v -87.965370 221.583664 230.827744
v -88.081306 221.683670 230.855896
v -88.151001 221.631912 230.853119
v -86.810059 221.483673 231.003830
v -90.114380 219.352158 232.873306
v -89.998344 219.283676 232.935547
v -89.944084 219.283676 233.323853
v -89.975807 219.283676 232.544128
v -85.096321 221.483673 230.402985
v -84.928848 221.483673 230.616379
v -85.011436 221.211716 230.676559
v -85.109734 220.947891 230.748184
v -89.844635 219.555206 231.301971
v -89.470535 219.283676 231.498688
v -89.706734 219.283676 231.811630
v -89.177826 219.283676 231.237854
v -89.815117 219.283676 233.694092
v -89.616394 219.283676 234.032074
v -89.815475 219.437683 234.177139
v -85.278595 221.483673 230.202087
v -89.503227 220.430176 229.957901
v -90.237869 221.483673 229.783096
v -90.013069 221.483673 229.631271
v -90.005013 219.609146 234.315247
v -89.778023 221.483673 229.495880
v -88.777527 220.826736 229.429092
v -85.223213 220.693558 230.830872
v -90.891594 220.044235 233.439651
v -90.184021 219.797134 234.445694
v -90.506714 220.218719 234.680832
v -90.648705 220.450073 234.784286
v -90.351547 220.000687 234.567764
v -90.718155 219.957672 231.938477
v -89.877342 219.283676 232.164627
v -90.296547 220.430176 230.535965
v -90.652161 221.483673 230.132843
v -90.451256 221.483673 229.950577
v -91.459671 220.998032 233.853592
v -91.358368 221.483673 234.632263
v -91.476654 221.483673 234.388153
v -91.577225 221.483673 234.136230
v -91.659569 221.483673 233.877762
v -91.723259 221.483673 233.614090
v -91.767975 221.483673 233.346527
v -90.776787 220.693558 234.877625
v -91.423264 220.712006 232.452271
v -91.793495 221.483673 233.076477
v -91.799683 221.483673 232.805283
v -91.786507 221.483673 232.534348
v -91.754044 221.483673 232.265030
v -91.702438 221.483673 231.998718
v -91.631973 221.483673 231.736771
v -91.022247 220.826736 231.064758
v -91.542999 221.483673 231.480515
v -91.435974 221.483673 231.231262
v -91.311440 221.483673 230.990280
v -91.170029 221.483673 230.758789
v -91.012459 221.483673 230.537979
v -86.644447 219.283676 231.383713
v -85.815979 219.797134 231.262802
v -85.994987 219.609146 231.393250
v -90.839546 221.483673 230.328979
v -86.184525 219.437683 231.531357
v -86.383606 219.283676 231.676422
v -88.823723 220.100937 229.968094
v -88.038986 219.957672 229.986237
v -88.912514 219.555206 230.622757
v -89.625160 219.907059 230.552078
v -85.988785 220.998032 229.867096
v -86.377014 221.483673 229.418274
v -86.136032 221.483673 229.542816
v -85.904541 221.483673 229.684219
v -85.683739 221.483673 229.841782
v -90.495010 220.100937 231.185928
v -85.474731 221.483673 230.014709
v -85.351295 220.450073 230.924194
v -86.556862 220.044235 230.281036
v -85.493286 220.218719 231.027664
v -85.648453 220.000687 231.140732
v -86.957382 219.283676 231.147507
v -87.334084 219.352158 230.847382
v -87.310379 219.283676 230.976898
v -87.689888 219.283676 230.878433
v -87.333878 220.712006 229.472443
v -87.951035 221.483673 229.054565
v -87.680092 221.483673 229.067734
v -91.222969 221.483673 234.867325
v -90.988564 221.211716 235.031937
v -91.071152 221.483673 235.092117
v -87.410782 221.483673 229.100204
v -90.890266 220.947891 234.960312
v -87.144470 221.483673 229.151810
v -86.882523 221.483673 229.222275
v -86.626266 221.483673 229.311249
v -88.081306 219.283676 230.855896
v -88.469604 219.283676 230.910156
v -89.533905 221.483673 229.377594
v -89.281975 221.483673 229.277023
v -89.023514 221.483673 229.194687
v -88.759834 221.483673 229.130997
v -88.492287 221.483673 229.086273
v -88.222229 221.483673 229.060745
v -88.839851 219.283676 231.039124
v -89.470535 221.683670 231.498688
v -89.204887 221.683670 234.450577
v -89.042618 221.683670 234.560989
v -89.596321 221.683670 231.649353
v -89.330589 221.683670 231.361084
v -89.355553 221.683670 234.324783
v -89.493164 221.683670 234.184830
v -86.986282 221.683670 234.578308
v -89.616394 221.683670 234.032074
v -89.724060 221.683670 233.867966
v -87.160149 221.683670 234.669373
v -89.815117 221.683670 233.694092
v -87.342110 221.683670 234.742950
v -87.530396 221.683670 234.798340
v -89.888695 221.683670 233.512146
v -89.944084 221.683670 233.323853
v -87.723213 221.683670 234.835007
v -89.980751 221.683670 233.131027
v -87.918694 221.683670 234.852600
v -89.998344 221.683670 232.935547
v -88.114960 221.683670 234.850937
v -89.996696 221.683670 232.739288
v -88.310112 221.683670 234.830063
v -89.975807 221.683670 232.544128
v -88.502281 221.683670 234.790146
v -89.935898 221.683670 232.351959
v -88.689621 221.683670 234.731598
v -89.877342 221.683670 232.164627
v -88.870308 221.683670 234.654953
v -89.800713 221.683670 231.983932
v -89.706734 221.683670 231.811630
v -86.403679 229.133667 234.059143
v -86.669411 229.133667 234.347412
v -86.644447 229.133667 231.383713
v -86.506836 229.133667 231.523666
v -89.013718 229.133667 231.130188
v -86.383606 229.133667 231.676422
v -86.275940 229.133667 231.840530
v -86.184883 229.133667 232.014404
v -88.839851 229.133667 231.039124
v -88.657890 229.133667 230.965546
v -88.469604 229.133667 230.910156
v -86.111305 229.133667 232.196350
v -88.276787 229.133667 230.873489
v -86.055916 229.133667 232.384644
v -86.019249 229.133667 232.577469
v -86.001656 229.133667 232.772949
v -88.081306 229.133667 230.855896
v -87.885040 229.133667 230.857559
v -86.003304 229.133667 232.969208
v -86.024193 229.133667 233.164368
v -87.689888 229.133667 230.878433
v -87.497719 229.133667 230.918350
v -86.064102 229.133667 233.356537
v -86.122658 229.133667 233.543869
v -87.310379 229.133667 230.976898
v -86.199287 229.133667 233.724564
v -87.129692 229.133667 231.053543
v -86.293266 229.133667 233.896866
v -86.957382 229.133667 231.147507
v -86.795113 229.133667 231.257919
v -86.529465 229.133667 234.209793
v -87.530396 219.283676 234.798340
v -87.918694 219.283676 234.852600
v -87.847122 219.283676 234.289505
v -87.661095 219.283676 234.257278
v -87.414764 219.283676 231.534836
v -87.247551 219.283676 231.622513
v -88.035774 219.283676 234.297180
v -89.267502 219.283676 233.544739
v -89.166534 219.283676 233.704269
v -89.045601 219.283676 233.849258
v -89.355553 219.283676 234.324783
v -87.591988 219.283676 231.469742
v -88.850021 219.283676 231.687714
v -88.995010 219.283676 231.808640
v -88.690491 219.283676 231.586746
v -86.024193 219.283676 233.164368
v -86.122658 219.283676 233.543869
v -86.615494 219.283676 233.262253
v -86.574081 219.283676 233.078049
v -88.310112 219.283676 234.830063
v -86.001656 219.283676 232.772949
v -86.557068 219.283676 232.890015
v -88.223808 219.283676 234.280167
v -87.776192 219.283676 231.428329
v -89.346786 219.283676 233.373383
v -88.408012 219.283676 234.238754
v -86.293266 219.283676 233.896866
v -86.680595 219.283676 233.439484
v -89.122978 219.283676 231.947464
v -87.964226 219.283676 231.411316
v -86.055916 219.283676 232.384644
v -86.564743 219.283676 232.701370
v -89.403023 219.283676 233.193146
v -89.435257 219.283676 233.007126
v -86.768272 219.283676 233.606689
v -89.231728 219.283676 232.101807
v -89.319405 219.283676 232.269012
v -88.152878 219.283676 231.418991
v -86.596977 219.283676 232.515335
v -88.585236 219.283676 234.173660
v -88.689621 219.283676 234.731598
v -89.442932 219.283676 232.818481
v -86.529465 219.283676 234.209793
v -86.877022 219.283676 233.761032
v -89.384506 219.283676 232.446243
v -86.653214 219.283676 232.335114
v -86.184883 219.283676 232.014404
v -89.425919 219.283676 232.630447
v -87.004990 219.283676 233.899857
v -86.822174 219.283676 234.470642
v -86.732498 219.283676 232.163757
v -88.338905 219.283676 231.451218
v -88.519135 219.283676 231.507462
v -88.752449 219.283676 234.085983
v -89.042618 219.283676 234.560989
v -88.906784 219.283676 233.977234
v -87.149979 219.283676 234.020782
v -86.833466 219.283676 232.004227
v -87.160149 219.283676 234.669373
v -87.309509 219.283676 234.121750
v -86.954399 219.283676 231.859238
v -87.480865 219.283676 234.201035
v -87.093216 219.283676 231.731262
v -87.087486 219.555206 235.085739
v -87.222473 220.826736 236.279404
v -86.221977 221.483673 236.212616
v -86.466095 221.483673 236.330902
v -86.718025 221.483673 236.431473
v -86.976486 221.483673 236.513809
v -87.240166 221.483673 236.577499
v -87.507713 221.483673 236.622223
v -87.777771 221.483673 236.647751
v -88.048965 221.483673 236.653931
v -86.496773 220.430176 235.750595
v -87.961014 219.957672 235.722260
v -88.666122 220.712006 236.236053
v -88.319908 221.483673 236.640762
v -88.589218 221.483673 236.608292
v -88.855530 221.483673 236.556686
v -89.117477 221.483673 236.486221
v -89.373734 221.483673 236.397247
v -89.622986 221.483673 236.290222
v -88.665916 219.352158 234.861115
v -89.443138 220.044235 235.427444
v -90.011215 220.998032 235.841400
v -90.721405 221.483673 235.506409
v -89.863968 221.483673 236.165680
v -90.095459 221.483673 236.024277
v -90.316261 221.483673 235.866714
v -90.525269 221.483673 235.693787
v -85.504990 220.100937 234.522568
v -84.977753 220.826736 234.643738
v -85.703453 220.430176 235.172531
v -85.281845 219.957672 233.770020
v -86.155365 219.555206 234.406525
v -86.374840 219.907059 235.156418
v -87.176277 220.100937 235.740402
v -90.903679 221.483673 235.305511
v -84.368027 221.483673 233.971725
v -84.457001 221.483673 234.227982
v -84.564026 221.483673 234.477234
v -84.688560 221.483673 234.718216
v -84.829971 221.483673 234.949707
v -84.987541 221.483673 235.170517
v -85.160454 221.483673 235.379517
v -85.347839 221.483673 235.575653
v -84.576736 220.712006 233.256226
v -84.232025 221.483673 232.361969
v -84.206505 221.483673 232.632019
v -84.200317 221.483673 232.903214
v -84.213493 221.483673 233.174149
v -84.245956 221.483673 233.443466
v -84.297562 221.483673 233.709778
v -84.777031 221.483673 230.841171
v -84.540329 220.998032 231.854904
v -84.641632 221.483673 231.076233
v -84.523346 221.483673 231.320343
v -84.422775 221.483673 231.572266
v -84.340431 221.483673 231.830734
v -84.276741 221.483673 232.094406
v -85.548744 221.483673 235.757919
v -85.762131 221.483673 235.925400
v -85.108406 220.044235 232.268845
v -85.986931 221.483673 236.077225
v -85.885620 219.352158 232.835175
v -89.650902 221.483673 234.308380
v -89.778030 221.483673 234.149857
v -86.873978 221.483673 234.744232
v -87.053169 221.483673 234.840073
v -89.509689 221.483673 234.454514
v -89.355598 221.483673 234.586975
v -87.240433 221.483673 234.918961
v -87.434181 221.483673 234.980240
v -89.189941 221.483673 234.704666
v -87.632759 221.483673 235.023376
v -89.014130 221.483673 234.806564
v -87.834465 221.483673 235.048004
v -88.829666 221.483673 234.891815
v -88.037590 221.483673 235.053925
v -88.638123 221.483673 234.959671
v -88.240387 221.483673 235.041077
v -88.441139 221.483673 235.009567
v -89.454140 221.483673 231.203339
v -89.600258 221.483673 231.344559
v -89.732727 221.483673 231.498657
v -89.850418 221.483673 231.664307
v -89.952316 221.483673 231.840118
v -90.037560 221.483673 232.024582
v -90.105423 221.483673 232.216125
v -90.155319 221.483673 232.413116
v -90.186829 221.483673 232.613861
v -90.199677 221.483673 232.816666
v -90.193764 221.483673 233.019775
v -90.169128 221.483673 233.221497
v -90.125992 221.483673 233.420059
v -90.064720 221.483673 233.613815
v -89.985825 221.483673 233.801086
v -89.889992 221.483673 233.980270
v -88.412781 221.542252 234.871017
v -88.224937 221.542252 234.900497
v -88.406410 221.583664 234.839874
v -88.221458 221.583664 234.868912
v -88.791954 221.510468 234.799194
v -88.609116 221.510468 234.863968
v -88.776329 221.542252 234.760834
v -88.597099 221.542252 234.824326
v -88.913826 221.510468 234.744995
v -89.294189 221.490479 234.568893
v -89.119896 221.490479 234.687485
v -89.094749 221.510468 234.646317
v -88.934814 221.490479 234.788422
v -88.219276 221.631912 234.849045
v -88.034286 221.631912 234.860764
v -88.034630 221.583664 234.880753
v -88.587883 221.583664 234.793915
v -89.456024 221.490479 234.433777
v -88.895798 221.542252 234.707703
v -89.265129 221.510468 234.530380
v -88.402397 221.631912 234.820297
v -88.764343 221.583664 234.731400
v -89.603836 221.490479 234.283463
v -89.073158 221.542252 234.610977
v -88.582092 221.631912 234.774796
v -89.423332 221.510468 234.398315
v -88.881966 221.583664 234.679077
v -89.736198 221.490479 234.119370
v -89.240181 221.542252 234.497330
v -88.756813 221.631912 234.712891
v -89.567818 221.510468 234.251358
v -89.056587 221.583664 234.583847
v -89.845520 221.490479 233.953781
v -89.395256 221.542252 234.367859
v -88.873276 221.631912 234.661102
v -89.697212 221.510468 234.090958
v -89.221031 221.583664 234.471954
v -89.939102 221.490479 233.778809
v -89.536896 221.542252 234.223801
v -89.046173 221.631912 234.566803
v -89.804085 221.510468 233.929092
v -89.373711 221.583664 234.344482
v -90.016136 221.490479 233.595947
v -89.663734 221.542252 234.066574
v -89.208992 221.631912 234.456009
v -89.895561 221.510468 233.758041
v -89.513168 221.583664 234.202667
v -90.075974 221.490479 233.406754
v -89.768501 221.542252 233.907883
v -89.360168 221.631912 234.329788
v -89.970863 221.510468 233.579285
v -89.638046 221.583664 234.047852
v -90.118095 221.490479 233.212845
v -89.858170 221.542252 233.740219
v -89.498253 221.631912 234.189377
v -90.029358 221.510468 233.394348
v -89.741196 221.583664 233.891617
v -90.142143 221.490479 233.015884
v -89.931992 221.542252 233.564987
v -89.621902 221.631912 234.036087
v -90.070534 221.510468 233.204803
v -89.829483 221.583664 233.726532
v -90.147926 221.490479 232.817551
v -89.989326 221.542252 233.383698
v -89.724030 221.631912 233.881393
v -90.094048 221.510468 233.012253
v -89.902161 221.583664 233.554016
v -90.135376 221.490479 232.619522
v -90.029694 221.542252 233.197876
v -89.811447 221.631912 233.717941
v -90.099693 221.510468 232.818375
v -89.958618 221.583664 233.375519
v -90.104607 221.490479 232.423492
v -90.052742 221.542252 233.009140
v -89.883415 221.631912 233.547119
v -90.087425 221.510468 232.624786
v -89.998360 221.583664 233.192581
v -90.055885 221.490479 232.231140
v -86.900467 221.490479 234.699768
v -87.075447 221.490479 234.793350
v -90.058281 221.542252 232.819077
v -89.939308 221.631912 233.370377
v -86.925156 221.510468 234.658325
v -87.258308 221.490479 234.870392
v -90.057350 221.510468 232.433167
v -90.021049 221.583664 233.006744
v -87.096207 221.510468 234.749802
v -87.447495 221.490479 234.930222
v -89.989616 221.490479 232.044098
v -90.046249 221.542252 232.629318
v -86.946358 221.542252 234.622742
v -89.978661 221.631912 233.189240
v -87.274956 221.510468 234.825119
v -90.009720 221.510468 232.245132
v -87.641396 221.490479 234.972336
v -89.934174 221.490479 231.919434
v -87.114029 221.542252 234.712418
v -90.026497 221.583664 232.819626
v -87.459900 221.510468 234.883606
v -86.962624 221.583664 234.595444
v -90.016769 221.542252 232.441467
v -90.001129 221.631912 233.005249
v -87.838364 221.490479 234.996399
v -89.944946 221.510468 232.062302
v -87.289261 221.542252 234.786240
v -89.833237 221.490479 231.734344
v -90.014656 221.583664 232.632782
v -87.649452 221.510468 234.924789
v -89.970078 221.542252 232.257141
v -87.127708 221.583664 234.683731
v -88.036705 221.490479 235.002167
v -89.890747 221.510468 231.940430
v -87.470551 221.542252 234.843582
v -90.006523 221.631912 232.819962
v -86.972855 221.631912 234.578278
v -89.714638 221.490479 231.560059
v -87.841988 221.510468 234.948288
v -89.985634 221.583664 232.447845
v -87.300232 221.583664 234.756409
v -89.906586 221.542252 232.077911
v -88.234734 221.490479 234.989624
v -89.792068 221.510468 231.759491
v -89.994797 221.631912 232.634964
v -87.656364 221.542252 234.883942
v -87.136307 221.631912 234.665695
v -89.939659 221.583664 232.266357
v -89.579529 221.490479 231.398224
v -88.035881 221.510468 234.953934
v -89.853455 221.542252 231.958450
v -87.478729 221.583664 234.812866
v -89.676140 221.510468 231.589111
v -88.430756 221.490479 234.958847
v -89.966057 221.631912 232.451843
v -89.877144 221.583664 232.089905
v -87.845108 221.542252 234.906998
v -89.429207 221.490479 231.250412
v -87.307129 221.631912 234.737656
v -89.756721 221.542252 231.781097
v -88.229462 221.510468 234.941681
v -89.920540 221.631912 232.272156
v -87.661667 221.583664 234.852600
v -89.544060 221.510468 231.430923
v -89.824837 221.583664 231.972275
v -88.623108 221.490479 234.910126
v -89.643074 221.542252 231.614075
v -88.035172 221.542252 234.912521
v -89.858643 221.631912 232.097443
v -87.483864 221.631912 234.793549
v -89.397118 221.510468 231.286423
v -89.729599 221.583664 231.797653
v -88.421089 221.510468 234.911591
v -89.513611 221.542252 231.458984
v -87.847496 221.583664 234.875290
v -89.806847 221.631912 231.980972
v -89.617706 221.583664 231.633224
v -88.810143 221.490479 234.843872
v -89.369560 221.542252 231.317352
v -87.665009 221.631912 234.832901
v -89.712547 221.631912 231.808075
v -89.490234 221.583664 231.480530
v -89.601761 221.631912 231.645248
v -89.348412 221.583664 231.341080
v -89.475548 221.631912 231.494080
v -89.335121 221.631912 231.356003
v -87.848999 221.631912 234.855377
v -89.157875 219.306366 232.151306
v -88.996193 219.322662 232.033493
v -88.834328 219.331680 231.915543
v -88.672249 219.332565 231.797440
v -88.542343 219.327255 231.702789
v -88.412369 219.317032 231.608078
v -88.282494 219.302353 231.513443
v -89.187767 219.306427 233.504929
v -89.209000 219.322723 233.305588
v -89.230232 219.331711 233.106247
v -89.251465 219.332550 232.906906
v -89.268448 219.327240 232.747437
v -89.285431 219.317032 232.587952
v -89.302422 219.302353 232.428482
v -88.030373 219.306427 234.208221
v -88.213631 219.322723 234.126938
v -88.396881 219.331711 234.045654
v -88.580132 219.332550 233.964371
v -88.726730 219.327240 233.899353
v -88.873329 219.317032 233.834320
v -89.019928 219.302353 233.769302
v -86.842659 219.306412 233.557571
v -87.005074 219.322723 233.675919
v -87.167503 219.331726 233.794281
v -87.329651 219.332535 233.912430
v -87.459190 219.327194 234.006821
v -87.588608 219.316971 234.101120
v -87.717911 219.302307 234.195358
v -86.812233 219.306427 232.203568
v -86.791000 219.322723 232.402908
v -86.769768 219.331711 232.602249
v -86.748535 219.332550 232.801590
v -86.731552 219.327240 232.961060
v -86.714569 219.317032 233.120529
v -86.697578 219.302353 233.280014
v -87.969627 219.306427 231.500275
v -87.786369 219.322723 231.581558
v -87.603119 219.331711 231.662842
v -87.419868 219.332550 231.744125
v -87.273270 219.327240 231.809143
v -87.126671 219.317032 231.874176
v -86.980072 219.302353 231.939194
v -87.998993 221.033676 233.575928
v -87.888016 221.258667 233.197281
v -88.423386 221.033676 233.438690
v -87.999496 221.258667 233.215088
v -88.686058 221.033676 233.078217
v -88.686676 221.033676 232.632187
v -88.360840 221.258667 232.854752
v -88.343338 221.258667 232.743225
v -88.292221 221.258667 232.642563
v -88.081688 221.371170 233.015121
v -87.560112 220.671432 234.080368
v -87.704979 220.633194 234.185928
v -88.041428 220.641968 234.203323
v -88.254799 221.258667 233.109756
v -87.847122 220.583664 234.289505
v -88.238182 220.682800 234.116043
v -88.867989 220.665924 233.836700
v -89.018143 220.629639 233.770081
v -89.189049 220.641968 233.492905
v -89.166534 220.583664 233.704269
v -89.211845 220.682800 233.278870
v -89.284813 220.665924 232.593781
v -89.302216 220.629639 232.430435
v -89.177254 220.633194 232.165436
v -89.319405 220.583664 232.269012
v -89.032387 220.671432 232.059875
v -88.399681 220.700760 234.044418
v -87.412338 220.695786 233.972687
v -88.563110 220.703262 233.971924
v -88.716240 220.690994 233.904007
v -89.230553 220.700760 233.103195
v -89.249489 220.703262 232.925415
v -88.884621 220.695786 231.952194
v -89.267235 220.690994 232.758835
v -86.782822 229.483673 232.175201
v -86.709846 229.483673 232.326859
v -86.655685 229.483673 232.486221
v -86.621124 229.483673 232.650940
v -88.679054 229.483673 231.637070
v -88.527390 229.483673 231.564102
v -86.606674 229.483673 232.818619
v -88.368034 229.483673 231.509933
v -86.612541 229.483673 232.986832
v -88.203308 229.483673 231.475372
v -86.638634 229.483673 233.153107
v -86.684586 229.483673 233.315018
v -88.035622 229.483673 231.460922
v -86.749718 229.483673 233.470215
v -87.867416 229.483673 231.466782
v -87.701141 229.483673 231.492889
v -86.833076 229.483673 233.616425
v -86.933456 229.483673 233.751526
v -87.539223 229.483673 231.538834
v -87.049393 229.483673 233.873550
v -87.384033 229.483673 231.603958
v -87.237816 229.483673 231.687332
v -87.102715 229.483673 231.787704
v -86.980698 229.483673 231.903641
v -86.873550 229.483673 232.033432
f 1 2 3
f 1 4 2
f 5 3 6
f 5 1 3
f 7 6 8
f 7 5 6
f 9 10 11
f 9 12 10
f 13 7 8
f 14 11 15
f 16 8 17
f 14 9 11
f 16 13 8
f 18 15 19
f 18 14 15
f 20 17 21
f 20 16 17
f 22 19 23
f 24 21 25
f 22 18 19
f 24 20 21
f 26 25 27
f 28 22 23
f 26 24 25
f 29 23 30
f 31 27 32
f 31 26 27
f 29 28 23
f 33 30 34
f 35 31 32
f 33 29 30
f 36 34 37
f 38 32 39
f 36 33 34
f 38 35 32
f 40 39 41
f 42 37 43
f 40 38 39
f 42 36 37
f 44 41 45
f 44 40 41
f 46 45 47
f 48 43 49
f 46 44 45
f 48 42 43
f 50 46 47
f 51 48 49
f 52 51 49
f 52 49 53
f 54 53 55
f 54 52 53
f 56 55 57
f 56 54 55
f 58 57 59
f 58 56 57
f 60 58 59
f 4 59 2
f 4 60 59
f 61 62 63
f 64 63 65
f 63 62 65
f 62 66 67
f 65 62 67
f 64 65 67
f 68 69 70
f 71 64 72
f 64 70 72
f 70 69 72
f 69 71 72
f 73 74 75
f 66 68 76
f 67 66 76
f 68 70 76
f 70 64 77
f 75 74 78
f 76 70 77
f 64 67 77
f 67 76 77
f 73 75 79
f 80 81 82
f 82 81 83
f 80 82 84
f 85 86 87
f 87 86 88
f 85 87 89
f 79 90 62
f 61 91 62
f 91 73 62
f 73 79 62
f 90 92 66
f 92 93 66
f 93 80 66
f 62 90 66
f 80 84 66
f 84 94 68
f 94 95 68
f 66 84 68
f 89 96 69
f 96 71 69
f 95 97 69
f 97 85 69
f 68 95 69
f 85 89 69
f 64 61 63
f 98 99 100
f 101 98 100
f 102 103 104
f 103 101 104
f 105 106 107
f 108 109 107
f 110 105 107
f 109 110 107
f 111 108 112
f 99 111 112
f 100 99 112
f 113 114 115
f 114 102 115
f 101 100 116
f 104 101 116
f 102 104 117
f 107 106 118
f 108 107 118
f 106 119 118
f 112 108 118
f 116 100 120
f 100 112 120
f 121 113 122
f 113 115 122
f 117 104 123
f 104 116 123
f 119 124 125
f 118 119 125
f 112 118 125
f 120 112 125
f 102 117 126
f 115 102 126
f 122 115 126
f 116 120 127
f 123 116 127
f 128 121 129
f 130 128 129
f 121 122 129
f 117 123 131
f 127 120 132
f 124 133 132
f 120 125 132
f 125 124 132
f 122 126 134
f 129 122 134
f 131 123 135
f 123 127 135
f 136 130 137
f 130 129 137
f 126 117 138
f 134 126 138
f 117 131 138
f 127 132 139
f 132 133 139
f 135 127 139
f 129 134 140
f 131 135 141
f 136 137 142
f 134 138 143
f 140 134 143
f 139 133 144
f 133 145 144
f 145 146 144
f 135 139 144
f 141 135 144
f 137 129 147
f 129 140 147
f 142 137 147
f 138 131 148
f 131 141 148
f 143 138 148
f 149 136 150
f 136 142 150
f 151 149 150
f 140 143 152
f 147 140 152
f 146 153 154
f 144 146 154
f 141 144 154
f 142 147 155
f 143 148 156
f 152 143 156
f 157 151 158
f 151 150 158
f 155 147 159
f 147 152 159
f 141 154 160
f 156 148 160
f 148 141 160
f 154 153 160
f 142 155 161
f 150 142 161
f 152 156 162
f 159 152 162
f 157 158 163
f 155 159 164
f 156 160 165
f 153 166 165
f 166 167 165
f 162 156 165
f 160 153 165
f 150 161 168
f 158 150 168
f 164 159 169
f 159 162 169
f 157 163 170
f 171 157 170
f 172 171 170
f 155 164 173
f 161 155 173
f 162 165 174
f 165 167 174
f 169 162 174
f 158 168 175
f 163 158 175
f 164 169 176
f 172 170 177
f 178 172 177
f 161 173 179
f 175 168 179
f 168 161 179
f 167 180 181
f 169 174 181
f 174 167 181
f 176 169 181
f 170 163 182
f 177 170 182
f 163 175 182
f 164 176 183
f 173 164 183
f 179 173 183
f 178 177 184
f 182 175 185
f 175 179 185
f 181 180 186
f 180 187 186
f 176 181 186
f 177 182 188
f 179 183 189
f 185 179 189
f 178 184 190
f 191 178 190
f 192 193 194
f 182 185 195
f 188 182 195
f 187 196 197
f 183 176 197
f 186 187 197
f 176 186 197
f 189 183 197
f 184 177 198
f 177 188 198
f 185 189 199
f 195 185 199
f 200 191 201
f 191 190 201
f 188 195 202
f 196 203 204
f 197 196 204
f 189 197 204
f 199 189 204
f 184 198 205
f 206 207 208
f 190 184 205
f 209 210 211
f 202 195 212
f 213 209 211
f 214 213 211
f 214 211 215
f 195 199 212
f 200 201 216
f 217 214 215
f 218 200 216
f 211 210 219
f 188 202 220
f 215 211 219
f 210 221 219
f 221 222 219
f 205 198 220
f 198 188 220
f 199 204 223
f 203 224 223
f 212 199 223
f 217 215 225
f 204 203 223
f 190 205 226
f 215 219 227
f 201 190 226
f 218 216 228
f 217 225 229
f 230 217 229
f 231 218 228
f 220 202 232
f 219 222 233
f 202 212 232
f 226 205 234
f 229 225 235
f 225 215 235
f 205 220 234
f 215 227 235
f 212 223 236
f 232 212 236
f 230 229 237
f 224 238 236
f 223 224 236
f 239 230 237
f 240 239 237
f 228 216 241
f 201 226 241
f 216 201 241
f 219 233 242
f 227 219 242
f 231 228 243
f 244 231 243
f 229 235 245
f 234 220 246
f 242 233 247
f 233 222 247
f 220 232 246
f 222 248 247
f 226 234 249
f 240 237 250
f 251 240 250
f 243 228 252
f 228 241 252
f 235 227 253
f 232 236 254
f 227 242 253
f 246 232 254
f 238 255 254
f 250 237 256
f 236 238 254
f 229 245 256
f 244 243 257
f 258 244 257
f 237 229 256
f 234 246 259
f 242 247 260
f 253 242 260
f 249 234 259
f 251 250 261
f 241 226 262
f 252 241 262
f 226 249 262
f 245 235 263
f 235 253 263
f 243 252 264
f 265 266 267
f 246 254 268
f 255 269 268
f 248 270 267
f 259 246 268
f 260 247 267
f 254 255 268
f 270 265 267
f 247 248 267
f 249 259 271
f 250 256 272
f 258 257 273
f 263 253 274
f 253 260 274
f 275 258 273
f 252 262 276
f 277 251 278
f 264 252 276
f 251 261 278
f 257 243 279
f 243 264 279
f 269 280 281
f 272 256 282
f 259 268 281
f 245 263 282
f 268 269 281
f 256 245 282
f 271 259 281
f 274 260 283
f 266 284 283
f 267 266 283
f 262 249 285
f 260 267 283
f 249 271 285
f 276 262 285
f 194 193 286
f 261 250 287
f 275 273 286
f 250 272 287
f 193 275 286
f 263 274 288
f 264 276 289
f 282 263 288
f 280 290 291
f 281 280 291
f 271 281 291
f 292 277 293
f 273 257 294
f 257 279 294
f 286 273 294
f 277 278 293
f 276 285 295
f 289 276 295
f 287 272 296
f 272 282 296
f 284 297 298
f 274 283 298
f 288 274 298
f 279 264 299
f 264 289 299
f 283 284 298
f 293 278 300
f 290 301 302
f 278 261 300
f 291 290 302
f 285 271 302
f 271 291 302
f 261 287 300
f 295 285 302
f 303 194 304
f 286 294 304
f 194 286 304
f 282 288 305
f 296 282 305
f 306 292 307
f 289 295 308
f 309 306 307
f 279 299 310
f 304 294 310
f 292 293 307
f 294 279 310
f 308 295 311
f 295 302 311
f 302 301 311
f 299 289 312
f 287 296 313
f 297 314 315
f 298 297 315
f 288 298 315
f 289 308 312
f 305 288 315
f 316 303 317
f 304 310 317
f 303 304 317
f 311 301 318
f 293 300 319
f 308 311 318
f 301 320 318
f 320 321 318
f 296 305 322
f 313 296 322
f 317 310 323
f 299 312 323
f 310 299 323
f 309 307 324
f 308 318 325
f 312 308 325
f 318 321 325
f 321 326 325
f 327 316 328
f 316 317 328
f 317 323 328
f 300 287 329
f 287 313 329
f 323 312 330
f 312 325 330
f 319 300 329
f 314 331 332
f 325 326 330
f 315 314 332
f 328 323 330
f 305 315 332
f 206 327 333
f 322 305 332
f 327 328 333
f 207 206 333
f 326 207 333
f 330 326 333
f 328 330 333
f 324 307 334
f 307 293 334
f 293 319 334
f 335 309 336
f 309 324 336
f 313 322 337
f 319 329 111
f 331 338 339
f 332 331 339
f 322 332 339
f 337 322 339
f 324 334 98
f 336 324 98
f 340 335 103
f 335 336 103
f 329 313 109
f 313 337 109
f 111 329 109
f 98 334 99
f 334 319 99
f 319 111 99
f 336 98 101
f 103 336 101
f 338 105 110
f 339 338 110
f 337 339 110
f 109 337 110
f 114 340 102
f 340 103 102
f 111 109 108
f 341 342 343
f 341 344 342
f 345 346 347
f 348 345 347
f 349 350 351
f 349 352 350
f 353 354 355
f 356 345 348
f 357 358 359
f 360 353 355
f 357 359 361
f 357 361 362
f 363 356 348
f 364 341 343
f 364 353 365
f 365 353 360
f 364 343 353
f 364 366 367
f 364 368 366
f 364 365 368
f 369 344 341
f 369 341 364
f 369 349 351
f 369 370 344
f 369 351 370
f 371 372 373
f 371 373 358
f 371 358 357
f 374 375 376
f 374 376 377
f 374 377 378
f 374 378 379
f 374 379 380
f 374 367 381
f 374 381 375
f 374 364 367
f 382 380 383
f 382 383 384
f 382 384 385
f 382 385 386
f 382 386 387
f 382 387 388
f 382 374 380
f 382 364 374
f 382 369 364
f 389 369 382
f 389 388 390
f 389 390 391
f 389 391 392
f 389 392 393
f 389 393 394
f 395 396 397
f 389 394 398
f 395 397 399
f 389 398 372
f 395 399 400
f 389 382 388
f 389 372 371
f 401 357 362
f 401 402 403
f 401 362 402
f 404 352 349
f 404 401 403
f 404 371 357
f 405 406 407
f 404 403 352
f 405 407 408
f 404 357 401
f 405 408 409
f 410 389 371
f 405 409 411
f 410 349 369
f 405 411 356
f 410 404 349
f 405 363 412
f 410 371 404
f 410 369 389
f 405 356 363
f 413 396 395
f 413 405 412
f 413 412 414
f 413 414 415
f 413 415 396
f 413 395 416
f 417 413 416
f 417 418 419
f 417 416 418
f 420 406 405
f 420 405 413
f 420 421 422
f 423 424 425
f 420 422 426
f 423 427 424
f 420 426 428
f 420 428 429
f 420 429 430
f 420 430 406
f 402 420 413
f 375 381 427
f 402 417 419
f 375 427 423
f 402 413 417
f 402 431 432
f 402 419 431
f 362 361 433
f 362 433 434
f 362 434 435
f 362 435 436
f 362 436 437
f 362 437 438
f 362 438 421
f 362 420 402
f 362 421 420
f 403 402 432
f 403 439 352
f 403 432 439
f 440 40 44
f 441 442 54
f 440 443 40
f 444 44 46
f 444 46 50
f 445 54 56
f 444 440 44
f 265 444 50
f 445 441 54
f 446 56 58
f 446 58 60
f 208 12 9
f 446 445 56
f 447 9 14
f 448 446 60
f 447 208 9
f 449 60 4
f 449 4 1
f 450 14 18
f 449 448 60
f 450 447 14
f 451 449 1
f 451 1 5
f 452 450 18
f 453 18 22
f 454 451 5
f 453 22 28
f 453 452 18
f 455 5 7
f 455 7 13
f 455 454 5
f 456 28 29
f 456 453 28
f 457 455 13
f 458 29 33
f 459 13 16
f 459 16 20
f 458 456 29
f 459 457 13
f 460 458 33
f 460 33 36
f 461 459 20
f 462 460 36
f 463 20 24
f 462 36 42
f 463 461 20
f 464 462 42
f 465 463 24
f 465 24 26
f 466 42 48
f 467 26 31
f 467 31 35
f 466 464 42
f 467 465 26
f 468 48 51
f 468 466 48
f 469 467 35
f 470 35 38
f 442 51 52
f 442 52 54
f 470 469 35
f 442 468 51
f 443 38 40
f 443 470 38
f 326 321 471
f 207 472 12
f 207 326 472
f 153 473 474
f 208 207 12
f 153 146 473
f 265 50 475
f 166 153 474
f 167 474 476
f 167 476 477
f 167 166 474
f 266 265 475
f 180 477 478
f 180 167 477
f 284 475 479
f 284 266 475
f 187 180 478
f 297 479 480
f 297 480 481
f 196 478 482
f 297 284 479
f 196 187 478
f 314 481 483
f 203 482 484
f 203 484 485
f 314 297 481
f 203 196 482
f 224 485 486
f 331 314 483
f 224 203 485
f 338 483 487
f 338 487 488
f 338 331 483
f 238 224 486
f 255 486 489
f 255 489 490
f 105 488 491
f 255 238 486
f 105 338 488
f 106 105 491
f 106 491 492
f 269 255 490
f 280 490 493
f 280 493 494
f 119 106 492
f 119 492 495
f 280 269 490
f 290 280 494
f 290 494 496
f 124 119 495
f 133 124 495
f 133 495 497
f 301 496 498
f 301 290 496
f 320 498 471
f 145 497 499
f 145 499 500
f 320 301 498
f 145 133 497
f 321 320 471
f 326 471 501
f 146 145 500
f 326 501 472
f 146 500 473
f 502 503 504
f 505 502 504
f 418 416 506
f 416 507 506
f 504 503 508
f 509 510 354
f 510 511 354
f 511 512 354
f 418 506 513
f 514 515 352
f 516 514 352
f 439 516 352
f 517 518 519
f 520 517 519
f 418 513 419
f 508 503 521
f 522 517 523
f 524 508 521
f 517 520 523
f 419 513 525
f 526 509 353
f 509 354 353
f 524 521 527
f 518 528 529
f 515 530 350
f 419 525 531
f 519 518 529
f 352 515 350
f 526 353 343
f 532 522 533
f 534 526 343
f 522 523 533
f 535 534 343
f 529 528 536
f 537 538 351
f 531 539 431
f 530 537 351
f 419 531 431
f 532 533 540
f 350 530 351
f 541 527 542
f 535 343 342
f 527 521 542
f 543 535 342
f 528 544 545
f 351 538 370
f 538 546 370
f 536 528 545
f 532 540 547
f 543 342 344
f 370 546 344
f 548 532 547
f 549 543 344
f 546 549 344
f 545 544 550
f 544 551 550
f 400 548 552
f 548 547 552
f 553 554 432
f 539 553 432
f 431 539 432
f 555 541 556
f 557 555 556
f 541 542 556
f 550 551 558
f 400 552 559
f 551 560 561
f 558 551 561
f 395 400 562
f 400 559 562
f 554 516 439
f 432 554 439
f 511 557 512
f 557 556 512
f 560 502 563
f 561 560 563
f 395 562 564
f 416 395 564
f 563 502 505
f 416 564 507
f 565 502 560
f 566 567 568
f 566 568 569
f 566 569 570
f 566 570 571
f 566 571 572
f 566 572 573
f 566 573 574
f 566 575 567
f 576 502 565
f 576 503 502
f 576 521 503
f 355 354 512
f 577 566 574
f 577 576 566
f 577 574 578
f 577 578 579
f 577 579 580
f 577 580 581
f 577 581 582
f 577 582 583
f 360 355 512
f 584 521 576
f 365 360 512
f 584 542 521
f 584 556 542
f 585 365 512
f 585 367 366
f 585 366 368
f 585 368 365
f 585 576 577
f 585 584 576
f 585 556 584
f 585 512 556
f 586 367 585
f 586 587 381
f 586 585 577
f 586 583 588
f 586 588 589
f 586 589 590
f 586 590 591
f 586 591 587
f 586 381 367
f 586 577 583
f 592 593 594
f 592 595 593
f 592 596 595
f 597 594 575
f 597 565 551
f 597 551 596
f 597 592 594
f 597 596 592
f 598 597 575
f 598 565 597
f 598 566 576
f 427 381 587
f 598 575 566
f 598 576 565
f 599 427 587
f 548 397 396
f 424 427 599
f 425 424 599
f 593 600 601
f 593 601 602
f 593 602 603
f 593 603 604
f 593 604 605
f 593 605 606
f 593 606 607
f 399 397 548
f 608 609 610
f 608 610 611
f 608 611 612
f 608 612 613
f 608 613 614
f 400 399 548
f 608 614 600
f 608 600 593
f 347 346 615
f 616 412 363
f 616 363 617
f 616 609 608
f 616 617 618
f 616 618 619
f 616 619 620
f 616 620 621
f 616 621 609
f 348 615 617
f 594 593 607
f 594 607 622
f 594 622 623
f 348 347 615
f 595 518 517
f 595 528 518
f 595 608 593
f 624 414 412
f 363 348 617
f 624 415 414
f 624 396 415
f 624 608 595
f 624 616 608
f 624 532 548
f 624 548 396
f 624 412 616
f 575 623 625
f 575 625 567
f 575 594 623
f 596 528 595
f 596 544 528
f 596 551 544
f 626 595 517
f 626 532 624
f 626 522 532
f 626 517 522
f 626 624 595
f 565 560 551
f 627 628 599
f 628 425 599
f 625 629 567
f 629 630 567
f 631 627 587
f 627 599 587
f 632 631 591
f 631 587 591
f 567 630 568
f 630 633 568
f 568 633 569
f 632 591 590
f 569 633 570
f 633 634 570
f 635 632 589
f 632 590 589
f 570 634 571
f 634 636 571
f 637 635 588
f 635 589 588
f 571 636 572
f 636 638 572
f 637 588 583
f 639 637 583
f 572 638 573
f 638 640 573
f 639 583 582
f 641 639 582
f 573 640 574
f 641 582 581
f 574 640 578
f 640 642 578
f 641 581 580
f 643 641 580
f 428 426 292
f 578 642 579
f 643 580 579
f 642 643 579
f 426 422 277
f 292 426 277
f 429 428 306
f 430 429 306
f 428 292 306
f 277 422 251
f 421 438 251
f 422 421 251
f 251 438 240
f 438 437 240
f 406 430 309
f 430 306 309
f 240 437 239
f 437 436 239
f 407 406 335
f 406 309 335
f 239 436 230
f 436 435 230
f 408 407 340
f 407 335 340
f 434 433 217
f 435 434 217
f 230 435 217
f 409 408 114
f 411 409 114
f 408 340 114
f 433 361 214
f 217 433 214
f 411 114 113
f 356 411 113
f 361 359 213
f 214 361 213
f 356 113 121
f 345 356 121
f 358 373 209
f 359 358 209
f 213 359 209
f 346 345 128
f 615 346 128
f 345 121 128
f 373 372 644
f 209 373 644
f 615 128 130
f 617 615 130
f 372 398 645
f 644 372 645
f 618 617 136
f 617 130 136
f 394 393 646
f 398 394 646
f 645 398 646
f 619 618 149
f 620 619 149
f 618 136 149
f 393 392 647
f 646 393 647
f 621 620 151
f 620 149 151
f 392 391 648
f 647 392 648
f 621 151 157
f 609 621 157
f 391 390 649
f 648 391 649
f 610 609 171
f 609 157 171
f 390 388 650
f 649 390 650
f 611 610 172
f 610 171 172
f 650 388 387
f 611 172 612
f 650 387 651
f 612 172 178
f 651 387 386
f 612 178 613
f 651 386 652
f 613 178 191
f 652 386 385
f 613 191 614
f 652 385 653
f 614 191 200
f 653 385 384
f 614 200 600
f 653 384 383
f 654 653 383
f 600 200 601
f 200 218 601
f 655 654 380
f 654 383 380
f 601 218 602
f 218 231 602
f 656 655 379
f 655 380 379
f 231 244 603
f 602 231 603
f 657 656 378
f 656 379 378
f 244 258 604
f 603 244 604
f 657 378 377
f 604 258 605
f 658 657 376
f 657 377 376
f 258 275 606
f 605 258 606
f 659 658 375
f 658 376 375
f 606 275 607
f 275 193 607
f 628 659 423
f 659 375 423
f 607 193 622
f 193 192 622
f 628 423 425
f 622 192 623
f 623 192 625
f 192 629 625
f 660 661 662
f 661 663 662
f 629 192 194
f 664 665 666
f 665 667 666
f 668 664 666
f 669 670 671
f 670 672 671
f 672 668 671
f 460 462 673
f 674 460 673
f 663 675 673
f 675 674 673
f 667 660 676
f 660 662 676
f 631 632 677
f 632 669 677
f 668 666 678
f 677 669 679
f 669 671 679
f 662 663 680
f 663 673 680
f 462 464 680
f 673 462 680
f 667 676 681
f 666 667 681
f 678 666 681
f 627 631 682
f 631 677 682
f 668 678 683
f 679 671 683
f 671 668 683
f 464 466 684
f 676 662 684
f 680 464 684
f 662 680 684
f 677 679 685
f 678 681 686
f 628 627 687
f 627 682 687
f 679 683 688
f 466 468 689
f 681 676 689
f 684 466 689
f 676 684 689
f 687 682 690
f 677 685 690
f 682 677 690
f 678 686 691
f 683 678 691
f 688 683 691
f 659 628 692
f 658 659 692
f 628 687 692
f 685 679 693
f 679 688 693
f 690 685 693
f 689 468 694
f 686 681 694
f 681 689 694
f 687 690 695
f 688 691 696
f 693 688 696
f 657 658 697
f 658 692 697
f 690 693 698
f 468 442 699
f 691 686 699
f 686 694 699
f 696 691 699
f 694 468 699
f 692 687 700
f 687 695 700
f 697 692 700
f 693 696 701
f 657 697 702
f 695 690 703
f 690 698 703
f 442 441 704
f 441 445 704
f 696 699 704
f 699 442 704
f 697 700 705
f 702 697 705
f 698 693 706
f 693 701 706
f 703 698 706
f 656 657 707
f 657 702 707
f 695 703 708
f 700 695 708
f 696 704 709
f 704 445 709
f 701 696 709
f 702 705 710
f 707 702 710
f 703 706 711
f 656 707 712
f 655 656 712
f 705 700 713
f 700 708 713
f 710 705 713
f 445 446 714
f 701 709 714
f 706 701 714
f 709 445 714
f 707 710 715
f 708 703 716
f 703 711 716
f 655 712 717
f 654 655 717
f 653 654 717
f 715 710 718
f 710 713 718
f 446 448 719
f 706 714 719
f 711 706 719
f 714 446 719
f 707 715 720
f 717 712 720
f 712 707 720
f 708 716 721
f 713 708 721
f 718 713 721
f 653 717 722
f 652 653 722
f 715 718 723
f 448 449 724
f 719 448 724
f 716 711 724
f 711 719 724
f 717 720 725
f 718 721 726
f 652 722 727
f 651 652 727
f 715 723 728
f 725 720 728
f 720 715 728
f 449 451 729
f 724 449 729
f 716 724 729
f 726 721 729
f 721 716 729
f 209 644 210
f 727 722 730
f 722 717 730
f 717 725 730
f 723 718 731
f 718 726 731
f 651 727 732
f 725 728 733
f 451 454 734
f 729 451 734
f 726 729 734
f 732 727 735
f 727 730 735
f 728 723 736
f 723 731 736
f 650 651 737
f 649 650 737
f 629 194 738
f 651 732 737
f 629 738 739
f 630 629 739
f 730 725 740
f 725 733 740
f 735 730 740
f 454 455 741
f 738 194 742
f 194 303 742
f 734 454 741
f 731 726 741
f 726 734 741
f 739 738 742
f 633 630 743
f 634 633 743
f 732 735 744
f 740 733 745
f 630 739 743
f 733 728 745
f 739 742 746
f 728 736 745
f 743 739 746
f 634 743 747
f 649 737 748
f 744 735 749
f 742 303 750
f 735 740 749
f 303 316 750
f 316 327 750
f 731 741 751
f 746 742 750
f 455 457 751
f 741 455 751
f 743 746 752
f 736 731 751
f 747 743 752
f 732 744 753
f 748 737 753
f 634 747 754
f 737 732 753
f 636 634 754
f 649 748 755
f 648 649 755
f 746 750 756
f 740 745 757
f 747 752 758
f 327 206 759
f 744 749 760
f 750 327 759
f 745 736 761
f 751 457 761
f 457 459 761
f 736 751 761
f 636 754 762
f 638 636 762
f 748 753 763
f 755 748 763
f 746 756 764
f 648 755 765
f 647 648 765
f 752 746 764
f 740 757 766
f 754 747 767
f 749 740 766
f 762 754 767
f 747 758 767
f 760 749 766
f 763 753 768
f 764 756 769
f 750 759 769
f 756 750 769
f 638 762 770
f 744 760 768
f 753 744 768
f 640 638 770
f 765 755 771
f 752 764 772
f 755 763 771
f 459 461 773
f 757 745 773
f 758 752 772
f 761 459 773
f 208 447 774
f 745 761 773
f 759 206 774
f 647 765 775
f 206 208 774
f 646 647 775
f 762 767 776
f 770 762 776
f 760 766 777
f 764 769 778
f 763 768 779
f 771 763 779
f 640 770 780
f 775 765 781
f 642 640 780
f 765 771 781
f 461 463 782
f 766 757 782
f 773 461 782
f 758 772 783
f 757 773 782
f 777 766 782
f 767 758 783
f 447 450 784
f 768 760 785
f 774 447 784
f 760 777 785
f 759 774 784
f 769 759 784
f 646 775 786
f 645 646 786
f 770 776 787
f 771 779 788
f 772 764 789
f 775 781 790
f 764 778 789
f 643 642 791
f 641 643 791
f 463 465 792
f 782 463 792
f 777 782 792
f 779 768 793
f 642 780 791
f 788 779 793
f 768 785 793
f 767 783 794
f 787 776 794
f 210 644 795
f 776 767 794
f 644 645 795
f 450 452 796
f 645 786 795
f 778 769 796
f 221 210 795
f 784 450 796
f 769 784 796
f 781 771 797
f 780 770 798
f 771 788 797
f 465 467 799
f 770 787 798
f 792 465 799
f 785 777 799
f 777 792 799
f 772 789 800
f 786 775 801
f 775 790 801
f 783 772 800
f 795 786 801
f 788 793 802
f 639 641 803
f 797 788 802
f 641 791 803
f 790 781 804
f 781 797 804
f 798 787 805
f 787 794 805
f 799 467 806
f 467 469 806
f 452 453 807
f 802 793 806
f 796 452 807
f 793 785 806
f 778 796 807
f 785 799 806
f 789 778 807
f 221 795 808
f 795 801 808
f 797 802 809
f 780 798 810
f 791 780 810
f 804 797 809
f 790 804 811
f 808 801 811
f 783 800 812
f 794 783 812
f 801 790 811
f 802 806 813
f 806 469 813
f 469 470 813
f 804 809 814
f 639 803 815
f 221 808 816
f 798 805 661
f 222 221 816
f 808 811 816
f 453 456 817
f 813 470 818
f 807 453 817
f 800 789 817
f 789 807 817
f 809 802 818
f 802 813 818
f 816 811 819
f 804 814 819
f 803 791 665
f 811 804 819
f 791 810 665
f 814 809 820
f 809 818 820
f 639 815 672
f 470 443 820
f 637 639 672
f 818 470 820
f 816 819 821
f 222 816 821
f 248 222 821
f 270 248 821
f 819 814 822
f 821 819 822
f 805 794 675
f 820 443 822
f 794 812 675
f 814 820 822
f 443 440 822
f 440 444 823
f 444 265 823
f 821 822 823
f 270 821 823
f 810 798 660
f 822 440 823
f 798 661 660
f 265 270 823
f 456 458 824
f 817 456 824
f 812 800 824
f 800 817 824
f 672 815 664
f 815 803 664
f 803 665 664
f 635 637 670
f 637 672 670
f 661 805 663
f 805 675 663
f 665 810 667
f 810 660 667
f 672 664 668
f 458 460 674
f 675 812 674
f 824 458 674
f 812 824 674
f 632 635 669
f 635 670 669
f 825 538 537
f 826 825 530
f 825 537 530
f 827 826 515
f 826 530 515
f 828 827 514
f 827 515 514
f 829 828 516
f 828 514 516
f 830 829 554
f 829 516 554
f 831 830 553
f 830 554 553
f 831 553 539
f 832 510 509
f 833 832 526
f 832 509 526
f 834 833 534
f 833 526 534
f 835 834 535
f 834 534 535
f 836 835 543
f 835 535 543
f 837 836 549
f 836 543 549
f 838 837 546
f 837 549 546
f 838 546 538
f 839 504 508
f 840 839 524
f 839 508 524
f 841 840 527
f 840 524 527
f 842 841 541
f 841 527 541
f 843 842 555
f 842 541 555
f 844 843 557
f 843 555 557
f 845 844 511
f 844 557 511
f 845 511 510
f 846 529 536
f 847 846 545
f 846 536 545
f 848 847 550
f 847 545 550
f 849 848 558
f 848 550 558
f 850 849 561
f 849 558 561
f 851 850 563
f 850 561 563
f 852 851 505
f 851 563 505
f 852 505 504
f 853 559 552
f 854 853 547
f 853 552 547
f 855 854 540
f 854 547 540
f 856 855 533
f 855 540 533
f 857 856 523
f 856 533 523
f 858 857 520
f 857 523 520
f 859 858 519
f 858 520 519
f 859 519 529
f 860 539 531
f 861 860 525
f 860 531 525
f 862 861 513
f 861 525 513
f 863 862 506
f 862 513 506
f 864 863 507
f 863 506 507
f 865 864 564
f 864 507 564
f 866 865 562
f 865 564 562
f 866 562 559
f 71 867 868
f 867 869 870
f 64 868 870
f 868 867 870
f 871 872 873
f 873 872 874
f 64 873 874
f 61 64 875
f 872 61 875
f 64 874 875
f 874 872 875
f 873 64 876
f 877 878 879
f 64 870 876
f 869 871 880
f 870 869 880
f 873 876 880
f 871 873 880
f 879 878 881
f 876 870 880
f 877 879 882
f 883 884 885
f 885 884 886
f 883 885 887
f 888 889 890
f 890 889 891
f 888 890 892
f 882 893 867
f 71 894 867
f 894 877 867
f 877 882 867
f 893 895 869
f 895 896 869
f 896 883 869
f 867 893 869
f 883 887 869
f 887 897 871
f 897 898 871
f 869 887 871
f 892 899 872
f 899 61 872
f 898 900 872
f 900 888 872
f 871 898 872
f 888 892 872
f 64 71 868
f 838 538 891
f 837 838 891
f 836 837 889
f 837 891 889
f 836 889 888
f 835 836 900
f 836 888 900
f 835 900 898
f 834 835 897
f 835 898 897
f 833 834 887
f 834 897 887
f 833 887 885
f 832 833 886
f 510 832 886
f 833 885 886
f 539 78 831
f 78 74 830
f 831 78 830
f 73 91 829
f 74 73 829
f 830 74 829
f 91 61 828
f 829 91 828
f 899 892 827
f 61 899 827
f 828 61 827
f 890 891 826
f 892 890 826
f 827 892 826
f 826 891 825
f 825 891 538
f 866 559 83
f 865 866 83
f 864 865 81
f 865 83 81
f 864 81 80
f 863 864 93
f 864 80 93
f 863 93 92
f 862 863 90
f 863 92 90
f 861 862 79
f 862 90 79
f 861 79 75
f 860 861 78
f 539 860 78
f 861 75 78
f 859 529 88
f 858 859 88
f 857 858 86
f 858 88 86
f 857 86 85
f 856 857 97
f 857 85 97
f 856 97 95
f 855 856 94
f 856 95 94
f 854 855 84
f 855 94 84
f 854 84 82
f 853 854 83
f 559 853 83
f 854 82 83
f 852 504 881
f 851 852 881
f 850 851 878
f 851 881 878
f 850 878 877
f 849 850 894
f 850 877 894
f 848 849 71
f 849 894 71
f 848 71 96
f 847 848 89
f 848 96 89
f 847 89 87
f 846 847 88
f 529 846 88
f 847 87 88
f 845 510 886
f 844 845 886
f 843 844 884
f 844 886 884
f 843 884 883
f 842 843 896
f 843 883 896
f 842 896 895
f 841 842 893
f 842 895 893
f 840 841 882
f 841 893 882
f 840 882 879
f 839 840 881
f 504 839 881
f 840 879 881
f 478 901 902
f 478 477 901
f 482 902 903
f 482 478 902
f 484 903 904
f 484 482 903
f 475 50 47
f 475 47 905
f 485 484 904
f 479 905 906
f 486 904 907
f 479 475 905
f 486 485 904
f 480 906 908
f 480 479 906
f 489 907 909
f 489 486 907
f 481 908 910
f 490 909 911
f 481 480 908
f 490 489 909
f 493 490 911
f 493 911 912
f 483 481 910
f 487 910 913
f 494 912 914
f 494 493 912
f 487 483 910
f 488 913 915
f 496 494 914
f 488 487 913
f 491 915 916
f 498 914 917
f 491 488 915
f 498 496 914
f 471 917 918
f 492 916 919
f 471 498 917
f 492 491 916
f 501 918 920
f 501 471 918
f 472 920 10
f 495 919 921
f 472 501 920
f 495 492 919
f 12 472 10
f 497 495 921
f 499 497 921
f 499 921 922
f 500 922 923
f 500 499 922
f 473 923 924
f 473 500 923
f 474 924 925
f 474 473 924
f 476 474 925
f 477 925 901
f 477 476 925
f 21 17 8
f 919 916 921
f 914 912 917
f 908 905 917
f 915 913 910
f 912 908 917
f 21 8 6
f 922 921 923
f 918 917 920
f 6 3 2
f 908 906 905
f 920 917 10
f 917 905 10
f 924 923 925
f 10 905 11
f 45 41 11
f 905 45 11
f 2 59 57
f 905 47 45
f 901 925 902
f 921 916 902
f 923 921 902
f 925 923 902
f 15 11 19
f 57 55 53
f 6 2 53
f 21 6 53
f 2 57 53
f 11 41 23
f 41 39 23
f 19 11 23
f 39 27 30
f 23 39 30
f 916 915 907
f 903 902 907
f 904 903 907
f 53 49 43
f 902 916 907
f 39 32 27
f 34 30 37
f 21 53 37
f 53 43 37
f 30 27 37
f 27 21 37
f 907 915 909
f 27 25 21
f 909 915 912
f 910 908 912
f 911 909 912
f 915 910 912
