# Created by FreeCAD <http://www.freecadweb.org>
v -48.706234 182.516693 13.660421
v -48.227962 182.132599 14.010421
v -48.131393 182.287231 14.010421
v -48.812336 182.319092 13.660421
v -48.578678 182.701157 13.660421
v -48.015469 182.427948 14.010421
v -48.431271 182.870193 13.660421
v -47.882168 182.552322 14.010421
v -47.421349 179.518143 13.660421
v -47.139236 180.086441 14.010421
v -47.319061 180.116470 14.010421
v -47.199799 179.483246 13.660421
v -48.265862 183.021667 13.660421
v -47.637604 179.577606 13.660421
v -47.493423 180.169724 14.010421
v -48.084534 183.153656 13.660421
v -47.733772 182.658234 14.010421
v -47.845840 179.660919 13.660421
v -47.659348 180.245285 14.010421
v -47.889568 183.264526 13.660421
v -47.572823 182.743881 14.010421
v -48.043438 179.767014 13.660421
v -47.813988 180.341858 14.010421
v -47.683414 183.352859 13.660421
v -47.402073 182.807770 14.010421
v -48.227913 179.894577 13.660421
v -47.954700 180.457779 14.010421
v -47.468670 183.417557 13.660421
v -47.224442 182.848846 14.010421
v -47.248028 183.457809 13.660421
v -47.042969 182.866364 14.010421
v -48.396950 180.041977 13.660421
v -48.079079 180.591080 14.010421
v -47.024269 183.473099 13.660421
v -46.860764 182.860062 14.010421
v -46.800201 183.463242 13.660421
v -48.548416 180.207382 13.660421
v -48.680412 180.388718 13.660421
v -48.184994 180.739471 14.010421
v -48.791275 180.583679 13.660421
v -48.270630 180.900421 14.010421
v -48.879612 180.789825 13.660421
v -48.334530 181.071182 14.010421
v -48.944313 181.004578 13.660421
v -48.375591 181.248810 14.010421
v -48.984562 181.225220 13.660421
v -48.393120 181.430283 14.010421
v -48.999851 181.448975 13.660421
v -48.386810 181.612488 14.010421
v -48.989994 181.673050 13.660421
v -48.955112 181.894592 13.660421
v -48.356773 181.792313 14.010421
v -48.895641 182.110855 13.660421
v -48.303520 181.966675 14.010421
v -46.294788 181.626587 -0.439579
v -46.339348 181.182785 -0.439579
v -46.651020 181.381485 -0.214579
v -46.848228 181.375687 -0.102079
v -47.000000 181.473251 0.010421
v -46.688343 181.655121 -0.214579
v -46.818127 181.161591 -0.214579
v -46.512207 182.680557 -0.801974
v -46.333176 182.662582 -0.840008
v -46.069691 182.451126 -0.831283
v -46.157051 182.644897 -0.889579
v -45.981228 182.254898 -0.790453
v -45.687984 181.156509 -0.831283
v -45.690056 181.609024 -0.811053
v -45.563843 181.329056 -0.889579
v -45.813686 180.981796 -0.790453
v -46.582924 180.175095 -0.840008
v -46.227448 180.406693 -0.811053
v -46.406796 180.157410 -0.889579
v -46.761955 180.193069 -0.801974
v -45.900497 182.075821 -0.771422
v -46.519600 182.011810 -0.439579
v -46.875126 182.716995 -0.769002
v -46.693180 182.698730 -0.777598
v -45.818821 181.894638 -0.771651
v -45.928410 180.822342 -0.771422
v -46.044472 180.661011 -0.771651
v -46.942924 180.211227 -0.777598
v -46.636250 180.849930 -0.439579
v -47.124874 180.229507 -0.769002
v -46.854767 181.803574 -0.214579
v -46.759800 181.742523 -0.214579
v -46.923336 181.120636 -0.214579
v -45.065334 182.176682 0.069000
v -45.095207 182.165817 0.110421
v -45.029640 181.948196 0.110421
v -44.998741 181.955643 0.069000
v -45.208725 182.362823 0.210421
v -45.120388 182.156662 0.210421
v -45.113983 182.158997 0.158657
v -45.202621 182.365845 0.158657
v -45.184727 182.374741 0.110421
v -44.862511 181.258636 0.017236
v -44.900154 181.498734 0.037216
v -44.910503 181.263458 0.037216
v -44.916210 181.733673 0.037216
v -44.941574 181.498230 0.069000
v -44.957314 181.728546 0.069000
v -44.904533 180.803162 0.010421
v -44.896652 181.036392 0.017236
v -44.953838 180.818924 0.017236
v -44.988850 181.724594 0.110421
v -44.943882 181.046204 0.037216
v -45.055687 181.941910 0.210421
v -45.049065 181.943512 0.158657
v -45.015438 181.721283 0.210421
v -44.951717 181.267593 0.069000
v -44.986057 180.587799 0.010421
v -45.033443 180.608627 0.017236
v -45.089645 180.382126 0.010421
v -44.973354 181.497849 0.110421
v -44.999783 180.833618 0.037216
v -45.008678 181.722122 0.158657
v -44.984436 181.054626 0.069000
v -45.134594 180.407806 0.017236
v -45.214165 180.188416 0.010421
v -44.983345 181.270782 0.110421
v -45.077599 180.628036 0.037216
v -45.000149 181.497513 0.210421
v -44.993332 181.497604 0.158657
v -45.039234 180.846237 0.069000
v -45.358246 180.008789 0.010421
v -45.256184 180.218643 0.017236
v -45.015556 181.061081 0.110421
v -45.176479 180.431732 0.037216
v -45.010006 181.273453 0.210421
v -45.003223 181.272766 0.158657
v -45.115517 180.644714 0.069000
v -45.396877 180.043243 0.017236
v -45.069508 180.855911 0.110421
v -45.295338 180.246826 0.037216
v -45.035118 181.065155 0.158657
v -45.044888 181.051895 0.210421
v -45.212448 180.452271 0.069000
v -45.520317 179.845200 0.010421
v -45.555134 179.883499 0.017236
v -45.698601 179.699448 0.010421
v -45.144615 180.657501 0.110421
v -45.432873 180.075348 0.037216
v -45.104359 180.835648 0.210421
v -45.088539 180.862000 0.158657
v -45.328960 180.271011 0.069000
v -45.891144 179.573135 0.010421
v -45.729221 179.741180 0.017236
v -45.240047 180.468033 0.110421
v -45.587578 179.919205 0.037216
v -45.162903 180.665543 0.158657
v -45.187664 180.627411 0.210421
v -45.463783 180.102921 0.069000
v -45.917233 179.617844 0.017236
v -45.354763 180.289566 0.110421
v -45.757755 179.780075 0.037216
v -46.044498 179.549210 0.017236
v -46.095833 179.467636 0.010421
v -45.293766 180.429810 0.210421
v -45.257397 180.477936 0.158657
v -45.615437 179.949860 0.069000
v -45.487503 180.124084 0.110421
v -45.941547 179.659500 0.037216
v -46.265930 179.454315 0.017236
v -46.310432 179.384109 0.010421
v -45.370979 180.301239 0.158657
v -45.421322 180.245331 0.210421
v -47.219776 179.284256 0.010421
v -46.989761 179.273270 0.010421
v -47.214603 179.335754 0.017236
v -45.782261 179.813477 0.069000
v -46.065952 179.592407 0.037216
v -45.636814 179.973373 0.110421
v -45.568729 180.076294 0.210421
v -45.502411 180.137390 0.158657
v -46.532581 179.323471 0.010421
v -46.496593 179.384827 0.017236
v -45.962425 179.695282 0.069000
v -46.282413 179.499649 0.037216
v -47.200478 179.476471 0.158657
v -46.975731 179.473389 0.210421
v -47.199799 179.483246 0.210421
v -46.780224 183.662247 0.010421
v -46.785397 183.610733 0.017236
v -46.563141 183.576599 0.017236
v -45.801060 179.839096 0.110421
v -46.552616 183.627274 0.010421
v -46.345676 183.519409 0.017236
v -46.084377 179.629501 0.069000
v -46.329910 183.568710 0.010421
v -46.114544 183.487198 0.010421
v -45.734138 179.924835 0.210421
v -45.650253 179.988159 0.158657
v -46.790215 183.562744 0.037216
v -46.572952 183.529373 0.037216
v -46.794350 183.521530 0.069000
v -46.759857 179.286392 0.010421
v -46.733589 179.341599 0.017236
v -45.908878 183.383606 0.010421
v -46.135376 183.439804 0.017236
v -46.507896 179.431717 0.037216
v -46.360367 183.473465 0.037216
v -45.978443 179.722733 0.110421
v -46.797527 183.489899 0.110421
v -46.581375 183.488815 0.069000
v -45.934551 183.338654 0.017236
v -46.296566 179.538589 0.069000
v -45.715172 183.259079 0.010421
v -45.812881 179.855209 0.158657
v -45.915466 179.792831 0.210421
v -47.209785 179.383759 0.037216
v -46.973934 179.325165 0.017236
v -46.154793 183.395645 0.037216
v -46.098515 179.657974 0.110421
v -46.372982 183.434006 0.069000
v -46.739571 179.389465 0.037216
v -45.535538 183.115005 0.010421
v -45.745399 183.217072 0.017236
v -46.517605 179.471985 0.069000
v -45.988514 179.739990 0.158657
v -46.587837 183.457687 0.110421
v -46.110432 179.681976 0.210421
v -45.958477 183.296768 0.037216
v -46.307426 179.568451 0.110421
v -46.107399 179.675873 0.158657
v -46.316586 179.593643 0.210421
v -46.171463 183.357727 0.069000
v -45.569996 183.076370 0.017236
v -46.974518 179.373398 0.037216
v -45.371952 182.952927 0.010421
v -46.382664 183.403732 0.110421
v -46.744709 179.430557 0.069000
v -46.525051 179.502884 0.110421
v -45.773571 183.177917 0.037216
v -46.314255 179.587234 0.158657
v -46.800201 183.463242 0.210421
v -46.578651 183.428360 0.210421
v -46.591900 183.438126 0.158657
v -46.799522 183.470032 0.158657
v -47.205650 179.424973 0.069000
v -46.975021 179.414825 0.069000
v -45.979019 183.260803 0.069000
v -45.410255 182.918121 0.017236
v -46.748650 179.462097 0.110421
v -46.531330 179.528931 0.210421
v -46.529736 179.522308 0.158657
v -46.751972 179.488693 0.210421
v -46.184254 183.328629 0.110421
v -47.202473 179.456589 0.110421
v -46.975407 179.446609 0.110421
v -46.751125 179.481918 0.158657
v -45.602104 183.040375 0.037216
v -46.975651 179.466583 0.158657
v -46.388752 183.384705 0.158657
v -46.362396 183.368896 0.210421
v -45.797764 183.144287 0.069000
v -45.226200 182.774643 0.010421
v -45.267937 182.744019 0.017236
v -45.994781 183.233200 0.110421
v -45.445953 182.885666 0.037216
v -46.192295 183.310349 0.158657
v -46.154160 183.285583 0.210421
v -45.629677 183.009460 0.069000
v -45.099884 182.582108 0.010421
v -45.144592 182.556015 0.017236
v -45.816326 183.118484 0.110421
v -45.306828 182.715485 0.037216
v -45.075958 182.428757 0.017236
v -44.994385 182.377411 0.010421
v -46.004692 183.215851 0.158657
v -45.956562 183.179489 0.210421
v -45.476604 182.857819 0.069000
v -45.650833 182.985748 0.110421
v -45.186253 182.531708 0.037216
v -45.772087 183.051926 0.210421
v -45.827991 183.102264 0.158657
v -44.981075 182.207321 0.017236
v -44.910862 182.162811 0.010421
v -45.340225 182.690994 0.069000
v -45.119160 182.407303 0.037216
v -45.500126 182.836441 0.110421
v -45.603050 182.904510 0.210421
v -45.664135 182.970840 0.158657
v -44.911579 181.976654 0.017236
v -44.850227 181.940659 0.010421
v -45.222027 182.510818 0.069000
v -45.026405 182.190842 0.037216
v -45.365852 182.672180 0.110421
v -45.156258 182.388870 0.069000
v -45.451584 182.739105 0.210421
v -45.514912 182.822998 0.158657
v -44.868347 181.739655 0.017236
v -44.813145 181.713394 0.010421
v -44.958473 181.965347 0.037216
v -45.249481 182.494812 0.110421
v -45.319588 182.557785 0.210421
v -45.381962 182.660370 0.158657
v -44.800022 181.483490 0.010421
v -44.851921 181.499313 0.017236
v -45.266735 182.484741 0.158657
v -44.811005 181.253479 0.010421
v -44.845970 181.025864 0.010421
v -45.689724 184.173538 -1.372304
v -46.189377 184.634171 -1.043067
v -45.295944 184.544479 -0.646517
v -45.116943 183.636841 -1.515570
v -46.192368 183.744812 -1.918036
v -46.760628 184.281067 -1.566189
v -46.800201 183.463242 -2.189579
v -47.166058 184.732239 -1.043067
v -47.339931 183.860031 -1.918036
v -47.747311 184.380127 -1.372304
v -48.059494 184.821930 -0.646517
v -43.200882 181.391464 0.010421
v -43.219009 181.093628 0.010421
v -43.349148 181.106705 -0.328300
v -48.415359 183.968002 -1.515570
v -43.509262 181.122772 -0.653793
v -43.509457 182.358749 -0.475210
v -43.577827 183.125137 0.010421
v -43.458771 182.851547 0.010421
v -43.206173 181.689789 0.010421
v -43.361549 182.569458 0.010421
v -43.286758 182.280609 0.010421
v -43.234859 181.986771 0.010421
v -43.698029 181.141724 -0.963385
v -44.208832 182.428970 -1.429011
v -44.419674 181.214188 -1.772117
v -45.015438 181.721283 -2.189579
v -43.913902 181.163406 -1.254534
v -44.155113 181.187622 -1.524851
v -45.120388 182.156662 -2.189579
v -45.165691 182.525040 -2.121096
v -45.319588 182.557785 -2.189579
v -45.603050 182.904510 -2.189579
v -44.248863 183.549683 -0.761237
v -44.470474 184.309006 0.010421
v -44.255783 184.101791 0.010421
v -44.058006 183.878387 0.010421
v -43.878372 183.640152 0.010421
v -43.717983 183.388550 0.010421
v -45.956562 183.179489 -2.189579
v -46.033581 185.148300 0.010421
v -45.748219 185.061157 0.010421
v -45.470573 184.951874 0.010421
v -45.202358 184.821152 0.010421
v -44.945229 184.669800 0.010421
v -44.700764 184.498718 0.010421
v -44.705421 181.242874 -1.994300
v -45.010006 181.273453 -2.189579
v -50.739552 182.148346 0.010421
v -50.650852 181.839798 -0.328300
v -50.780991 181.852859 0.010421
v -50.490738 181.823715 -0.653793
v -46.362396 183.368896 -2.189579
v -50.675056 182.439667 0.010421
v -50.301971 181.804764 -0.963385
v -48.588604 182.868698 -2.121096
v -48.431271 182.870193 -2.189579
v -48.706234 182.516693 -2.189579
v -48.084534 183.153656 -2.189579
v -47.248028 183.457809 -2.189579
v -47.683414 183.352859 -2.189579
v -46.620388 185.254242 0.010421
v -46.324902 185.212799 0.010421
v -49.545464 182.964767 -1.429011
v -48.895641 182.110855 -2.189579
v -49.580326 181.732315 -1.772117
v -50.086098 181.783096 -1.254534
v -49.844887 181.758881 -1.524851
v -47.216537 185.267075 0.010421
v -46.918209 185.272369 0.010421
v -50.244839 183.034988 -0.475210
v -50.587902 182.725021 0.010421
v -50.478630 183.002670 0.010421
v -50.347908 183.270889 0.010421
v -50.196548 183.528015 0.010421
v -50.025478 183.772491 0.010421
v -49.283440 184.055161 -0.761237
v -49.835754 184.002777 0.010421
v -49.628548 184.217468 0.010421
v -49.405136 184.415237 0.010421
v -49.166897 184.594879 0.010421
v -48.915298 184.755264 0.010421
v -48.989994 181.673050 -2.189579
v -49.294579 181.703629 -1.994300
v -48.651890 184.895416 0.010421
v -48.378296 185.014481 0.010421
v -48.096207 185.111694 0.010421
v -47.807358 185.186493 0.010421
v -47.513531 185.238388 0.010421
v -48.989994 181.673050 0.210421
v -48.999851 181.448975 0.210421
v -48.955112 181.894592 0.210421
v -48.895641 182.110855 0.210421
v -48.812336 182.319092 0.210421
v -47.421349 179.518143 0.210421
v -48.706234 182.516693 0.210421
v -47.637604 179.577606 0.210421
v -48.578678 182.701157 0.210421
v -47.845840 179.660919 0.210421
v -48.431271 182.870193 0.210421
v -48.043438 179.767014 0.210421
v -48.265862 183.021667 0.210421
v -48.227913 179.894577 0.210421
v -48.084534 183.153656 0.210421
v -48.396950 180.041977 0.210421
v -47.889568 183.264526 0.210421
v -48.548416 180.207382 0.210421
v -47.683414 183.352859 0.210421
v -48.680412 180.388718 0.210421
v -47.468670 183.417557 0.210421
v -47.248028 183.457809 0.210421
v -48.791275 180.583679 0.210421
v -47.024269 183.473099 0.210421
v -48.879612 180.789825 0.210421
v -48.944313 181.004578 0.210421
v -48.984562 181.225220 0.210421
v -45.044888 181.051895 13.660421
v -45.104359 180.835648 13.660421
v -45.187664 180.627411 13.660421
v -46.578651 183.428360 13.660421
v -46.362396 183.368896 13.660421
v -45.293766 180.429810 13.660421
v -45.421322 180.245331 13.660421
v -46.154160 183.285583 13.660421
v -45.956562 183.179489 13.660421
v -45.568729 180.076294 13.660421
v -45.734138 179.924835 13.660421
v -45.772087 183.051926 13.660421
v -45.603050 182.904510 13.660421
v -45.915466 179.792831 13.660421
v -46.110432 179.681976 13.660421
v -46.316586 179.593643 13.660421
v -45.451584 182.739105 13.660421
v -46.531330 179.528931 13.660421
v -46.751972 179.488693 13.660421
v -45.319588 182.557785 13.660421
v -45.208725 182.362823 13.660421
v -46.975731 179.473389 13.660421
v -45.120388 182.156662 13.660421
v -45.055687 181.941910 13.660421
v -45.015438 181.721283 13.660421
v -45.000149 181.497513 13.660421
v -45.010006 181.273453 13.660421
v -48.436157 181.617432 -2.189579
v -48.442688 181.428757 -2.189579
v -48.984562 181.225220 -2.189579
v -45.684158 182.066452 -2.189579
v -45.772842 182.233124 -2.189579
v -47.842949 180.301590 -2.189579
v -48.396950 180.041977 -2.189579
v -47.988670 180.421646 -2.189579
v -45.882526 182.386810 -2.189579
v -47.232426 182.897781 -2.189579
v -47.416378 182.855255 -2.189579
v -47.044498 182.915939 -2.189579
v -48.117474 180.559692 -2.189579
v -45.568729 180.076294 -2.189579
v -45.915466 179.792831 -2.189579
v -46.086445 180.355774 -2.189579
v -48.349899 181.984238 -2.189579
v -48.405048 181.803665 -2.189579
v -48.271656 182.156052 -2.189579
v -45.948399 180.484573 -2.189579
v -47.593204 182.789093 -2.189579
v -46.240120 180.246094 -2.189579
v -46.011330 182.524857 -2.189579
v -48.171650 182.316193 -2.189579
v -48.227158 180.713364 -2.189579
v -48.680412 180.388718 -2.189579
v -46.157051 182.644897 -2.189579
v -45.293766 180.429810 -2.189579
v -45.828350 180.630295 -2.189579
v -48.051601 182.461914 -2.189579
v -47.913555 182.590729 -2.189579
v -46.316586 179.593643 -2.189579
v -46.406796 180.157410 -2.189579
v -47.759880 182.700409 -2.189579
v -48.315842 180.880051 -2.189579
v -45.104359 180.835648 -2.189579
v -45.728344 180.790436 -2.189579
v -46.583622 180.091232 -2.189579
v -46.751972 179.488693 -2.189579
v -46.317192 182.744904 -2.189579
v -45.650101 180.962265 -2.189579
v -48.382015 181.056870 -2.189579
v -48.879612 180.789825 -2.189579
v -46.767574 180.048706 -2.189579
v -45.594952 181.142838 -2.189579
v -46.955502 180.030563 -2.189579
v -47.199799 179.483246 -2.189579
v -45.563843 181.329056 -2.189579
v -47.144192 180.037094 -2.189579
v -46.489017 182.823151 -2.189579
v -46.669586 182.878296 -2.189579
v -45.557312 181.517746 -2.189579
v -48.424538 181.240814 -2.189579
v -47.330414 180.068207 -2.189579
v -47.637604 179.577606 -2.189579
v -45.575462 181.705673 -2.189579
v -47.510983 180.123352 -2.189579
v -45.617985 181.889633 -2.189579
v -48.043438 179.767014 -2.189579
v -47.682808 180.201599 -2.189579
v -46.855808 182.909409 -2.189579
v -48.310276 178.772949 -1.372304
v -47.810623 178.312317 -1.043067
v -48.704056 178.402023 -0.646517
v -47.323593 178.673889 -1.566189
v -47.807632 179.201691 -1.918036
v -50.793827 181.256714 0.010421
v -50.799118 181.555038 0.010421
v -45.940506 178.124557 -0.646517
v -45.084702 178.191238 0.010421
v -45.348110 178.051071 0.010421
v -45.621704 177.932022 0.010421
v -45.903793 177.834793 0.010421
v -46.192642 177.760010 0.010421
v -46.486469 177.708115 0.010421
v -46.783463 177.679428 0.010421
v -44.716560 178.891342 -0.761237
v -43.974522 179.174011 0.010421
v -44.164246 178.943726 0.010421
v -44.371452 178.729034 0.010421
v -44.594864 178.531250 0.010421
v -44.833103 178.351624 0.010421
v -43.755161 179.911514 -0.475210
v -43.324944 180.506836 0.010421
v -43.412098 180.221466 0.010421
v -43.521370 179.943817 0.010421
v -43.652092 179.675613 0.010421
v -43.803452 179.418472 0.010421
v -46.833942 178.214264 -1.043067
v -47.081791 177.674133 0.010421
v -47.379612 177.692261 0.010421
v -45.584641 178.978500 -1.515570
v -44.454536 179.981720 -1.429011
v -47.675098 177.733704 0.010421
v -47.966419 177.798187 0.010421
v -46.660069 179.086472 -1.918036
v -45.411396 180.077789 -2.121096
v -43.260448 180.798157 0.010421
v -48.251781 177.885345 0.010421
v -48.529427 177.994614 0.010421
v -48.797642 178.125336 0.010421
v -49.054771 178.276703 0.010421
v -49.299236 178.447769 0.010421
v -49.529526 178.637497 0.010421
v -48.883057 179.309662 -1.515570
v -49.751137 179.396820 -0.761237
v -49.744217 178.844696 0.010421
v -49.941994 179.068115 0.010421
v -50.121628 179.306351 0.010421
v -50.282017 179.557953 0.010421
v -50.422173 179.821365 0.010421
v -48.834309 180.421463 -2.121096
v -49.791168 180.517532 -1.429011
v -50.490543 180.587738 -0.475210
v -50.541229 180.094955 0.010421
v -50.638451 180.377045 0.010421
v -50.713242 180.665894 0.010421
v -50.765141 180.959717 0.010421
v -46.252689 178.566376 -1.372304
v -48.091122 179.562897 0.010421
v -49.005615 180.569077 0.010421
v -49.089138 180.783676 0.010421
v -48.284828 179.687408 0.010421
v -48.464462 179.831497 0.010421
v -48.900116 180.364395 0.010421
v -48.628048 179.993561 0.010421
v -48.773800 180.171844 0.010421
v -47.010239 183.673218 0.010421
v -47.240143 183.660095 0.010421
v -47.467419 183.623016 0.010421
v -47.689568 183.562393 0.010421
v -47.904167 183.478867 0.010421
v -48.108856 183.373367 0.010421
v -48.301399 183.247055 0.010421
v -48.479683 183.101303 0.010421
v -48.641754 182.937714 0.010421
v -48.785835 182.758072 0.010421
v -48.910355 182.564362 0.010421
v -49.013943 182.358704 0.010421
v -49.095467 182.143341 0.010421
v -49.154030 181.920639 0.010421
v -49.188995 181.693024 0.010421
v -47.447384 179.319214 0.010421
v -49.199978 181.463013 0.010421
v -47.670090 179.377777 0.010421
v -49.186855 181.233109 0.010421
v -47.885456 179.459305 0.010421
v -49.149773 181.005829 0.010421
v -49.137489 181.687851 0.017236
v -49.099846 181.447769 0.037216
v -49.089497 181.683029 0.037216
v -49.042686 181.217957 0.069000
v -49.058426 181.448273 0.069000
v -49.046162 182.127579 0.017236
v -49.103348 181.910110 0.017236
v -49.011150 181.221893 0.110421
v -48.970360 180.998306 0.110421
v -49.056118 181.900299 0.037216
v -48.950935 181.002975 0.158657
v -48.904793 180.780670 0.110421
v -48.886017 180.787506 0.158657
v -49.048283 181.678894 0.069000
v -48.966557 182.337875 0.017236
v -49.026646 181.448654 0.110421
v -49.000217 182.112885 0.037216
v -48.991322 181.224380 0.158657
v -49.015564 181.891876 0.069000
v -48.865406 182.538696 0.017236
v -49.016655 181.675720 0.110421
v -48.922401 182.318451 0.037216
v -49.006668 181.448898 0.158657
v -48.960766 182.100266 0.069000
v -48.743816 182.727844 0.017236
v -48.984444 181.885406 0.110421
v -48.823521 182.514771 0.037216
v -48.996777 181.673721 0.158657
v -48.884483 182.301788 0.069000
v -48.603123 182.903259 0.017236
v -48.930492 182.090576 0.110421
v -48.704662 182.699677 0.037216
v -48.964882 181.881348 0.158657
v -48.787552 182.494232 0.069000
v -48.444866 183.062988 0.017236
v -48.855385 182.288986 0.110421
v -48.567127 182.871140 0.037216
v -48.911461 182.084503 0.158657
v -48.671040 182.675491 0.069000
v -48.270779 183.205307 0.017236
v -48.759953 182.478470 0.110421
v -48.412422 183.027298 0.037216
v -48.837097 182.280945 0.158657
v -48.536217 182.843567 0.069000
v -48.082767 183.328659 0.017236
v -48.645237 182.656921 0.110421
v -48.242245 183.166428 0.037216
v -47.955502 183.397293 0.017236
v -48.742603 182.468552 0.158657
v -48.384563 182.996643 0.069000
v -48.512497 182.822418 0.110421
v -48.058453 183.286987 0.037216
v -47.734070 183.492172 0.017236
v -48.629021 182.645248 0.158657
v -48.217739 183.133026 0.069000
v -47.934048 183.354080 0.037216
v -48.363186 182.973129 0.110421
v -48.497589 182.809113 0.158657
v -47.503407 183.561676 0.017236
v -48.037575 183.251221 0.069000
v -47.717587 183.446838 0.037216
v -48.198940 183.107391 0.110421
v -47.915623 183.316986 0.069000
v -48.349747 182.958344 0.158657
v -47.266411 183.604904 0.017236
v -47.492104 183.514771 0.037216
v -47.436859 179.369904 0.017236
v -47.654324 179.427094 0.017236
v -48.021557 183.223770 0.110421
v -47.427048 179.417130 0.037216
v -47.703434 183.407913 0.069000
v -48.187119 183.091293 0.158657
v -47.864624 179.506699 0.017236
v -47.026066 183.621323 0.017236
v -47.639633 179.473038 0.037216
v -47.901485 183.288528 0.110421
v -47.260429 183.557037 0.037216
v -47.418625 179.457687 0.069000
v -47.482395 183.474503 0.069000
v -48.065449 179.607849 0.017236
v -48.011486 183.206512 0.158657
v -47.845207 179.550842 0.037216
v -47.692574 183.378036 0.110421
v -47.627018 179.512482 0.069000
v -47.892601 183.270630 0.158657
v -47.025482 183.573090 0.037216
v -48.254601 179.729431 0.017236
v -47.412163 179.488800 0.110421
v -47.255291 183.515930 0.069000
v -48.041523 179.649734 0.037216
v -47.474949 183.443604 0.110421
v -47.685745 183.359268 0.158657
v -47.828537 179.588760 0.069000
v -47.024979 183.531677 0.069000
v -47.251350 183.484390 0.110421
v -48.430004 179.870117 0.017236
v -47.470264 183.424179 0.158657
v -47.617336 179.542755 0.110421
v -47.024593 183.499893 0.110421
v -48.226429 179.768585 0.037216
v -47.248875 183.464569 0.158657
v -47.408100 179.508362 0.158657
v -47.024349 183.479919 0.158657
v -48.020981 179.685699 0.069000
v -48.589745 180.028381 0.017236
v -47.815746 179.617859 0.110421
v -48.397896 179.906128 0.037216
v -47.611248 179.561783 0.158657
v -48.202236 179.802216 0.069000
v -48.732063 180.202469 0.017236
v -48.005219 179.713287 0.110421
v -48.554047 180.060822 0.037216
v -47.807705 179.636154 0.158657
v -48.370323 179.937027 0.069000
v -48.855408 180.390488 0.017236
v -48.183674 179.828003 0.110421
v -48.693172 180.231003 0.037216
v -48.924042 180.517746 0.017236
v -47.995308 179.730652 0.158657
v -48.523396 180.088684 0.069000
v -48.349167 179.960754 0.110421
v -48.813747 180.414795 0.037216
v -48.172009 179.844223 0.158657
v -49.018925 180.739182 0.017236
v -48.659775 180.255508 0.069000
v -48.880840 180.539200 0.037216
v -48.499874 180.110062 0.110421
v -48.335865 179.975662 0.158657
v -49.088421 180.969849 0.017236
v -48.777973 180.435669 0.069000
v -48.973595 180.755661 0.037216
v -48.634148 180.274307 0.110421
v -48.843742 180.557632 0.069000
v -48.485088 180.123505 0.158657
v -49.131653 181.206833 0.017236
v -49.041527 180.981140 0.037216
v -48.750519 180.451691 0.110421
v -48.934666 180.769821 0.069000
v -48.618038 180.286133 0.158657
v -49.148079 181.447174 0.017236
v -48.815273 180.571762 0.110421
v -49.083790 181.212814 0.037216
v -49.001259 180.990860 0.069000
v -48.733265 180.461761 0.158657
v -48.797379 180.580643 0.158657
v -47.394341 182.769119 -2.166883
v -47.195282 182.749146 -2.150589
v -46.996010 182.729126 -2.141567
v -46.796463 182.709091 -2.140679
v -46.476521 182.676971 -2.156218
v -48.319080 181.780167 -2.166827
v -48.202003 181.942902 -2.150529
v -48.084927 182.105621 -2.141539
v -47.967850 182.268356 -2.140693
v -47.780525 182.528717 -2.156219
v -47.925339 180.484360 -2.166827
v -48.007729 180.667114 -2.150529
v -48.090118 180.849869 -2.141539
v -48.172508 181.032623 -2.140693
v -48.304333 181.325027 -2.156219
v -46.606323 180.177444 -2.166836
v -46.806274 180.197510 -2.150519
v -47.006248 180.217590 -2.141521
v -47.205872 180.237640 -2.140712
v -47.524677 180.269638 -2.156282
v -45.680920 181.166321 -2.166827
v -45.797997 181.003601 -2.150529
v -45.915073 180.840866 -2.141539
v -46.032150 180.678146 -2.140693
v -46.219475 180.417770 -2.156219
v -46.074661 182.462143 -2.166827
v -45.992271 182.279388 -2.150529
v -45.909882 182.096634 -2.141539
v -45.827492 181.913879 -2.140693
v -45.695667 181.621460 -2.156219
v -47.151772 181.570801 -0.102079
v -47.348980 181.565018 -0.214579
v -47.181873 181.784912 -0.214579
v -47.311657 181.291367 -0.214579
v -47.489594 180.266113 -0.801823
v -47.667946 180.284027 -0.840052
v -47.930309 180.495377 -0.831283
v -47.842949 180.301590 -0.889579
v -48.018772 180.691605 -0.790453
v -48.312016 181.789978 -0.831283
v -48.309944 181.337479 -0.811053
v -48.436157 181.617432 -0.889579
v -48.186314 181.964706 -0.790453
v -47.418201 182.771515 -0.840052
v -47.772552 182.539810 -0.811053
v -47.593204 182.789093 -0.889579
v -47.239849 182.753616 -0.801823
v -48.099503 180.870682 -0.771422
v -47.480400 180.934692 -0.439579
v -47.307671 180.247849 -0.777465
v -48.181179 181.051849 -0.771651
v -47.705212 181.319916 -0.439579
v -48.071590 182.124161 -0.771422
v -47.660652 181.763718 -0.439579
v -47.955528 182.285477 -0.771651
v -47.057926 182.735352 -0.777465
v -47.363750 182.096558 -0.439579
v -47.145233 181.142929 -0.214579
v -47.240200 181.203964 -0.214579
v -47.076664 181.825851 -0.214579
v -45.772038 180.813904 14.010421
v -45.868607 180.659256 14.010421
v -45.984531 180.518555 14.010421
v -46.117832 180.394165 14.010421
v -46.680939 182.830017 14.010421
v -46.506577 182.776764 14.010421
v -46.266228 180.288254 14.010421
v -46.340652 182.701218 14.010421
v -46.427177 180.202621 14.010421
v -46.186012 182.604645 14.010421
v -46.597927 180.138718 14.010421
v -46.045300 182.488724 14.010421
v -46.775558 180.097656 14.010421
v -46.957031 180.080124 14.010421
v -45.920921 182.355423 14.010421
v -45.815006 182.207016 14.010421
v -45.729370 182.046066 14.010421
v -45.665470 181.875320 14.010421
v -45.624409 181.697693 14.010421
v -45.606880 181.516220 14.010421
v -45.613190 181.334015 14.010421
v -45.643227 181.154190 14.010421
v -45.696480 180.979828 14.010421
f 1 2 3
f 1 4 2
f 5 3 6
f 5 1 3
f 7 6 8
f 7 5 6
f 9 10 11
f 9 12 10
f 13 7 8
f 14 11 15
f 14 9 11
f 16 8 17
f 18 15 19
f 16 13 8
f 18 14 15
f 20 17 21
f 20 16 17
f 22 19 23
f 22 18 19
f 24 21 25
f 24 20 21
f 26 23 27
f 28 25 29
f 26 22 23
f 28 24 25
f 30 29 31
f 32 27 33
f 30 28 29
f 32 26 27
f 34 30 31
f 34 31 35
f 36 34 35
f 37 32 33
f 38 33 39
f 38 37 33
f 40 39 41
f 40 38 39
f 42 41 43
f 42 40 41
f 44 42 43
f 44 43 45
f 46 44 45
f 46 45 47
f 48 46 47
f 48 47 49
f 50 48 49
f 51 50 49
f 51 49 52
f 53 52 54
f 53 51 52
f 4 54 2
f 4 53 54
f 55 56 57
f 60 57 58
f 57 61 58
f 59 60 58
f 61 59 58
f 62 63 64
f 64 63 65
f 62 64 66
f 67 68 69
f 68 67 70
f 71 72 73
f 72 71 74
f 66 75 76
f 77 78 76
f 78 62 76
f 62 66 76
f 75 79 55
f 79 68 55
f 76 75 55
f 68 70 55
f 70 80 56
f 80 81 56
f 55 70 56
f 74 82 83
f 82 84 83
f 81 72 83
f 56 81 83
f 72 74 83
f 59 77 85
f 77 76 85
f 85 76 86
f 59 85 86
f 59 86 60
f 76 55 60
f 86 76 60
f 56 83 61
f 84 59 87
f 61 83 87
f 83 84 87
f 59 61 87
f 60 55 57
f 56 61 57
f 88 89 90
f 91 88 90
f 92 93 94
f 95 92 94
f 89 96 94
f 96 95 94
f 97 98 99
f 98 100 101
f 100 102 101
f 103 104 105
f 91 90 106
f 102 91 106
f 104 97 107
f 97 99 107
f 105 104 107
f 93 108 109
f 108 110 109
f 89 94 109
f 90 89 109
f 94 93 109
f 99 98 111
f 98 101 111
f 112 103 113
f 114 112 113
f 103 105 113
f 101 102 115
f 102 106 115
f 105 107 116
f 106 90 117
f 90 109 117
f 109 110 117
f 99 111 118
f 107 99 118
f 116 107 118
f 114 113 119
f 120 114 119
f 111 101 121
f 101 115 121
f 113 105 122
f 105 116 122
f 119 113 122
f 110 123 124
f 106 117 124
f 117 110 124
f 115 106 124
f 116 118 125
f 126 120 127
f 120 119 127
f 118 111 128
f 111 121 128
f 125 118 128
f 119 122 129
f 123 130 131
f 124 123 131
f 121 115 131
f 115 124 131
f 122 116 132
f 116 125 132
f 126 127 133
f 125 128 134
f 127 119 135
f 119 129 135
f 134 128 136
f 130 137 136
f 131 130 136
f 128 121 136
f 121 131 136
f 129 122 138
f 122 132 138
f 139 126 140
f 141 139 140
f 126 133 140
f 125 134 142
f 132 125 142
f 133 127 143
f 127 135 143
f 137 144 145
f 134 136 145
f 136 137 145
f 129 138 146
f 135 129 146
f 147 141 148
f 141 140 148
f 138 132 149
f 132 142 149
f 140 133 150
f 148 140 150
f 133 143 150
f 145 144 151
f 142 134 151
f 144 152 151
f 149 142 151
f 134 145 151
f 143 135 153
f 135 146 153
f 147 148 154
f 146 138 155
f 138 149 155
f 148 150 156
f 147 154 157
f 158 147 157
f 152 159 160
f 149 151 160
f 151 152 160
f 143 153 161
f 150 143 161
f 146 155 162
f 153 146 162
f 148 156 163
f 154 148 163
f 158 157 164
f 165 158 164
f 160 159 166
f 159 167 166
f 155 149 166
f 149 160 166
f 168 169 170
f 156 150 171
f 150 161 171
f 157 154 172
f 164 157 172
f 154 163 172
f 161 153 173
f 153 162 173
f 167 174 175
f 166 167 175
f 162 155 175
f 155 166 175
f 176 165 177
f 165 164 177
f 163 156 178
f 156 171 178
f 164 172 179
f 180 181 182
f 183 184 185
f 171 161 186
f 187 183 185
f 161 173 186
f 187 185 188
f 172 163 189
f 163 178 189
f 190 187 188
f 191 190 188
f 174 192 193
f 175 174 193
f 173 162 193
f 162 175 193
f 186 173 193
f 184 194 195
f 194 196 195
f 197 176 198
f 185 184 195
f 176 177 198
f 199 191 200
f 191 188 200
f 177 164 201
f 164 179 201
f 188 185 202
f 185 195 202
f 178 171 203
f 171 186 203
f 196 204 205
f 195 196 205
f 199 200 206
f 179 172 207
f 172 189 207
f 208 199 206
f 193 192 209
f 192 210 209
f 186 193 209
f 211 170 212
f 197 198 212
f 169 197 212
f 170 169 212
f 200 188 213
f 188 202 213
f 178 203 214
f 195 205 215
f 189 178 214
f 202 195 215
f 198 177 216
f 177 201 216
f 217 208 218
f 201 179 219
f 208 206 218
f 179 207 219
f 203 186 220
f 209 210 220
f 205 204 221
f 210 222 220
f 186 209 220
f 206 200 223
f 207 189 224
f 200 213 223
f 189 214 224
f 203 220 225
f 222 226 225
f 213 202 227
f 220 222 225
f 202 215 227
f 214 203 225
f 217 218 228
f 198 216 229
f 230 217 228
f 212 198 229
f 211 212 229
f 215 205 231
f 205 221 231
f 216 201 232
f 201 219 232
f 219 207 233
f 228 218 234
f 218 206 234
f 207 224 233
f 206 223 234
f 224 214 235
f 214 225 235
f 236 237 238
f 225 226 235
f 204 239 238
f 239 236 238
f 240 211 241
f 221 204 238
f 213 227 242
f 211 229 241
f 229 216 241
f 216 232 241
f 223 213 242
f 230 228 243
f 219 233 244
f 232 219 244
f 226 245 246
f 245 247 246
f 224 235 246
f 233 224 246
f 235 226 246
f 215 231 248
f 249 240 250
f 240 241 250
f 227 215 248
f 241 232 250
f 232 244 250
f 244 233 251
f 228 234 252
f 246 247 251
f 233 246 251
f 180 249 253
f 238 237 254
f 181 180 253
f 237 255 254
f 249 250 253
f 244 251 253
f 247 181 253
f 221 238 254
f 250 244 253
f 231 221 254
f 251 247 253
f 223 242 256
f 234 223 256
f 252 234 256
f 257 230 258
f 230 243 258
f 227 248 259
f 242 227 259
f 243 228 260
f 258 243 260
f 228 252 260
f 231 254 261
f 255 262 261
f 248 231 261
f 254 255 261
f 252 256 263
f 264 257 265
f 257 258 265
f 242 259 266
f 256 242 266
f 258 260 267
f 264 265 268
f 269 264 268
f 259 248 270
f 262 271 270
f 261 262 270
f 248 261 270
f 260 252 272
f 252 263 272
f 263 256 273
f 256 266 273
f 265 258 274
f 258 267 274
f 271 275 276
f 270 271 276
f 266 259 276
f 259 270 276
f 273 266 276
f 269 268 277
f 278 269 277
f 260 272 279
f 267 260 279
f 277 268 280
f 268 265 280
f 265 274 280
f 272 263 281
f 263 273 281
f 275 282 283
f 273 276 283
f 276 275 283
f 278 277 284
f 285 278 284
f 274 267 286
f 267 279 286
f 277 280 287
f 279 272 288
f 272 281 288
f 280 274 289
f 274 286 289
f 282 290 291
f 283 282 291
f 281 273 291
f 273 283 291
f 288 281 291
f 285 284 292
f 293 285 292
f 284 277 294
f 292 284 294
f 277 287 294
f 279 288 295
f 286 279 295
f 287 280 88
f 280 289 88
f 290 296 297
f 291 290 297
f 288 291 297
f 298 293 299
f 293 292 299
f 289 286 96
f 286 295 96
f 292 294 100
f 299 292 100
f 287 88 91
f 294 287 91
f 296 92 300
f 295 288 300
f 297 296 300
f 288 297 300
f 96 295 300
f 301 298 97
f 298 299 97
f 88 289 89
f 289 96 89
f 96 300 95
f 300 92 95
f 97 299 98
f 299 100 98
f 100 294 102
f 294 91 102
f 302 301 104
f 103 302 104
f 301 97 104
f 303 304 305
f 303 306 307
f 308 307 309
f 308 310 304
f 308 304 303
f 308 303 307
f 308 309 311
f 312 313 310
f 312 310 308
f 314 315 316
f 312 308 311
f 312 317 313
f 312 311 317
f 318 314 316
f 319 320 321
f 322 314 318
f 319 321 323
f 319 323 324
f 319 324 325
f 319 325 322
f 326 322 318
f 319 322 326
f 327 328 329
f 327 326 330
f 327 330 331
f 327 331 328
f 327 329 332
f 327 319 326
f 333 327 332
f 333 334 335
f 333 332 334
f 336 337 338
f 336 319 327
f 336 338 339
f 336 339 340
f 336 340 341
f 336 341 320
f 336 320 319
f 306 336 327
f 306 327 333
f 306 333 335
f 306 335 342
f 305 343 344
f 305 344 345
f 305 345 346
f 305 346 347
f 305 347 348
f 329 328 349
f 305 348 337
f 329 349 350
f 305 336 306
f 351 352 353
f 305 337 336
f 351 354 352
f 307 306 342
f 307 355 309
f 307 342 355
f 356 357 354
f 356 354 351
f 358 359 360
f 358 361 359
f 311 362 363
f 311 309 362
f 304 364 365
f 304 365 343
f 304 343 305
f 366 367 368
f 366 360 367
f 366 369 357
f 366 370 369
f 366 368 370
f 366 358 360
f 317 363 361
f 317 311 363
f 317 361 358
f 317 358 366
f 310 371 372
f 310 372 364
f 310 364 304
f 373 356 374
f 373 374 375
f 373 375 376
f 373 376 377
f 373 377 378
f 373 366 357
f 373 357 356
f 379 378 380
f 379 380 381
f 379 381 382
f 379 382 383
f 379 383 384
f 379 366 373
f 379 317 366
f 379 373 378
f 367 385 386
f 313 371 310
f 368 367 386
f 313 384 387
f 313 387 388
f 313 388 389
f 313 389 390
f 313 390 391
f 313 391 371
f 313 379 384
f 313 317 379
f 303 305 306
f 392 393 48
f 394 50 51
f 394 51 53
f 394 392 50
f 395 53 4
f 395 394 53
f 396 395 4
f 397 12 9
f 397 182 12
f 398 4 1
f 398 396 4
f 399 9 14
f 399 14 18
f 399 397 9
f 400 1 5
f 400 398 1
f 401 399 18
f 402 5 7
f 402 400 5
f 403 18 22
f 403 22 26
f 403 401 18
f 404 7 13
f 404 402 7
f 405 403 26
f 406 13 16
f 406 16 20
f 406 404 13
f 407 26 32
f 407 32 37
f 407 405 26
f 408 406 20
f 409 407 37
f 410 20 24
f 410 408 20
f 411 37 38
f 412 24 28
f 412 410 24
f 411 409 37
f 413 28 30
f 413 412 28
f 414 38 40
f 415 413 30
f 415 30 34
f 414 411 38
f 236 34 36
f 236 415 34
f 416 40 42
f 416 42 44
f 416 414 40
f 417 416 44
f 418 417 44
f 418 44 46
f 393 46 48
f 393 418 46
f 392 48 50
f 137 130 419
f 137 419 420
f 144 137 420
f 152 420 421
f 152 144 420
f 237 236 36
f 237 36 422
f 237 422 423
f 159 421 424
f 159 152 421
f 167 424 425
f 255 237 423
f 167 159 424
f 262 423 426
f 262 426 427
f 174 425 428
f 262 255 423
f 174 167 425
f 192 428 429
f 271 262 427
f 192 174 428
f 275 427 430
f 275 430 431
f 210 429 432
f 275 271 427
f 210 192 429
f 282 275 431
f 222 432 433
f 222 433 434
f 222 210 432
f 290 431 435
f 226 222 434
f 290 282 431
f 245 434 436
f 245 436 437
f 296 435 438
f 296 438 439
f 245 226 434
f 296 290 435
f 247 245 437
f 181 437 440
f 181 247 437
f 92 296 439
f 182 440 12
f 182 181 440
f 93 92 439
f 93 439 441
f 108 93 441
f 108 441 442
f 108 442 443
f 110 443 444
f 110 108 443
f 123 110 444
f 130 444 445
f 130 445 419
f 130 123 444
f 446 447 385
f 447 448 385
f 334 449 450
f 451 452 453
f 334 450 454
f 455 456 362
f 457 455 362
f 453 452 458
f 309 457 362
f 459 460 461
f 462 463 367
f 464 462 367
f 459 461 465
f 463 385 367
f 456 466 363
f 461 460 467
f 454 468 335
f 334 454 335
f 362 456 363
f 469 464 360
f 470 458 471
f 458 452 471
f 464 367 360
f 469 360 359
f 335 468 472
f 473 459 474
f 475 469 359
f 459 465 474
f 476 475 359
f 363 466 361
f 460 477 478
f 476 359 361
f 479 476 361
f 466 479 361
f 470 471 480
f 467 460 478
f 481 473 482
f 473 474 482
f 478 477 483
f 477 484 483
f 472 485 342
f 335 472 342
f 481 482 486
f 487 480 488
f 480 471 488
f 483 484 489
f 481 486 490
f 350 481 490
f 489 484 491
f 484 492 491
f 350 490 493
f 491 492 494
f 495 496 355
f 485 495 355
f 329 350 497
f 342 485 355
f 350 493 497
f 498 487 448
f 447 498 448
f 494 492 499
f 492 500 499
f 487 488 448
f 329 497 501
f 499 500 502
f 332 329 503
f 329 501 503
f 500 504 505
f 502 500 505
f 332 503 449
f 505 504 451
f 506 457 309
f 496 506 309
f 355 496 309
f 332 449 334
f 463 446 385
f 451 504 452
f 507 508 509
f 507 510 508
f 507 511 510
f 354 357 512
f 513 354 512
f 352 354 513
f 353 352 513
f 514 515 516
f 514 516 517
f 514 517 518
f 514 518 519
f 514 519 520
f 514 520 521
f 522 523 524
f 522 524 525
f 522 525 526
f 522 526 527
f 522 527 515
f 522 515 514
f 528 529 530
f 528 530 531
f 349 328 481
f 528 531 532
f 528 532 533
f 528 533 523
f 528 326 529
f 528 523 522
f 534 514 521
f 534 521 535
f 534 535 536
f 350 349 481
f 537 477 460
f 537 522 514
f 538 330 326
f 538 331 330
f 538 328 331
f 538 528 522
f 538 481 328
f 538 326 528
f 538 473 481
f 538 522 537
f 508 534 536
f 508 536 539
f 508 539 540
f 541 477 537
f 541 484 477
f 541 492 484
f 542 473 538
f 542 538 537
f 542 537 460
f 542 459 473
f 316 315 543
f 542 460 459
f 511 500 492
f 511 504 500
f 318 543 529
f 509 540 544
f 509 544 545
f 509 545 546
f 509 546 547
f 509 547 548
f 318 316 543
f 509 548 549
f 509 508 540
f 550 504 511
f 326 318 529
f 550 452 504
f 551 549 552
f 551 552 553
f 551 550 509
f 551 553 554
f 551 554 555
f 551 555 556
f 551 509 549
f 557 452 550
f 557 471 452
f 557 488 471
f 558 550 551
f 386 385 448
f 558 357 369
f 558 369 370
f 558 370 368
f 558 448 488
f 558 488 557
f 558 368 448
f 558 557 550
f 559 558 551
f 559 556 560
f 368 386 448
f 559 560 561
f 559 561 562
f 559 562 563
f 559 563 512
f 559 551 556
f 559 357 558
f 559 512 357
f 564 541 537
f 564 537 514
f 564 514 534
f 510 534 508
f 510 541 564
f 510 511 492
f 510 492 541
f 510 564 534
f 507 550 511
f 507 509 550
f 546 565 547
f 566 567 560
f 567 561 560
f 547 568 548
f 568 569 548
f 570 566 556
f 566 560 556
f 548 569 549
f 570 556 555
f 549 569 552
f 569 571 552
f 570 555 554
f 572 570 554
f 572 554 553
f 552 571 553
f 571 572 553
f 340 339 257
f 339 338 230
f 257 339 230
f 341 340 264
f 320 341 264
f 340 257 264
f 337 348 217
f 338 337 217
f 230 338 217
f 321 320 269
f 320 264 269
f 348 347 208
f 217 348 208
f 323 321 278
f 321 269 278
f 347 346 199
f 208 347 199
f 324 323 285
f 325 324 285
f 323 278 285
f 345 344 191
f 346 345 191
f 199 346 191
f 322 325 293
f 325 285 293
f 344 343 190
f 191 344 190
f 314 322 298
f 322 293 298
f 343 365 187
f 190 343 187
f 315 314 301
f 543 315 301
f 314 298 301
f 364 372 183
f 365 364 183
f 187 365 183
f 529 543 302
f 543 301 302
f 183 372 573
f 372 371 573
f 529 302 103
f 530 529 103
f 573 371 574
f 371 391 574
f 530 103 112
f 531 530 112
f 532 531 112
f 574 391 575
f 390 389 575
f 391 390 575
f 532 112 114
f 533 532 114
f 389 388 576
f 575 389 576
f 523 533 120
f 533 114 120
f 388 387 577
f 576 388 577
f 523 120 126
f 524 523 126
f 387 384 578
f 577 387 578
f 524 126 525
f 578 384 383
f 525 126 139
f 578 383 579
f 525 139 526
f 579 383 382
f 526 139 141
f 579 382 580
f 526 141 527
f 580 382 381
f 527 141 147
f 580 381 581
f 527 147 515
f 581 381 380
f 147 158 516
f 515 147 516
f 582 581 378
f 581 380 378
f 158 165 517
f 516 158 517
f 582 378 377
f 583 582 377
f 165 176 518
f 517 165 518
f 583 377 376
f 584 583 376
f 518 176 519
f 584 376 375
f 519 176 520
f 176 197 520
f 584 375 374
f 585 584 374
f 520 197 521
f 197 169 521
f 585 374 356
f 586 585 356
f 169 168 535
f 521 169 535
f 586 356 351
f 587 586 351
f 535 168 536
f 587 351 353
f 536 168 539
f 168 588 539
f 587 353 513
f 589 587 513
f 539 588 540
f 588 590 540
f 589 513 512
f 591 589 512
f 540 590 544
f 590 592 544
f 591 512 563
f 593 591 563
f 544 592 545
f 593 563 562
f 592 565 546
f 545 592 546
f 567 593 561
f 593 562 561
f 565 568 547
f 594 595 596
f 595 597 598
f 588 168 170
f 585 586 599
f 586 600 599
f 598 597 601
f 597 602 601
f 594 596 603
f 600 594 603
f 416 417 604
f 602 605 604
f 606 416 604
f 605 606 604
f 601 602 604
f 596 595 607
f 595 598 607
f 585 599 608
f 584 585 608
f 583 584 608
f 598 601 609
f 607 598 609
f 599 600 610
f 600 603 610
f 417 418 611
f 604 417 611
f 601 604 611
f 609 601 611
f 603 596 612
f 596 607 612
f 610 603 612
f 583 608 613
f 607 609 614
f 608 599 615
f 599 610 615
f 613 608 615
f 418 393 616
f 393 392 616
f 611 418 616
f 609 611 616
f 610 612 617
f 582 583 618
f 581 582 618
f 583 613 618
f 612 607 619
f 607 614 619
f 617 612 619
f 613 615 620
f 614 609 621
f 609 616 621
f 616 392 621
f 615 610 622
f 610 617 622
f 620 615 622
f 581 618 623
f 617 619 624
f 623 618 625
f 618 613 625
f 613 620 625
f 392 394 626
f 619 614 626
f 614 621 626
f 621 392 626
f 620 622 627
f 580 581 628
f 581 623 628
f 617 624 629
f 627 622 629
f 622 617 629
f 628 623 630
f 623 625 630
f 619 626 631
f 624 619 631
f 394 395 631
f 626 394 631
f 630 625 632
f 620 627 632
f 625 620 632
f 579 580 633
f 580 628 633
f 627 629 634
f 628 630 635
f 624 631 636
f 629 624 636
f 395 396 636
f 631 395 636
f 634 629 636
f 630 632 637
f 578 579 638
f 579 633 638
f 637 632 639
f 632 627 639
f 627 634 639
f 633 628 640
f 628 635 640
f 577 578 641
f 578 638 641
f 396 398 642
f 636 396 642
f 634 636 642
f 635 630 643
f 630 637 643
f 637 639 644
f 643 637 644
f 633 640 645
f 638 633 645
f 577 641 646
f 576 577 646
f 642 398 647
f 398 400 647
f 634 642 647
f 644 639 647
f 639 634 647
f 640 635 648
f 635 643 648
f 638 645 649
f 641 638 649
f 643 644 650
f 648 643 650
f 400 402 651
f 647 400 651
f 644 647 651
f 183 573 184
f 650 644 651
f 576 646 652
f 575 576 652
f 645 640 653
f 640 648 653
f 652 646 654
f 641 649 654
f 646 641 654
f 648 650 655
f 653 648 655
f 645 653 656
f 649 645 656
f 402 404 657
f 651 402 657
f 650 651 657
f 575 652 658
f 574 575 658
f 239 415 236
f 652 654 659
f 588 170 660
f 588 660 661
f 656 653 662
f 590 588 661
f 653 655 662
f 660 170 663
f 170 211 663
f 211 240 663
f 654 649 664
f 649 656 664
f 650 657 665
f 661 660 663
f 404 406 665
f 657 404 665
f 592 590 666
f 655 650 665
f 565 592 666
f 573 574 667
f 590 661 666
f 184 573 667
f 574 658 667
f 661 663 668
f 656 662 669
f 652 659 670
f 667 658 670
f 658 652 670
f 668 663 671
f 663 240 671
f 670 659 672
f 659 654 672
f 568 565 673
f 565 666 673
f 654 664 672
f 655 665 674
f 662 655 674
f 666 661 675
f 665 406 674
f 406 408 674
f 669 662 674
f 673 666 675
f 664 656 676
f 661 668 675
f 656 669 676
f 672 664 676
f 668 671 677
f 408 410 678
f 669 674 678
f 674 408 678
f 667 670 679
f 569 568 680
f 184 667 679
f 194 184 679
f 568 673 680
f 671 240 681
f 240 249 681
f 670 672 682
f 677 671 681
f 673 675 683
f 672 676 684
f 682 672 684
f 680 673 683
f 676 669 685
f 669 678 685
f 675 668 686
f 678 410 685
f 679 670 687
f 668 677 686
f 670 682 687
f 683 675 686
f 194 679 687
f 196 194 687
f 687 682 688
f 682 684 688
f 569 680 689
f 410 412 690
f 677 681 691
f 684 676 690
f 686 677 691
f 676 685 690
f 685 410 690
f 196 687 692
f 687 688 692
f 689 680 693
f 204 196 692
f 680 683 693
f 688 684 694
f 182 397 695
f 412 413 694
f 413 415 694
f 684 690 694
f 249 180 695
f 690 412 694
f 180 182 695
f 681 249 695
f 694 415 696
f 415 239 696
f 688 694 696
f 692 688 696
f 204 692 696
f 693 683 697
f 239 204 696
f 683 686 697
f 571 569 698
f 572 571 698
f 569 689 698
f 697 686 699
f 686 691 699
f 689 693 700
f 397 399 701
f 691 681 701
f 695 397 701
f 681 695 701
f 693 697 702
f 700 693 702
f 572 698 703
f 697 699 704
f 702 697 704
f 689 700 705
f 698 689 705
f 399 401 706
f 691 701 706
f 699 691 706
f 701 399 706
f 704 699 706
f 700 702 707
f 572 703 708
f 570 572 708
f 707 702 709
f 702 704 709
f 698 705 710
f 703 698 710
f 570 708 711
f 566 570 711
f 401 403 712
f 706 401 712
f 709 704 712
f 704 706 712
f 700 707 713
f 705 700 713
f 710 705 713
f 707 709 714
f 713 707 714
f 711 708 715
f 703 710 715
f 708 703 715
f 403 405 716
f 712 403 716
f 709 712 716
f 714 709 716
f 566 711 717
f 567 566 717
f 710 713 718
f 711 715 719
f 717 711 719
f 713 714 720
f 718 713 720
f 405 407 721
f 716 405 721
f 714 716 721
f 593 567 722
f 567 717 722
f 710 718 723
f 719 715 723
f 715 710 723
f 717 719 724
f 722 717 724
f 718 720 725
f 723 718 725
f 719 723 726
f 407 409 727
f 720 714 727
f 714 721 727
f 721 407 727
f 591 593 728
f 593 722 728
f 722 724 729
f 728 722 729
f 726 723 730
f 723 725 730
f 724 719 731
f 719 726 731
f 409 411 732
f 727 409 732
f 725 720 732
f 720 727 732
f 589 591 733
f 591 728 733
f 726 730 734
f 731 726 734
f 733 728 735
f 728 729 735
f 735 729 736
f 729 724 736
f 724 731 736
f 411 414 737
f 732 411 737
f 730 725 737
f 725 732 737
f 734 730 737
f 587 589 594
f 589 733 594
f 736 731 605
f 731 734 605
f 734 737 738
f 414 416 738
f 737 414 738
f 733 735 595
f 594 733 595
f 735 736 597
f 595 735 597
f 586 587 600
f 587 594 600
f 597 736 602
f 736 605 602
f 738 416 606
f 605 734 606
f 734 738 606
f 739 466 456
f 740 739 455
f 739 456 455
f 741 740 457
f 740 455 457
f 742 741 506
f 741 457 506
f 742 506 496
f 742 496 743
f 743 496 495
f 743 495 485
f 743 485 472
f 744 446 463
f 745 744 462
f 744 463 462
f 746 745 464
f 745 462 464
f 747 746 469
f 746 464 469
f 747 469 475
f 747 475 748
f 748 475 476
f 748 476 479
f 748 479 466
f 749 451 453
f 750 749 458
f 749 453 458
f 751 750 470
f 750 458 470
f 752 751 480
f 751 470 480
f 752 480 487
f 752 487 753
f 753 487 498
f 753 498 447
f 753 447 446
f 754 478 483
f 755 754 489
f 754 483 489
f 756 755 491
f 755 489 491
f 757 756 494
f 756 491 494
f 757 494 499
f 757 499 758
f 758 499 502
f 758 502 505
f 758 505 451
f 759 493 490
f 760 759 486
f 759 490 486
f 761 760 482
f 760 486 482
f 762 761 474
f 761 482 474
f 762 474 465
f 762 465 763
f 763 465 461
f 763 461 467
f 763 467 478
f 764 472 468
f 765 764 454
f 764 468 454
f 766 765 450
f 765 454 450
f 767 766 449
f 766 450 449
f 767 449 503
f 767 503 768
f 768 503 501
f 768 501 497
f 768 497 493
f 770 771 769
f 772 770 769
f 771 59 769
f 59 772 769
f 773 774 775
f 775 774 776
f 773 775 777
f 778 779 780
f 779 778 781
f 782 783 784
f 783 782 785
f 777 786 787
f 84 788 787
f 788 773 787
f 773 777 787
f 786 789 790
f 789 779 790
f 787 786 790
f 779 781 790
f 781 791 792
f 791 793 792
f 790 781 792
f 785 794 795
f 794 77 795
f 793 783 795
f 792 793 795
f 783 785 795
f 59 84 796
f 84 787 796
f 796 787 797
f 59 796 797
f 59 797 772
f 787 790 772
f 797 787 772
f 792 795 771
f 77 59 798
f 771 795 798
f 59 771 798
f 795 77 798
f 772 790 770
f 792 771 770
f 790 792 770
f 748 466 784
f 747 748 783
f 748 784 783
f 747 783 793
f 746 747 791
f 747 793 791
f 745 746 781
f 746 791 781
f 745 781 778
f 744 745 780
f 446 744 780
f 745 778 780
f 472 65 743
f 63 62 743
f 65 63 743
f 78 77 742
f 62 78 742
f 743 62 742
f 794 785 741
f 77 794 741
f 742 77 741
f 782 784 740
f 785 782 740
f 741 785 740
f 740 784 739
f 739 784 466
f 768 493 69
f 767 768 68
f 768 69 68
f 767 68 79
f 766 767 75
f 767 79 75
f 765 766 66
f 766 75 66
f 765 66 64
f 764 765 65
f 472 764 65
f 765 64 65
f 763 478 73
f 762 763 72
f 763 73 72
f 762 72 81
f 761 762 80
f 762 81 80
f 760 761 70
f 761 80 70
f 760 70 67
f 759 760 69
f 493 759 69
f 760 67 69
f 758 451 776
f 758 776 774
f 757 758 773
f 758 774 773
f 757 773 788
f 756 757 84
f 757 788 84
f 756 84 82
f 755 756 74
f 756 82 74
f 755 74 71
f 754 755 73
f 478 754 73
f 755 71 73
f 753 446 780
f 752 753 779
f 753 780 779
f 752 779 789
f 751 752 786
f 752 789 786
f 750 751 777
f 751 786 777
f 750 777 775
f 749 750 776
f 451 749 776
f 750 775 776
f 424 799 800
f 424 421 799
f 425 800 801
f 425 424 800
f 428 801 802
f 428 425 801
f 422 36 35
f 422 35 803
f 429 428 802
f 423 803 804
f 423 422 803
f 432 802 805
f 426 804 806
f 432 429 802
f 426 423 804
f 433 805 807
f 433 432 805
f 427 806 808
f 427 426 806
f 434 807 809
f 434 433 807
f 430 808 810
f 436 809 811
f 430 427 808
f 436 434 809
f 437 811 812
f 431 810 813
f 437 436 811
f 431 430 810
f 440 437 812
f 440 812 10
f 12 440 10
f 435 431 813
f 438 813 814
f 438 435 813
f 439 814 815
f 439 438 814
f 441 815 816
f 441 439 815
f 442 441 816
f 442 816 817
f 443 442 817
f 443 817 818
f 444 443 818
f 444 818 819
f 445 444 819
f 419 445 819
f 419 819 820
f 420 820 821
f 420 419 820
f 421 821 799
f 421 420 821
f 805 806 807
f 807 806 809
f 809 806 811
f 806 804 811
f 3 2 54
f 6 3 54
f 818 817 819
f 811 804 10
f 35 31 10
f 803 35 10
f 804 803 10
f 812 811 10
f 54 52 49
f 815 814 821
f 816 815 821
f 11 10 15
f 817 816 821
f 820 819 821
f 819 817 821
f 25 21 15
f 29 25 15
f 31 29 15
f 10 31 15
f 54 49 45
f 49 47 45
f 821 814 799
f 15 21 19
f 17 8 23
f 21 17 23
f 19 21 23
f 23 8 27
f 43 41 39
f 45 43 39
f 6 54 39
f 8 6 39
f 813 810 801
f 814 813 801
f 800 799 801
f 54 45 39
f 8 39 33
f 799 814 801
f 27 8 33
f 801 810 802
f 808 806 805
f 810 808 805
f 802 810 805
