# Created by FreeCAD <http://www.freecadweb.org>
v 6.293765 17.043438 11.650000
v 6.772038 16.659348 12.000000
v 6.868606 16.813988 12.000000
v 6.187665 16.845839 11.650000
v 6.421321 17.227915 11.650000
v 6.984531 16.954700 12.000000
v 6.568730 17.396950 11.650000
v 7.117832 17.079079 12.000000
v 7.578651 14.044888 11.650000
v 7.860764 14.613190 12.000000
v 7.680940 14.643229 12.000000
v 7.800203 14.010005 11.650000
v 6.734138 17.548416 11.650000
v 7.362397 14.104357 11.650000
v 7.506575 14.696482 12.000000
v 6.915466 17.680412 11.650000
v 7.266227 17.184992 12.000000
v 7.154161 14.187665 11.650000
v 7.340653 14.772038 12.000000
v 7.110431 17.791275 11.650000
v 7.427177 17.270632 12.000000
v 6.956563 14.293765 11.650000
v 7.186013 14.868606 12.000000
v 7.316584 17.879612 11.650000
v 7.597929 17.334530 12.000000
v 6.772086 14.421321 11.650000
v 7.045300 14.984531 12.000000
v 7.531331 17.944311 11.650000
v 7.775559 17.375593 12.000000
v 7.751972 17.984560 11.650000
v 7.957030 17.393120 12.000000
v 6.603051 14.568730 11.650000
v 6.920922 15.117832 12.000000
v 7.975732 17.999853 11.650000
v 8.139236 17.386810 12.000000
v 8.199797 17.989996 11.650000
v 6.451583 14.734138 11.650000
v 6.319588 14.915465 11.650000
v 6.815008 15.266228 12.000000
v 6.208724 15.110432 11.650000
v 6.729369 15.427177 12.000000
v 6.120388 15.316584 11.650000
v 6.665471 15.597929 12.000000
v 6.055688 15.531331 11.650000
v 6.624407 15.775559 12.000000
v 6.015439 15.751972 11.650000
v 6.606880 15.957030 12.000000
v 6.000147 15.975732 11.650000
v 6.613190 16.139236 12.000000
v 6.010005 16.199797 11.650000
v 6.044888 16.421349 11.650000
v 6.643229 16.319061 12.000000
v 6.104357 16.637604 11.650000
v 6.696481 16.493425 12.000000
v 8.151771 15.902440 -2.112500
v 8.000000 16.000000 -2.000000
v 8.311657 16.181875 -2.225000
v 8.348979 15.908230 -2.225000
v 8.181874 15.688343 -2.225000
v 8.487791 17.207310 -2.812396
v 8.666822 17.189335 -2.850430
v 8.930310 16.977871 -2.841704
v 8.842951 17.171652 -2.900000
v 9.018771 16.781649 -2.800874
v 9.312016 15.683264 -2.841704
v 9.309945 16.135769 -2.821474
v 9.436155 15.855809 -2.900000
v 9.186313 15.508542 -2.800874
v 8.417077 14.701840 -2.850430
v 8.772552 14.933438 -2.821474
v 8.593204 14.684157 -2.900000
v 8.238046 14.719815 -2.812396
v 9.099504 16.602568 -2.781843
v 8.480402 16.538561 -2.450000
v 8.124873 17.243748 -2.779423
v 8.306820 17.225479 -2.788020
v 9.181179 16.421396 -2.782073
v 8.705212 16.153332 -2.450000
v 9.071591 15.349086 -2.781843
v 8.660654 15.709535 -2.450000
v 8.955529 15.187767 -2.782073
v 8.057075 14.737986 -2.788020
v 8.363750 15.376686 -2.450000
v 7.875127 14.756253 -2.779423
v 8.145232 16.330326 -2.225000
v 8.240201 16.269279 -2.225000
v 8.076666 15.647394 -2.225000
v 9.934665 16.703432 -1.941421
v 9.904795 16.692572 -1.900000
v 9.970361 16.474949 -1.900000
v 10.001260 16.482395 -1.941421
v 9.791275 16.889568 -1.800000
v 9.879612 16.683416 -1.800000
v 9.886017 16.685745 -1.851764
v 9.797379 16.892599 -1.851764
v 9.815274 16.901487 -1.900000
v 10.137490 15.785395 -1.993185
v 10.099845 16.025482 -1.973205
v 10.089495 15.790214 -1.973205
v 10.083789 16.260429 -1.973205
v 10.058427 16.024979 -1.941421
v 10.042687 16.255293 -1.941421
v 10.095466 15.329908 -2.000000
v 10.103348 15.563142 -1.993185
v 10.046162 15.345675 -1.993185
v 10.011149 16.251350 -1.900000
v 10.056120 15.572951 -1.973205
v 9.944312 16.468670 -1.800000
v 9.950937 16.470266 -1.851764
v 9.984561 16.248028 -1.800000
v 10.048281 15.794352 -1.941421
v 10.013943 15.114544 -2.000000
v 9.966558 15.135378 -1.993185
v 9.910356 14.908880 -2.000000
v 10.026646 16.024593 -1.900000
v 10.000217 15.360368 -1.973205
v 9.991323 16.248873 -1.851764
v 10.015564 15.581374 -1.941421
v 9.865406 14.934553 -1.993185
v 9.785837 14.715171 -2.000000
v 10.016656 15.797526 -1.900000
v 9.922400 15.154792 -1.973205
v 9.999853 16.024269 -1.800000
v 10.006667 16.024351 -1.851764
v 9.960764 15.372984 -1.941421
v 9.641752 14.535539 -2.000000
v 9.743818 14.745401 -1.993185
v 9.984445 15.587837 -1.900000
v 9.823521 14.958476 -1.973205
v 9.989995 15.800203 -1.800000
v 9.996776 15.799522 -1.851764
v 9.884482 15.171463 -1.941421
v 9.603124 14.569996 -1.993185
v 9.930490 15.382665 -1.900000
v 9.704662 14.773572 -1.973205
v 9.964882 15.591901 -1.851764
v 9.955112 15.578650 -1.800000
v 9.787553 14.979020 -1.941421
v 9.479681 14.371951 -2.000000
v 9.444865 14.410257 -1.993185
v 9.301397 14.226201 -2.000000
v 9.855386 15.184256 -1.900000
v 9.567127 14.602105 -1.973205
v 9.895643 15.362397 -1.800000
v 9.911460 15.388750 -1.851764
v 9.671039 14.797763 -1.941421
v 9.108856 14.099885 -2.000000
v 9.270777 14.267937 -1.993185
v 9.759953 14.994783 -1.900000
v 9.412423 14.445953 -1.973205
v 9.837096 15.192297 -1.851764
v 9.812335 15.154161 -1.800000
v 9.536217 14.629678 -1.941421
v 9.082766 14.144592 -1.993185
v 9.645239 14.816324 -1.900000
v 9.242243 14.306828 -1.973205
v 8.955502 14.075958 -1.993185
v 8.904165 13.994387 -2.000000
v 9.706235 14.956563 -1.800000
v 9.742604 15.004693 -1.851764
v 9.384563 14.476605 -1.941421
v 9.512498 14.650835 -1.900000
v 9.058454 14.186254 -1.973205
v 8.734070 13.981074 -1.993185
v 8.689569 13.910863 -2.000000
v 9.629020 14.827993 -1.851764
v 9.578679 14.772086 -1.800000
v 7.780223 13.811006 -2.000000
v 8.010240 13.800024 -2.000000
v 7.785395 13.862510 -1.993185
v 9.217741 14.340225 -1.941421
v 8.934047 14.119161 -1.973205
v 9.363187 14.500127 -1.900000
v 9.431270 14.603051 -1.800000
v 9.497588 14.664135 -1.851764
v 8.467417 13.850227 -2.000000
v 8.503406 13.911579 -1.993185
v 9.037576 14.222029 -1.941421
v 8.717587 14.026407 -1.973205
v 7.799522 14.003224 -1.851764
v 8.024268 14.000147 -1.800000
v 7.800203 14.010005 -1.800000
v 8.219776 18.188995 -2.000000
v 8.214605 18.137489 -1.993185
v 8.436858 18.103348 -1.993185
v 9.198939 14.365851 -1.900000
v 8.447385 18.154030 -2.000000
v 8.654325 18.046162 -1.993185
v 8.915624 14.156260 -1.941421
v 8.670092 18.095467 -2.000000
v 8.885456 18.013943 -2.000000
v 9.265862 14.451583 -1.800000
v 9.349748 14.514913 -1.851764
v 8.209786 18.089495 -1.973205
v 8.427049 18.056120 -1.973205
v 8.205648 18.048281 -1.941421
v 8.240144 13.813146 -2.000000
v 8.266412 13.868347 -1.993185
v 9.091120 17.910355 -2.000000
v 8.864622 17.966557 -1.993185
v 8.492103 13.958472 -1.973205
v 8.639632 18.000217 -1.973205
v 9.021556 14.249480 -1.900000
v 8.202474 18.016657 -1.900000
v 8.418626 18.015564 -1.941421
v 9.065447 17.865406 -1.993185
v 8.703433 14.065335 -1.941421
v 9.284829 17.785837 -2.000000
v 9.187120 14.381961 -1.851764
v 9.084535 14.319588 -1.800000
v 7.790214 13.910505 -1.973205
v 8.026067 13.851922 -1.993185
v 8.845208 17.922400 -1.973205
v 8.901486 14.184726 -1.900000
v 8.627016 17.960764 -1.941421
v 8.260429 13.916211 -1.973205
v 9.464461 17.641752 -2.000000
v 9.254599 17.743818 -1.993185
v 8.482396 13.998740 -1.941421
v 9.011486 14.266737 -1.851764
v 8.412163 17.984444 -1.900000
v 8.889568 14.208725 -1.800000
v 9.041524 17.823521 -1.973205
v 8.692572 14.095205 -1.900000
v 8.892600 14.202621 -1.851764
v 8.683416 14.120388 -1.800000
v 8.828537 17.884481 -1.941421
v 9.430004 17.603125 -1.993185
v 8.025482 13.900155 -1.973205
v 9.628049 17.479681 -2.000000
v 8.617335 17.930490 -1.900000
v 8.255293 13.957313 -1.941421
v 8.474948 14.029639 -1.900000
v 9.226428 17.704662 -1.973205
v 8.685744 14.113983 -1.851764
v 8.199797 17.989996 -1.800000
v 8.421350 17.955112 -1.800000
v 8.408099 17.964882 -1.851764
v 8.200478 17.996777 -1.851764
v 7.794351 13.951719 -1.941421
v 8.024979 13.941573 -1.941421
v 9.020980 17.787554 -1.941421
v 9.589743 17.444866 -1.993185
v 8.251351 13.988851 -1.900000
v 8.468669 14.055688 -1.800000
v 8.470266 14.049063 -1.851764
v 8.248028 14.015439 -1.800000
v 8.815744 17.855387 -1.900000
v 7.797526 13.983344 -1.900000
v 8.024593 13.973354 -1.900000
v 8.248874 14.008677 -1.851764
v 9.397895 17.567127 -1.973205
v 8.024351 13.993333 -1.851764
v 8.611250 17.911461 -1.851764
v 8.637603 17.895643 -1.800000
v 9.202237 17.671040 -1.941421
v 9.773799 17.301397 -2.000000
v 9.732063 17.270777 -1.993185
v 9.005217 17.759954 -1.900000
v 9.554047 17.412422 -1.973205
v 8.807703 17.837095 -1.851764
v 8.845839 17.812334 -1.800000
v 9.370322 17.536217 -1.941421
v 9.900115 17.108856 -2.000000
v 9.855408 17.082766 -1.993185
v 9.183676 17.645239 -1.900000
v 9.693172 17.242243 -1.973205
v 9.924042 16.955502 -1.993185
v 10.005613 16.904165 -2.000000
v 8.995307 17.742603 -1.851764
v 9.043437 17.706236 -1.800000
v 9.523395 17.384563 -1.941421
v 9.349165 17.512499 -1.900000
v 9.813746 17.058453 -1.973205
v 9.227914 17.578678 -1.800000
v 9.172007 17.629021 -1.851764
v 10.018926 16.734070 -1.993185
v 10.089137 16.689569 -2.000000
v 9.659775 17.217741 -1.941421
v 9.880839 16.934048 -1.973205
v 9.499873 17.363186 -1.900000
v 9.396949 17.431271 -1.800000
v 9.335865 17.497587 -1.851764
v 10.088421 16.503407 -1.993185
v 10.149773 16.467417 -2.000000
v 9.777971 17.037577 -1.941421
v 9.973593 16.717587 -1.973205
v 9.634149 17.198938 -1.900000
v 9.843740 16.915623 -1.941421
v 9.548417 17.265862 -1.800000
v 9.485087 17.349749 -1.851764
v 10.131653 16.266411 -1.993185
v 10.186854 16.240145 -2.000000
v 10.041528 16.492102 -1.973205
v 9.750520 17.021557 -1.900000
v 9.680412 17.084534 -1.800000
v 9.618039 17.187120 -1.851764
v 10.199976 16.010241 -2.000000
v 10.148078 16.026068 -1.993185
v 9.733263 17.011486 -1.851764
v 10.188994 15.780224 -2.000000
v 10.154031 15.552615 -2.000000
v 9.310274 18.700294 -3.382725
v 9.704057 19.071224 -2.656938
v 9.883058 18.163586 -3.525991
v 8.807631 18.271559 -3.928457
v 8.239370 18.807814 -3.576610
v 8.199797 17.989996 -4.200000
v 7.660068 18.386776 -3.928457
v 8.810622 19.160925 -3.053488
v 7.833941 19.258986 -3.053488
v 7.252689 18.906878 -3.382725
v 6.584642 18.494749 -3.525991
v 6.940506 19.348686 -2.656938
v 11.799120 15.918209 -2.000000
v 11.780991 15.620386 -2.000000
v 11.650850 15.633452 -2.338722
v 11.490739 15.649528 -2.664214
v 11.490543 16.885504 -2.485631
v 11.422173 17.651888 -2.000000
v 11.541228 17.378296 -2.000000
v 11.793825 16.216537 -2.000000
v 11.638453 17.096205 -2.000000
v 11.713243 16.807356 -2.000000
v 11.765141 16.513529 -2.000000
v 11.301971 15.668480 -2.973806
v 10.791168 16.955721 -3.439432
v 10.580324 15.740933 -3.782538
v 9.984561 16.248028 -4.200000
v 11.086097 15.690154 -3.264956
v 10.844888 15.714372 -3.535273
v 9.879612 16.683416 -4.200000
v 9.834309 17.051790 -4.131518
v 9.680412 17.084534 -4.200000
v 9.396949 17.431271 -4.200000
v 10.751138 18.076431 -2.771658
v 10.529525 18.835754 -2.000000
v 10.744218 18.628550 -2.000000
v 10.941992 18.405136 -2.000000
v 11.121628 18.166897 -2.000000
v 11.282018 17.915297 -2.000000
v 9.043437 17.706236 -4.200000
v 8.966417 19.675056 -2.000000
v 9.251780 19.587902 -2.000000
v 9.529425 19.478628 -2.000000
v 9.797640 19.347908 -2.000000
v 10.054772 19.196547 -2.000000
v 10.294579 15.769623 -4.004722
v 10.299236 19.025476 -2.000000
v 9.989995 15.800203 -4.200000
v 4.260448 16.675097 -2.000000
v 4.349149 16.366549 -2.338722
v 4.219009 16.379614 -2.000000
v 4.509261 16.350471 -2.664214
v 8.637603 17.895643 -4.200000
v 4.324944 16.966417 -2.000000
v 4.698029 16.331520 -2.973806
v 6.411397 17.395452 -4.131518
v 6.568730 17.396950 -4.200000
v 6.293765 17.043438 -4.200000
v 6.915466 17.680412 -4.200000
v 7.751972 17.984560 -4.200000
v 7.316584 17.879612 -4.200000
v 8.379614 19.780991 -2.000000
v 8.675097 19.739552 -2.000000
v 5.454536 17.491522 -3.439432
v 6.104357 16.637604 -4.200000
v 5.419675 16.259066 -3.782538
v 4.913903 16.309847 -3.264956
v 5.155112 16.285629 -3.535273
v 7.783463 19.793825 -2.000000
v 8.081791 19.799120 -2.000000
v 4.755161 17.561741 -2.485631
v 4.412097 17.251780 -2.000000
v 4.521371 17.529425 -2.000000
v 4.652092 17.797640 -2.000000
v 4.803453 18.054773 -2.000000
v 4.974523 18.299236 -2.000000
v 5.716562 18.581905 -2.771658
v 5.164246 18.529526 -2.000000
v 5.371451 18.744219 -2.000000
v 5.594863 18.941992 -2.000000
v 5.833103 19.121628 -2.000000
v 6.084703 19.282017 -2.000000
v 6.010005 16.199797 -4.200000
v 5.705422 16.230377 -4.004722
v 6.348112 19.422173 -2.000000
v 6.621705 19.541229 -2.000000
v 6.903795 19.638453 -2.000000
v 7.192644 19.713243 -2.000000
v 7.486470 19.765141 -2.000000
v 6.010005 16.199797 -1.800000
v 6.000147 15.975732 -1.800000
v 6.044888 16.421349 -1.800000
v 6.104357 16.637604 -1.800000
v 6.187665 16.845839 -1.800000
v 7.578651 14.044888 -1.800000
v 6.293765 17.043438 -1.800000
v 7.362397 14.104357 -1.800000
v 6.421321 17.227915 -1.800000
v 7.154161 14.187665 -1.800000
v 6.568730 17.396950 -1.800000
v 6.956563 14.293765 -1.800000
v 6.734138 17.548416 -1.800000
v 6.772086 14.421321 -1.800000
v 6.915466 17.680412 -1.800000
v 6.603051 14.568730 -1.800000
v 7.110431 17.791275 -1.800000
v 6.451583 14.734138 -1.800000
v 7.316584 17.879612 -1.800000
v 6.319588 14.915465 -1.800000
v 7.531331 17.944311 -1.800000
v 7.751972 17.984560 -1.800000
v 6.208724 15.110432 -1.800000
v 7.975732 17.999853 -1.800000
v 6.120388 15.316584 -1.800000
v 6.055688 15.531331 -1.800000
v 6.015439 15.751972 -1.800000
v 9.955112 15.578650 11.650000
v 9.895643 15.362397 11.650000
v 9.812335 15.154161 11.650000
v 8.421350 17.955112 11.650000
v 8.637603 17.895643 11.650000
v 9.706235 14.956563 11.650000
v 9.578679 14.772086 11.650000
v 8.845839 17.812334 11.650000
v 9.043437 17.706236 11.650000
v 9.431270 14.603051 11.650000
v 9.265862 14.451583 11.650000
v 9.227914 17.578678 11.650000
v 9.396949 17.431271 11.650000
v 9.084535 14.319588 11.650000
v 8.889568 14.208725 11.650000
v 8.683416 14.120388 11.650000
v 9.548417 17.265862 11.650000
v 8.468669 14.055688 11.650000
v 8.248028 14.015439 11.650000
v 9.680412 17.084534 11.650000
v 9.791275 16.889568 11.650000
v 8.024268 14.000147 11.650000
v 9.879612 16.683416 11.650000
v 9.944312 16.468670 11.650000
v 9.984561 16.248028 11.650000
v 9.999853 16.024269 11.650000
v 9.989995 15.800203 11.650000
v 7.767573 17.424540 -4.200000
v 7.583622 17.382013 -4.200000
v 7.955502 17.442690 -4.200000
v 7.011330 14.948400 -4.200000
v 6.603051 14.568730 -4.200000
v 6.882526 15.086443 -4.200000
v 6.650100 16.510983 -4.200000
v 6.594952 16.330414 -4.200000
v 6.728345 16.682808 -4.200000
v 9.227157 16.759882 -4.200000
v 9.117474 16.913557 -4.200000
v 6.828348 16.842951 -4.200000
v 6.772843 15.240118 -4.200000
v 6.319588 14.915465 -4.200000
v 7.406796 17.315842 -4.200000
v 8.988670 17.051601 -4.200000
v 9.431270 14.603051 -4.200000
v 9.084535 14.319588 -4.200000
v 8.913557 14.882526 -4.200000
v 6.948399 16.988670 -4.200000
v 7.086443 17.117474 -4.200000
v 8.759882 14.772843 -4.200000
v 8.842951 17.171652 -4.200000
v 7.240119 17.227156 -4.200000
v 9.051600 15.011330 -4.200000
v 6.684157 15.406796 -4.200000
v 8.683416 14.120388 -4.200000
v 8.593204 14.684157 -4.200000
v 6.617986 15.583622 -4.200000
v 6.120388 15.316584 -4.200000
v 8.682808 17.271656 -4.200000
v 9.706235 14.956563 -4.200000
v 9.171652 15.157049 -4.200000
v 8.416378 14.617986 -4.200000
v 8.248028 14.015439 -4.200000
v 9.895643 15.362397 -4.200000
v 9.271655 15.317192 -4.200000
v 8.232427 14.575461 -4.200000
v 9.349900 15.489017 -4.200000
v 7.800203 14.010005 -4.200000
v 8.044498 14.557310 -4.200000
v 6.575461 15.767573 -4.200000
v 6.015439 15.751972 -4.200000
v 6.557311 15.955502 -4.200000
v 9.405048 15.669587 -4.200000
v 8.510983 17.349899 -4.200000
v 8.330413 17.405048 -4.200000
v 7.855809 14.563845 -4.200000
v 9.436155 15.855809 -4.200000
v 7.669587 14.594952 -4.200000
v 7.362397 14.104357 -4.200000
v 9.442690 16.044498 -4.200000
v 9.424539 16.232428 -4.200000
v 7.489018 14.650100 -4.200000
v 7.317192 14.728345 -4.200000
v 6.956563 14.293765 -4.200000
v 9.382014 16.416378 -4.200000
v 8.144191 17.436155 -4.200000
v 7.157049 14.828348 -4.200000
v 6.563845 16.144192 -4.200000
v 9.315843 16.593204 -4.200000
v 6.689726 13.299706 -3.382725
v 7.676407 13.200643 -3.576610
v 7.189378 12.839074 -3.053488
v 7.192368 13.728440 -3.928457
v 4.206174 15.783463 -2.000000
v 4.200881 16.081791 -2.000000
v 9.059493 12.651314 -2.656938
v 9.915297 12.717982 -2.000000
v 9.651889 12.577827 -2.000000
v 9.378296 12.458772 -2.000000
v 9.096205 12.361547 -2.000000
v 8.807356 12.286757 -2.000000
v 8.513530 12.234859 -2.000000
v 8.216537 12.206175 -2.000000
v 10.283439 13.418095 -2.771658
v 11.025477 13.700764 -2.000000
v 10.835754 13.470475 -2.000000
v 10.628549 13.255782 -2.000000
v 10.405137 13.058008 -2.000000
v 10.166897 12.878372 -2.000000
v 11.244839 14.438260 -2.485631
v 11.675056 15.033583 -2.000000
v 11.587903 14.748220 -2.000000
v 11.478629 14.470575 -2.000000
v 11.347908 14.202360 -2.000000
v 11.196547 13.945228 -2.000000
v 8.166059 12.741015 -3.053488
v 7.918210 12.200880 -2.000000
v 7.620386 12.219009 -2.000000
v 9.415358 13.505251 -3.525991
v 10.545464 14.508477 -3.439432
v 7.324903 12.260448 -2.000000
v 7.033583 12.324944 -2.000000
v 8.339932 13.613224 -3.928457
v 9.588604 14.604547 -4.131518
v 11.739552 15.324903 -2.000000
v 6.295944 12.928776 -2.656938
v 6.748220 12.412097 -2.000000
v 6.470575 12.521371 -2.000000
v 6.202360 12.652092 -2.000000
v 5.945228 12.803453 -2.000000
v 5.700764 12.974523 -2.000000
v 5.470475 13.164246 -2.000000
v 6.116942 13.836413 -3.525991
v 5.248862 13.923570 -2.771658
v 5.255782 13.371451 -2.000000
v 5.058008 13.594863 -2.000000
v 4.878372 13.833103 -2.000000
v 4.717983 14.084703 -2.000000
v 4.577827 14.348111 -2.000000
v 6.165691 14.948210 -4.131518
v 5.208831 15.044279 -3.439432
v 4.509457 15.114496 -2.485631
v 4.458771 14.621704 -2.000000
v 4.361548 14.903795 -2.000000
v 4.286757 15.192644 -2.000000
v 4.234859 15.486470 -2.000000
v 8.747311 13.093123 -3.382725
v 6.226201 14.698603 -2.000000
v 6.099885 14.891144 -2.000000
v 6.371951 14.520319 -2.000000
v 7.989760 18.199976 -2.000000
v 7.759856 18.186853 -2.000000
v 7.532583 18.149773 -2.000000
v 7.310431 18.089138 -2.000000
v 7.095835 18.005613 -2.000000
v 6.891144 17.900116 -2.000000
v 6.698602 17.773800 -2.000000
v 6.520319 17.628050 -2.000000
v 6.358247 17.464462 -2.000000
v 6.214163 17.284830 -2.000000
v 6.089645 17.091120 -2.000000
v 5.986057 16.885456 -2.000000
v 5.904534 16.670092 -2.000000
v 5.845970 16.447384 -2.000000
v 5.811005 16.219776 -2.000000
v 7.552615 13.845969 -2.000000
v 5.800024 15.989760 -2.000000
v 7.329908 13.904534 -2.000000
v 5.813146 15.759856 -2.000000
v 7.114543 13.986057 -2.000000
v 5.850227 15.532583 -2.000000
v 6.908880 14.089644 -2.000000
v 5.910862 15.310431 -2.000000
v 6.715171 14.214163 -2.000000
v 5.994387 15.095835 -2.000000
v 6.535538 14.358248 -2.000000
v 5.862510 16.214605 -1.993185
v 5.900155 15.974518 -1.973205
v 5.910505 16.209787 -1.973205
v 5.957313 15.744707 -1.941421
v 5.941573 15.975021 -1.941421
v 5.953838 16.654325 -1.993185
v 5.896652 16.436859 -1.993185
v 5.988851 15.748649 -1.900000
v 6.029639 15.525052 -1.900000
v 5.943880 16.427050 -1.973205
v 6.049063 15.529734 -1.851764
v 6.095206 15.307428 -1.900000
v 6.113983 15.314256 -1.851764
v 5.951719 16.205648 -1.941421
v 6.033443 16.864622 -1.993185
v 5.973354 15.975407 -1.900000
v 5.999783 16.639633 -1.973205
v 6.008677 15.751126 -1.851764
v 5.984436 16.418625 -1.941421
v 6.134593 17.065447 -1.993185
v 5.983344 16.202473 -1.900000
v 6.077600 16.845209 -1.973205
v 5.993333 15.975649 -1.851764
v 6.039236 16.627016 -1.941421
v 6.256182 17.254599 -1.993185
v 6.015555 16.412163 -1.900000
v 6.176479 17.041523 -1.973205
v 6.003224 16.200478 -1.851764
v 6.115518 16.828537 -1.941421
v 6.396876 17.430004 -1.993185
v 6.069509 16.617336 -1.900000
v 6.295338 17.226429 -1.973205
v 6.035118 16.408100 -1.851764
v 6.212447 17.020981 -1.941421
v 6.555134 17.589743 -1.993185
v 6.144614 16.815744 -1.900000
v 6.432872 17.397896 -1.973205
v 6.088540 16.611250 -1.851764
v 6.328961 17.202238 -1.941421
v 6.729223 17.732063 -1.993185
v 6.240047 17.005217 -1.900000
v 6.587577 17.554047 -1.973205
v 6.162904 16.807703 -1.851764
v 6.463783 17.370323 -1.941421
v 6.917234 17.855408 -1.993185
v 6.354761 17.183676 -1.900000
v 6.757757 17.693172 -1.973205
v 7.044498 17.924042 -1.993185
v 6.257396 16.995308 -1.851764
v 6.615437 17.523394 -1.941421
v 6.487502 17.349165 -1.900000
v 6.941546 17.813747 -1.973205
v 7.265931 18.018925 -1.993185
v 6.370980 17.172007 -1.851764
v 6.782259 17.659775 -1.941421
v 7.065953 17.880838 -1.973205
v 6.636814 17.499874 -1.900000
v 6.502412 17.335865 -1.851764
v 7.496594 18.088421 -1.993185
v 6.962424 17.777971 -1.941421
v 7.282413 17.973593 -1.973205
v 6.801061 17.634150 -1.900000
v 7.084376 17.843740 -1.941421
v 6.650252 17.485088 -1.851764
v 7.733588 18.131653 -1.993185
v 7.507897 18.041527 -1.973205
v 7.563142 13.896652 -1.993185
v 7.345675 13.953838 -1.993185
v 6.978444 17.750521 -1.900000
v 7.572951 13.943880 -1.973205
v 7.296567 17.934666 -1.941421
v 6.812880 17.618040 -1.851764
v 7.135377 14.033442 -1.993185
v 7.973933 18.148079 -1.993185
v 7.360367 13.999783 -1.973205
v 7.098514 17.815273 -1.900000
v 7.739571 18.083790 -1.973205
v 7.581374 13.984436 -1.941421
v 7.517604 18.001259 -1.941421
v 6.934553 14.134594 -1.993185
v 6.988514 17.733263 -1.851764
v 7.154792 14.077600 -1.973205
v 7.307428 17.904795 -1.900000
v 7.372984 14.039236 -1.941421
v 7.107400 17.797379 -1.851764
v 7.974518 18.099846 -1.973205
v 6.745401 14.256182 -1.993185
v 7.587838 14.015555 -1.900000
v 7.744707 18.042686 -1.941421
v 6.958476 14.176479 -1.973205
v 7.525052 17.970362 -1.900000
v 7.314255 17.886017 -1.851764
v 7.171463 14.115518 -1.941421
v 7.975021 18.058428 -1.941421
v 7.748649 18.011148 -1.900000
v 6.569995 14.396876 -1.993185
v 7.529734 17.950937 -1.851764
v 7.382665 14.069510 -1.900000
v 7.975407 18.026646 -1.900000
v 6.773572 14.295338 -1.973205
v 7.751127 17.991323 -1.851764
v 7.591901 14.035118 -1.851764
v 7.975649 18.006666 -1.851764
v 6.979020 14.212447 -1.941421
v 6.410257 14.555135 -1.993185
v 7.184255 14.144614 -1.900000
v 6.602105 14.432873 -1.973205
v 7.388750 14.088540 -1.851764
v 6.797762 14.328961 -1.941421
v 6.267936 14.729223 -1.993185
v 6.994783 14.240047 -1.900000
v 6.445953 14.587577 -1.973205
v 7.192297 14.162904 -1.851764
v 6.629677 14.463783 -1.941421
v 6.144592 14.917234 -1.993185
v 6.816325 14.354761 -1.900000
v 6.306828 14.757757 -1.973205
v 6.075959 15.044498 -1.993185
v 7.004693 14.257396 -1.851764
v 6.476606 14.615437 -1.941421
v 6.650835 14.487502 -1.900000
v 6.186254 14.941546 -1.973205
v 6.827993 14.370980 -1.851764
v 5.981074 15.265930 -1.993185
v 6.340225 14.782259 -1.941421
v 6.119161 15.065953 -1.973205
v 6.500126 14.636813 -1.900000
v 6.664135 14.502412 -1.851764
v 5.911579 15.496594 -1.993185
v 6.222029 14.962424 -1.941421
v 6.026407 15.282413 -1.973205
v 6.365851 14.801061 -1.900000
v 6.156260 15.084376 -1.941421
v 6.514912 14.650252 -1.851764
v 5.868347 15.733588 -1.993185
v 5.958472 15.507897 -1.973205
v 6.249480 14.978444 -1.900000
v 6.065335 15.296567 -1.941421
v 6.381960 14.812880 -1.851764
v 5.851922 15.973933 -1.993185
v 6.184726 15.098514 -1.900000
v 5.916211 15.739571 -1.973205
v 5.998740 15.517604 -1.941421
v 6.266737 14.988514 -1.851764
v 6.202621 15.107400 -1.851764
v 7.605659 17.295876 -4.177304
v 7.804716 17.275890 -4.161010
v 8.003991 17.255884 -4.151989
v 8.203536 17.235849 -4.151100
v 8.523478 17.203728 -4.166639
v 6.680921 16.306921 -4.177248
v 6.797997 16.469650 -4.160950
v 6.915074 16.632380 -4.151960
v 7.032151 16.795109 -4.151114
v 7.219473 17.055475 -4.166640
v 7.074660 15.011105 -4.177248
v 6.992270 15.193860 -4.160950
v 6.909881 15.376616 -4.151960
v 6.827491 15.559372 -4.151114
v 6.695668 15.851782 -4.166640
v 8.393679 14.704190 -4.177258
v 8.193726 14.724265 -4.160940
v 7.993752 14.744343 -4.151943
v 7.794129 14.764385 -4.151134
v 7.475323 14.796393 -4.166704
v 9.319078 15.693080 -4.177248
v 9.202003 15.530351 -4.160950
v 9.084926 15.367620 -4.151960
v 8.967850 15.204891 -4.151114
v 8.780527 14.944525 -4.166640
v 8.925341 16.988895 -4.177248
v 9.007730 16.806139 -4.160950
v 9.090119 16.623384 -4.151960
v 9.172509 16.440628 -4.151114
v 9.304332 16.148218 -4.166640
v 7.651021 16.091770 -2.225000
v 7.818125 16.311657 -2.225000
v 7.848230 16.097559 -2.112500
v 7.688343 15.818126 -2.225000
v 7.510405 14.792871 -2.812244
v 7.332054 14.810778 -2.850473
v 7.069690 15.022128 -2.841704
v 7.157049 14.828348 -2.900000
v 6.981229 15.218352 -2.800874
v 6.687984 16.316736 -2.841704
v 6.690055 15.864232 -2.821474
v 6.563845 16.144192 -2.900000
v 6.813687 16.491457 -2.800874
v 7.581800 17.298271 -2.850473
v 7.227449 17.066561 -2.821474
v 7.406796 17.315842 -2.900000
v 7.760151 17.280365 -2.812244
v 6.900496 15.397432 -2.781843
v 7.519598 15.461439 -2.450000
v 7.692327 14.774606 -2.787887
v 6.818821 15.578604 -2.782073
v 7.294789 15.846668 -2.450000
v 6.928409 16.650913 -2.781843
v 7.339346 16.290464 -2.450000
v 7.044471 16.812233 -2.782073
v 7.942073 17.262100 -2.787887
v 7.636251 16.623314 -2.450000
v 7.854767 15.669673 -2.225000
v 7.759799 15.730720 -2.225000
v 7.923334 16.352606 -2.225000
v 9.227962 15.340653 12.000000
v 9.131394 15.186012 12.000000
v 9.015469 15.045300 12.000000
v 8.882168 14.920922 12.000000
v 8.319060 17.356771 12.000000
v 8.493425 17.303518 12.000000
v 8.733772 14.815008 12.000000
v 8.659347 17.227962 12.000000
v 8.572823 14.729369 12.000000
v 8.813988 17.131395 12.000000
v 8.402071 14.665471 12.000000
v 8.954700 17.015469 12.000000
v 8.224441 14.624408 12.000000
v 8.042970 14.606880 12.000000
v 9.079078 16.882168 12.000000
v 9.184992 16.733772 12.000000
v 9.270631 16.572823 12.000000
v 9.334529 16.402071 12.000000
v 9.375592 16.224442 12.000000
v 9.393120 16.042969 12.000000
v 9.386810 15.860764 12.000000
v 9.356771 15.680940 12.000000
v 9.303518 15.506575 12.000000
f 1 2 3
f 1 4 2
f 5 3 6
f 5 1 3
f 7 6 8
f 7 5 6
f 9 10 11
f 9 12 10
f 13 7 8
f 14 11 15
f 14 9 11
f 16 8 17
f 18 15 19
f 16 13 8
f 18 14 15
f 20 17 21
f 20 16 17
f 22 19 23
f 22 18 19
f 24 21 25
f 24 20 21
f 26 23 27
f 28 25 29
f 26 22 23
f 28 24 25
f 30 29 31
f 32 27 33
f 30 28 29
f 32 26 27
f 34 30 31
f 34 31 35
f 36 34 35
f 37 32 33
f 38 33 39
f 38 37 33
f 40 39 41
f 40 38 39
f 42 41 43
f 42 40 41
f 44 42 43
f 44 43 45
f 46 44 45
f 46 45 47
f 48 46 47
f 48 47 49
f 50 48 49
f 51 50 49
f 51 49 52
f 53 52 54
f 53 51 52
f 4 54 2
f 4 53 54
f 57 58 55
f 58 59 55
f 56 57 55
f 59 56 55
f 60 61 62
f 62 61 63
f 60 62 64
f 65 66 67
f 66 65 68
f 69 70 71
f 70 69 72
f 64 73 74
f 75 76 74
f 76 60 74
f 60 64 74
f 73 77 78
f 77 66 78
f 74 73 78
f 66 68 78
f 68 79 80
f 79 81 80
f 78 68 80
f 72 82 83
f 82 84 83
f 81 70 83
f 80 81 83
f 70 72 83
f 56 75 85
f 75 74 85
f 85 74 86
f 56 85 86
f 56 86 57
f 74 78 57
f 86 74 57
f 80 83 59
f 84 56 87
f 59 83 87
f 83 84 87
f 56 59 87
f 57 78 58
f 80 59 58
f 78 80 58
f 88 89 90
f 91 88 90
f 92 93 94
f 95 92 94
f 89 96 94
f 96 95 94
f 97 98 99
f 98 100 101
f 100 102 101
f 103 104 105
f 91 90 106
f 102 91 106
f 104 97 107
f 97 99 107
f 105 104 107
f 93 108 109
f 108 110 109
f 89 94 109
f 90 89 109
f 94 93 109
f 99 98 111
f 98 101 111
f 112 103 113
f 114 112 113
f 103 105 113
f 101 102 115
f 102 106 115
f 105 107 116
f 106 90 117
f 90 109 117
f 109 110 117
f 99 111 118
f 107 99 118
f 116 107 118
f 114 113 119
f 120 114 119
f 111 101 121
f 101 115 121
f 113 105 122
f 105 116 122
f 119 113 122
f 110 123 124
f 106 117 124
f 117 110 124
f 115 106 124
f 116 118 125
f 126 120 127
f 120 119 127
f 118 111 128
f 111 121 128
f 125 118 128
f 119 122 129
f 123 130 131
f 124 123 131
f 121 115 131
f 115 124 131
f 122 116 132
f 116 125 132
f 126 127 133
f 125 128 134
f 127 119 135
f 119 129 135
f 134 128 136
f 130 137 136
f 131 130 136
f 128 121 136
f 121 131 136
f 129 122 138
f 122 132 138
f 139 126 140
f 141 139 140
f 126 133 140
f 125 134 142
f 132 125 142
f 133 127 143
f 127 135 143
f 137 144 145
f 134 136 145
f 136 137 145
f 129 138 146
f 135 129 146
f 147 141 148
f 141 140 148
f 138 132 149
f 132 142 149
f 140 133 150
f 148 140 150
f 133 143 150
f 145 144 151
f 142 134 151
f 144 152 151
f 149 142 151
f 134 145 151
f 143 135 153
f 135 146 153
f 147 148 154
f 146 138 155
f 138 149 155
f 148 150 156
f 147 154 157
f 158 147 157
f 152 159 160
f 149 151 160
f 151 152 160
f 143 153 161
f 150 143 161
f 146 155 162
f 153 146 162
f 148 156 163
f 154 148 163
f 158 157 164
f 165 158 164
f 160 159 166
f 159 167 166
f 155 149 166
f 149 160 166
f 168 169 170
f 156 150 171
f 150 161 171
f 157 154 172
f 164 157 172
f 154 163 172
f 161 153 173
f 153 162 173
f 167 174 175
f 166 167 175
f 162 155 175
f 155 166 175
f 176 165 177
f 165 164 177
f 163 156 178
f 156 171 178
f 164 172 179
f 180 181 182
f 183 184 185
f 171 161 186
f 187 183 185
f 161 173 186
f 187 185 188
f 172 163 189
f 163 178 189
f 190 187 188
f 191 190 188
f 174 192 193
f 175 174 193
f 173 162 193
f 162 175 193
f 186 173 193
f 184 194 195
f 194 196 195
f 197 176 198
f 185 184 195
f 176 177 198
f 199 191 200
f 191 188 200
f 177 164 201
f 164 179 201
f 188 185 202
f 185 195 202
f 178 171 203
f 171 186 203
f 196 204 205
f 195 196 205
f 199 200 206
f 179 172 207
f 172 189 207
f 208 199 206
f 193 192 209
f 192 210 209
f 186 193 209
f 211 170 212
f 197 198 212
f 169 197 212
f 170 169 212
f 200 188 213
f 188 202 213
f 178 203 214
f 195 205 215
f 189 178 214
f 202 195 215
f 198 177 216
f 177 201 216
f 217 208 218
f 201 179 219
f 208 206 218
f 179 207 219
f 203 186 220
f 209 210 220
f 205 204 221
f 210 222 220
f 186 209 220
f 206 200 223
f 207 189 224
f 200 213 223
f 189 214 224
f 203 220 225
f 222 226 225
f 213 202 227
f 220 222 225
f 202 215 227
f 214 203 225
f 217 218 228
f 198 216 229
f 230 217 228
f 212 198 229
f 211 212 229
f 215 205 231
f 205 221 231
f 216 201 232
f 201 219 232
f 219 207 233
f 228 218 234
f 218 206 234
f 207 224 233
f 206 223 234
f 224 214 235
f 214 225 235
f 236 237 238
f 225 226 235
f 204 239 238
f 239 236 238
f 240 211 241
f 221 204 238
f 213 227 242
f 211 229 241
f 229 216 241
f 216 232 241
f 223 213 242
f 230 228 243
f 219 233 244
f 232 219 244
f 226 245 246
f 245 247 246
f 224 235 246
f 233 224 246
f 235 226 246
f 215 231 248
f 249 240 250
f 240 241 250
f 227 215 248
f 241 232 250
f 232 244 250
f 244 233 251
f 228 234 252
f 246 247 251
f 233 246 251
f 180 249 253
f 238 237 254
f 181 180 253
f 237 255 254
f 249 250 253
f 244 251 253
f 247 181 253
f 221 238 254
f 250 244 253
f 231 221 254
f 251 247 253
f 223 242 256
f 234 223 256
f 252 234 256
f 257 230 258
f 230 243 258
f 227 248 259
f 242 227 259
f 243 228 260
f 258 243 260
f 228 252 260
f 231 254 261
f 255 262 261
f 248 231 261
f 254 255 261
f 252 256 263
f 264 257 265
f 257 258 265
f 242 259 266
f 256 242 266
f 258 260 267
f 264 265 268
f 269 264 268
f 259 248 270
f 262 271 270
f 261 262 270
f 248 261 270
f 260 252 272
f 252 263 272
f 263 256 273
f 256 266 273
f 265 258 274
f 258 267 274
f 271 275 276
f 270 271 276
f 266 259 276
f 259 270 276
f 273 266 276
f 269 268 277
f 278 269 277
f 260 272 279
f 267 260 279
f 277 268 280
f 268 265 280
f 265 274 280
f 272 263 281
f 263 273 281
f 275 282 283
f 273 276 283
f 276 275 283
f 278 277 284
f 285 278 284
f 274 267 286
f 267 279 286
f 277 280 287
f 279 272 288
f 272 281 288
f 280 274 289
f 274 286 289
f 282 290 291
f 283 282 291
f 281 273 291
f 273 283 291
f 288 281 291
f 285 284 292
f 293 285 292
f 284 277 294
f 292 284 294
f 277 287 294
f 279 288 295
f 286 279 295
f 287 280 88
f 280 289 88
f 290 296 297
f 291 290 297
f 288 291 297
f 298 293 299
f 293 292 299
f 289 286 96
f 286 295 96
f 292 294 100
f 299 292 100
f 287 88 91
f 294 287 91
f 296 92 300
f 295 288 300
f 297 296 300
f 288 297 300
f 96 295 300
f 301 298 97
f 298 299 97
f 88 289 89
f 289 96 89
f 96 300 95
f 300 92 95
f 97 299 98
f 299 100 98
f 100 294 102
f 294 91 102
f 302 301 104
f 103 302 104
f 301 97 104
f 303 304 305
f 303 305 306
f 307 308 309
f 307 303 306
f 307 310 303
f 307 311 310
f 307 306 308
f 312 309 313
f 312 313 314
f 315 316 317
f 312 307 309
f 312 314 311
f 312 311 307
f 318 315 317
f 319 320 321
f 322 315 318
f 319 321 323
f 319 323 324
f 319 324 325
f 319 325 322
f 326 322 318
f 319 322 326
f 327 328 329
f 327 326 330
f 327 330 331
f 327 331 328
f 327 329 332
f 327 319 326
f 333 327 332
f 333 334 335
f 333 332 334
f 336 337 338
f 336 319 327
f 336 338 339
f 336 339 340
f 336 340 341
f 336 341 320
f 336 320 319
f 305 336 327
f 305 327 333
f 305 333 335
f 305 335 342
f 304 336 305
f 304 343 344
f 304 344 345
f 304 345 346
f 304 346 347
f 329 328 348
f 304 347 349
f 329 348 350
f 304 349 337
f 351 352 353
f 304 337 336
f 351 354 352
f 306 305 342
f 306 355 308
f 306 342 355
f 356 357 354
f 356 354 351
f 358 359 360
f 358 361 359
f 309 362 363
f 309 308 362
f 310 364 365
f 310 365 343
f 310 343 304
f 366 367 368
f 366 360 367
f 366 369 357
f 366 370 369
f 366 368 370
f 366 358 360
f 313 361 358
f 313 363 361
f 313 358 366
f 313 309 363
f 311 371 372
f 311 372 364
f 311 364 310
f 373 356 374
f 373 374 375
f 373 375 376
f 373 376 377
f 373 377 378
f 373 366 357
f 373 357 356
f 379 378 380
f 379 380 381
f 379 381 382
f 379 382 383
f 379 383 384
f 379 313 366
f 367 385 386
f 379 373 378
f 379 366 373
f 368 367 386
f 314 384 387
f 314 387 388
f 314 388 389
f 314 389 390
f 314 390 391
f 314 391 371
f 314 379 384
f 314 313 379
f 314 371 311
f 303 310 304
f 392 393 48
f 394 50 51
f 394 51 53
f 394 392 50
f 395 53 4
f 395 394 53
f 396 395 4
f 397 12 9
f 397 182 12
f 398 4 1
f 398 396 4
f 399 9 14
f 399 14 18
f 399 397 9
f 400 1 5
f 400 398 1
f 401 399 18
f 402 5 7
f 402 400 5
f 403 18 22
f 403 22 26
f 403 401 18
f 404 7 13
f 404 402 7
f 405 403 26
f 406 13 16
f 406 16 20
f 406 404 13
f 407 26 32
f 407 32 37
f 407 405 26
f 408 406 20
f 409 407 37
f 410 20 24
f 410 408 20
f 411 37 38
f 412 24 28
f 412 410 24
f 411 409 37
f 413 28 30
f 413 412 28
f 414 38 40
f 415 413 30
f 415 30 34
f 414 411 38
f 236 34 36
f 236 415 34
f 416 40 42
f 416 42 44
f 416 414 40
f 417 416 44
f 418 417 44
f 418 44 46
f 393 46 48
f 393 418 46
f 392 48 50
f 137 130 419
f 137 419 420
f 144 137 420
f 152 420 421
f 152 144 420
f 237 236 36
f 237 36 422
f 237 422 423
f 159 421 424
f 159 152 421
f 167 424 425
f 255 237 423
f 167 159 424
f 262 423 426
f 262 426 427
f 174 425 428
f 262 255 423
f 174 167 425
f 192 428 429
f 271 262 427
f 192 174 428
f 275 427 430
f 275 430 431
f 210 429 432
f 275 271 427
f 210 192 429
f 282 275 431
f 222 432 433
f 222 433 434
f 222 210 432
f 290 431 435
f 226 222 434
f 290 282 431
f 245 434 436
f 245 436 437
f 296 435 438
f 296 438 439
f 245 226 434
f 296 290 435
f 247 245 437
f 181 437 440
f 181 247 437
f 92 296 439
f 182 440 12
f 182 181 440
f 93 92 439
f 93 439 441
f 108 93 441
f 108 441 442
f 108 442 443
f 110 443 444
f 110 108 443
f 123 110 444
f 130 444 445
f 130 445 419
f 130 123 444
f 446 447 362
f 448 446 362
f 449 450 451
f 308 448 362
f 452 453 367
f 454 452 367
f 334 455 456
f 453 385 367
f 457 454 360
f 454 367 360
f 362 447 363
f 458 451 459
f 447 460 363
f 451 450 459
f 456 461 335
f 462 463 464
f 334 456 335
f 457 360 359
f 465 457 359
f 466 465 359
f 464 463 467
f 363 460 361
f 466 359 361
f 335 461 468
f 469 466 361
f 460 469 361
f 462 464 470
f 458 459 471
f 463 472 473
f 474 471 475
f 471 459 475
f 467 463 473
f 468 476 342
f 335 468 342
f 477 462 478
f 462 470 478
f 473 472 479
f 472 480 479
f 481 477 482
f 477 478 482
f 479 480 483
f 481 482 484
f 480 485 486
f 483 480 486
f 487 474 488
f 489 487 488
f 481 484 490
f 474 475 488
f 350 481 490
f 491 492 355
f 476 491 355
f 342 476 355
f 486 485 493
f 350 490 494
f 493 485 495
f 485 496 495
f 329 350 497
f 350 494 497
f 329 497 498
f 495 496 499
f 499 496 500
f 496 501 500
f 332 329 502
f 329 498 502
f 503 448 308
f 492 503 308
f 355 492 308
f 500 501 504
f 453 505 385
f 505 489 385
f 332 502 506
f 489 488 385
f 504 501 450
f 332 506 334
f 504 450 449
f 334 506 455
f 507 508 509
f 507 510 508
f 354 357 511
f 512 354 511
f 352 354 512
f 353 352 512
f 513 514 515
f 513 515 516
f 513 516 517
f 513 517 518
f 513 518 519
f 513 519 520
f 521 522 523
f 521 523 524
f 521 524 525
f 521 525 526
f 521 526 514
f 521 514 513
f 527 528 529
f 527 529 530
f 527 530 531
f 348 328 481
f 527 531 532
f 527 532 522
f 527 326 528
f 527 522 521
f 533 513 520
f 533 520 534
f 533 534 535
f 350 348 481
f 536 472 463
f 536 521 513
f 537 330 326
f 537 331 330
f 537 328 331
f 537 527 521
f 537 481 328
f 537 326 527
f 537 477 481
f 537 521 536
f 509 533 535
f 509 535 538
f 509 538 539
f 540 480 472
f 540 485 480
f 540 472 536
f 541 477 537
f 541 537 536
f 541 536 463
f 541 462 477
f 541 463 462
f 317 316 542
f 510 496 485
f 510 501 496
f 543 539 544
f 318 542 528
f 543 544 545
f 543 545 546
f 543 546 547
f 543 547 548
f 318 317 542
f 543 548 549
f 543 509 539
f 550 501 510
f 326 318 528
f 550 450 501
f 551 549 552
f 551 552 553
f 551 550 543
f 551 553 554
f 551 554 555
f 551 555 556
f 551 543 549
f 557 450 550
f 557 459 450
f 557 475 459
f 558 550 551
f 386 385 488
f 558 357 369
f 558 369 370
f 558 370 368
f 558 488 475
f 558 475 557
f 558 368 488
f 558 557 550
f 559 558 551
f 559 556 560
f 368 386 488
f 559 560 561
f 559 561 562
f 559 562 563
f 559 563 511
f 559 551 556
f 559 357 558
f 559 511 357
f 564 540 536
f 564 536 513
f 564 513 533
f 508 533 509
f 508 540 564
f 508 510 485
f 508 485 540
f 508 564 533
f 507 550 510
f 507 543 550
f 507 509 543
f 565 566 554
f 552 567 553
f 565 554 553
f 567 565 553
f 340 339 257
f 339 338 230
f 257 339 230
f 341 340 264
f 320 341 264
f 340 257 264
f 337 349 217
f 338 337 217
f 230 338 217
f 321 320 269
f 320 264 269
f 349 347 208
f 217 349 208
f 323 321 278
f 321 269 278
f 347 346 199
f 208 347 199
f 324 323 285
f 325 324 285
f 323 278 285
f 345 344 191
f 346 345 191
f 199 346 191
f 322 325 293
f 325 285 293
f 191 344 190
f 344 343 190
f 322 293 298
f 315 322 298
f 190 343 187
f 343 365 187
f 316 315 301
f 542 316 301
f 315 298 301
f 364 372 183
f 365 364 183
f 187 365 183
f 372 371 568
f 183 372 568
f 542 301 302
f 528 542 302
f 371 391 569
f 568 371 569
f 529 528 103
f 528 302 103
f 390 389 570
f 391 390 570
f 569 391 570
f 530 529 112
f 529 103 112
f 531 530 112
f 532 531 114
f 531 112 114
f 389 388 571
f 570 389 571
f 388 387 572
f 571 388 572
f 532 114 120
f 522 532 120
f 387 384 573
f 572 387 573
f 523 522 126
f 522 120 126
f 523 126 524
f 573 384 383
f 573 383 574
f 524 126 139
f 524 139 525
f 574 383 382
f 574 382 575
f 525 139 141
f 525 141 526
f 575 382 381
f 575 381 576
f 526 141 147
f 526 147 514
f 576 381 380
f 147 158 515
f 514 147 515
f 577 576 378
f 576 380 378
f 515 158 516
f 158 165 516
f 577 378 377
f 578 577 377
f 516 165 517
f 165 176 517
f 578 377 376
f 579 578 376
f 517 176 518
f 579 376 375
f 579 375 374
f 580 579 374
f 518 176 519
f 176 197 519
f 197 169 520
f 519 197 520
f 580 374 356
f 581 580 356
f 169 168 534
f 520 169 534
f 581 356 351
f 582 581 351
f 534 168 535
f 582 351 353
f 535 168 538
f 168 583 538
f 582 353 512
f 584 582 512
f 538 583 539
f 583 585 539
f 584 512 511
f 586 584 511
f 539 585 544
f 585 587 544
f 586 511 563
f 588 586 563
f 544 587 545
f 588 563 562
f 587 589 546
f 545 587 546
f 590 588 561
f 588 562 561
f 546 589 547
f 589 591 547
f 590 561 560
f 592 590 560
f 547 591 548
f 591 593 548
f 592 560 556
f 566 592 556
f 548 593 549
f 566 556 555
f 549 593 552
f 593 567 552
f 566 555 554
f 594 595 596
f 595 597 598
f 583 168 170
f 580 581 599
f 581 600 599
f 598 597 601
f 597 602 601
f 594 596 603
f 600 594 603
f 416 417 604
f 602 605 604
f 606 416 604
f 605 606 604
f 601 602 604
f 596 595 607
f 595 598 607
f 580 599 608
f 579 580 608
f 578 579 608
f 598 601 609
f 607 598 609
f 599 600 610
f 600 603 610
f 417 418 611
f 604 417 611
f 601 604 611
f 609 601 611
f 603 596 612
f 596 607 612
f 610 603 612
f 578 608 613
f 607 609 614
f 608 599 615
f 599 610 615
f 613 608 615
f 418 393 616
f 393 392 616
f 611 418 616
f 609 611 616
f 610 612 617
f 577 578 618
f 576 577 618
f 578 613 618
f 612 607 619
f 607 614 619
f 617 612 619
f 613 615 620
f 614 609 621
f 609 616 621
f 616 392 621
f 615 610 622
f 610 617 622
f 620 615 622
f 576 618 623
f 617 619 624
f 623 618 625
f 618 613 625
f 613 620 625
f 392 394 626
f 619 614 626
f 614 621 626
f 621 392 626
f 620 622 627
f 575 576 628
f 576 623 628
f 617 624 629
f 627 622 629
f 622 617 629
f 628 623 630
f 623 625 630
f 619 626 631
f 624 619 631
f 394 395 631
f 626 394 631
f 630 625 632
f 620 627 632
f 625 620 632
f 574 575 633
f 575 628 633
f 627 629 634
f 628 630 635
f 624 631 636
f 629 624 636
f 395 396 636
f 631 395 636
f 634 629 636
f 630 632 637
f 573 574 638
f 574 633 638
f 637 632 639
f 632 627 639
f 627 634 639
f 633 628 640
f 628 635 640
f 572 573 641
f 573 638 641
f 396 398 642
f 636 396 642
f 634 636 642
f 635 630 643
f 630 637 643
f 637 639 644
f 643 637 644
f 633 640 645
f 638 633 645
f 572 641 646
f 571 572 646
f 642 398 647
f 398 400 647
f 634 642 647
f 644 639 647
f 639 634 647
f 640 635 648
f 635 643 648
f 638 645 649
f 641 638 649
f 643 644 650
f 648 643 650
f 400 402 651
f 647 400 651
f 644 647 651
f 183 568 184
f 650 644 651
f 571 646 652
f 570 571 652
f 645 640 653
f 640 648 653
f 652 646 654
f 641 649 654
f 646 641 654
f 648 650 655
f 653 648 655
f 645 653 656
f 649 645 656
f 402 404 657
f 651 402 657
f 650 651 657
f 570 652 658
f 569 570 658
f 239 415 236
f 652 654 659
f 583 170 660
f 583 660 661
f 656 653 662
f 585 583 661
f 653 655 662
f 660 170 663
f 170 211 663
f 211 240 663
f 654 649 664
f 649 656 664
f 650 657 665
f 661 660 663
f 404 406 665
f 657 404 665
f 587 585 666
f 655 650 665
f 589 587 666
f 568 569 667
f 585 661 666
f 184 568 667
f 569 658 667
f 661 663 668
f 656 662 669
f 652 659 670
f 667 658 670
f 658 652 670
f 668 663 671
f 663 240 671
f 670 659 672
f 659 654 672
f 591 589 673
f 589 666 673
f 654 664 672
f 655 665 674
f 662 655 674
f 666 661 675
f 665 406 674
f 406 408 674
f 669 662 674
f 673 666 675
f 664 656 676
f 661 668 675
f 656 669 676
f 672 664 676
f 668 671 677
f 408 410 678
f 669 674 678
f 674 408 678
f 667 670 679
f 593 591 680
f 184 667 679
f 194 184 679
f 591 673 680
f 671 240 681
f 240 249 681
f 670 672 682
f 677 671 681
f 673 675 683
f 672 676 684
f 682 672 684
f 680 673 683
f 676 669 685
f 669 678 685
f 675 668 686
f 678 410 685
f 679 670 687
f 668 677 686
f 670 682 687
f 683 675 686
f 194 679 687
f 196 194 687
f 687 682 688
f 682 684 688
f 593 680 689
f 410 412 690
f 677 681 691
f 684 676 690
f 686 677 691
f 676 685 690
f 685 410 690
f 196 687 692
f 687 688 692
f 689 680 693
f 204 196 692
f 680 683 693
f 688 684 694
f 182 397 695
f 412 413 694
f 413 415 694
f 684 690 694
f 249 180 695
f 690 412 694
f 180 182 695
f 681 249 695
f 694 415 696
f 415 239 696
f 688 694 696
f 692 688 696
f 204 692 696
f 693 683 697
f 239 204 696
f 683 686 697
f 567 593 698
f 565 567 698
f 593 689 698
f 697 686 699
f 686 691 699
f 689 693 700
f 397 399 701
f 691 681 701
f 695 397 701
f 681 695 701
f 693 697 702
f 700 693 702
f 565 698 703
f 697 699 704
f 702 697 704
f 689 700 705
f 698 689 705
f 399 401 706
f 691 701 706
f 699 691 706
f 701 399 706
f 704 699 706
f 700 702 707
f 565 703 708
f 566 565 708
f 707 702 709
f 702 704 709
f 698 705 710
f 703 698 710
f 566 708 711
f 592 566 711
f 401 403 712
f 706 401 712
f 709 704 712
f 704 706 712
f 700 707 713
f 705 700 713
f 710 705 713
f 707 709 714
f 713 707 714
f 711 708 715
f 703 710 715
f 708 703 715
f 403 405 716
f 712 403 716
f 709 712 716
f 714 709 716
f 592 711 717
f 590 592 717
f 710 713 718
f 711 715 719
f 717 711 719
f 713 714 720
f 718 713 720
f 405 407 721
f 716 405 721
f 714 716 721
f 588 590 722
f 590 717 722
f 710 718 723
f 719 715 723
f 715 710 723
f 717 719 724
f 722 717 724
f 718 720 725
f 723 718 725
f 719 723 726
f 407 409 727
f 720 714 727
f 714 721 727
f 721 407 727
f 586 588 728
f 588 722 728
f 722 724 729
f 728 722 729
f 726 723 730
f 723 725 730
f 724 719 731
f 719 726 731
f 409 411 732
f 727 409 732
f 725 720 732
f 720 727 732
f 584 586 733
f 586 728 733
f 726 730 734
f 731 726 734
f 733 728 735
f 728 729 735
f 735 729 736
f 729 724 736
f 724 731 736
f 411 414 737
f 732 411 737
f 730 725 737
f 725 732 737
f 734 730 737
f 582 584 594
f 584 733 594
f 736 731 605
f 731 734 605
f 734 737 738
f 414 416 738
f 737 414 738
f 733 735 595
f 594 733 595
f 735 736 597
f 595 735 597
f 581 582 600
f 582 594 600
f 597 736 602
f 736 605 602
f 738 416 606
f 605 734 606
f 734 738 606
f 739 460 447
f 740 739 446
f 739 447 446
f 741 740 448
f 740 446 448
f 742 741 503
f 741 448 503
f 742 503 492
f 742 492 743
f 743 492 491
f 743 491 476
f 743 476 468
f 744 505 453
f 745 744 452
f 744 453 452
f 746 745 454
f 745 452 454
f 747 746 457
f 746 454 457
f 747 457 465
f 747 465 748
f 748 465 466
f 748 466 469
f 748 469 460
f 749 504 449
f 750 749 451
f 749 449 451
f 751 750 458
f 750 451 458
f 752 751 471
f 751 458 471
f 752 471 474
f 752 474 753
f 753 474 487
f 753 487 489
f 753 489 505
f 754 473 479
f 755 754 483
f 754 479 483
f 756 755 486
f 755 483 486
f 757 756 493
f 756 486 493
f 757 493 495
f 757 495 758
f 758 495 499
f 758 499 500
f 758 500 504
f 759 494 490
f 760 759 484
f 759 490 484
f 761 760 482
f 760 484 482
f 762 761 478
f 761 482 478
f 762 478 470
f 762 470 763
f 763 470 464
f 763 464 467
f 763 467 473
f 764 468 461
f 765 764 456
f 764 461 456
f 766 765 455
f 765 456 455
f 767 766 506
f 766 455 506
f 767 506 502
f 767 502 768
f 768 502 498
f 768 498 497
f 768 497 494
f 769 770 771
f 772 769 771
f 770 56 771
f 56 772 771
f 773 774 775
f 775 774 776
f 773 775 777
f 778 779 780
f 779 778 781
f 782 783 784
f 783 782 785
f 777 786 787
f 84 788 787
f 788 773 787
f 773 777 787
f 786 789 790
f 789 779 790
f 787 786 790
f 779 781 790
f 781 791 792
f 791 793 792
f 790 781 792
f 785 794 795
f 794 75 795
f 793 783 795
f 792 793 795
f 783 785 795
f 56 84 796
f 84 787 796
f 796 787 797
f 56 796 797
f 56 797 772
f 787 790 772
f 797 787 772
f 792 795 770
f 75 56 798
f 770 795 798
f 56 770 798
f 795 75 798
f 772 790 769
f 792 770 769
f 790 792 769
f 748 460 784
f 747 748 783
f 748 784 783
f 747 783 793
f 746 747 791
f 747 793 791
f 745 746 781
f 746 791 781
f 745 781 778
f 744 745 780
f 505 744 780
f 745 778 780
f 468 63 743
f 61 60 743
f 63 61 743
f 76 75 742
f 60 76 742
f 743 60 742
f 794 785 741
f 75 794 741
f 742 75 741
f 782 784 740
f 785 782 740
f 741 785 740
f 740 784 739
f 739 784 460
f 768 494 67
f 767 768 66
f 768 67 66
f 767 66 77
f 766 767 73
f 767 77 73
f 765 766 64
f 766 73 64
f 765 64 62
f 764 765 63
f 468 764 63
f 765 62 63
f 763 473 71
f 762 763 70
f 763 71 70
f 762 70 81
f 761 762 79
f 762 81 79
f 760 761 68
f 761 79 68
f 760 68 65
f 759 760 67
f 494 759 67
f 760 65 67
f 758 504 776
f 758 776 774
f 757 758 773
f 758 774 773
f 757 773 788
f 756 757 84
f 757 788 84
f 756 84 82
f 755 756 72
f 756 82 72
f 755 72 69
f 754 755 71
f 473 754 71
f 755 69 71
f 753 505 780
f 752 753 779
f 753 780 779
f 752 779 789
f 751 752 786
f 752 789 786
f 750 751 777
f 751 786 777
f 750 777 775
f 749 750 776
f 504 749 776
f 750 775 776
f 424 799 800
f 424 421 799
f 425 800 801
f 425 424 800
f 428 801 802
f 428 425 801
f 422 36 35
f 422 35 803
f 429 428 802
f 423 803 804
f 423 422 803
f 432 802 805
f 426 804 806
f 432 429 802
f 426 423 804
f 433 805 807
f 433 432 805
f 427 806 808
f 427 426 806
f 434 807 809
f 434 433 807
f 430 808 810
f 436 809 811
f 430 427 808
f 436 434 809
f 437 811 812
f 431 810 813
f 437 436 811
f 431 430 810
f 440 437 812
f 440 812 10
f 12 440 10
f 435 431 813
f 438 813 814
f 438 435 813
f 439 814 815
f 439 438 814
f 441 815 816
f 441 439 815
f 442 441 816
f 442 816 817
f 443 442 817
f 443 817 818
f 444 443 818
f 444 818 819
f 445 444 819
f 419 445 819
f 419 819 820
f 420 820 821
f 420 419 820
f 421 821 799
f 421 420 821
f 49 47 45
f 801 54 45
f 812 801 45
f 54 49 45
f 10 812 45
f 15 10 43
f 10 45 43
f 813 810 808
f 814 813 808
f 19 15 41
f 15 43 41
f 815 814 806
f 814 808 806
f 23 19 27
f 41 39 33
f 19 41 33
f 27 19 33
f 815 806 804
f 816 815 817
f 818 817 819
f 35 31 29
f 803 35 29
f 804 803 29
f 815 804 29
f 817 815 29
f 820 819 821
f 819 817 821
f 817 29 821
f 821 29 25
f 821 25 799
f 799 25 21
f 800 799 801
f 801 799 17
f 799 21 17
f 801 17 8
f 802 801 805
f 8 6 3
f 805 801 809
f 807 805 809
f 8 3 54
f 3 2 54
f 801 8 54
f 811 809 812
f 809 801 812
f 54 52 49
f 11 10 15
