# Created by FreeCAD <http://www.freecadweb.org>
v -13.350000 261.714325 481.995850
v -13.000000 261.473236 481.404205
v -13.000000 261.833984 481.356720
v -13.350000 261.473236 482.010406
v -13.350000 261.951874 481.952301
v -13.350000 262.182465 481.880463
v -13.000000 262.170135 481.217468
v -13.350000 262.402710 481.781342
v -13.350000 262.609375 481.656403
v -13.000000 262.458801 480.995972
v -13.350000 262.799500 481.507446
v -13.350000 262.970276 481.336670
v -13.350000 263.119202 481.146545
v -13.000000 262.680298 480.707306
v -13.350000 263.244171 480.939880
v -13.350000 263.343292 480.719635
v -13.000000 262.819550 480.371155
v -13.350000 263.415131 480.489044
v -13.350000 263.458679 480.251495
v -13.000000 262.867035 480.010406
v -13.350000 263.473236 480.010406
v -13.350000 263.458679 479.769348
v -13.000000 262.819550 479.649689
v -13.350000 263.415131 479.531799
v -13.350000 263.343292 479.301208
v -13.000000 262.680298 479.313538
v -13.350000 263.244171 479.080963
v -13.350000 263.119202 478.874298
v -13.000000 262.458801 479.024872
v -13.350000 262.970276 478.684174
v -13.350000 262.799500 478.513397
v -13.350000 262.609375 478.364441
v -13.000000 262.170135 478.803375
v -13.350000 262.402710 478.239502
v -13.350000 262.182465 478.140381
v -13.000000 261.833984 478.664124
v -13.350000 261.951874 478.068542
v -13.350000 261.714325 478.024994
v -13.000000 261.473236 478.616638
v -13.350000 261.473236 478.010406
v -35.836243 260.633392 478.965088
v -35.812397 261.108521 478.760406
v -35.900002 260.751556 478.760406
v -35.794510 260.513550 479.172699
v -35.836243 260.148041 480.215088
v -35.830833 260.160583 479.783997
v -35.900002 260.029877 480.010406
v -35.789001 260.293640 479.553558
v -35.794510 260.267883 480.422699
v -35.830833 260.620850 481.033997
v -35.900002 260.751556 481.260406
v -35.812397 261.108521 481.260406
v -35.779602 260.403931 479.362549
v -35.450001 261.049042 479.426575
v -35.779423 261.473236 478.760406
v -35.450001 260.786896 479.787415
v -35.779602 260.377502 480.612549
v -35.450001 260.786896 480.233429
v -35.779423 261.473236 481.260406
v -35.450001 261.049042 480.594269
v -35.789001 260.487793 480.803558
v -35.000000 261.473236 480.010406
v -35.224998 261.361755 479.667236
v -35.224998 261.261139 479.718506
v -35.224998 261.181305 479.798309
v -35.224998 261.261139 480.302338
v -35.224998 261.361755 480.353607
v -35.224998 261.116852 480.066864
v -35.112499 261.312500 480.092346
v -35.000000 259.491119 480.964966
v -35.000000 259.396698 480.737030
v -34.993187 259.445557 480.719940
v -34.993187 259.378876 480.488434
v -34.799999 259.531372 479.531799
v -34.799999 259.487823 479.769348
v -34.851765 259.524750 479.530151
v -34.900002 259.505341 479.525391
v -34.900002 259.578156 479.291718
v -34.851765 259.596832 479.298798
v -34.993187 259.338531 480.250946
v -34.973206 259.425903 480.477722
v -34.973206 259.386444 480.245544
v -34.941422 259.414673 480.010406
v -34.941422 259.427612 480.240906
v -34.900002 259.461243 479.766113
v -34.900002 259.446442 480.010406
v -34.993187 259.537750 480.942505
v -34.851765 259.481079 479.768524
v -34.973206 259.491089 480.704010
v -34.941422 259.466278 480.468506
v -34.900002 259.459198 480.237335
v -35.000000 259.610443 481.180878
v -34.993187 259.654297 481.153351
v -35.000000 259.753204 481.382111
v -34.799999 259.473236 480.010406
v -34.851765 259.466431 480.010406
v -34.973206 259.581207 480.921570
v -34.941422 259.530182 480.690338
v -34.900002 259.497284 480.461426
v -34.993187 259.793701 481.349823
v -34.799999 259.487823 480.251495
v -34.851765 259.479065 480.235107
v -34.973206 259.695129 481.127686
v -34.941422 259.618530 480.903595
v -34.900002 259.560181 480.679840
v -35.000000 259.917603 481.566071
v -34.993187 259.954224 481.529449
v -34.799999 259.531372 480.489044
v -34.851765 259.516754 480.456970
v -34.973206 259.831390 481.319763
v -34.941422 259.730194 481.105652
v -34.900002 259.647156 480.889801
v -35.000000 260.101563 481.730438
v -34.993187 260.133850 481.689972
v -34.851765 259.579041 480.673218
v -34.799999 259.603210 480.719635
v -34.973206 259.988312 481.495331
v -35.000000 260.302765 481.873199
v -34.993187 260.252899 481.778381
v -34.941422 259.863800 481.293915
v -34.900002 259.757111 481.088745
v -34.799999 259.702332 480.939880
v -34.851765 259.665161 480.881134
v -34.973206 260.163910 481.652252
v -34.941422 260.017609 481.466064
v -35.000000 260.518707 481.992554
v -34.993187 260.474915 481.912598
v -34.973206 260.280304 481.738678
v -34.900002 259.888641 481.274109
v -34.799999 259.827271 481.146545
v -34.851765 259.774017 481.078125
v -34.941422 260.189758 481.619873
v -34.993187 260.711487 482.019043
v -35.000000 260.746643 482.086975
v -34.900002 260.040100 481.443573
v -34.973206 260.497345 481.869873
v -34.941422 260.303833 481.704590
v -34.851765 259.904266 481.261658
v -34.799999 259.976227 481.336670
v -34.993187 260.959137 482.096222
v -35.000000 260.983704 482.155273
v -35.000000 261.473236 482.210419
v -35.000000 261.226929 482.196594
v -34.993187 261.473236 482.158661
v -34.900002 260.209564 481.595032
v -34.973206 260.728577 481.973969
v -34.851765 260.054230 481.429443
v -34.799999 260.147003 481.507446
v -34.941422 260.516571 481.833191
v -34.900002 260.321899 481.678436
v -34.993187 261.214294 482.143005
v -34.973206 260.970673 482.049408
v -34.799999 260.337128 481.656403
v -34.851765 260.222015 481.579407
v -34.941422 260.743256 481.935211
v -34.851765 261.473236 482.017242
v -34.799999 261.232178 481.995850
v -34.799999 261.473236 482.010406
v -35.000000 261.473236 477.810425
v -34.993187 261.473236 477.862183
v -34.993187 261.232727 477.875702
v -35.000000 261.226929 477.824249
v -34.900002 260.531342 481.805054
v -35.000000 260.983704 477.865570
v -34.993187 260.995209 477.916046
v -35.000000 260.746643 477.933868
v -34.851765 260.333252 481.661987
v -34.973206 261.473236 482.110413
v -34.973206 261.220123 482.095123
v -34.973206 261.473236 477.910431
v -34.973206 261.238129 477.923615
v -34.941422 261.473236 477.951843
v -34.941422 260.980591 482.009186
v -34.993187 260.763733 477.982727
v -35.000000 260.518707 478.028290
v -34.900002 260.754547 481.905518
v -34.973206 261.005951 477.963074
v -34.799999 260.543793 481.781342
v -34.851765 260.540649 481.787354
v -34.941422 261.473236 482.069000
v -34.941422 261.225128 482.053986
v -34.941422 261.242767 477.964783
v -34.900002 260.988190 481.978333
v -34.993187 260.541168 478.074921
v -34.851765 260.761627 481.886841
v -34.799999 260.764038 481.880463
v -34.973206 260.779663 478.028259
v -34.900002 261.473236 482.037201
v -34.900002 261.228943 482.022430
v -34.941422 261.015167 478.003448
v -34.851765 260.992981 481.958923
v -34.900002 261.246307 477.996368
v -34.900002 261.473236 477.983612
v -34.799999 260.994629 481.952301
v -34.851765 261.231354 482.002594
v -35.000000 260.302765 478.147614
v -34.993187 260.330322 478.191467
v -35.000000 260.101563 478.290405
v -34.973206 260.562103 478.118378
v -34.941422 260.793335 478.067352
v -34.900002 261.022247 478.034454
v -34.993187 260.133850 478.330872
v -34.799999 261.473236 478.010406
v -34.799999 261.232178 478.024994
v -34.851765 261.248566 478.016235
v -34.851765 261.473236 478.003601
v -34.973206 260.355988 478.232300
v -34.941422 260.580078 478.155701
v -34.900002 260.803833 478.097351
v -35.000000 259.917603 478.454773
v -34.993187 259.954224 478.491394
v -34.799999 260.994629 478.068542
v -34.851765 261.026703 478.053925
v -34.973206 260.163910 478.368561
v -34.941422 260.378021 478.267365
v -34.900002 260.593842 478.184357
v -35.000000 259.753204 478.638733
v -34.993187 259.793701 478.671021
v -34.799999 260.764038 478.140381
v -34.851765 260.810425 478.116211
v -34.973206 259.988312 478.525482
v -34.993187 259.705292 478.790070
v -35.000000 259.610443 478.839966
v -34.941422 260.189758 478.400970
v -34.900002 260.394928 478.294281
v -34.799999 260.543793 478.239502
v -34.851765 260.602539 478.202332
v -34.973206 259.831390 478.701080
v -34.941422 260.017609 478.554779
v -34.993187 259.571075 479.012085
v -35.000000 259.491119 479.055878
v -34.973206 259.744995 478.817474
v -34.900002 260.209564 478.425812
v -34.799999 260.337128 478.364441
v -34.851765 260.405548 478.311188
v -34.941422 259.863800 478.726929
v -34.993187 259.464600 479.248657
v -35.000000 259.396698 479.283813
v -34.900002 260.040100 478.577271
v -34.973206 259.613800 479.034515
v -34.941422 259.779083 478.841003
v -34.799999 260.147003 478.513397
v -34.851765 260.222015 478.441437
v -34.993187 259.387451 479.496307
v -35.000000 259.328400 479.520874
v -34.900002 259.888641 478.746735
v -34.973206 259.509705 479.265747
v -34.851765 260.054230 478.591400
v -34.799999 259.976227 478.684174
v -34.941422 259.650482 479.053741
v -34.900002 259.805237 478.859070
v -35.000000 259.287079 479.764099
v -34.993187 259.340668 479.751465
v -34.973206 259.434265 479.507874
v -34.799999 259.827271 478.874298
v -34.851765 259.904266 478.759186
v -34.941422 259.548431 479.280426
v -34.900002 259.678619 479.068512
v -34.851765 259.821686 478.870422
v -34.993187 259.325012 480.010406
v -35.000000 259.273254 480.010406
v -34.973206 259.388550 479.757294
v -34.941422 259.474487 479.517761
v -35.000000 259.287079 480.256744
v -34.799999 259.702332 479.080963
v -34.851765 259.696289 479.077820
v -34.973206 259.373260 480.010406
v -34.941422 259.429688 479.762299
v -35.000000 259.328400 480.499969
v -34.799999 259.603210 479.301208
v -35.771660 258.943298 477.669556
v -35.000000 259.293671 476.897644
v -35.000000 259.030670 477.099457
v -35.000000 258.786255 477.323425
v -35.000000 258.562286 477.567841
v -35.000000 258.360474 477.830841
v -35.000000 258.182343 478.110413
v -35.485630 258.088623 478.780640
v -36.439434 258.791504 478.780640
v -36.525990 259.815735 477.669556
v -35.000000 257.730988 479.350555
v -35.000000 257.673248 480.010406
v -35.338722 257.804047 480.010406
v -35.664215 257.964966 480.010406
v -37.200001 260.337128 478.364441
v -37.200001 260.764038 478.140381
v -37.200001 259.976227 478.684174
v -37.131519 259.753174 478.780640
v -35.973804 258.154663 480.010406
v -35.656937 260.084534 476.784332
v -35.000000 260.813385 476.268158
v -35.000000 260.489746 476.339905
v -35.000000 260.173584 476.439575
v -35.000000 259.867310 476.566437
v -35.000000 259.573242 476.719513
v -36.928459 260.896576 477.669556
v -37.200001 261.232178 478.024994
v -37.131519 263.193298 478.780640
v -37.200001 262.970276 478.684174
v -37.200001 263.244171 479.080963
v -36.928459 262.049927 477.669556
v -37.200001 261.714325 478.024994
v -37.200001 262.182465 478.140381
v -36.053486 260.982452 476.784332
v -35.000000 261.473236 476.210419
v -35.000000 261.142059 476.224884
v -35.000000 265.215515 479.350555
v -35.338722 265.142456 480.010406
v -35.000000 265.273254 480.010406
v -35.664215 264.981537 480.010406
v -35.973804 264.791809 480.010406
v -37.200001 259.531372 479.531799
v -36.782539 258.879944 480.010406
v -37.004723 259.167145 480.010406
v -37.200001 259.473236 480.010406
v -36.439434 264.154968 478.780640
v -37.200001 263.415131 479.531799
v -36.782539 264.066559 480.010406
v -36.264957 264.574860 480.010406
v -36.535275 264.332428 480.010406
v -36.525990 263.130737 477.669556
v -37.200001 262.609375 478.364441
v -36.053486 261.964050 476.784332
v -35.000000 262.133118 476.268158
v -35.000000 261.804443 476.224884
v -35.485630 264.857880 478.780640
v -35.000000 265.044067 478.710754
v -35.000000 264.917206 478.404480
v -35.000000 264.764160 478.110413
v -35.771660 264.003204 477.669556
v -35.000000 264.586029 477.830841
v -35.000000 264.384216 477.567841
v -35.000000 264.160248 477.323425
v -35.000000 263.915833 477.099457
v -35.000000 263.652832 476.897644
v -35.656937 262.861969 476.784332
v -35.000000 263.373260 476.719513
v -35.000000 263.079193 476.566437
v -35.000000 262.772919 476.439575
v -35.000000 262.456757 476.339905
v -36.382725 260.439270 477.192749
v -36.576611 261.515564 477.192749
v -36.382725 262.507202 477.192749
v -37.200001 263.473236 480.010406
v -37.004723 263.779358 480.010406
v -35.000000 258.029266 478.404480
v -35.000000 257.902405 478.710754
v -36.264957 258.371643 480.010406
v -36.535275 258.614044 480.010406
v -37.200001 259.702332 479.080963
v -34.799999 263.415131 479.531799
v -34.799999 263.458679 479.769348
v -34.799999 263.343292 479.301208
v -34.799999 263.244171 479.080963
v -34.799999 261.714325 481.995850
v -34.799999 263.119202 478.874298
v -34.799999 261.951874 481.952301
v -34.799999 262.970276 478.684174
v -34.799999 262.182465 481.880463
v -34.799999 262.799500 478.513397
v -34.799999 262.402710 481.781342
v -34.799999 262.609375 478.364441
v -34.799999 262.609375 481.656403
v -34.799999 262.402710 478.239502
v -34.799999 262.799500 481.507446
v -34.799999 262.182465 478.140381
v -34.799999 261.951874 478.068542
v -34.799999 262.970276 481.336670
v -34.799999 261.714325 478.024994
v -34.799999 263.119202 481.146545
v -34.799999 263.244171 480.939880
v -34.799999 263.343292 480.719635
v -34.799999 263.415131 480.489044
v -34.799999 263.458679 480.251495
v -34.799999 263.473236 480.010406
v -13.350000 259.487823 480.251495
v -13.350000 259.531372 480.489044
v -13.350000 259.603210 480.719635
v -13.350000 259.702332 480.939880
v -13.350000 259.827271 481.146545
v -13.350000 261.232178 478.024994
v -13.350000 259.976227 481.336670
v -13.350000 260.994629 478.068542
v -13.350000 260.147003 481.507446
v -13.350000 260.764038 478.140381
v -13.350000 260.543793 478.239502
v -13.350000 260.337128 481.656403
v -13.350000 260.337128 478.364441
v -13.350000 260.543793 481.781342
v -13.350000 260.764038 481.880463
v -13.350000 260.994629 481.952301
v -13.350000 260.147003 478.513397
v -13.350000 259.976227 478.684174
v -13.350000 261.232178 481.995850
v -13.350000 259.827271 478.874298
v -13.350000 259.702332 479.080963
v -13.350000 259.603210 479.301208
v -13.350000 259.531372 479.531799
v -13.350000 259.487823 479.769348
v -13.350000 259.473236 480.010406
v -37.200001 262.867432 480.384003
v -37.200001 263.244171 480.939880
v -37.200001 263.415131 480.489044
v -37.200001 262.916626 480.010406
v -37.200001 261.099670 478.616241
v -37.200001 261.473236 478.567047
v -37.200001 259.976227 481.336670
v -37.200001 260.337128 481.656403
v -37.200001 260.452637 481.031036
v -37.200001 259.702332 480.939880
v -37.200001 260.223236 480.732117
v -37.200001 260.764038 481.880463
v -37.200001 260.751556 481.260406
v -37.200001 259.531372 480.489044
v -37.200001 260.079041 480.384003
v -37.200001 261.846832 478.616241
v -37.200001 261.232178 481.995850
v -37.200001 261.099670 481.404602
v -37.200001 262.867432 479.636841
v -37.200001 262.194946 478.760406
v -37.200001 262.723236 479.288727
v -37.200001 260.029877 480.010406
v -37.200001 262.493866 478.989807
v -37.200001 261.714325 481.995850
v -37.200001 261.473236 481.453796
v -37.200001 260.079041 479.636841
v -37.200001 262.182465 481.880463
v -37.200001 261.846832 481.404602
v -37.200001 260.223236 479.288727
v -37.200001 262.194946 481.260406
v -37.200001 262.609375 481.656403
v -37.200001 260.452637 478.989807
v -37.200001 262.493866 481.031036
v -37.200001 262.970276 481.336670
v -37.200001 260.751556 478.760406
v -37.200001 262.723236 480.732117
v -36.525990 259.815735 482.351288
v -35.771660 258.943298 482.351288
v -35.656937 260.084534 483.236511
v -36.439434 258.791504 481.240204
v -35.485630 258.088623 481.240204
v -36.053486 261.964050 483.236511
v -35.000000 261.473236 483.810425
v -35.000000 261.804443 483.795959
v -35.000000 262.133118 483.752686
v -36.053486 260.982452 483.236511
v -36.928459 260.896576 482.351288
v -37.131519 259.753174 481.240204
v -36.928459 262.049927 482.351288
v -35.656937 262.861969 483.236511
v -35.000000 262.456757 483.680939
v -35.000000 262.772919 483.581268
v -35.000000 263.079193 483.454376
v -35.000000 263.373260 483.301331
v -35.000000 263.652832 483.123199
v -36.525990 263.130737 482.351288
v -35.771660 264.003204 482.351288
v -35.000000 263.915833 482.921387
v -35.000000 264.160248 482.697418
v -35.000000 264.384216 482.453003
v -35.000000 264.586029 482.190002
v -35.000000 264.764160 481.910431
v -37.131519 263.193298 481.240204
v -36.439434 264.154968 481.240204
v -35.000000 257.730988 480.670288
v -35.485630 264.857880 481.240204
v -35.000000 264.917206 481.616364
v -35.000000 265.044067 481.310089
v -35.000000 265.215515 480.670288
v -36.382725 260.439270 482.828094
v -36.576611 261.515564 482.828094
v -36.382725 262.507202 482.828094
v -35.000000 259.293671 483.123199
v -35.000000 259.573242 483.301331
v -35.000000 259.867310 483.454376
v -35.000000 260.173584 483.581268
v -35.000000 260.489746 483.680939
v -35.000000 260.813385 483.752686
v -35.000000 258.182343 481.910431
v -35.000000 258.360474 482.190002
v -35.000000 258.562286 482.453003
v -35.000000 258.786255 482.697418
v -35.000000 259.030670 482.921387
v -35.000000 257.902405 481.310089
v -35.000000 258.029266 481.616364
v -35.000000 261.142059 483.795959
v -35.000000 261.719574 477.824249
v -35.000000 261.962799 477.865570
v -35.000000 262.199860 477.933868
v -35.000000 262.427795 478.028290
v -35.000000 262.643707 478.147614
v -35.000000 262.844940 478.290405
v -35.000000 263.028870 478.454773
v -35.000000 263.193268 478.638733
v -35.000000 263.336029 478.839966
v -35.000000 263.455383 479.055878
v -35.000000 263.618103 479.520874
v -35.000000 263.549805 479.283813
v -35.000000 263.659424 479.764099
v -35.000000 263.659424 480.256744
v -35.000000 263.673248 480.010406
v -35.000000 261.719574 482.196594
v -35.000000 261.962799 482.155273
v -35.000000 263.618103 480.499969
v -35.000000 262.199860 482.086975
v -35.000000 263.455383 480.964966
v -35.000000 263.549805 480.737030
v -35.000000 262.427795 481.992554
v -35.000000 262.643707 481.873199
v -35.000000 263.336029 481.180878
v -35.000000 262.844940 481.730438
v -35.000000 263.193268 481.382111
v -35.000000 263.028870 481.566071
v -34.993187 263.567627 479.532379
v -34.993187 263.607971 479.769897
v -34.973206 263.520599 479.543121
v -34.973206 263.560059 479.775299
v -34.973206 263.573242 480.010406
v -34.941422 263.518890 479.779938
v -34.941422 263.531830 480.010406
v -34.900002 263.485260 480.254730
v -34.900002 263.500031 480.010406
v -34.993187 263.408752 479.078339
v -34.993187 263.500946 479.300903
v -34.851765 263.465424 480.252319
v -34.851765 263.421753 480.490692
v -34.973206 263.455414 479.316833
v -34.941422 263.480225 479.552338
v -34.900002 263.487305 479.783478
v -34.993187 263.292206 478.867493
v -34.851765 263.480072 480.010406
v -34.973206 263.365295 479.099274
v -34.941422 263.416321 479.330505
v -34.900002 263.449219 479.559418
v -34.993187 263.152802 478.671021
v -34.851765 263.467438 479.785736
v -34.973206 263.251373 478.893158
v -34.941422 263.327972 479.117249
v -34.900002 263.386292 479.341003
v -34.993187 262.992279 478.491394
v -34.851765 263.429749 479.563873
v -34.973206 263.115082 478.701080
v -34.993187 262.897797 478.402435
v -34.941422 263.216309 478.915192
v -34.900002 263.299316 479.131042
v -34.851765 263.367462 479.347626
v -34.973206 262.958160 478.525482
v -34.993187 262.693573 478.242462
v -34.941422 263.082703 478.726929
v -34.973206 262.865814 478.438538
v -34.900002 263.189392 478.932098
v -34.851765 263.281311 479.139709
v -34.941422 262.928894 478.554779
v -34.993187 262.471588 478.108246
v -34.973206 262.666199 478.282166
v -34.900002 263.057861 478.746735
v -34.941422 262.838348 478.469543
v -34.851765 263.172455 478.942719
v -34.993187 262.235016 478.001801
v -34.900002 262.906403 478.577271
v -34.973206 262.449158 478.150970
v -34.941422 262.642639 478.316254
v -34.851765 263.042236 478.759186
v -34.900002 262.817261 478.493347
v -34.993187 261.987366 477.924622
v -34.973206 262.217926 478.046875
v -34.851765 262.892273 478.591400
v -34.941422 262.429932 478.187653
v -34.900002 262.624603 478.342407
v -34.851765 262.804016 478.508301
v -34.993187 261.732178 477.877838
v -34.973206 261.975800 477.971436
v -34.941422 262.203217 478.085602
v -34.900002 262.415161 478.215790
v -34.851765 262.613251 478.358856
v -34.973206 261.726379 477.925720
v -34.993187 261.713776 482.145142
v -34.941422 261.965912 478.011658
v -34.993187 261.951263 482.104797
v -34.900002 262.191956 478.115326
v -34.973206 261.708374 482.097229
v -34.851765 262.405853 478.233490
v -34.941422 261.721375 477.966858
v -34.993187 262.182770 482.038116
v -34.900002 261.958282 478.042511
v -34.973206 261.940552 482.057770
v -34.851765 262.184875 478.134003
v -34.900002 261.717560 477.998413
v -34.941422 261.703735 482.056061
v -34.851765 261.953522 478.061920
v -34.993187 262.405334 481.945923
v -34.851765 261.715149 478.018250
v -34.973206 262.166840 481.992584
v -34.941422 261.931335 482.017395
v -34.900002 261.700165 482.024475
v -34.993187 262.616180 481.829376
v -34.973206 262.384399 481.902466
v -34.941422 262.153168 481.953491
v -34.900002 261.924255 481.986389
v -34.993187 262.812653 481.689972
v -34.851765 261.697937 482.004608
v -34.973206 262.590515 481.788544
v -34.941422 262.366425 481.865143
v -34.900002 262.142670 481.923492
v -34.993187 262.992279 481.529449
v -34.851765 261.919800 481.966919
v -34.973206 262.782562 481.652252
v -34.941422 262.568481 481.753479
v -34.900002 262.352631 481.836487
v -34.993187 263.152802 481.349823
v -34.851765 262.136047 481.904633
v -34.973206 262.958160 481.495331
v -34.993187 263.241211 481.230743
v -34.941422 262.756744 481.619873
v -34.900002 262.551575 481.726563
v -34.851765 262.343964 481.818512
v -34.973206 263.115082 481.319763
v -34.941422 262.928894 481.466064
v -34.993187 263.375427 481.008759
v -34.973206 263.201508 481.203369
v -34.900002 262.736938 481.595032
v -34.851765 262.540924 481.709625
v -34.941422 263.082703 481.293915
v -34.993187 263.481873 480.772186
v -34.900002 262.906403 481.443573
v -34.973206 263.332703 480.986328
v -34.941422 263.167419 481.179840
v -34.851765 262.724487 481.579407
v -34.993187 263.559052 480.524536
v -34.900002 263.057861 481.274109
v -34.973206 263.436768 480.755096
v -34.851765 262.892273 481.429443
v -34.941422 263.296021 480.967102
v -34.900002 263.141266 481.161774
v -34.993187 263.605835 480.269348
v -34.973206 263.512238 480.512970
v -34.851765 263.042236 481.261658
v -34.941422 263.398041 480.740417
v -34.900002 263.267883 480.952332
v -34.851765 263.124817 481.150421
v -34.993187 263.621490 480.010406
v -34.973206 263.557922 480.263550
v -34.941422 263.472015 480.503082
v -34.900002 263.368347 480.729126
v -34.851765 263.250183 480.943024
v -34.941422 263.516815 480.258545
v -34.900002 263.441162 480.495453
v -34.851765 263.349640 480.722046
v -37.161011 261.795013 478.760406
v -37.177303 261.995087 478.760406
v -37.151989 261.594727 478.760406
v -37.151100 261.394196 478.760406
v -37.166637 261.072632 478.760406
v -37.160950 262.716156 479.663208
v -37.177246 262.816376 479.836823
v -37.151958 262.615906 479.489594
v -37.151115 262.515686 479.315979
v -37.166641 262.355316 479.038208
v -37.160950 262.395416 480.913208
v -37.177246 262.295166 481.086823
v -37.151958 262.495636 480.739594
v -37.151115 262.595886 480.565979
v -37.166641 262.756256 480.288208
v -37.160942 261.153046 481.260406
v -37.177258 260.952087 481.260406
v -37.151943 261.354034 481.260406
v -37.151134 261.554657 481.260406
v -37.166702 261.875061 481.260406
v -37.160950 260.230347 480.357635
v -37.177246 260.130096 480.184021
v -37.151958 260.330566 480.531250
v -37.151115 260.430817 480.704865
v -37.166641 260.591187 480.982635
v -37.160950 260.551086 479.107635
v -37.177246 260.651337 478.934021
v -37.151958 260.450867 479.281250
v -37.151115 260.350616 479.454865
v -37.166641 260.190247 479.732635
v -35.836243 262.313110 481.055756
v -35.812244 261.839813 481.260406
v -35.900002 262.194946 481.260406
v -35.794510 262.432953 480.848145
v -35.836243 262.798462 479.805756
v -35.830833 262.785919 480.236847
v -35.900002 262.916626 480.010406
v -35.789001 262.652863 480.467285
v -35.794510 262.678589 479.598145
v -35.830833 262.325653 478.986847
v -35.900002 262.194946 478.760406
v -35.812244 261.839813 478.760406
v -35.779602 262.542572 480.658295
v -35.450001 261.897461 480.594269
v -35.450001 262.159607 480.233429
v -35.779602 262.569000 479.408295
v -35.450001 262.159607 479.787415
v -35.450001 261.897461 479.426575
v -35.789001 262.458710 479.217285
v -35.224998 261.584747 480.353607
v -35.224998 261.685333 480.302338
v -35.224998 261.765167 479.798309
v -35.224998 261.685333 479.718506
v -35.224998 261.584747 479.667236
v -35.112499 261.634003 480.092346
v -35.224998 261.829651 480.066864
v -13.000000 261.112518 478.664124
v -13.000000 260.776367 478.803375
v -13.000000 260.487701 479.024872
v -13.000000 260.266205 479.313538
v -13.000000 260.126953 479.649689
v -13.000000 260.079468 480.010406
v -13.000000 260.126953 480.371155
v -13.000000 260.266205 480.707306
v -13.000000 260.487701 480.995972
v -13.000000 260.776367 481.217468
v -13.000000 261.112518 481.356720
f 1 2 3
f 1 4 2
f 5 1 3
f 6 3 7
f 6 5 3
f 8 6 7
f 9 7 10
f 9 8 7
f 11 9 10
f 12 11 10
f 13 10 14
f 13 12 10
f 15 13 14
f 16 14 17
f 16 15 14
f 18 16 17
f 19 17 20
f 19 18 17
f 21 19 20
f 22 20 23
f 22 21 20
f 24 22 23
f 25 23 26
f 25 24 23
f 27 25 26
f 28 26 29
f 28 27 26
f 30 28 29
f 31 30 29
f 32 31 29
f 32 29 33
f 34 32 33
f 35 33 36
f 35 34 33
f 37 35 36
f 38 36 39
f 38 37 36
f 40 38 39
f 41 42 43
f 42 41 44
f 45 46 47
f 48 46 49
f 46 45 49
f 50 51 52
f 44 53 54
f 55 42 54
f 42 44 54
f 53 48 56
f 54 53 56
f 48 49 56
f 49 57 58
f 56 49 58
f 52 59 60
f 57 61 60
f 61 50 60
f 50 52 60
f 58 57 60
f 62 55 63
f 55 54 63
f 62 63 64
f 63 54 64
f 62 64 65
f 54 56 65
f 64 54 65
f 58 60 66
f 59 62 67
f 60 59 67
f 62 66 67
f 66 60 67
f 65 56 68
f 58 66 68
f 56 58 68
f 68 66 69
f 66 62 69
f 62 65 69
f 65 68 69
f 70 71 72
f 71 73 72
f 74 75 76
f 77 78 76
f 78 79 76
f 79 74 76
f 73 80 81
f 80 82 81
f 82 83 84
f 83 85 86
f 84 83 86
f 70 72 87
f 76 75 88
f 85 77 88
f 86 85 88
f 77 76 88
f 72 73 89
f 87 72 89
f 73 81 89
f 81 82 90
f 82 84 90
f 84 86 91
f 92 70 93
f 70 87 93
f 94 92 93
f 75 95 96
f 88 75 96
f 86 88 96
f 91 86 96
f 87 89 97
f 89 81 98
f 81 90 98
f 97 89 98
f 90 84 99
f 84 91 99
f 94 93 100
f 95 101 102
f 96 95 102
f 91 96 102
f 93 87 103
f 87 97 103
f 97 98 104
f 90 99 105
f 104 98 105
f 98 90 105
f 106 94 107
f 94 100 107
f 101 108 109
f 102 101 109
f 99 91 109
f 91 102 109
f 93 103 110
f 100 93 110
f 103 97 111
f 97 104 111
f 104 105 112
f 113 106 114
f 106 107 114
f 112 105 115
f 105 99 115
f 108 116 115
f 99 109 115
f 109 108 115
f 100 110 117
f 107 100 117
f 118 113 119
f 113 114 119
f 103 111 120
f 110 103 120
f 104 112 121
f 111 104 121
f 116 122 123
f 115 116 123
f 112 115 123
f 107 117 124
f 114 107 124
f 110 120 125
f 117 110 125
f 126 118 127
f 118 119 127
f 114 124 128
f 119 114 128
f 127 119 128
f 120 111 129
f 111 121 129
f 122 130 131
f 112 123 131
f 121 112 131
f 123 122 131
f 117 125 132
f 124 117 132
f 126 127 133
f 134 126 133
f 120 129 135
f 125 120 135
f 127 128 136
f 128 124 137
f 124 132 137
f 131 130 138
f 130 139 138
f 129 121 138
f 121 131 138
f 134 133 140
f 141 134 140
f 142 143 144
f 132 125 145
f 125 135 145
f 127 136 146
f 133 127 146
f 138 139 147
f 139 148 147
f 135 129 147
f 129 138 147
f 136 128 149
f 128 137 149
f 137 132 150
f 132 145 150
f 144 143 151
f 143 141 151
f 141 140 151
f 133 146 152
f 140 133 152
f 151 140 152
f 148 153 154
f 147 148 154
f 145 135 154
f 135 147 154
f 136 149 155
f 146 136 155
f 156 157 158
f 159 160 161
f 162 159 161
f 149 137 163
f 137 150 163
f 164 162 165
f 166 164 165
f 154 153 167
f 150 145 167
f 145 154 167
f 162 161 165
f 168 144 169
f 151 152 169
f 160 170 171
f 144 151 169
f 170 172 171
f 169 152 173
f 161 160 171
f 165 161 171
f 152 146 173
f 166 165 174
f 146 155 173
f 175 166 174
f 155 149 176
f 149 163 176
f 165 171 177
f 153 178 179
f 167 153 179
f 163 150 179
f 150 167 179
f 180 168 181
f 171 172 182
f 168 169 181
f 169 173 181
f 173 155 183
f 155 176 183
f 181 173 183
f 175 174 184
f 163 179 185
f 176 163 185
f 178 186 185
f 174 165 187
f 165 177 187
f 179 178 185
f 188 180 189
f 171 182 190
f 180 181 189
f 181 183 189
f 177 171 190
f 176 185 191
f 185 186 191
f 182 172 192
f 189 183 191
f 172 193 192
f 186 194 191
f 183 176 191
f 156 188 195
f 189 191 195
f 191 194 195
f 194 157 195
f 188 189 195
f 196 175 197
f 157 156 195
f 198 196 197
f 175 184 197
f 197 184 199
f 184 174 199
f 174 187 199
f 177 190 200
f 187 177 200
f 182 192 201
f 190 182 201
f 198 197 202
f 203 204 205
f 192 193 205
f 193 206 205
f 206 203 205
f 197 199 207
f 187 200 208
f 199 187 208
f 190 201 209
f 200 190 209
f 210 198 211
f 198 202 211
f 204 212 213
f 192 205 213
f 201 192 213
f 205 204 213
f 202 197 214
f 197 207 214
f 199 208 215
f 207 199 215
f 200 209 216
f 208 200 216
f 217 210 218
f 210 211 218
f 212 219 220
f 201 213 220
f 213 212 220
f 209 201 220
f 202 214 221
f 211 202 221
f 217 218 222
f 223 217 222
f 214 207 224
f 207 215 224
f 215 208 225
f 208 216 225
f 219 226 227
f 209 220 227
f 216 209 227
f 225 216 227
f 220 219 227
f 211 221 228
f 222 218 228
f 218 211 228
f 214 224 229
f 221 214 229
f 223 222 230
f 231 223 230
f 230 222 232
f 222 228 232
f 224 215 233
f 215 225 233
f 226 234 235
f 225 227 235
f 227 226 235
f 228 221 236
f 221 229 236
f 232 228 236
f 231 230 237
f 238 231 237
f 229 224 239
f 224 233 239
f 230 232 240
f 237 230 240
f 240 232 241
f 232 236 241
f 234 242 243
f 235 234 243
f 233 225 243
f 225 235 243
f 238 237 244
f 245 238 244
f 236 229 246
f 229 239 246
f 241 236 246
f 244 237 247
f 237 240 247
f 233 243 248
f 242 249 248
f 243 242 248
f 239 233 248
f 240 241 250
f 241 246 251
f 250 241 251
f 252 245 253
f 245 244 253
f 244 247 254
f 249 255 256
f 248 249 256
f 246 239 256
f 239 248 256
f 251 246 256
f 247 240 257
f 240 250 257
f 250 251 258
f 258 251 259
f 251 256 259
f 256 255 259
f 252 253 260
f 261 252 260
f 260 253 262
f 253 244 262
f 244 254 262
f 254 247 263
f 247 257 263
f 257 250 78
f 250 258 78
f 264 261 80
f 261 260 80
f 255 265 266
f 259 255 266
f 258 259 266
f 80 260 267
f 260 262 267
f 267 262 268
f 262 254 268
f 254 263 268
f 263 257 77
f 257 78 77
f 269 264 73
f 71 269 73
f 264 80 73
f 78 258 79
f 258 266 79
f 265 270 79
f 270 74 79
f 266 265 79
f 80 267 82
f 82 267 83
f 267 268 83
f 83 268 85
f 268 263 85
f 263 77 85
f 271 272 273
f 271 273 274
f 271 274 275
f 271 275 276
f 271 276 277
f 271 277 278
f 271 278 279
f 280 271 279
f 281 282 283
f 281 283 284
f 280 285 286
f 280 287 285
f 280 288 287
f 289 281 284
f 280 279 288
f 290 291 292
f 290 292 293
f 290 293 294
f 290 294 295
f 290 295 272
f 290 272 271
f 290 271 280
f 296 280 286
f 296 286 297
f 298 299 300
f 301 302 303
f 301 297 302
f 301 296 297
f 304 291 290
f 304 305 306
f 307 308 309
f 304 306 291
f 307 310 308
f 307 311 310
f 312 313 314
f 312 314 315
f 316 317 318
f 316 300 317
f 316 319 311
f 316 320 319
f 316 318 320
f 316 298 300
f 321 301 303
f 321 299 298
f 321 322 299
f 321 303 322
f 321 298 316
f 323 324 325
f 323 325 305
f 323 305 304
f 326 307 327
f 326 327 328
f 326 328 329
f 326 311 307
f 326 316 311
f 330 329 331
f 330 331 332
f 330 332 333
f 330 333 334
f 330 334 335
f 330 316 326
f 330 326 329
f 330 321 316
f 336 335 337
f 336 337 338
f 336 338 339
f 336 339 340
f 336 340 324
f 336 324 323
f 336 321 330
f 336 330 335
f 341 304 290
f 341 290 280
f 341 280 296
f 342 323 304
f 342 304 341
f 342 341 296
f 342 296 301
f 343 321 336
f 343 301 321
f 343 342 301
f 343 323 342
f 343 336 323
f 317 344 345
f 278 277 346
f 278 346 347
f 318 317 345
f 278 347 281
f 278 281 289
f 279 289 348
f 279 348 349
f 279 349 313
f 279 312 350
f 279 278 289
f 279 313 312
f 288 279 350
f 288 350 287
f 351 352 22
f 351 22 24
f 353 24 25
f 353 25 27
f 353 351 24
f 354 353 27
f 355 4 1
f 355 1 5
f 356 27 28
f 355 158 4
f 356 28 30
f 356 354 27
f 357 5 6
f 358 30 31
f 357 355 5
f 358 356 30
f 359 357 6
f 360 358 31
f 361 6 8
f 362 31 32
f 361 359 6
f 362 360 31
f 363 8 9
f 364 32 34
f 364 34 35
f 363 361 8
f 364 362 32
f 365 9 11
f 366 364 35
f 365 363 9
f 367 35 37
f 367 37 38
f 367 366 35
f 368 11 12
f 369 38 40
f 368 12 13
f 369 367 38
f 368 365 11
f 203 369 40
f 370 368 13
f 371 13 15
f 371 15 16
f 371 370 13
f 372 16 18
f 372 371 16
f 373 372 18
f 374 373 18
f 374 18 19
f 374 19 21
f 375 374 21
f 352 21 22
f 352 375 21
f 108 376 377
f 116 377 378
f 116 378 379
f 116 108 377
f 122 116 379
f 122 379 380
f 204 203 40
f 204 40 381
f 130 380 382
f 204 381 383
f 130 122 380
f 139 382 384
f 212 383 385
f 139 130 382
f 212 204 383
f 219 385 386
f 148 139 384
f 219 212 385
f 153 384 387
f 226 219 386
f 153 148 384
f 234 386 388
f 178 387 389
f 234 226 386
f 178 153 387
f 186 389 390
f 186 390 391
f 242 388 392
f 186 178 389
f 242 392 393
f 194 186 391
f 242 234 388
f 194 391 394
f 157 194 394
f 249 393 395
f 158 394 4
f 249 242 393
f 158 157 394
f 255 249 395
f 265 395 396
f 265 396 397
f 265 255 395
f 270 397 398
f 270 265 397
f 74 270 398
f 75 74 398
f 75 398 399
f 75 399 400
f 95 75 400
f 95 400 376
f 101 95 376
f 108 101 376
f 401 402 403
f 404 401 403
f 286 405 297
f 405 406 297
f 407 408 409
f 404 403 344
f 410 407 411
f 407 409 411
f 408 412 413
f 297 406 302
f 409 408 413
f 414 410 415
f 406 416 302
f 410 411 415
f 404 344 317
f 412 417 418
f 419 404 317
f 413 412 418
f 416 420 303
f 302 416 303
f 421 419 300
f 312 315 422
f 419 317 300
f 315 414 422
f 303 420 322
f 414 415 422
f 420 423 322
f 417 424 425
f 421 300 299
f 418 417 425
f 423 421 299
f 322 423 299
f 312 422 426
f 424 427 428
f 425 424 428
f 312 426 350
f 350 426 429
f 428 427 430
f 430 427 431
f 350 429 287
f 287 429 432
f 430 431 433
f 433 431 434
f 287 432 285
f 285 432 435
f 433 434 436
f 436 434 402
f 436 402 401
f 435 405 286
f 285 435 286
f 437 412 408
f 437 438 439
f 440 289 441
f 440 348 289
f 440 349 348
f 440 313 349
f 440 414 313
f 440 441 438
f 440 410 414
f 440 438 437
f 314 313 414
f 442 443 444
f 442 444 445
f 315 314 414
f 442 446 443
f 447 417 412
f 447 424 417
f 447 412 437
f 448 410 440
f 448 407 410
f 448 440 437
f 448 437 407
f 449 427 424
f 449 424 447
f 450 445 451
f 450 451 452
f 450 452 453
f 450 453 454
f 450 454 455
f 450 442 445
f 456 427 449
f 456 431 427
f 456 434 431
f 457 450 455
f 457 455 458
f 457 458 459
f 457 459 460
f 457 460 461
f 457 461 462
f 457 456 450
f 463 434 456
f 463 402 434
f 464 402 463
f 464 456 457
f 464 311 319
f 464 319 320
f 464 320 318
f 283 282 465
f 464 403 402
f 464 318 403
f 464 463 456
f 466 311 464
f 466 462 467
f 466 467 468
f 466 468 469
f 466 457 462
f 466 469 311
f 466 464 457
f 470 447 437
f 470 437 439
f 284 283 465
f 470 439 446
f 471 446 442
f 345 344 403
f 289 284 465
f 471 470 446
f 471 449 447
f 471 447 470
f 472 449 471
f 472 456 449
f 472 450 456
f 472 442 450
f 472 471 442
f 318 345 403
f 310 311 469
f 308 310 469
f 309 308 469
f 439 473 474
f 439 474 475
f 439 475 476
f 439 476 477
f 439 477 478
f 438 479 480
f 438 480 481
f 438 481 482
f 438 482 483
f 438 483 473
f 438 473 439
f 441 289 465
f 441 465 484
f 441 484 485
f 441 485 479
f 441 479 438
f 446 478 486
f 446 486 443
f 446 439 478
f 437 408 407
f 274 273 210
f 275 274 210
f 276 275 217
f 275 210 217
f 273 272 198
f 210 273 198
f 277 276 223
f 276 217 223
f 272 295 196
f 198 272 196
f 295 294 175
f 196 295 175
f 346 277 231
f 347 346 231
f 277 223 231
f 347 231 238
f 293 292 166
f 294 293 166
f 175 294 166
f 281 347 245
f 347 238 245
f 292 291 164
f 166 292 164
f 291 306 162
f 164 291 162
f 282 281 252
f 281 245 252
f 282 252 261
f 305 325 159
f 306 305 159
f 162 306 159
f 465 282 264
f 282 261 264
f 325 324 487
f 159 325 487
f 487 324 488
f 324 340 488
f 484 465 269
f 465 264 269
f 488 340 489
f 340 339 489
f 484 269 71
f 484 71 70
f 485 484 70
f 479 485 70
f 338 337 490
f 339 338 490
f 489 339 490
f 337 335 491
f 490 337 491
f 479 70 92
f 480 479 92
f 480 92 94
f 481 480 94
f 335 334 492
f 491 335 492
f 481 94 106
f 482 481 106
f 492 334 493
f 493 334 333
f 106 113 483
f 482 106 483
f 493 333 332
f 494 493 332
f 113 118 473
f 483 113 473
f 494 332 331
f 495 494 331
f 118 126 474
f 473 118 474
f 495 331 329
f 496 495 329
f 474 126 475
f 496 329 328
f 126 134 476
f 475 126 476
f 497 498 327
f 498 496 327
f 496 328 327
f 134 141 477
f 476 134 477
f 141 143 478
f 477 141 478
f 499 497 307
f 497 327 307
f 478 143 486
f 143 142 486
f 486 142 443
f 499 307 309
f 500 501 309
f 501 499 309
f 443 142 444
f 142 502 444
f 444 502 445
f 502 503 445
f 500 309 469
f 504 500 469
f 445 503 451
f 503 505 451
f 451 505 452
f 504 469 468
f 506 507 468
f 507 504 468
f 452 505 453
f 505 508 453
f 506 468 467
f 453 508 454
f 508 509 454
f 510 506 462
f 506 467 462
f 454 509 455
f 509 511 455
f 510 462 461
f 512 510 461
f 455 511 458
f 511 513 458
f 512 461 460
f 513 512 460
f 458 513 459
f 513 460 459
f 514 515 516
f 502 142 144
f 517 518 519
f 518 520 519
f 520 521 522
f 496 498 523
f 498 524 523
f 373 374 525
f 374 375 525
f 526 373 525
f 521 526 525
f 522 521 525
f 524 514 527
f 514 516 527
f 517 519 528
f 516 517 528
f 519 520 529
f 520 522 529
f 495 496 530
f 496 523 530
f 529 522 531
f 522 525 531
f 525 375 531
f 524 527 532
f 523 524 532
f 527 516 533
f 516 528 533
f 528 519 534
f 519 529 534
f 494 495 535
f 493 494 535
f 495 530 535
f 375 352 536
f 531 375 536
f 534 529 536
f 529 531 536
f 530 523 537
f 523 532 537
f 532 527 538
f 527 533 538
f 533 528 539
f 528 534 539
f 493 535 540
f 352 351 541
f 536 352 541
f 534 536 541
f 535 530 542
f 530 537 542
f 492 493 543
f 493 540 543
f 537 532 544
f 532 538 544
f 538 533 545
f 533 539 545
f 351 353 546
f 541 351 546
f 539 534 546
f 534 541 546
f 540 535 547
f 535 542 547
f 491 492 548
f 492 543 548
f 542 537 549
f 537 544 549
f 543 540 550
f 540 547 550
f 544 538 551
f 538 545 551
f 551 545 552
f 545 539 552
f 353 354 552
f 539 546 552
f 546 353 552
f 547 542 553
f 542 549 553
f 491 548 554
f 490 491 554
f 548 543 555
f 543 550 555
f 549 544 556
f 544 551 556
f 547 553 557
f 550 547 557
f 555 550 557
f 552 354 558
f 354 356 558
f 551 552 558
f 489 490 559
f 490 554 559
f 553 549 560
f 549 556 560
f 548 555 561
f 559 554 561
f 554 548 561
f 555 557 562
f 356 358 563
f 558 356 563
f 556 551 563
f 551 558 563
f 560 556 563
f 553 560 564
f 557 553 564
f 488 489 565
f 489 559 565
f 559 561 566
f 565 559 566
f 159 487 160
f 358 360 567
f 563 358 567
f 560 563 567
f 564 560 567
f 561 555 568
f 566 561 568
f 555 562 568
f 562 557 569
f 557 564 569
f 567 360 570
f 564 567 570
f 569 564 570
f 160 487 571
f 487 488 571
f 488 565 571
f 565 566 572
f 572 566 573
f 566 568 573
f 562 569 574
f 568 562 574
f 573 568 574
f 574 569 575
f 360 362 575
f 206 369 203
f 570 360 575
f 569 570 575
f 160 571 576
f 170 160 576
f 502 144 577
f 565 572 576
f 571 565 576
f 576 572 578
f 502 577 579
f 503 502 579
f 572 573 578
f 505 503 579
f 578 573 580
f 577 144 581
f 573 574 580
f 144 168 581
f 580 574 582
f 362 364 582
f 364 366 582
f 574 575 582
f 575 362 582
f 172 170 583
f 576 578 583
f 505 579 584
f 170 576 583
f 578 580 585
f 579 577 586
f 585 580 587
f 582 366 587
f 577 581 586
f 580 582 587
f 583 578 588
f 578 585 588
f 172 583 588
f 168 180 589
f 193 172 588
f 581 168 589
f 588 585 590
f 587 366 590
f 508 505 591
f 366 367 590
f 509 508 591
f 585 587 590
f 505 584 591
f 193 588 592
f 590 367 592
f 367 369 592
f 588 590 592
f 206 193 592
f 579 586 593
f 369 206 592
f 584 579 593
f 586 581 594
f 581 589 594
f 593 586 594
f 180 188 595
f 188 156 595
f 589 180 595
f 511 509 596
f 509 591 596
f 591 584 597
f 596 591 597
f 584 593 597
f 593 594 598
f 594 589 599
f 589 595 599
f 511 596 600
f 158 355 601
f 156 158 601
f 595 156 601
f 599 595 601
f 596 597 602
f 597 593 603
f 593 598 603
f 602 597 603
f 598 594 604
f 594 599 604
f 511 600 605
f 513 511 605
f 512 513 605
f 355 357 606
f 599 601 606
f 601 355 606
f 604 599 606
f 600 596 607
f 596 602 607
f 602 603 608
f 598 604 609
f 603 598 609
f 608 603 609
f 512 605 610
f 357 359 611
f 606 357 611
f 604 606 611
f 609 604 611
f 600 607 612
f 605 600 612
f 512 610 613
f 510 512 613
f 607 602 614
f 602 608 614
f 608 609 615
f 359 361 616
f 609 611 616
f 615 609 616
f 611 359 616
f 610 605 617
f 605 612 617
f 607 614 618
f 612 607 618
f 510 613 619
f 506 510 619
f 613 610 620
f 610 617 620
f 619 613 620
f 608 615 621
f 614 608 621
f 361 363 622
f 621 615 622
f 615 616 622
f 616 361 622
f 617 612 623
f 612 618 623
f 506 619 624
f 507 506 624
f 618 614 625
f 614 621 625
f 619 620 626
f 626 620 627
f 620 617 627
f 617 623 627
f 363 365 628
f 621 622 628
f 625 621 628
f 622 363 628
f 507 624 629
f 504 507 629
f 623 618 630
f 618 625 630
f 629 624 631
f 624 619 631
f 619 626 631
f 365 368 632
f 625 628 632
f 630 625 632
f 628 365 632
f 626 627 633
f 627 623 634
f 623 630 634
f 633 627 634
f 500 504 635
f 504 629 635
f 629 631 636
f 635 629 636
f 368 370 637
f 632 368 637
f 630 632 637
f 634 630 637
f 631 626 638
f 626 633 638
f 636 631 638
f 633 634 639
f 370 371 640
f 639 634 640
f 637 370 640
f 634 637 640
f 501 500 641
f 499 501 641
f 500 635 641
f 635 636 642
f 641 635 642
f 636 638 643
f 642 636 643
f 638 633 644
f 633 639 644
f 643 638 644
f 499 641 515
f 371 372 645
f 644 639 645
f 640 371 645
f 639 640 645
f 641 642 518
f 518 642 646
f 642 643 646
f 643 644 647
f 646 643 647
f 497 499 514
f 499 515 514
f 644 645 648
f 647 644 648
f 645 372 648
f 515 641 517
f 641 518 517
f 518 646 520
f 646 647 521
f 520 646 521
f 498 497 524
f 497 514 524
f 372 373 526
f 648 372 526
f 647 648 526
f 521 647 526
f 515 517 516
f 649 650 416
f 650 420 416
f 649 416 651
f 652 651 406
f 651 416 406
f 653 652 405
f 652 406 405
f 653 405 435
f 654 655 419
f 655 404 419
f 654 419 656
f 657 656 421
f 656 419 421
f 658 657 423
f 657 421 423
f 658 423 420
f 659 660 433
f 660 430 433
f 659 433 661
f 662 661 436
f 661 433 436
f 663 662 401
f 662 436 401
f 663 401 404
f 664 665 418
f 665 413 418
f 664 418 666
f 667 666 425
f 666 418 425
f 668 667 428
f 667 425 428
f 668 428 430
f 669 670 415
f 670 422 415
f 669 415 671
f 672 671 411
f 671 415 411
f 673 672 409
f 672 411 409
f 673 409 413
f 674 675 432
f 675 435 432
f 674 432 676
f 677 676 429
f 676 432 429
f 678 677 426
f 677 429 426
f 678 426 422
f 679 680 681
f 680 679 682
f 683 684 685
f 686 684 687
f 684 683 687
f 688 689 690
f 682 691 692
f 59 680 692
f 680 682 692
f 691 686 693
f 692 691 693
f 686 687 693
f 687 694 695
f 693 687 695
f 690 55 696
f 694 697 696
f 697 688 696
f 688 690 696
f 695 694 696
f 62 59 698
f 59 692 698
f 692 693 699
f 62 698 699
f 698 692 699
f 695 696 700
f 62 700 701
f 700 696 701
f 55 62 702
f 701 696 702
f 696 55 702
f 62 701 702
f 62 699 703
f 700 62 703
f 695 700 704
f 703 699 704
f 693 695 704
f 699 693 704
f 700 703 704
f 658 420 689
f 657 658 688
f 658 689 688
f 657 688 697
f 656 657 694
f 657 697 694
f 656 694 687
f 654 656 683
f 656 687 683
f 655 654 685
f 404 655 685
f 654 683 685
f 435 43 653
f 43 42 653
f 42 55 652
f 653 42 652
f 55 690 651
f 652 55 651
f 690 689 649
f 651 690 649
f 649 689 650
f 650 689 420
f 678 422 47
f 677 678 46
f 678 47 46
f 677 46 48
f 676 677 53
f 677 48 53
f 676 53 44
f 674 676 41
f 676 44 41
f 675 674 43
f 435 675 43
f 674 41 43
f 673 413 51
f 672 673 50
f 673 51 50
f 672 50 61
f 671 672 57
f 672 61 57
f 671 57 49
f 669 671 45
f 671 49 45
f 670 669 47
f 422 670 47
f 669 45 47
f 668 430 681
f 667 668 680
f 668 681 680
f 666 667 59
f 667 680 59
f 664 666 52
f 666 59 52
f 665 664 51
f 413 665 51
f 664 52 51
f 663 404 685
f 662 663 684
f 663 685 684
f 662 684 686
f 661 662 691
f 662 686 691
f 661 691 682
f 659 661 679
f 661 682 679
f 660 659 681
f 430 660 681
f 659 679 681
f 381 40 39
f 381 39 705
f 383 381 705
f 385 705 706
f 385 383 705
f 386 385 706
f 388 706 707
f 388 386 706
f 392 388 707
f 393 392 707
f 395 707 708
f 395 393 707
f 396 395 708
f 397 708 709
f 397 396 708
f 398 397 709
f 399 709 710
f 399 398 709
f 400 399 710
f 376 710 711
f 376 400 710
f 377 376 711
f 378 711 712
f 378 377 711
f 379 378 712
f 380 712 713
f 380 379 712
f 382 380 713
f 384 382 713
f 387 384 713
f 387 713 714
f 389 387 714
f 390 714 715
f 390 389 714
f 391 390 715
f 394 715 2
f 394 391 715
f 4 394 2
f 707 706 705
f 708 707 705
f 708 705 709
f 710 709 711
f 709 705 711
f 705 39 36
f 712 711 715
f 713 712 715
f 714 713 715
f 29 26 23
f 33 29 23
f 36 33 23
f 711 705 23
f 705 36 23
f 2 715 3
f 711 23 3
f 715 711 3
f 23 20 17
f 3 23 17
f 3 17 14
f 7 3 10
f 3 14 10
