# Created by FreeCAD <http://www.freecadweb.org>
v -52.349998 251.147034 247.743744
v -52.000000 250.684418 248.146561
v -52.000000 250.581772 247.995880
v -52.349998 251.260910 247.936966
v -52.349998 251.012238 247.564484
v -52.000000 250.460342 247.859894
v -52.349998 250.858215 247.401443
v -52.000000 250.322205 247.740921
v -52.349998 249.982483 250.791046
v -52.000000 249.677979 250.234421
v -52.000000 249.856461 250.197250
v -52.349998 249.762497 250.834717
v -52.349998 250.686905 247.256683
v -52.349998 250.196198 250.723022
v -52.000000 250.028580 250.137100
v -52.349998 250.500473 247.132004
v -52.000000 250.169708 247.640991
v -52.349998 250.400955 250.631485
v -52.000000 250.191360 250.054993
v -52.349998 250.301254 247.028992
v -52.000000 250.005478 247.561829
v -52.349998 250.594177 250.517609
v -52.000000 250.342041 249.952362
v -52.349998 250.091751 246.948929
v -52.000000 249.832321 247.504776
v -52.349998 250.773438 250.382813
v -52.000000 250.478027 249.830917
v -52.349998 249.874603 246.892822
v -52.000000 249.653198 247.470810
v -52.349998 249.652527 246.861389
v -52.000000 249.471176 247.460526
v -52.349998 250.936462 250.228790
v -52.000000 250.597000 249.692780
v -52.349998 249.428345 246.855011
v -52.000000 249.289352 247.474075
v -52.349998 249.204849 246.873779
v -52.349998 251.081238 250.057495
v -52.349998 251.205902 249.871048
v -52.000000 250.696930 249.540283
v -52.349998 251.308929 249.671829
v -52.000000 250.776093 249.376053
v -52.349998 251.388992 249.462326
v -52.000000 250.833145 249.202896
v -52.349998 251.445099 249.245178
v -52.000000 250.867111 249.023773
v -52.349998 251.476532 249.023102
v -52.000000 250.877396 248.841751
v -52.349998 251.482910 248.798920
v -52.000000 250.863846 248.659943
v -52.349998 251.464142 248.575424
v -52.349998 251.420471 248.355438
v -52.000000 250.826675 248.481445
v -52.349998 251.352432 248.141724
v -52.000000 250.766525 248.309341
v -66.112503 249.335907 248.957764
v -66.000000 249.483673 248.854248
v -66.224998 249.165024 248.684921
v -66.224998 249.138611 248.959839
v -66.224998 249.314346 249.172897
v -66.812393 248.948227 247.667297
v -66.850426 248.770050 247.692383
v -66.841705 248.515182 247.914169
v -66.900002 248.594757 247.717072
v -66.800873 248.434601 248.113754
v -66.841705 248.185303 249.222946
v -66.821472 248.169357 248.770706
v -66.900002 248.054382 249.055481
v -66.800873 248.317856 249.392517
v -66.850426 249.118576 250.167969
v -66.821472 248.754166 249.950714
v -66.900002 248.943298 250.192657
v -66.812393 249.296753 250.142883
v -66.781845 248.361053 248.295914
v -66.449997 248.982224 248.335236
v -66.779427 249.309402 247.616455
v -66.788017 249.128326 247.641953
v -66.782074 248.286652 248.480194
v -66.449997 248.772919 248.729095
v -66.781845 248.438828 249.547287
v -66.449997 248.835098 249.170776
v -66.782074 248.561218 249.703857
v -66.788017 249.476868 250.117538
v -66.449997 249.145020 249.491547
v -66.779427 249.657944 250.092041
v -66.224998 249.325409 248.529968
v -66.224998 249.232941 248.594742
v -66.224998 249.421097 249.209625
v -65.941422 247.522552 248.228363
v -65.900002 247.552826 248.238022
v -65.900002 247.495972 248.458084
v -65.941422 247.464798 248.451874
v -65.800003 247.658417 248.036667
v -65.800003 247.578354 248.246170
v -65.851761 247.571854 248.244095
v -65.851761 247.652191 248.033875
v -65.900002 247.633957 248.025711
v -65.993187 247.356415 249.153748
v -65.973206 247.384476 248.912338
v -65.973206 247.404175 249.147018
v -65.973206 247.391174 248.676941
v -65.941422 247.425873 248.911194
v -65.941422 247.432434 248.680435
v -66.000000 247.416534 249.607193
v -65.993187 247.399368 249.374466
v -65.993187 247.465164 249.589478
v -65.900002 247.464111 248.683121
v -65.973206 247.446167 249.362778
v -65.800003 247.522247 248.463318
v -65.851761 247.515564 248.461990
v -65.800003 247.490814 248.685394
v -65.941422 247.445190 249.141235
v -66.000000 247.506561 249.819138
v -65.993187 247.553070 249.796448
v -66.000000 247.618240 250.020523
v -65.900002 247.457657 248.910324
v -65.973206 247.510483 249.572968
v -65.851761 247.484024 248.684814
v -65.941422 247.486359 249.352753
v -65.993187 247.662140 249.993088
v -66.000000 247.750381 250.209122
v -65.900002 247.476669 249.136810
v -65.973206 247.596420 249.775284
v -65.800003 247.484436 248.909576
v -65.851761 247.477615 248.909775
v -65.941422 247.549408 249.558792
v -66.000000 247.901489 250.382874
v -65.993187 247.791153 250.177246
v -65.900002 247.517197 249.345047
v -65.973206 247.703033 249.967514
v -65.800003 247.503204 249.133072
v -65.851761 247.496460 249.134018
v -65.941422 247.633652 249.757111
v -65.993187 247.938721 250.346909
v -65.900002 247.579269 249.547913
v -65.973206 247.829163 250.147537
v -65.851761 247.536591 249.340210
v -65.800003 247.546875 249.353058
v -65.941422 247.738159 249.945557
v -66.000000 248.069946 250.539886
v -65.993187 248.103210 250.500229
v -66.000000 248.253891 250.678436
v -65.900002 247.662216 249.743179
v -65.973206 247.973404 250.313400
v -65.800003 247.614899 249.566772
v -65.851761 247.598053 249.541077
v -65.941422 247.861801 250.122025
v -66.000000 248.451309 250.796982
v -65.993187 248.282822 250.635513
v -65.900002 247.765106 249.928696
v -65.973206 248.134201 250.463272
v -65.851761 247.680176 249.734421
v -65.800003 247.706436 249.771530
v -65.941422 248.003204 250.284622
v -65.993187 248.475601 250.751266
v -65.900002 247.886841 250.102448
v -65.973206 248.309784 250.595505
v -65.993187 248.605484 250.814789
v -66.000000 248.660034 250.894257
v -65.800003 247.820313 249.964752
v -65.851761 247.782059 249.918106
v -65.941422 248.160828 250.431534
v -65.900002 248.026062 250.262527
v -65.973206 248.498230 250.708679
v -65.993187 248.830521 250.900787
v -66.000000 248.877777 250.969177
v -65.851761 247.902573 250.090149
v -65.800003 247.955109 250.144012
v -66.000000 249.790375 251.032761
v -66.000000 249.560989 251.052887
v -65.993187 249.783157 250.981506
v -65.941422 248.332947 250.561172
v -65.973206 248.625214 250.770767
v -65.900002 248.181244 250.407181
v -65.800003 248.109116 250.307053
v -65.851761 248.040421 250.248642
v -66.000000 249.102173 251.020920
v -65.993187 249.063766 250.961044
v -65.941422 248.517670 250.672104
v -65.973206 248.845184 250.854828
v -65.851761 249.763443 250.841461
v -65.800003 249.539001 250.853485
v -65.800003 249.762497 250.834717
v -66.000000 249.176956 246.675735
v -65.993187 249.184174 246.726990
v -65.993187 248.963455 246.769943
v -65.900002 248.350708 250.534805
v -66.000000 248.950928 246.719727
v -65.993187 248.748444 246.835739
v -65.941422 248.642136 250.732971
v -66.000000 248.730728 246.787109
v -66.000000 248.518768 246.877136
v -65.800003 248.280426 250.451813
v -65.851761 248.194092 250.391876
v -65.973206 249.190903 246.774750
v -65.973206 248.975143 246.816757
v -65.941422 249.196671 246.815765
v -66.000000 249.330734 251.048920
v -65.993187 249.302292 250.994812
v -66.000000 248.317398 246.988831
v -65.993187 248.541473 246.923660
v -65.973206 249.073196 250.913742
v -65.973206 248.764954 246.881073
v -65.900002 248.532578 250.644028
v -65.900002 249.201111 246.847244
v -65.941422 248.985168 246.856934
v -65.993187 248.344833 247.032715
v -65.941422 248.857773 250.815369
v -66.000000 248.128799 247.120956
v -65.851761 248.361877 250.518250
v -65.800003 248.466858 250.576492
v -65.973206 249.776443 250.933746
v -65.993187 249.543106 251.001663
v -65.973206 248.562637 246.967010
v -65.900002 248.655136 250.703964
v -65.941422 248.779129 246.919983
v -65.973206 249.306366 250.946747
v -66.000000 247.955032 247.272064
v -65.993187 248.160675 247.161728
v -65.941422 249.081299 250.873123
v -65.851761 248.541962 250.626389
v -65.900002 248.992859 246.887772
v -65.800003 248.666092 250.679504
v -65.973206 248.370407 247.073624
v -65.900002 248.867447 250.785095
v -65.851761 248.663300 250.685730
v -65.800003 248.875595 250.759567
v -65.941422 248.580795 247.004227
v -65.993187 247.990997 247.309296
v -65.973206 249.541763 250.953445
v -66.000000 247.798035 247.440521
v -65.900002 248.790009 246.949844
v -65.941422 249.309860 250.905472
v -65.900002 249.087509 250.841949
v -65.973206 248.190384 247.199738
v -65.851761 248.873520 250.766052
v -65.800003 249.204849 246.873779
v -65.800003 248.984848 246.917450
v -65.851761 248.997711 246.907166
v -65.851761 249.203888 246.867035
v -65.941422 249.770660 250.892715
v -65.941422 249.540619 250.912033
v -65.941422 248.392365 247.108734
v -65.993187 247.837692 247.473785
v -65.900002 249.312546 250.873810
v -65.800003 249.092743 250.815674
v -65.851761 249.091415 250.822357
v -65.800003 249.314804 250.847107
v -65.900002 248.594742 247.032791
v -65.900002 249.766235 250.861252
v -65.900002 249.539749 250.880264
v -65.851761 249.314240 250.853897
v -65.973206 248.024521 247.343994
v -65.851761 249.539185 250.860291
v -65.851761 248.796844 246.968628
v -65.800003 248.771133 246.985474
v -65.941422 248.215881 247.232376
v -66.000000 247.659485 247.624466
v -65.993187 247.702408 247.653397
v -65.900002 248.409210 247.135681
v -65.973206 247.874649 247.504791
v -65.851761 248.603500 247.050751
v -65.800003 248.566376 247.077011
v -65.941422 248.053299 247.373779
v -66.000000 247.540939 247.821884
v -65.993187 247.586639 247.846176
v -65.900002 248.235458 247.257416
v -65.973206 247.742401 247.680359
v -65.993187 247.523132 247.976059
v -66.000000 247.443665 248.030609
v -65.851761 248.419800 247.152634
v -65.800003 248.373169 247.190887
v -65.941422 247.906387 247.531403
v -65.900002 248.075378 247.396637
v -65.973206 247.629242 247.868805
v -65.800003 248.193909 247.325684
v -65.851761 248.247772 247.273163
v -65.993187 247.437134 248.201096
v -66.000000 247.368744 248.248352
v -65.941422 247.776749 247.703522
v -65.973206 247.567154 247.995789
v -65.900002 247.930740 247.551819
v -65.800003 248.030869 247.479706
v -65.851761 248.089264 247.411011
v -65.993187 247.376877 248.434341
v -66.000000 247.317001 248.472748
v -65.941422 247.665817 247.888245
v -65.973206 247.483078 248.215759
v -65.900002 247.803101 247.721283
v -65.941422 247.604950 248.012711
v -65.800003 247.886108 247.651001
v -65.851761 247.946045 247.564667
v -65.993187 247.343109 248.672867
v -66.000000 247.288986 248.701309
v -65.973206 247.424179 248.443771
v -65.900002 247.693878 247.903152
v -65.800003 247.761429 247.837448
v -65.851761 247.819672 247.732452
v -66.000000 247.285034 248.931564
v -65.993187 247.336258 248.913681
v -65.851761 247.711533 247.912537
v -66.000000 247.305161 249.160950
v -66.000000 247.349152 249.386993
v -67.382729 248.066986 246.208237
v -67.525993 247.516006 246.767303
v -67.928459 248.586288 246.616623
v -67.576607 249.132751 246.058182
v -68.199997 249.204849 246.873779
v -67.928459 249.728348 246.455841
v -67.053490 248.547913 245.728088
v -67.053490 249.519913 245.591232
v -67.382729 250.114716 245.919937
v -67.525993 250.798630 246.305161
v -66.656937 250.409073 245.466049
v -66.000000 245.690811 249.087158
v -66.000000 245.720779 249.384018
v -66.338722 245.850296 249.365784
v -66.664215 246.009644 249.343353
v -66.485634 245.960648 248.108353
v -66.000000 245.998474 247.339844
v -66.000000 245.890396 247.617966
v -66.000000 245.804474 247.903702
v -66.000000 245.684235 248.788849
v -66.000000 245.741241 248.195297
v -66.000000 245.701080 248.490952
v -66.973808 246.197510 249.316895
v -67.439430 246.656677 248.010345
v -67.782539 246.915695 249.215790
v -68.199997 247.490814 248.685394
v -67.264954 246.412354 249.286652
v -67.535271 246.652405 249.252853
v -68.199997 247.578354 248.246170
v -68.131516 247.608963 247.876282
v -68.199997 247.761429 247.837448
v -68.199997 248.030869 247.479706
v -66.771660 246.652084 246.888931
v -66.000000 246.843307 246.121399
v -66.000000 246.637024 246.336975
v -66.000000 246.448303 246.568085
v -66.000000 246.278290 246.813293
v -66.000000 246.128036 247.071075
v -68.199997 248.373169 247.190887
v -66.656937 247.658752 245.853271
v -66.000000 248.371780 245.220566
v -66.000000 248.090103 245.319000
v -66.000000 247.817032 245.439240
v -66.000000 247.554230 245.580521
v -66.000000 247.303329 245.742004
v -66.000000 247.065857 245.922653
v -68.004723 247.200073 249.175751
v -68.199997 247.503204 249.133072
v -66.000000 253.193390 248.030884
v -66.338722 253.117035 248.342712
v -66.000000 253.246567 248.324478
v -66.664215 252.957703 248.365143
v -68.199997 248.771133 246.985474
v -66.000000 253.117355 247.742355
v -66.973808 252.769836 248.391602
v -68.131516 251.015488 247.396683
v -68.199997 250.858215 247.401443
v -68.199997 251.147034 247.743744
v -68.199997 250.500473 247.132004
v -68.199997 249.652527 246.861389
v -68.199997 250.091751 246.948929
v -66.000000 248.953903 245.091354
v -66.000000 248.660294 245.144516
v -67.439430 251.967758 247.262619
v -68.199997 251.352432 248.141724
v -67.782539 252.051636 248.492706
v -67.264954 252.554993 248.421844
v -67.535271 252.314941 248.455643
v -66.000000 249.549072 245.054810
v -66.000000 249.250763 245.061386
v -66.485634 252.663788 247.164627
v -66.000000 253.018921 247.460678
v -66.000000 252.898682 247.187607
v -66.000000 252.757385 246.924805
v -66.000000 252.595917 246.673904
v -66.000000 252.415253 246.436432
v -66.771660 251.662552 246.183517
v -66.000000 252.216522 246.213882
v -66.000000 252.000931 246.007599
v -66.000000 251.769836 245.818878
v -66.000000 251.524628 245.648865
v -66.000000 251.266846 245.498611
v -68.199997 251.464142 248.575424
v -68.004723 251.767258 248.532745
v -66.000000 250.998077 245.369049
v -66.000000 250.719955 245.260971
v -66.000000 250.434219 245.175049
v -66.000000 250.142624 245.111816
v -66.000000 249.846970 245.071655
v -65.800003 251.464142 248.575424
v -65.800003 251.482910 248.798920
v -65.800003 251.420471 248.355438
v -65.800003 251.352432 248.141724
v -65.800003 251.260910 247.936966
v -65.800003 249.982483 250.791046
v -65.800003 251.147034 247.743744
v -65.800003 250.196198 250.723022
v -65.800003 251.012238 247.564484
v -65.800003 250.400955 250.631485
v -65.800003 250.858215 247.401443
v -65.800003 250.594177 250.517609
v -65.800003 250.686905 247.256683
v -65.800003 250.773438 250.382813
v -65.800003 250.500473 247.132004
v -65.800003 250.936462 250.228790
v -65.800003 250.301254 247.028992
v -65.800003 250.091751 246.948929
v -65.800003 251.081238 250.057495
v -65.800003 249.874603 246.892822
v -65.800003 251.205902 249.871048
v -65.800003 249.652527 246.861389
v -65.800003 251.308929 249.671829
v -65.800003 249.428345 246.855011
v -65.800003 251.388992 249.462326
v -65.800003 251.445099 249.245178
v -65.800003 251.476532 249.023102
v -52.349998 247.546875 249.353058
v -52.349998 247.614899 249.566772
v -52.349998 247.706436 249.771530
v -52.349998 248.984848 246.917450
v -52.349998 248.771133 246.985474
v -52.349998 247.820313 249.964752
v -52.349998 247.955109 250.144012
v -52.349998 248.566376 247.077011
v -52.349998 248.373169 247.190887
v -52.349998 248.109116 250.307053
v -52.349998 248.280426 250.451813
v -52.349998 248.193909 247.325684
v -52.349998 248.030869 247.479706
v -52.349998 248.466858 250.576492
v -52.349998 248.666092 250.679504
v -52.349998 248.875595 250.759567
v -52.349998 247.886108 247.651001
v -52.349998 249.092743 250.815674
v -52.349998 249.314804 250.847107
v -52.349998 247.761429 247.837448
v -52.349998 247.658417 248.036667
v -52.349998 249.539001 250.853485
v -52.349998 247.578354 248.246170
v -52.349998 247.522247 248.463318
v -52.349998 247.490814 248.685394
v -52.349998 247.484436 248.909576
v -52.349998 247.503204 249.133072
v -68.199997 248.145264 248.313873
v -68.199997 248.227249 248.143799
v -68.199997 249.659225 247.421585
v -68.199997 249.844727 247.456757
v -68.199997 249.470718 247.410934
v -68.199997 248.330734 247.985886
v -68.199997 250.812164 248.289948
v -68.199997 250.874451 248.468185
v -68.199997 250.513397 249.865677
v -68.199997 250.936462 250.228790
v -68.199997 250.636612 249.722610
v -68.199997 250.727142 248.121384
v -68.199997 250.620850 247.965347
v -68.199997 251.205902 249.871048
v -68.199997 248.109116 250.307053
v -68.199997 248.466858 250.576492
v -68.199997 248.615311 250.007187
v -68.199997 250.024048 247.515839
v -68.199997 250.740097 249.564697
v -68.199997 248.453934 247.842819
v -68.199997 248.472244 249.883987
v -68.199997 250.495102 247.824509
v -68.199997 250.352036 247.701309
v -68.199997 248.773224 250.110672
v -68.199997 248.594757 247.717072
v -68.199997 250.194122 247.597824
v -68.199997 250.822083 249.394623
v -68.199997 247.820313 249.964752
v -68.199997 248.346497 249.743149
v -68.199997 248.875595 250.759567
v -68.199997 248.943298 250.192657
v -68.199997 250.881165 249.215302
v -68.199997 251.388992 249.462326
v -68.199997 248.750793 247.610764
v -68.199997 247.614899 249.566772
v -68.199997 248.240189 249.587112
v -68.199997 249.314804 250.847107
v -68.199997 249.122620 250.251740
v -68.199997 249.308121 250.286911
v -68.199997 248.155167 249.418549
v -68.199997 249.496613 250.297562
v -68.199997 249.762497 250.834717
v -68.199997 248.092880 249.240311
v -68.199997 250.916336 249.029800
v -68.199997 251.476532 249.023102
v -68.199997 250.926987 248.841309
v -68.199997 248.919373 247.525757
v -68.199997 249.097610 247.463455
v -68.199997 249.684891 250.283524
v -68.199997 248.054382 249.055481
v -68.199997 250.196198 250.723022
v -68.199997 249.869736 250.245041
v -68.199997 248.040359 248.867188
v -68.199997 248.051010 248.678696
v -68.199997 250.047958 250.182739
v -68.199997 250.594177 250.517609
v -68.199997 250.216537 250.097717
v -68.199997 249.282440 247.424973
v -68.199997 248.086182 248.493195
v -68.199997 250.912949 248.653015
v -68.199997 250.372574 249.991425
v -67.382729 250.900360 251.500259
v -67.928459 250.381058 251.091873
v -67.576607 249.918396 251.638504
v -66.000000 253.283112 248.919647
v -66.000000 253.276520 248.621338
v -66.656937 248.558273 252.242447
v -66.000000 247.700485 252.209885
v -66.000000 247.969269 252.339447
v -66.000000 248.247375 252.447525
v -66.000000 248.533112 252.533432
v -66.000000 248.824707 252.596680
v -66.000000 249.120377 252.636841
v -66.000000 249.418274 252.653687
v -66.771660 247.304779 251.524979
v -66.000000 246.552078 251.272049
v -66.000000 246.750824 251.494614
v -66.000000 246.966400 251.700897
v -66.000000 247.197510 251.889618
v -66.000000 247.442703 252.059631
v -66.485634 246.303543 250.543869
v -66.000000 245.849976 249.966141
v -66.000000 245.948425 250.247803
v -66.000000 246.068649 250.520889
v -66.000000 246.209946 250.783691
v -66.000000 246.371414 251.034592
v -67.053490 249.447433 252.117264
v -66.000000 249.716568 252.647110
v -66.000000 250.013443 252.617142
v -67.525993 248.168701 251.403336
v -67.439430 246.999573 250.445877
v -67.053490 250.419434 251.980408
v -66.000000 250.307037 252.563980
v -66.000000 250.595566 252.487930
v -67.928459 249.238983 251.252655
v -68.131516 247.951859 250.311813
v -66.000000 245.773941 249.677612
v -66.656937 251.308594 251.855225
v -66.000000 250.877228 252.389496
v -66.000000 251.150314 252.269257
v -66.000000 251.413116 252.127975
v -66.000000 251.664017 251.966492
v -66.000000 251.901474 251.785828
v -66.000000 252.124039 251.587097
v -67.525993 251.451324 250.941193
v -66.771660 252.315262 250.819550
v -66.000000 252.330307 251.371521
v -66.000000 252.519043 251.140411
v -66.000000 252.689056 250.895203
v -66.000000 252.839310 250.637421
v -66.000000 252.968872 250.368652
v -68.131516 251.358383 249.832214
v -67.439430 252.310654 249.698135
v -66.485634 253.006683 249.600143
v -66.000000 253.076935 250.090530
v -66.000000 253.162857 249.804794
v -66.000000 253.226105 249.513199
v -66.000000 253.266266 249.217545
v -67.382729 248.852631 251.788559
v -66.000000 251.307846 250.084030
v -66.000000 251.426407 249.886612
v -66.000000 251.169312 250.267975
v -66.000000 249.406357 246.655609
v -66.000000 249.636597 246.659576
v -66.000000 249.865173 246.687576
v -66.000000 250.089554 246.739319
v -66.000000 250.307312 246.814240
v -66.000000 250.516037 246.911514
v -66.000000 250.713455 247.030060
v -66.000000 250.897400 247.168610
v -66.000000 251.065842 247.325623
v -66.000000 251.216965 247.499374
v -66.000000 251.349091 247.687973
v -66.000000 251.460785 247.889359
v -66.000000 251.550812 248.101303
v -66.000000 251.618195 248.321503
v -66.000000 251.662186 248.547531
v -66.000000 250.016418 250.988770
v -66.000000 251.682312 248.776932
v -66.000000 250.236618 250.921387
v -66.000000 251.678345 249.007187
v -66.000000 250.448563 250.831360
v -66.000000 251.650345 249.235748
v -66.000000 250.649948 250.719666
v -66.000000 251.598587 249.460144
v -66.000000 250.838547 250.587540
v -66.000000 251.523666 249.677887
v -66.000000 251.012299 250.436432
v -65.993187 251.610931 248.554749
v -65.973206 251.582870 248.796143
v -65.973206 251.563156 248.561478
v -65.941422 251.534897 249.028061
v -65.941422 251.541458 248.797302
v -65.993187 251.502167 248.119019
v -65.993187 251.567963 248.334030
v -65.900002 251.503235 249.025375
v -65.900002 251.471375 249.250412
v -65.973206 251.521164 248.345718
v -65.851761 251.451782 249.246506
v -65.900002 251.414520 249.470474
v -65.851761 251.395477 249.464401
v -65.941422 251.522141 248.567261
v -65.993187 251.414261 247.912048
v -65.900002 251.509689 248.798172
v -65.973206 251.456848 248.135529
v -65.851761 251.483322 249.023682
v -65.941422 251.480972 248.355743
v -65.993187 251.305206 247.715408
v -65.900002 251.490677 248.571686
v -65.973206 251.370911 247.933212
v -65.851761 251.489716 248.798721
v -65.941422 251.417923 248.149704
v -65.993187 251.176178 247.531250
v -65.900002 251.450134 248.363449
v -65.973206 251.264297 247.740982
v -65.851761 251.470886 248.574478
v -65.941422 251.333694 247.951370
v -65.993187 251.028625 247.361588
v -65.900002 251.388062 248.160583
v -65.973206 251.138184 247.560959
v -65.851761 251.430756 248.368286
v -65.941422 251.229172 247.762939
v -65.993187 250.864136 247.208267
v -65.900002 251.305130 247.965317
v -65.973206 250.993927 247.395096
v -65.851761 251.369293 248.167419
v -65.941422 251.105545 247.586472
v -65.993187 250.684509 247.072983
v -65.900002 251.202225 247.779800
v -65.973206 250.833130 247.245224
v -65.851761 251.287170 247.974075
v -65.941422 250.964142 247.423874
v -65.993187 250.491745 246.957230
v -65.900002 251.080505 247.606033
v -65.973206 250.657547 247.112991
v -65.993187 250.361847 246.893707
v -65.851761 251.185287 247.790390
v -65.941422 250.806519 247.276962
v -65.900002 250.941284 247.445969
v -65.973206 250.469116 246.999817
v -65.993187 250.136826 246.807709
v -65.851761 251.064758 247.618347
v -65.941422 250.634399 247.147324
v -65.973206 250.342133 246.937729
v -65.900002 250.786087 247.301315
v -65.851761 250.926910 247.459854
v -65.993187 249.903564 246.747452
v -65.941422 250.449677 247.036392
v -65.973206 250.122147 246.853668
v -65.900002 250.616638 247.173691
v -65.941422 250.325195 246.975525
v -65.851761 250.773254 247.316620
v -65.993187 249.665039 246.713684
v -65.973206 249.894150 246.794754
v -65.993187 250.003876 250.938553
v -65.993187 250.218903 250.872757
v -65.900002 250.434753 247.064468
v -65.973206 249.992203 250.891739
v -65.941422 250.109558 246.893127
v -65.851761 250.605469 247.190247
v -65.993187 250.425858 250.784836
v -65.993187 249.424240 246.706833
v -65.973206 250.202393 250.827423
v -65.900002 250.312210 247.004532
v -65.973206 249.660965 246.761749
v -65.941422 249.982162 250.851563
v -65.941422 249.886047 246.835373
v -65.993187 250.622498 250.675781
v -65.851761 250.425385 247.082108
v -65.973206 250.404709 250.741486
v -65.900002 250.099899 246.923401
v -65.941422 250.188217 250.788513
v -65.851761 250.304031 247.022766
v -65.973206 249.425568 246.755051
v -65.993187 250.806671 250.546753
v -65.900002 249.974472 250.820724
v -65.941422 249.657471 246.803024
v -65.973206 250.596939 250.634872
v -65.900002 249.879837 246.866547
v -65.851761 250.093826 246.942444
v -65.941422 250.386536 250.704269
v -65.941422 249.426712 246.796463
v -65.900002 249.654785 246.834686
v -65.993187 250.976334 250.399200
v -65.851761 249.875931 246.886139
v -65.900002 250.177338 250.758636
v -65.900002 249.427597 246.828232
v -65.973206 250.776962 250.508759
v -65.851761 249.653107 246.854599
v -65.851761 249.969635 250.801331
v -65.851761 249.428146 246.848206
v -65.941422 250.574966 250.599762
v -65.993187 251.129654 250.234711
v -65.900002 250.372604 250.675705
v -65.973206 250.942825 250.364502
v -65.851761 250.170502 250.739868
v -65.941422 250.751450 250.476120
v -65.993187 251.264923 250.055099
v -65.900002 250.558121 250.572800
v -65.973206 251.092697 250.203705
v -65.851761 250.363831 250.657745
v -65.941422 250.914032 250.334717
v -65.993187 251.380692 249.862320
v -65.900002 250.731873 250.451080
v -65.973206 251.224930 250.028137
v -65.993187 251.444214 249.732422
v -65.851761 250.547531 250.555862
v -65.941422 251.060959 250.177094
v -65.900002 250.891953 250.311859
v -65.973206 251.338104 249.839691
v -65.851761 250.719574 250.435333
v -65.993187 251.530212 249.507401
v -65.941422 251.190582 250.004974
v -65.973206 251.400192 249.712708
v -65.900002 251.036606 250.156677
v -65.851761 250.878067 250.297485
v -65.993187 251.590469 249.274155
v -65.941422 251.301514 249.820251
v -65.973206 251.484253 249.492737
v -65.900002 251.164230 249.987213
v -65.941422 251.362381 249.695770
v -65.851761 251.021286 250.143829
v -65.993187 251.624237 249.035629
v -65.973206 251.543167 249.264725
v -65.900002 251.273453 249.805344
v -65.941422 251.444794 249.480133
v -65.851761 251.147659 249.976044
v -65.993187 251.631088 248.794815
v -65.900002 251.333374 249.682785
v -65.973206 251.576172 249.031555
v -65.941422 251.502533 249.256622
v -65.851761 251.255814 249.795959
v -65.851761 251.315140 249.674622
v -68.177307 249.826126 247.543701
v -68.161011 249.628021 247.571594
v -68.151985 249.429703 247.599518
v -68.151100 249.231110 247.627472
v -68.166641 248.912704 247.672302
v -68.177246 250.789490 248.495087
v -68.160950 250.666031 248.337143
v -68.151962 250.542572 248.179199
v -68.151115 250.419113 248.021255
v -68.166641 250.221573 247.768555
v -68.177246 250.447632 249.805542
v -68.160950 250.522675 249.619644
v -68.151962 250.597733 249.433762
v -68.151115 250.672791 249.247864
v -68.166641 250.792862 248.950439
v -68.177254 249.141861 250.164703
v -68.160942 249.340866 250.136688
v -68.151939 249.539886 250.108658
v -68.151131 249.738541 250.080688
v -68.166702 250.055832 250.036026
v -68.177246 248.177841 249.213409
v -68.160950 248.301315 249.371353
v -68.151962 248.424774 249.529297
v -68.151115 248.548233 249.687241
v -68.166641 248.745758 249.939941
v -68.177246 248.519714 247.902954
v -68.160950 248.444656 248.088852
v -68.151962 248.369614 248.274734
v -68.151115 248.294556 248.460632
v -68.166641 248.174469 248.758057
v -66.449997 250.132248 248.537720
v -66.224998 249.653000 248.535599
v -66.224998 249.828720 248.748657
v -66.449997 250.194427 248.979401
v -66.112503 249.631439 248.750732
v -66.224998 249.802322 249.023575
v -66.812241 250.020905 250.040939
v -66.850471 250.198410 250.015945
v -66.841705 250.452148 249.794327
v -66.900002 250.372574 249.991425
v -66.800873 250.532745 249.594742
v -66.841705 250.782043 248.485550
v -66.821472 250.797974 248.937775
v -66.900002 250.912949 248.653015
v -66.800873 250.649490 248.315979
v -66.850471 249.849884 247.540359
v -66.821472 250.213165 247.757782
v -66.900002 250.024048 247.515839
v -66.812241 249.672379 247.565353
v -66.781845 250.606277 249.412582
v -66.449997 249.985123 249.373260
v -66.787888 249.839859 250.066422
v -66.782074 250.680679 249.228302
v -66.781845 250.528503 248.161209
v -66.782074 250.406128 248.004639
v -66.787888 249.491333 247.590836
v -66.449997 249.822327 248.216949
v -66.224998 249.641937 249.178528
v -66.224998 249.734390 249.113754
v -66.224998 249.546249 248.498871
v -52.000000 248.282913 249.561935
v -52.000000 248.385559 249.712616
v -52.000000 248.506989 249.848602
v -52.000000 248.645142 249.967575
v -52.000000 249.110870 247.511246
v -52.000000 248.938766 247.571396
v -52.000000 248.797638 250.067505
v -52.000000 248.775986 247.653503
v -52.000000 248.961868 250.146667
v -52.000000 248.625305 247.756134
v -52.000000 249.135025 250.203720
v -52.000000 248.489319 247.877579
v -52.000000 249.314148 250.237686
v -52.000000 249.496170 250.247971
v -52.000000 248.370346 248.015717
v -52.000000 248.270416 248.168213
v -52.000000 248.191254 248.332443
v -52.000000 248.134201 248.505600
v -52.000000 248.100235 248.684723
v -52.000000 248.089951 248.866745
v -52.000000 248.103500 249.048553
v -52.000000 248.140671 249.227051
v -52.000000 248.200821 249.399155
f 1 2 3
f 1 4 2
f 5 3 6
f 5 1 3
f 7 6 8
f 7 5 6
f 9 10 11
f 9 12 10
f 13 7 8
f 14 11 15
f 14 9 11
f 16 8 17
f 18 15 19
f 16 13 8
f 18 14 15
f 20 17 21
f 20 16 17
f 22 19 23
f 22 18 19
f 24 21 25
f 24 20 21
f 26 23 27
f 28 25 29
f 26 22 23
f 28 24 25
f 30 29 31
f 32 27 33
f 30 28 29
f 32 26 27
f 34 30 31
f 34 31 35
f 36 34 35
f 37 32 33
f 38 33 39
f 38 37 33
f 40 39 41
f 40 38 39
f 42 41 43
f 42 40 41
f 44 42 43
f 44 43 45
f 46 44 45
f 46 45 47
f 48 46 47
f 48 47 49
f 50 48 49
f 51 50 49
f 51 49 52
f 53 52 54
f 53 51 52
f 4 54 2
f 4 53 54
f 57 58 55
f 58 59 55
f 56 57 55
f 59 56 55
f 60 61 62
f 62 61 63
f 60 62 64
f 65 66 67
f 66 65 68
f 69 70 71
f 70 69 72
f 64 73 74
f 75 76 74
f 76 60 74
f 60 64 74
f 73 77 78
f 77 66 78
f 74 73 78
f 66 68 78
f 68 79 80
f 79 81 80
f 78 68 80
f 72 82 83
f 82 84 83
f 81 70 83
f 80 81 83
f 70 72 83
f 56 75 85
f 75 74 85
f 85 74 86
f 56 85 86
f 56 86 57
f 74 78 57
f 86 74 57
f 80 83 59
f 84 56 87
f 59 83 87
f 83 84 87
f 56 59 87
f 57 78 58
f 80 59 58
f 78 80 58
f 88 89 90
f 91 88 90
f 92 93 94
f 95 92 94
f 89 96 94
f 96 95 94
f 97 98 99
f 98 100 101
f 100 102 101
f 103 104 105
f 91 90 106
f 102 91 106
f 104 97 107
f 97 99 107
f 105 104 107
f 93 108 109
f 108 110 109
f 89 94 109
f 90 89 109
f 94 93 109
f 99 98 111
f 98 101 111
f 112 103 113
f 114 112 113
f 103 105 113
f 101 102 115
f 102 106 115
f 105 107 116
f 106 90 117
f 90 109 117
f 109 110 117
f 99 111 118
f 107 99 118
f 116 107 118
f 114 113 119
f 120 114 119
f 111 101 121
f 101 115 121
f 113 105 122
f 105 116 122
f 119 113 122
f 110 123 124
f 106 117 124
f 117 110 124
f 115 106 124
f 116 118 125
f 126 120 127
f 120 119 127
f 118 111 128
f 111 121 128
f 125 118 128
f 119 122 129
f 123 130 131
f 124 123 131
f 121 115 131
f 115 124 131
f 122 116 132
f 116 125 132
f 126 127 133
f 125 128 134
f 127 119 135
f 119 129 135
f 134 128 136
f 130 137 136
f 131 130 136
f 128 121 136
f 121 131 136
f 129 122 138
f 122 132 138
f 139 126 140
f 141 139 140
f 126 133 140
f 125 134 142
f 132 125 142
f 133 127 143
f 127 135 143
f 137 144 145
f 134 136 145
f 136 137 145
f 129 138 146
f 135 129 146
f 147 141 148
f 141 140 148
f 138 132 149
f 132 142 149
f 140 133 150
f 148 140 150
f 133 143 150
f 145 144 151
f 142 134 151
f 144 152 151
f 149 142 151
f 134 145 151
f 143 135 153
f 135 146 153
f 147 148 154
f 146 138 155
f 138 149 155
f 148 150 156
f 147 154 157
f 158 147 157
f 152 159 160
f 149 151 160
f 151 152 160
f 143 153 161
f 150 143 161
f 146 155 162
f 153 146 162
f 148 156 163
f 154 148 163
f 158 157 164
f 165 158 164
f 160 159 166
f 159 167 166
f 155 149 166
f 149 160 166
f 168 169 170
f 156 150 171
f 150 161 171
f 157 154 172
f 164 157 172
f 154 163 172
f 161 153 173
f 153 162 173
f 167 174 175
f 166 167 175
f 162 155 175
f 155 166 175
f 176 165 177
f 165 164 177
f 163 156 178
f 156 171 178
f 164 172 179
f 180 181 182
f 183 184 185
f 171 161 186
f 187 183 185
f 161 173 186
f 187 185 188
f 172 163 189
f 163 178 189
f 190 187 188
f 191 190 188
f 174 192 193
f 175 174 193
f 173 162 193
f 162 175 193
f 186 173 193
f 184 194 195
f 194 196 195
f 197 176 198
f 185 184 195
f 176 177 198
f 199 191 200
f 191 188 200
f 177 164 201
f 164 179 201
f 188 185 202
f 185 195 202
f 178 171 203
f 171 186 203
f 196 204 205
f 195 196 205
f 199 200 206
f 179 172 207
f 172 189 207
f 208 199 206
f 193 192 209
f 192 210 209
f 186 193 209
f 211 170 212
f 197 198 212
f 169 197 212
f 170 169 212
f 200 188 213
f 188 202 213
f 178 203 214
f 195 205 215
f 189 178 214
f 202 195 215
f 198 177 216
f 177 201 216
f 217 208 218
f 201 179 219
f 208 206 218
f 179 207 219
f 203 186 220
f 209 210 220
f 205 204 221
f 210 222 220
f 186 209 220
f 206 200 223
f 207 189 224
f 200 213 223
f 189 214 224
f 203 220 225
f 222 226 225
f 213 202 227
f 220 222 225
f 202 215 227
f 214 203 225
f 217 218 228
f 198 216 229
f 230 217 228
f 212 198 229
f 211 212 229
f 215 205 231
f 205 221 231
f 216 201 232
f 201 219 232
f 219 207 233
f 228 218 234
f 218 206 234
f 207 224 233
f 206 223 234
f 224 214 235
f 214 225 235
f 236 237 238
f 225 226 235
f 204 239 238
f 239 236 238
f 240 211 241
f 221 204 238
f 213 227 242
f 211 229 241
f 229 216 241
f 216 232 241
f 223 213 242
f 230 228 243
f 219 233 244
f 232 219 244
f 226 245 246
f 245 247 246
f 224 235 246
f 233 224 246
f 235 226 246
f 215 231 248
f 249 240 250
f 240 241 250
f 227 215 248
f 241 232 250
f 232 244 250
f 244 233 251
f 228 234 252
f 246 247 251
f 233 246 251
f 180 249 253
f 238 237 254
f 181 180 253
f 237 255 254
f 249 250 253
f 244 251 253
f 247 181 253
f 221 238 254
f 250 244 253
f 231 221 254
f 251 247 253
f 223 242 256
f 234 223 256
f 252 234 256
f 257 230 258
f 230 243 258
f 227 248 259
f 242 227 259
f 243 228 260
f 258 243 260
f 228 252 260
f 231 254 261
f 255 262 261
f 248 231 261
f 254 255 261
f 252 256 263
f 264 257 265
f 257 258 265
f 242 259 266
f 256 242 266
f 258 260 267
f 264 265 268
f 269 264 268
f 259 248 270
f 262 271 270
f 261 262 270
f 248 261 270
f 260 252 272
f 252 263 272
f 263 256 273
f 256 266 273
f 265 258 274
f 258 267 274
f 271 275 276
f 270 271 276
f 266 259 276
f 259 270 276
f 273 266 276
f 269 268 277
f 278 269 277
f 260 272 279
f 267 260 279
f 277 268 280
f 268 265 280
f 265 274 280
f 272 263 281
f 263 273 281
f 275 282 283
f 273 276 283
f 276 275 283
f 278 277 284
f 285 278 284
f 274 267 286
f 267 279 286
f 277 280 287
f 279 272 288
f 272 281 288
f 280 274 289
f 274 286 289
f 282 290 291
f 283 282 291
f 281 273 291
f 273 283 291
f 288 281 291
f 285 284 292
f 293 285 292
f 284 277 294
f 292 284 294
f 277 287 294
f 279 288 295
f 286 279 295
f 287 280 88
f 280 289 88
f 290 296 297
f 291 290 297
f 288 291 297
f 298 293 299
f 293 292 299
f 289 286 96
f 286 295 96
f 292 294 100
f 299 292 100
f 287 88 91
f 294 287 91
f 296 92 300
f 295 288 300
f 297 296 300
f 288 297 300
f 96 295 300
f 301 298 97
f 298 299 97
f 88 289 89
f 289 96 89
f 96 300 95
f 300 92 95
f 97 299 98
f 299 100 98
f 100 294 102
f 294 91 102
f 302 301 104
f 103 302 104
f 301 97 104
f 303 304 305
f 306 307 308
f 306 303 305
f 306 309 303
f 306 310 309
f 306 305 307
f 311 308 312
f 311 312 313
f 311 306 308
f 314 315 316
f 311 313 310
f 311 310 306
f 317 314 316
f 318 319 320
f 318 320 321
f 322 314 317
f 318 321 323
f 318 323 324
f 318 324 322
f 325 322 317
f 318 322 325
f 326 327 328
f 326 325 329
f 326 329 330
f 326 330 327
f 326 328 331
f 326 318 325
f 332 326 331
f 332 333 334
f 332 331 333
f 335 336 337
f 335 318 326
f 335 337 338
f 335 338 339
f 335 339 340
f 335 340 319
f 335 319 318
f 304 335 326
f 304 326 332
f 304 332 334
f 304 334 341
f 342 335 304
f 342 343 344
f 342 344 345
f 342 345 346
f 342 346 347
f 342 347 348
f 328 327 349
f 342 348 336
f 328 349 350
f 351 352 353
f 342 336 335
f 351 354 352
f 305 304 341
f 305 355 307
f 305 341 355
f 356 357 354
f 356 354 351
f 358 359 360
f 358 361 359
f 308 362 363
f 308 307 362
f 309 364 365
f 309 365 343
f 309 343 342
f 366 367 368
f 366 360 367
f 366 369 357
f 366 370 369
f 366 368 370
f 366 358 360
f 312 361 358
f 312 363 361
f 312 358 366
f 312 308 363
f 310 371 372
f 310 372 364
f 310 364 309
f 373 356 374
f 373 374 375
f 373 375 376
f 373 376 377
f 373 377 378
f 373 366 357
f 373 357 356
f 379 378 380
f 379 380 381
f 379 381 382
f 379 382 383
f 379 383 384
f 379 312 366
f 379 373 378
f 367 385 386
f 379 366 373
f 368 367 386
f 313 384 387
f 313 387 388
f 313 388 389
f 313 389 390
f 313 390 391
f 313 391 371
f 313 379 384
f 313 312 379
f 313 371 310
f 303 309 342
f 303 342 304
f 392 393 48
f 394 50 51
f 394 392 50
f 395 51 53
f 395 53 4
f 395 394 51
f 396 395 4
f 397 12 9
f 397 182 12
f 398 4 1
f 398 396 4
f 399 9 14
f 399 14 18
f 400 1 5
f 399 397 9
f 400 5 7
f 400 398 1
f 401 399 18
f 402 400 7
f 403 18 22
f 403 22 26
f 404 7 13
f 404 13 16
f 403 401 18
f 404 402 7
f 405 403 26
f 406 404 16
f 407 26 32
f 407 32 37
f 408 16 20
f 407 405 26
f 408 406 16
f 409 20 24
f 410 407 37
f 409 408 20
f 411 24 28
f 412 37 38
f 412 38 40
f 411 409 24
f 412 410 37
f 413 28 30
f 413 30 34
f 413 411 28
f 414 40 42
f 415 34 36
f 415 413 34
f 414 412 40
f 236 415 36
f 416 42 44
f 416 414 42
f 417 416 44
f 418 417 44
f 418 44 46
f 393 46 48
f 393 418 46
f 392 48 50
f 137 130 419
f 137 419 420
f 144 137 420
f 152 420 421
f 152 144 420
f 237 236 36
f 237 36 422
f 237 422 423
f 159 421 424
f 159 152 421
f 167 424 425
f 255 237 423
f 167 159 424
f 262 423 426
f 262 426 427
f 174 425 428
f 262 255 423
f 174 167 425
f 192 428 429
f 271 262 427
f 192 174 428
f 275 427 430
f 275 430 431
f 210 429 432
f 275 271 427
f 210 192 429
f 282 275 431
f 222 432 433
f 222 433 434
f 222 210 432
f 290 431 435
f 226 222 434
f 290 282 431
f 245 434 436
f 245 436 437
f 296 435 438
f 296 438 439
f 245 226 434
f 296 290 435
f 247 245 437
f 181 437 440
f 181 247 437
f 92 296 439
f 182 440 12
f 182 181 440
f 93 92 439
f 93 439 441
f 108 93 441
f 108 441 442
f 108 442 443
f 110 443 444
f 110 108 443
f 123 110 444
f 130 444 445
f 130 445 419
f 130 123 444
f 333 446 447
f 448 449 362
f 450 448 362
f 333 447 451
f 307 450 362
f 452 453 367
f 454 455 456
f 457 452 367
f 453 385 367
f 458 457 360
f 457 367 360
f 362 449 363
f 456 455 459
f 460 461 462
f 449 463 363
f 464 456 459
f 451 465 334
f 333 451 334
f 458 360 359
f 460 462 466
f 467 458 359
f 468 467 359
f 462 461 469
f 363 463 361
f 468 359 361
f 334 465 470
f 471 468 361
f 463 471 361
f 464 459 472
f 473 460 474
f 460 466 474
f 461 475 476
f 477 472 478
f 472 459 478
f 470 479 341
f 469 461 476
f 334 470 341
f 480 473 481
f 473 474 481
f 475 482 483
f 476 475 483
f 483 482 484
f 480 481 485
f 484 482 486
f 482 487 486
f 350 480 488
f 489 477 490
f 491 489 490
f 477 478 490
f 480 485 488
f 492 493 355
f 479 492 355
f 341 479 355
f 486 487 494
f 350 488 495
f 487 496 497
f 494 487 497
f 350 495 498
f 328 350 498
f 328 498 499
f 497 496 500
f 496 501 502
f 500 496 502
f 503 450 307
f 331 328 504
f 493 503 307
f 328 499 504
f 355 493 307
f 453 505 385
f 331 504 446
f 505 491 385
f 491 490 385
f 502 501 506
f 506 501 455
f 331 446 333
f 506 455 454
f 507 508 509
f 354 357 510
f 511 354 510
f 352 354 511
f 353 352 511
f 512 513 514
f 512 514 515
f 512 515 516
f 512 516 517
f 512 517 518
f 512 518 519
f 520 521 522
f 520 522 523
f 520 523 524
f 520 524 525
f 520 525 513
f 520 513 512
f 526 527 528
f 526 528 529
f 349 327 480
f 526 529 530
f 526 530 531
f 526 531 521
f 526 325 527
f 526 521 520
f 532 512 519
f 532 519 533
f 532 533 534
f 350 349 480
f 535 475 461
f 535 520 512
f 536 329 325
f 536 330 329
f 536 327 330
f 536 526 520
f 536 480 327
f 536 325 526
f 536 473 480
f 536 520 535
f 537 532 534
f 537 534 538
f 537 538 539
f 540 475 535
f 540 482 475
f 540 487 482
f 541 473 536
f 541 536 535
f 541 535 461
f 541 460 473
f 316 315 542
f 541 461 460
f 508 496 487
f 508 501 496
f 317 542 527
f 543 539 544
f 543 544 545
f 543 545 546
f 543 546 547
f 543 547 548
f 317 316 542
f 543 548 549
f 543 537 539
f 550 501 508
f 325 317 527
f 550 455 501
f 551 549 552
f 551 552 553
f 551 550 543
f 551 553 554
f 551 554 555
f 551 555 556
f 551 543 549
f 557 455 550
f 557 459 455
f 557 478 459
f 558 550 551
f 386 385 490
f 558 357 369
f 558 369 370
f 558 370 368
f 558 490 478
f 558 478 557
f 558 368 490
f 558 557 550
f 559 558 551
f 559 556 560
f 368 386 490
f 559 560 561
f 559 561 562
f 559 562 563
f 559 563 510
f 559 551 556
f 559 357 558
f 559 510 357
f 564 540 535
f 564 535 512
f 564 512 532
f 509 532 537
f 509 540 564
f 509 508 487
f 509 487 540
f 509 564 532
f 507 550 508
f 507 543 550
f 507 537 543
f 507 509 537
f 565 566 554
f 552 567 553
f 565 554 553
f 567 565 553
f 339 338 257
f 338 337 230
f 257 338 230
f 340 339 264
f 319 340 264
f 339 257 264
f 336 348 217
f 337 336 217
f 230 337 217
f 320 319 269
f 319 264 269
f 348 347 208
f 217 348 208
f 321 320 278
f 320 269 278
f 347 346 199
f 208 347 199
f 323 321 285
f 324 323 285
f 321 278 285
f 199 346 191
f 345 344 191
f 346 345 191
f 324 285 293
f 322 324 293
f 191 344 190
f 344 343 190
f 190 343 187
f 343 365 187
f 314 322 298
f 322 293 298
f 315 314 301
f 542 315 301
f 314 298 301
f 364 372 183
f 365 364 183
f 187 365 183
f 183 372 568
f 372 371 568
f 527 542 302
f 542 301 302
f 371 391 569
f 568 371 569
f 527 302 103
f 528 527 103
f 390 389 570
f 391 390 570
f 569 391 570
f 529 528 112
f 528 103 112
f 530 529 112
f 530 112 114
f 531 530 114
f 389 388 571
f 570 389 571
f 388 387 572
f 571 388 572
f 531 114 120
f 521 531 120
f 387 384 573
f 572 387 573
f 522 521 126
f 521 120 126
f 573 384 383
f 522 126 523
f 573 383 574
f 523 126 139
f 523 139 524
f 574 383 382
f 574 382 575
f 524 139 141
f 524 141 525
f 575 382 381
f 575 381 576
f 525 141 147
f 576 381 380
f 525 147 513
f 577 576 378
f 576 380 378
f 513 147 514
f 147 158 514
f 577 378 377
f 578 577 377
f 514 158 515
f 158 165 515
f 515 165 516
f 165 176 516
f 578 377 376
f 579 578 376
f 516 176 517
f 579 376 375
f 579 375 374
f 580 579 374
f 517 176 518
f 176 197 518
f 518 197 519
f 197 169 519
f 580 374 356
f 581 580 356
f 169 168 533
f 519 169 533
f 581 356 351
f 582 581 351
f 582 351 353
f 533 168 534
f 534 168 538
f 168 583 538
f 582 353 511
f 584 582 511
f 538 583 539
f 583 585 539
f 584 511 510
f 586 584 510
f 539 585 544
f 585 587 544
f 586 510 563
f 588 586 563
f 544 587 545
f 588 563 562
f 545 587 546
f 587 589 546
f 590 588 561
f 588 562 561
f 546 589 547
f 589 591 547
f 592 590 560
f 590 561 560
f 591 593 548
f 547 591 548
f 592 560 556
f 566 592 556
f 548 593 549
f 566 556 555
f 549 593 552
f 593 567 552
f 566 555 554
f 594 595 596
f 595 597 598
f 583 168 170
f 580 581 599
f 581 600 599
f 598 597 601
f 597 602 601
f 594 596 603
f 600 594 603
f 416 417 604
f 602 605 604
f 606 416 604
f 605 606 604
f 601 602 604
f 596 595 607
f 595 598 607
f 580 599 608
f 579 580 608
f 578 579 608
f 598 601 609
f 607 598 609
f 599 600 610
f 600 603 610
f 417 418 611
f 604 417 611
f 601 604 611
f 609 601 611
f 603 596 612
f 596 607 612
f 610 603 612
f 578 608 613
f 607 609 614
f 608 599 615
f 599 610 615
f 613 608 615
f 418 393 616
f 393 392 616
f 611 418 616
f 609 611 616
f 610 612 617
f 577 578 618
f 576 577 618
f 578 613 618
f 612 607 619
f 607 614 619
f 617 612 619
f 613 615 620
f 614 609 621
f 609 616 621
f 616 392 621
f 615 610 622
f 610 617 622
f 620 615 622
f 576 618 623
f 617 619 624
f 623 618 625
f 618 613 625
f 613 620 625
f 392 394 626
f 619 614 626
f 614 621 626
f 621 392 626
f 620 622 627
f 575 576 628
f 576 623 628
f 617 624 629
f 627 622 629
f 622 617 629
f 628 623 630
f 623 625 630
f 619 626 631
f 624 619 631
f 394 395 631
f 626 394 631
f 630 625 632
f 620 627 632
f 625 620 632
f 574 575 633
f 575 628 633
f 627 629 634
f 628 630 635
f 624 631 636
f 629 624 636
f 395 396 636
f 631 395 636
f 634 629 636
f 630 632 637
f 573 574 638
f 574 633 638
f 637 632 639
f 632 627 639
f 627 634 639
f 633 628 640
f 628 635 640
f 572 573 641
f 573 638 641
f 396 398 642
f 636 396 642
f 634 636 642
f 635 630 643
f 630 637 643
f 637 639 644
f 643 637 644
f 633 640 645
f 638 633 645
f 572 641 646
f 571 572 646
f 642 398 647
f 398 400 647
f 634 642 647
f 644 639 647
f 639 634 647
f 640 635 648
f 635 643 648
f 638 645 649
f 641 638 649
f 643 644 650
f 648 643 650
f 400 402 651
f 647 400 651
f 644 647 651
f 183 568 184
f 650 644 651
f 571 646 652
f 570 571 652
f 645 640 653
f 640 648 653
f 652 646 654
f 641 649 654
f 646 641 654
f 648 650 655
f 653 648 655
f 645 653 656
f 649 645 656
f 402 404 657
f 651 402 657
f 650 651 657
f 570 652 658
f 569 570 658
f 239 415 236
f 652 654 659
f 583 170 660
f 583 660 661
f 656 653 662
f 585 583 661
f 653 655 662
f 660 170 663
f 170 211 663
f 211 240 663
f 654 649 664
f 649 656 664
f 650 657 665
f 661 660 663
f 404 406 665
f 657 404 665
f 587 585 666
f 655 650 665
f 589 587 666
f 568 569 667
f 585 661 666
f 184 568 667
f 569 658 667
f 661 663 668
f 656 662 669
f 652 659 670
f 667 658 670
f 658 652 670
f 668 663 671
f 663 240 671
f 670 659 672
f 659 654 672
f 591 589 673
f 589 666 673
f 654 664 672
f 655 665 674
f 662 655 674
f 666 661 675
f 665 406 674
f 406 408 674
f 669 662 674
f 673 666 675
f 664 656 676
f 661 668 675
f 656 669 676
f 672 664 676
f 668 671 677
f 408 409 678
f 669 674 678
f 674 408 678
f 667 670 679
f 593 591 680
f 184 667 679
f 194 184 679
f 591 673 680
f 671 240 681
f 240 249 681
f 670 672 682
f 677 671 681
f 673 675 683
f 672 676 684
f 682 672 684
f 680 673 683
f 676 669 685
f 669 678 685
f 675 668 686
f 678 409 685
f 679 670 687
f 668 677 686
f 670 682 687
f 683 675 686
f 194 679 687
f 196 194 687
f 687 682 688
f 682 684 688
f 593 680 689
f 409 411 690
f 677 681 691
f 684 676 690
f 686 677 691
f 676 685 690
f 685 409 690
f 196 687 692
f 687 688 692
f 689 680 693
f 204 196 692
f 680 683 693
f 688 684 694
f 182 397 695
f 411 413 694
f 413 415 694
f 684 690 694
f 249 180 695
f 690 411 694
f 180 182 695
f 681 249 695
f 694 415 696
f 415 239 696
f 688 694 696
f 692 688 696
f 204 692 696
f 693 683 697
f 239 204 696
f 683 686 697
f 567 593 698
f 565 567 698
f 593 689 698
f 697 686 699
f 686 691 699
f 689 693 700
f 397 399 701
f 691 681 701
f 695 397 701
f 681 695 701
f 693 697 702
f 700 693 702
f 565 698 703
f 697 699 704
f 702 697 704
f 689 700 705
f 698 689 705
f 399 401 706
f 691 701 706
f 699 691 706
f 701 399 706
f 704 699 706
f 700 702 707
f 565 703 708
f 566 565 708
f 707 702 709
f 702 704 709
f 698 705 710
f 703 698 710
f 566 708 711
f 592 566 711
f 401 403 712
f 706 401 712
f 709 704 712
f 704 706 712
f 700 707 713
f 705 700 713
f 710 705 713
f 707 709 714
f 713 707 714
f 711 708 715
f 703 710 715
f 708 703 715
f 403 405 716
f 712 403 716
f 709 712 716
f 714 709 716
f 592 711 717
f 590 592 717
f 710 713 718
f 711 715 719
f 717 711 719
f 713 714 720
f 718 713 720
f 405 407 721
f 716 405 721
f 714 716 721
f 588 590 722
f 590 717 722
f 710 718 723
f 719 715 723
f 715 710 723
f 717 719 724
f 722 717 724
f 718 720 725
f 723 718 725
f 719 723 726
f 407 410 727
f 720 714 727
f 714 721 727
f 721 407 727
f 586 588 728
f 588 722 728
f 722 724 729
f 728 722 729
f 726 723 730
f 723 725 730
f 724 719 731
f 719 726 731
f 410 412 732
f 727 410 732
f 725 720 732
f 720 727 732
f 584 586 733
f 586 728 733
f 726 730 734
f 731 726 734
f 733 728 735
f 728 729 735
f 735 729 736
f 729 724 736
f 724 731 736
f 412 414 737
f 732 412 737
f 730 725 737
f 725 732 737
f 734 730 737
f 582 584 594
f 584 733 594
f 736 731 605
f 731 734 605
f 734 737 738
f 414 416 738
f 737 414 738
f 733 735 595
f 594 733 595
f 735 736 597
f 595 735 597
f 581 582 600
f 582 594 600
f 597 736 602
f 736 605 602
f 738 416 606
f 605 734 606
f 734 738 606
f 739 463 449
f 740 739 448
f 739 449 448
f 741 740 450
f 740 448 450
f 742 741 503
f 741 450 503
f 742 503 493
f 742 493 743
f 743 493 492
f 743 492 479
f 743 479 470
f 744 505 453
f 745 744 452
f 744 453 452
f 746 745 457
f 745 452 457
f 747 746 458
f 746 457 458
f 747 458 467
f 747 467 748
f 748 467 468
f 748 468 471
f 748 471 463
f 749 506 454
f 750 749 456
f 749 454 456
f 751 750 464
f 750 456 464
f 752 751 472
f 751 464 472
f 752 472 477
f 752 477 753
f 753 477 489
f 753 489 491
f 753 491 505
f 754 476 483
f 755 754 484
f 754 483 484
f 756 755 486
f 755 484 486
f 757 756 494
f 756 486 494
f 757 494 497
f 757 497 758
f 758 497 500
f 758 500 502
f 758 502 506
f 759 495 488
f 760 759 485
f 759 488 485
f 761 760 481
f 760 485 481
f 762 761 474
f 761 481 474
f 762 474 466
f 762 466 763
f 763 466 462
f 763 462 469
f 763 469 476
f 764 470 465
f 765 764 451
f 764 465 451
f 766 765 447
f 765 451 447
f 767 766 446
f 766 447 446
f 767 446 504
f 767 504 768
f 768 504 499
f 768 499 498
f 768 498 495
f 769 770 771
f 772 769 771
f 771 770 773
f 774 771 773
f 770 56 773
f 56 774 773
f 775 776 777
f 777 776 778
f 775 777 779
f 780 781 782
f 781 780 783
f 784 785 786
f 785 784 787
f 779 788 789
f 84 790 789
f 790 775 789
f 775 779 789
f 788 791 772
f 791 781 772
f 789 788 772
f 781 783 772
f 783 792 769
f 792 793 769
f 772 783 769
f 787 794 795
f 794 75 795
f 793 785 795
f 769 793 795
f 785 787 795
f 56 84 796
f 84 789 796
f 796 789 797
f 56 796 797
f 56 797 774
f 789 772 774
f 797 789 774
f 769 795 770
f 75 56 798
f 770 795 798
f 56 770 798
f 795 75 798
f 774 772 771
f 748 463 786
f 747 748 785
f 748 786 785
f 747 785 793
f 746 747 792
f 747 793 792
f 745 746 783
f 746 792 783
f 745 783 780
f 744 745 782
f 505 744 782
f 745 780 782
f 470 63 743
f 61 60 743
f 63 61 743
f 76 75 742
f 60 76 742
f 743 60 742
f 794 787 741
f 75 794 741
f 742 75 741
f 784 786 740
f 787 784 740
f 741 787 740
f 740 786 739
f 739 786 463
f 768 495 67
f 767 768 66
f 768 67 66
f 767 66 77
f 766 767 73
f 767 77 73
f 765 766 64
f 766 73 64
f 765 64 62
f 764 765 63
f 470 764 63
f 765 62 63
f 763 476 71
f 762 763 70
f 763 71 70
f 762 70 81
f 761 762 79
f 762 81 79
f 760 761 68
f 761 79 68
f 760 68 65
f 759 760 67
f 495 759 67
f 760 65 67
f 758 506 778
f 758 778 776
f 757 758 775
f 758 776 775
f 757 775 790
f 756 757 84
f 757 790 84
f 756 84 82
f 755 756 72
f 756 82 72
f 755 72 69
f 754 755 71
f 476 754 71
f 755 69 71
f 753 505 782
f 752 753 781
f 753 782 781
f 752 781 791
f 751 752 788
f 752 791 788
f 750 751 779
f 751 788 779
f 750 779 777
f 749 750 778
f 506 749 778
f 750 777 778
f 424 799 800
f 424 421 799
f 425 800 801
f 425 424 800
f 428 801 802
f 428 425 801
f 422 36 35
f 422 35 803
f 429 428 802
f 423 803 804
f 423 422 803
f 432 802 805
f 426 804 806
f 432 429 802
f 426 423 804
f 433 805 807
f 433 432 805
f 427 806 808
f 427 426 806
f 434 807 809
f 434 433 807
f 430 808 810
f 436 809 811
f 430 427 808
f 436 434 809
f 437 811 812
f 431 810 813
f 437 436 811
f 431 430 810
f 440 437 812
f 440 812 10
f 12 440 10
f 435 431 813
f 438 813 814
f 438 435 813
f 439 814 815
f 439 438 814
f 441 815 816
f 441 439 815
f 442 441 816
f 442 816 817
f 443 442 817
f 443 817 818
f 444 443 818
f 444 818 819
f 445 444 819
f 419 445 819
f 419 819 820
f 420 820 821
f 420 419 820
f 421 821 799
f 421 420 821
f 49 47 45
f 813 810 808
f 19 15 43
f 10 49 43
f 15 10 43
f 49 45 43
f 43 41 39
f 19 43 39
f 808 806 804
f 23 19 27
f 27 19 33
f 19 39 33
f 816 815 817
f 814 813 803
f 815 814 803
f 813 808 803
f 808 804 803
f 817 815 803
f 818 817 819
f 803 35 31
f 820 819 821
f 817 803 821
f 803 31 821
f 819 817 821
f 821 31 29
f 821 29 799
f 799 29 25
f 799 25 21
f 800 799 801
f 802 801 805
f 8 6 3
f 805 801 809
f 807 805 809
f 801 799 809
f 8 3 2
f 809 799 2
f 17 8 2
f 21 17 2
f 799 21 2
f 809 2 54
f 809 54 812
f 811 809 812
f 54 52 49
f 812 54 49
f 10 812 49
f 11 10 15
