# Created by FreeCAD <http://www.freecadweb.org>
v 6.076363 498.350006 500.547363
v 6.621112 498.000000 500.203217
v 6.720694 498.000000 500.553192
v 6.021373 498.350006 500.291595
v 6.164267 498.350006 500.793793
v 6.283581 498.350006 501.026611
v 6.907458 498.000000 500.865448
v 6.432263 498.350006 501.241852
v 6.607769 498.350006 501.435852
v 7.168677 498.000000 501.118713
v 6.807097 498.350006 501.605286
v 7.026836 498.350006 501.747284
v 7.486549 498.000000 501.295776
v 7.263227 498.350006 501.859344
v 7.512223 498.350006 501.939606
v 7.839412 498.000000 501.384491
v 7.769566 498.350006 501.986694
v 8.030850 498.350006 501.999756
v 8.203219 498.000000 501.378876
v 8.291608 498.350006 501.978638
v 8.547376 498.350006 501.923645
v 8.553177 498.000000 501.279297
v 8.793778 498.350006 501.835724
v 9.026599 498.350006 501.716431
v 8.865437 498.000000 501.092529
v 9.241854 498.350006 501.567749
v 9.435860 498.350006 501.392242
v 9.118718 498.000000 500.831329
v 9.605299 498.350006 501.192902
v 9.747271 498.350006 500.973175
v 9.295761 498.000000 500.513458
v 9.859345 498.350006 500.736786
v 9.939607 498.350006 500.487762
v 9.384501 498.000000 500.160583
v 9.986681 498.350006 500.230438
v 9.999762 498.350006 499.969147
v 9.378887 498.000000 499.796783
v 9.978627 498.350006 499.708405
v 8.911702 528.836243 499.016693
v 9.183461 528.812378 499.456909
v 9.131416 528.900024 499.103760
v 8.688846 528.794495 498.928406
v 7.604294 528.836243 498.718811
v 8.010315 528.836060 498.659515
v 7.789550 528.900024 498.572052
v 8.234729 528.794312 498.748444
v 7.416389 528.794495 498.867645
v 7.033493 528.794312 499.170959
v 6.844275 528.836060 499.320831
v 6.710177 528.812378 499.821411
v 6.658133 528.900024 499.468292
v 8.462187 528.779419 498.838593
v 8.515769 528.450012 499.495209
v 9.236642 528.779419 499.817749
v 8.120556 528.450012 499.288452
v 7.225278 528.779419 499.019012
v 7.679295 528.450012 499.353485
v 6.763358 528.779419 500.182251
v 7.360532 528.450012 499.665466
v 8.000000 528.000000 500.000000
v 8.323257 528.224976 499.839661
v 8.257884 528.224976 499.747589
v 8.167268 528.224976 499.680267
v 7.680266 528.224976 499.832733
v 7.644226 528.224976 499.939728
v 7.892190 528.224976 499.655640
v 7.895526 528.112488 499.852905
v 6.078003 528.000000 498.929535
v 6.275720 527.993164 498.718689
v 6.123226 527.993164 498.954712
v 6.492347 527.973206 498.538147
v 6.314436 527.973206 498.747467
v 6.696054 527.973206 498.353882
v 6.721773 527.941406 498.386353
v 6.522085 527.941406 498.566986
v 6.959648 527.900024 498.260590
v 6.741508 527.900024 498.411255
v 6.973402 527.799988 498.283569
v 6.758146 527.799988 498.432251
v 6.969903 527.851746 498.277740
v 7.195587 527.900024 498.139679
v 7.203517 527.851746 498.158020
v 6.002843 527.993164 499.208618
v 5.954720 528.000000 499.189545
v 5.866433 528.000000 499.463440
v 6.165366 527.973206 498.978180
v 6.347683 527.941406 498.772156
v 6.544903 527.900024 498.589111
v 6.564140 527.799988 498.607758
v 6.753915 527.851746 498.426910
v 9.985369 527.851746 499.707397
v 9.978627 527.799988 499.708405
v 9.923637 527.799988 499.452637
v 5.814651 528.000000 499.746521
v 5.916634 527.993164 499.476074
v 6.047688 527.973206 499.226379
v 6.201553 527.941406 498.998322
v 6.373194 527.900024 498.791107
v 6.559247 527.851746 498.603027
v 5.866070 527.993164 499.752472
v 5.963413 527.973206 499.487823
v 6.086196 527.941406 499.241638
v 6.229321 527.900024 499.013794
v 6.394701 527.799988 498.807098
v 6.389231 527.851746 498.803040
v 6.252730 527.799988 499.026825
v 5.922441 527.973206 500.306183
v 5.874721 527.993164 500.313232
v 5.852019 527.993164 500.033142
v 5.800262 528.000000 500.033936
v 5.913985 527.973206 499.758057
v 6.003583 527.941406 499.497925
v 6.115744 527.900024 499.253357
v 6.246776 527.851746 499.023529
v 5.900250 527.973206 500.032379
v 5.955131 527.941406 499.762817
v 6.034408 527.900024 499.505676
v 6.134319 527.851746 499.260712
v 6.140655 527.799988 499.263214
v 5.963420 527.941406 500.300140
v 5.941666 527.941406 500.031769
v 5.994864 527.900024 500.295502
v 5.986703 527.900024 499.766479
v 6.053784 527.851746 499.510559
v 6.060393 527.799988 499.512238
v 6.013319 527.799988 499.769562
v 5.973446 527.900024 500.031250
v 6.006550 527.851746 499.768768
v 6.014631 527.851746 500.292603
v 5.993424 527.851746 500.030945
v 6.000238 527.799988 500.030853
v 5.823510 528.000000 500.320770
v 6.021373 527.799988 500.291595
v 10.176490 528.000000 499.679230
v 10.125279 527.993164 499.686768
v 10.066214 527.993164 499.412048
v 10.116001 528.000000 499.397888
v 9.971794 527.993164 499.147400
v 10.019306 528.000000 499.126831
v 9.888062 528.000000 498.870728
v 10.019819 527.973206 499.425262
v 10.077559 527.973206 499.693817
v 10.036579 527.941406 499.699860
v 9.724511 528.000000 498.633972
v 9.843637 527.993164 498.897308
v 9.927520 527.973206 499.166534
v 9.979980 527.941406 499.436584
v 9.531453 528.000000 498.420563
v 9.683935 527.993164 498.666107
v 9.802240 527.973206 498.922058
v 9.889501 527.941406 499.182983
v 9.949409 527.900024 499.445282
v 10.005136 527.900024 499.704498
v 9.495420 527.993164 498.457703
v 9.646124 527.973206 498.696045
v 9.766692 527.941406 498.943329
v 9.860328 527.900024 499.195587
v 9.930192 527.851746 499.450745
v 9.312193 528.000000 498.234161
v 9.281318 527.993164 498.275726
v 9.461842 527.973206 498.492340
v 9.613655 527.941406 498.721771
v 9.739415 527.900024 498.959656
v 9.835733 527.799988 499.206207
v 9.841989 527.851746 499.203522
v 9.716419 527.799988 498.973389
v 9.070479 528.000000 498.078003
v 9.045293 527.993164 498.123230
v 8.810451 528.000000 497.954712
v 9.252547 527.973206 498.314423
v 9.433008 527.941406 498.522095
v 9.588740 527.900024 498.741516
v 9.722268 527.851746 498.969910
v 8.791382 527.993164 498.002838
v 9.021822 527.973206 498.165375
v 9.227841 527.941406 498.347687
v 9.410883 527.900024 498.544891
v 9.567737 527.799988 498.758148
v 9.573079 527.851746 498.753906
v 8.523930 527.993164 497.916626
v 8.536554 528.000000 497.866425
v 8.253478 528.000000 497.814636
v 8.773612 527.973206 498.047699
v 9.001667 527.941406 498.201569
v 9.208884 527.900024 498.373199
v 9.396975 527.851746 498.559235
v 9.392230 527.799988 498.564148
v 8.247514 527.993164 497.866058
v 7.966064 528.000000 497.800262
v 8.512166 527.973206 497.963409
v 8.758353 527.941406 498.086182
v 8.986201 527.900024 498.229309
v 9.192903 527.799988 498.394714
v 9.196967 527.851746 498.389221
v 7.966863 527.993164 497.852020
v 7.679231 528.000000 497.823517
v 8.241956 527.973206 497.913971
v 8.502064 527.941406 498.003571
v 8.746644 527.900024 498.115753
v 8.976480 527.851746 498.246765
v 8.973164 527.799988 498.252716
v 8.736773 527.799988 498.140656
v 7.686779 527.993164 497.874725
v 7.967607 527.973206 497.900238
v 8.237184 527.941406 497.955139
v 8.494312 527.900024 498.034393
v 8.739284 527.851746 498.134308
v 7.412054 527.993164 497.933777
v 7.397886 528.000000 497.884003
v 7.126844 528.000000 497.980682
v 7.693811 527.973206 497.922455
v 7.968246 527.941406 497.941681
v 8.233521 527.900024 497.986694
v 8.487777 527.799988 498.060394
v 8.489439 527.851746 498.053772
v 8.230434 527.799988 498.013306
v 6.870741 528.000000 498.111938
v 7.147388 527.993164 498.028198
v 7.425255 527.973206 497.980194
v 7.699851 527.941406 497.963409
v 7.968736 527.900024 497.973450
v 7.969149 527.799988 498.000244
v 8.231219 527.851746 498.006561
v 6.633961 528.000000 498.275482
v 6.897312 527.993164 498.156372
v 7.166533 527.973206 498.072479
v 7.436592 527.941406 498.020020
v 7.704485 527.900024 497.994873
v 7.969044 527.851746 497.993439
v 6.420554 528.000000 498.468536
v 6.666102 527.993164 498.316071
v 6.922071 527.973206 498.197754
v 7.182972 527.941406 498.110504
v 7.445291 527.900024 498.050598
v 7.707398 527.851746 498.014618
v 7.708392 527.799988 498.021362
v 6.457716 527.993164 498.504578
v 6.234171 528.000000 498.687805
v 6.943333 527.941406 498.233307
v 7.452624 527.799988 498.076355
v 7.450759 527.851746 498.069794
v 7.206222 527.799988 498.164276
v 10.074191 529.526001 498.018890
v 9.192903 530.200012 498.394714
v 9.567737 530.200012 498.758148
v 9.946985 528.771667 497.155792
v 8.825624 529.439453 497.167633
v 8.965839 530.131531 498.119019
v 10.989136 528.656921 498.155731
v 11.579064 528.000000 498.723175
v 11.436679 528.000000 498.378510
v 11.261197 528.000000 498.049469
v 11.054307 528.000000 497.739197
v 7.817097 528.000000 496.204407
v 7.445944 528.000000 496.240601
v 7.465015 528.338745 496.369995
v 10.818003 528.000000 497.450714
v 7.488477 528.664185 496.529205
v 10.231781 529.928467 499.088196
v 8.190011 528.000000 496.204742
v 9.835733 530.200012 499.206207
v 9.978627 530.200012 499.708405
v 7.516139 528.973816 496.716888
v 9.467423 530.131531 501.522369
v 9.605299 530.200012 501.192902
v 9.241854 530.200012 501.567749
v 10.399942 529.928467 500.229187
v 9.986681 530.200012 500.230438
v 9.859345 530.200012 500.736786
v 11.120057 529.053467 499.044067
v 8.919872 528.000000 503.686981
v 8.534986 528.338745 503.630005
v 8.554055 528.000000 503.759399
v 8.511523 528.664185 503.470795
v 11.759391 528.000000 499.445953
v 11.686982 528.000000 499.080139
v 9.607639 529.439453 502.473755
v 8.793778 530.200012 501.835724
v 8.378114 529.782532 502.565582
v 8.452228 529.264954 503.068481
v 8.483862 528.973816 503.283112
v 8.416882 529.535278 502.828644
v 9.276831 528.000000 503.579071
v 10.557532 529.526001 501.298462
v 8.230434 530.200012 498.013306
v 7.621887 529.782532 497.434418
v 7.663759 530.004700 497.718536
v 7.708392 530.200012 498.021362
v 11.263178 529.053467 500.015167
v 11.795246 528.000000 500.190002
v 11.795596 528.000000 499.817108
v 9.710123 528.485657 503.169159
v 9.621491 528.000000 503.436676
v 9.950538 528.000000 503.261200
v 10.260798 528.000000 503.054321
v 10.684738 528.771667 502.161591
v 10.549286 528.000000 502.817993
v 10.813223 528.000000 502.554565
v 11.050068 528.000000 502.266510
v 11.257538 528.000000 501.956635
v 11.433637 528.000000 501.627930
v 11.394099 528.656921 500.903503
v 11.576667 528.000000 501.283539
v 11.685252 528.000000 500.926788
v 11.758347 528.000000 500.561096
v 10.636812 529.382751 498.566254
v 10.793740 529.576599 499.631042
v 10.938325 529.382751 500.612091
v 8.723140 528.485657 496.472229
v 9.283531 528.000000 496.423340
v 8.926776 528.000000 496.314758
v 8.561095 528.000000 496.241638
v 8.291608 530.200012 501.978638
v 8.336241 530.004700 502.281464
v 7.547772 529.264954 496.931519
v 7.583118 529.535278 497.171356
v 8.736773 530.200012 498.140656
v 10.554560 528.000000 497.186768
v 10.266515 528.000000 496.949921
v 9.956642 528.000000 496.742462
v 9.627926 528.000000 496.566376
v 9.241854 527.799988 501.567749
v 9.026599 527.799988 501.716431
v 9.435860 527.799988 501.392242
v 9.605299 527.799988 501.192902
v 6.076363 527.799988 500.547363
v 9.747271 527.799988 500.973175
v 6.164267 527.799988 500.793793
v 9.859345 527.799988 500.736786
v 6.283581 527.799988 501.026611
v 9.939607 527.799988 500.487762
v 9.986681 527.799988 500.230438
v 6.432263 527.799988 501.241852
v 9.999762 527.799988 499.969147
v 6.607769 527.799988 501.435852
v 6.807097 527.799988 501.605286
v 7.026836 527.799988 501.747284
v 7.263227 527.799988 501.859344
v 7.512223 527.799988 501.939606
v 7.769566 527.799988 501.986694
v 8.030850 527.799988 501.999756
v 8.291608 527.799988 501.978638
v 8.547376 527.799988 501.923645
v 8.793778 527.799988 501.835724
v 6.973402 498.350006 498.283569
v 6.758146 498.350006 498.432251
v 6.564140 498.350006 498.607758
v 6.394701 498.350006 498.807098
v 6.252730 498.350006 499.026825
v 9.923637 498.350006 499.452637
v 9.835733 498.350006 499.206207
v 9.716419 498.350006 498.973389
v 6.140655 498.350006 499.263214
v 9.567737 498.350006 498.758148
v 6.060393 498.350006 499.512238
v 6.013319 498.350006 499.769562
v 6.000238 498.350006 500.030853
v 9.392230 498.350006 498.564148
v 9.192903 498.350006 498.394714
v 8.973164 498.350006 498.252716
v 8.736773 498.350006 498.140656
v 8.487777 498.350006 498.060394
v 8.230434 498.350006 498.013306
v 7.969149 498.350006 498.000244
v 7.708392 498.350006 498.021362
v 7.452624 498.350006 498.076355
v 7.206222 498.350006 498.164276
v 9.324826 530.200012 499.427155
v 6.394701 530.200012 498.807098
v 6.140655 530.200012 499.263214
v 6.841475 530.200012 499.139099
v 9.427951 530.200012 499.789551
v 7.833698 530.200012 501.433777
v 7.769566 530.200012 501.986694
v 8.572860 530.200012 501.324829
v 8.210450 530.200012 501.427948
v 9.433764 530.200012 500.166290
v 9.341866 530.200012 500.531708
v 6.758146 530.200012 498.432251
v 7.103769 530.200012 498.868591
v 6.013319 530.200012 499.769562
v 6.658133 530.200012 499.468292
v 8.896231 530.200012 501.131409
v 7.206222 530.200012 498.164276
v 7.427140 530.200012 498.675171
v 9.158525 530.200012 500.860901
v 6.021373 530.200012 500.291595
v 6.566237 530.200012 499.833710
v 7.789550 530.200012 498.572052
v 6.572049 530.200012 500.210449
v 6.164267 530.200012 500.793793
v 8.166302 530.200012 498.566223
v 6.675174 530.200012 500.572845
v 6.432263 530.200012 501.241852
v 8.531720 530.200012 498.658142
v 6.868583 530.200012 500.896240
v 6.807097 530.200012 501.605286
v 8.860903 530.200012 498.841461
v 7.139097 530.200012 501.158539
v 7.263227 530.200012 501.859344
v 7.468280 530.200012 501.341858
v 9.131416 530.200012 499.103760
v 4.879942 529.053467 500.955933
v 4.736822 529.053467 499.984833
v 4.240609 528.000000 500.554047
v 5.600058 529.928467 499.770813
v 5.442468 529.526001 498.701538
v 6.532577 530.131531 498.477631
v 6.392361 529.439453 497.526245
v 5.768219 529.928467 500.911804
v 5.010864 528.656921 501.844269
v 4.420935 528.000000 501.276825
v 4.563321 528.000000 501.621490
v 4.738803 528.000000 501.950531
v 4.945693 528.000000 502.260803
v 5.181997 528.000000 502.549286
v 5.925808 529.526001 501.981110
v 6.053014 528.771667 502.844208
v 5.445440 528.000000 502.813232
v 5.733486 528.000000 503.050079
v 6.043358 528.000000 503.257538
v 6.372075 528.000000 503.433624
v 6.716469 528.000000 503.576660
v 7.034160 530.131531 501.880981
v 7.174376 529.439453 502.832367
v 7.276860 528.485657 503.527771
v 7.073224 528.000000 503.685242
v 7.438904 528.000000 503.758362
v 7.809989 528.000000 503.795258
v 5.061675 529.382751 499.387909
v 4.605901 528.656921 499.096497
v 7.080128 528.000000 496.313019
v 5.218602 529.576599 500.452698
v 5.363187 529.382751 501.433746
v 6.723169 528.000000 496.420929
v 8.182903 528.000000 503.795593
v 4.566364 528.000000 498.372070
v 4.423333 528.000000 498.716461
v 4.314747 528.000000 499.073212
v 4.241653 528.000000 499.438904
v 4.204753 528.000000 499.809998
v 5.315262 528.771667 497.838409
v 5.739202 528.000000 496.945679
v 5.450714 528.000000 497.182007
v 5.186777 528.000000 497.445435
v 4.949933 528.000000 497.733490
v 4.742462 528.000000 498.043365
v 6.289876 528.485657 496.830841
v 6.378508 528.000000 496.563324
v 6.049463 528.000000 496.738800
v 4.204404 528.000000 500.182892
v 4.313018 528.000000 500.919861
v 10.199739 528.000000 499.966064
v 10.185349 528.000000 500.253479
v 10.133567 528.000000 500.536560
v 10.045280 528.000000 500.810455
v 9.921997 528.000000 501.070465
v 9.765828 528.000000 501.312195
v 9.579446 528.000000 501.531464
v 9.366039 528.000000 501.724518
v 9.129258 528.000000 501.888062
v 8.873157 528.000000 502.019318
v 8.602114 528.000000 502.115997
v 8.320769 528.000000 502.176483
v 8.033936 528.000000 502.199738
v 5.883999 528.000000 500.602112
v 7.746522 528.000000 502.185364
v 5.980693 528.000000 500.873169
v 7.463445 528.000000 502.133575
v 6.111939 528.000000 501.129272
v 7.189549 528.000000 502.045288
v 6.275489 528.000000 501.366028
v 6.929520 528.000000 501.921997
v 6.468546 528.000000 501.579437
v 6.687808 528.000000 501.765839
v 9.056667 527.941406 501.766693
v 8.804413 527.900024 501.860321
v 9.040353 527.900024 501.739410
v 9.278227 527.941406 501.613647
v 8.554709 527.900024 501.949402
v 8.549241 527.851746 501.930206
v 8.796483 527.851746 501.841980
v 9.876775 527.993164 501.045288
v 9.724280 527.993164 501.281311
v 9.542283 527.993164 501.495422
v 9.685564 527.973206 501.252533
v 9.507653 527.973206 501.461853
v 9.303946 527.973206 501.646118
v 9.477916 527.941406 501.433014
v 9.258492 527.900024 501.588745
v 9.030097 527.851746 501.722260
v 9.997156 527.993164 500.791382
v 9.834634 527.973206 501.021820
v 9.652317 527.941406 501.227844
v 9.455097 527.900024 501.410889
v 9.246085 527.851746 501.573090
v 10.083366 527.993164 500.523926
v 9.952312 527.973206 500.773621
v 9.798447 527.941406 501.001678
v 9.626805 527.900024 501.208893
v 9.440753 527.851746 501.396973
v 10.133929 527.993164 500.247528
v 10.036587 527.973206 500.512177
v 9.913804 527.941406 500.758362
v 9.770679 527.900024 500.986206
v 9.610768 527.851746 501.196960
v 10.147981 527.993164 499.966858
v 10.086015 527.973206 500.241943
v 9.996416 527.941406 500.502075
v 9.884255 527.900024 500.746643
v 9.753223 527.851746 500.976471
v 10.099751 527.973206 499.967621
v 10.044869 527.941406 500.237183
v 9.965592 527.900024 500.494324
v 9.865681 527.851746 500.739288
v 10.058333 527.941406 499.968231
v 10.013297 527.900024 500.233521
v 9.946216 527.851746 500.489441
v 10.026554 527.900024 499.968750
v 9.993450 527.851746 500.231232
v 10.006577 527.851746 499.969055
v 5.933787 527.993164 500.587952
v 6.028206 527.993164 500.852600
v 5.980181 527.973206 500.574738
v 6.156363 527.993164 501.102692
v 6.072480 527.973206 500.833466
v 6.020021 527.941406 500.563416
v 6.316065 527.993164 501.333893
v 6.197760 527.973206 501.077942
v 6.110499 527.941406 500.817017
v 6.050591 527.900024 500.554718
v 6.504580 527.993164 501.542297
v 6.353876 527.973206 501.303955
v 6.233308 527.941406 501.056671
v 6.139673 527.900024 500.804413
v 6.069808 527.851746 500.549255
v 6.718682 527.993164 501.724274
v 6.538158 527.973206 501.507660
v 6.386345 527.941406 501.278229
v 6.260585 527.900024 501.040344
v 6.158012 527.851746 500.796478
v 6.954708 527.993164 501.876770
v 6.747452 527.973206 501.685577
v 6.566992 527.941406 501.477905
v 6.411259 527.900024 501.258484
v 6.277732 527.851746 501.030090
v 7.208619 527.993164 501.997162
v 6.978179 527.973206 501.834625
v 6.772158 527.941406 501.652313
v 6.589117 527.900024 501.455109
v 6.426921 527.851746 501.246094
v 7.476070 527.993164 502.083374
v 7.226388 527.973206 501.952301
v 6.998333 527.941406 501.798431
v 6.791116 527.900024 501.626801
v 6.603025 527.851746 501.440765
v 7.752486 527.993164 502.133942
v 7.487834 527.973206 502.036591
v 7.241647 527.941406 501.913818
v 7.013799 527.900024 501.770691
v 6.803033 527.851746 501.610779
v 8.033137 527.993164 502.147980
v 7.758044 527.973206 502.086029
v 7.497936 527.941406 501.996429
v 7.253356 527.900024 501.884247
v 7.023520 527.851746 501.753235
v 8.313222 527.993164 502.125275
v 8.032393 527.973206 502.099762
v 7.762816 527.941406 502.044861
v 7.505688 527.900024 501.965607
v 7.260716 527.851746 501.865692
v 8.587947 527.993164 502.066223
v 8.306189 527.973206 502.077545
v 8.031754 527.941406 502.058319
v 7.766479 527.900024 502.013306
v 7.510561 527.851746 501.946228
v 8.852612 527.993164 501.971802
v 8.574745 527.973206 502.019806
v 8.300149 527.941406 502.036591
v 8.031264 527.900024 502.026550
v 7.768780 527.851746 501.993439
v 9.102688 527.993164 501.843628
v 8.833467 527.973206 501.927521
v 8.563409 527.941406 501.979980
v 8.295515 527.900024 502.005127
v 8.030956 527.851746 502.006561
v 9.333898 527.993164 501.683929
v 9.077929 527.973206 501.802246
v 8.817027 527.941406 501.889496
v 8.292602 527.851746 501.985382
v 9.289393 530.163696 500.175659
v 9.236817 530.150452 499.818939
v 9.184093 530.163635 499.461182
v 8.493304 530.163635 501.203888
v 8.776158 530.150452 500.979828
v 9.059012 530.163635 500.755768
v 7.204050 530.163635 501.029175
v 7.539516 530.150452 501.162079
v 7.874983 530.163635 501.295013
v 6.710809 530.163635 499.825714
v 6.763534 530.150452 500.183441
v 6.816109 530.163696 500.540192
v 7.506696 530.163635 498.796112
v 7.223842 530.150452 499.020172
v 6.940987 530.163635 499.244232
v 8.795950 530.163635 498.970825
v 8.460484 530.150452 498.837921
v 8.125016 530.163635 498.704987
v 7.088298 528.836243 500.983307
v 6.816803 528.812256 500.544891
v 6.868583 528.900024 500.896240
v 7.311155 528.794495 501.071594
v 8.395706 528.836243 501.281189
v 7.989685 528.836060 501.340485
v 8.210450 528.900024 501.427948
v 7.765271 528.794312 501.251556
v 8.583611 528.794495 501.132355
v 8.966507 528.794312 500.829041
v 9.155725 528.836060 500.679169
v 9.290087 528.812256 500.180389
v 9.341866 528.900024 500.531708
v 7.537813 528.779419 501.161407
v 7.484231 528.450012 500.504791
v 7.879445 528.450012 500.711548
v 8.774722 528.779419 500.980988
v 8.320705 528.450012 500.646515
v 8.639468 528.450012 500.334534
v 7.676743 528.224976 500.160339
v 7.742115 528.224976 500.252411
v 8.252397 528.224976 500.257874
v 8.319734 528.224976 500.167267
v 8.355774 528.224976 500.060272
v 7.942405 528.112488 500.170990
v 7.996119 528.224976 500.360809
v 9.279306 498.000000 499.446808
v 9.092542 498.000000 499.134552
v 8.831323 498.000000 498.881287
v 8.513451 498.000000 498.704224
v 8.160587 498.000000 498.615509
v 7.796781 498.000000 498.621124
v 7.446823 498.000000 498.720703
v 7.134563 498.000000 498.907471
v 6.881282 498.000000 499.168671
v 6.704239 498.000000 499.486542
v 6.615500 498.000000 499.839417
f 1 2 3
f 1 4 2
f 5 1 3
f 6 3 7
f 6 5 3
f 8 6 7
f 9 7 10
f 9 8 7
f 11 9 10
f 12 10 13
f 12 11 10
f 14 12 13
f 15 13 16
f 15 14 13
f 17 15 16
f 18 16 19
f 18 17 16
f 20 18 19
f 21 19 22
f 21 20 19
f 23 21 22
f 24 22 25
f 24 23 22
f 26 24 25
f 27 25 28
f 27 26 25
f 29 27 28
f 30 28 31
f 30 29 28
f 32 30 31
f 33 32 31
f 33 31 34
f 35 33 34
f 36 34 37
f 36 35 34
f 38 36 37
f 39 40 41
f 40 39 42
f 43 44 45
f 46 44 47
f 44 43 47
f 48 49 50
f 49 51 50
f 42 52 53
f 54 40 53
f 40 42 53
f 52 46 55
f 53 52 55
f 46 47 55
f 47 56 57
f 55 47 57
f 50 58 59
f 56 48 59
f 48 50 59
f 57 56 59
f 60 54 61
f 54 53 61
f 60 61 62
f 61 53 62
f 60 62 63
f 62 53 63
f 53 55 63
f 57 59 64
f 58 60 65
f 64 59 65
f 59 58 65
f 60 64 65
f 63 55 66
f 57 64 66
f 55 57 66
f 60 63 67
f 64 60 67
f 63 66 67
f 66 64 67
f 68 69 70
f 69 71 72
f 70 69 72
f 73 74 75
f 71 73 75
f 74 76 77
f 75 74 77
f 78 79 80
f 81 82 80
f 76 81 80
f 82 78 80
f 77 76 80
f 68 70 83
f 84 68 83
f 85 84 83
f 70 72 86
f 72 71 87
f 71 75 87
f 75 77 88
f 87 75 88
f 79 89 90
f 80 79 90
f 91 92 93
f 77 80 90
f 94 85 95
f 85 83 95
f 70 86 96
f 83 70 96
f 95 83 96
f 86 72 97
f 72 87 97
f 87 88 98
f 97 87 98
f 90 89 99
f 88 77 99
f 77 90 99
f 94 95 100
f 100 95 101
f 95 96 101
f 96 86 102
f 86 97 102
f 97 98 103
f 89 104 105
f 104 106 105
f 99 89 105
f 98 88 105
f 88 99 105
f 107 108 109
f 94 100 109
f 110 94 109
f 108 110 109
f 100 101 111
f 96 102 112
f 101 96 112
f 97 103 113
f 102 97 113
f 112 102 113
f 103 98 114
f 105 106 114
f 98 105 114
f 100 111 115
f 109 100 115
f 107 109 115
f 111 101 116
f 101 112 116
f 116 112 117
f 112 113 117
f 103 114 118
f 113 103 118
f 106 119 118
f 114 106 118
f 120 107 121
f 122 120 121
f 107 115 121
f 115 111 121
f 111 116 121
f 116 117 123
f 117 113 124
f 113 118 124
f 119 125 124
f 125 126 124
f 118 119 124
f 123 117 124
f 122 121 127
f 121 116 127
f 116 123 127
f 124 126 128
f 123 124 128
f 129 122 130
f 122 127 130
f 126 131 130
f 127 123 130
f 123 128 130
f 128 126 130
f 131 129 130
f 132 110 108
f 129 131 133
f 134 135 136
f 137 134 136
f 137 136 138
f 139 137 138
f 140 139 138
f 138 136 141
f 135 142 141
f 142 143 141
f 136 135 141
f 144 140 145
f 140 138 145
f 138 141 146
f 145 138 146
f 141 143 147
f 148 144 149
f 144 145 149
f 145 146 150
f 149 145 150
f 146 141 151
f 141 147 151
f 150 146 151
f 151 147 152
f 143 153 152
f 147 143 152
f 148 149 154
f 149 150 155
f 150 151 156
f 155 150 156
f 151 152 157
f 156 151 157
f 152 153 158
f 153 91 158
f 91 93 158
f 159 148 160
f 148 154 160
f 160 154 161
f 149 155 161
f 154 149 161
f 155 156 162
f 156 157 163
f 162 156 163
f 93 164 165
f 164 166 165
f 163 157 165
f 158 93 165
f 152 158 165
f 157 152 165
f 167 159 168
f 169 167 168
f 159 160 168
f 160 161 170
f 168 160 170
f 170 161 171
f 155 162 171
f 161 155 171
f 162 163 172
f 171 162 172
f 165 166 173
f 163 165 173
f 172 163 173
f 169 168 174
f 168 170 175
f 174 168 175
f 170 171 176
f 175 170 176
f 176 171 177
f 171 172 177
f 166 178 179
f 173 166 179
f 172 173 179
f 169 174 180
f 181 169 180
f 182 181 180
f 174 175 183
f 175 176 184
f 184 176 185
f 176 177 185
f 177 172 186
f 179 178 186
f 185 177 186
f 178 187 186
f 172 179 186
f 182 180 188
f 189 182 188
f 174 183 190
f 188 180 190
f 180 174 190
f 183 175 191
f 175 184 191
f 184 185 192
f 191 184 192
f 187 193 194
f 192 185 194
f 186 187 194
f 185 186 194
f 189 188 195
f 196 189 195
f 188 190 197
f 195 188 197
f 190 183 198
f 183 191 198
f 191 192 199
f 194 193 200
f 193 201 200
f 201 202 200
f 192 194 200
f 196 195 203
f 203 195 204
f 195 197 204
f 190 198 205
f 197 190 205
f 204 197 205
f 198 191 206
f 191 199 206
f 205 198 206
f 199 192 207
f 200 202 207
f 192 200 207
f 196 203 208
f 209 196 208
f 210 209 208
f 203 204 211
f 204 205 212
f 205 206 213
f 212 205 213
f 202 214 215
f 214 216 215
f 207 202 215
f 206 199 215
f 199 207 215
f 217 210 218
f 210 208 218
f 208 203 219
f 203 211 219
f 218 208 219
f 211 204 220
f 204 212 220
f 212 213 221
f 220 212 221
f 216 222 223
f 215 216 223
f 213 206 223
f 206 215 223
f 221 213 223
f 224 217 225
f 217 218 225
f 218 219 226
f 225 218 226
f 219 211 227
f 211 220 227
f 220 221 228
f 223 222 229
f 221 223 229
f 230 224 231
f 224 225 231
f 225 226 232
f 231 225 232
f 219 227 233
f 226 219 233
f 227 220 234
f 220 228 234
f 233 227 234
f 228 221 235
f 229 222 235
f 222 236 235
f 221 229 235
f 230 231 237
f 238 230 237
f 237 231 73
f 231 232 73
f 226 233 239
f 73 232 239
f 232 226 239
f 239 233 81
f 233 234 81
f 236 240 241
f 234 228 241
f 235 236 241
f 228 235 241
f 238 237 69
f 68 238 69
f 237 73 71
f 69 237 71
f 73 239 74
f 74 239 76
f 239 81 76
f 241 240 82
f 81 234 82
f 234 241 82
f 240 242 82
f 242 78 82
f 243 244 245
f 243 246 247
f 243 247 248
f 243 248 244
f 249 250 251
f 249 251 252
f 249 246 243
f 249 252 253
f 254 255 256
f 249 253 257
f 249 257 246
f 258 254 256
f 259 243 245
f 260 254 258
f 259 261 262
f 259 245 261
f 263 260 258
f 264 265 266
f 267 268 269
f 267 262 268
f 270 250 249
f 271 272 273
f 271 274 272
f 270 275 276
f 270 276 250
f 277 278 279
f 277 266 278
f 277 280 281
f 277 282 280
f 283 274 271
f 277 279 282
f 283 281 274
f 277 264 266
f 284 267 269
f 285 286 287
f 285 287 288
f 284 269 265
f 284 264 277
f 284 265 264
f 289 290 291
f 289 291 275
f 289 275 270
f 292 283 293
f 292 293 294
f 292 294 295
f 292 277 281
f 292 281 283
f 296 295 297
f 296 297 298
f 296 298 299
f 296 299 300
f 296 300 301
f 296 284 277
f 296 277 292
f 296 292 295
f 302 290 289
f 302 301 303
f 302 303 304
f 302 304 305
f 302 305 290
f 302 284 296
f 302 296 301
f 306 249 243
f 306 270 249
f 306 243 259
f 307 262 267
f 307 270 306
f 307 289 270
f 307 306 259
f 307 259 262
f 308 302 289
f 308 307 267
f 308 267 284
f 308 289 307
f 308 284 302
f 309 310 311
f 309 311 312
f 309 312 260
f 309 260 263
f 278 313 314
f 279 278 314
f 247 263 315
f 247 315 316
f 247 316 286
f 247 285 317
f 247 309 263
f 247 286 285
f 248 317 244
f 248 247 317
f 246 309 247
f 246 257 318
f 246 318 319
f 246 319 320
f 246 320 321
f 246 321 310
f 246 310 309
f 322 323 24
f 324 26 27
f 324 322 26
f 325 27 29
f 325 324 27
f 326 4 1
f 326 1 5
f 326 133 4
f 327 29 30
f 327 325 29
f 328 326 5
f 329 30 32
f 329 327 30
f 330 5 6
f 331 32 33
f 330 328 5
f 331 329 32
f 332 33 35
f 333 6 8
f 332 35 36
f 332 331 33
f 333 330 6
f 334 332 36
f 334 36 38
f 92 334 38
f 335 8 9
f 335 9 11
f 335 333 8
f 336 335 11
f 337 11 12
f 337 336 11
f 338 12 14
f 338 14 15
f 338 337 12
f 339 338 15
f 340 15 17
f 340 339 15
f 341 17 18
f 341 340 17
f 342 341 18
f 342 18 20
f 342 20 21
f 343 342 21
f 343 21 23
f 344 343 23
f 323 344 23
f 323 23 24
f 322 24 26
f 79 345 346
f 89 346 347
f 89 79 346
f 104 347 348
f 104 348 349
f 104 89 347
f 93 92 38
f 93 38 350
f 106 104 349
f 164 350 351
f 164 351 352
f 119 349 353
f 164 93 350
f 119 106 349
f 166 352 354
f 125 353 355
f 125 355 356
f 166 164 352
f 125 119 353
f 126 125 356
f 178 166 354
f 131 356 357
f 131 126 356
f 133 357 4
f 187 354 358
f 133 131 357
f 187 358 359
f 187 178 354
f 193 187 359
f 201 359 360
f 201 193 359
f 202 360 361
f 202 201 360
f 214 361 362
f 214 202 361
f 216 362 363
f 216 363 364
f 216 214 362
f 222 216 364
f 222 364 365
f 236 222 365
f 240 236 365
f 240 365 366
f 242 240 366
f 242 366 367
f 78 242 367
f 78 367 345
f 79 78 345
f 261 368 262
f 369 370 371
f 368 372 262
f 373 374 313
f 375 376 313
f 376 373 313
f 377 378 268
f 379 369 380
f 369 371 380
f 372 377 268
f 262 372 268
f 370 381 382
f 371 370 382
f 383 375 278
f 375 313 278
f 384 379 385
f 378 386 269
f 379 380 385
f 381 387 388
f 268 378 269
f 382 381 388
f 383 278 266
f 288 384 389
f 269 386 265
f 384 385 389
f 386 383 265
f 383 266 265
f 388 387 390
f 390 387 391
f 288 389 285
f 285 389 392
f 390 391 393
f 393 391 394
f 285 392 317
f 317 392 395
f 393 394 396
f 396 394 397
f 317 395 244
f 244 395 398
f 396 397 399
f 399 397 400
f 401 399 400
f 244 398 245
f 398 402 245
f 401 400 374
f 373 401 374
f 245 402 261
f 402 368 261
f 403 404 405
f 406 381 370
f 406 387 381
f 406 370 407
f 408 407 369
f 408 409 407
f 408 369 379
f 408 379 409
f 288 287 384
f 410 391 387
f 410 394 391
f 411 412 413
f 411 413 414
f 411 414 415
f 411 415 416
f 411 403 412
f 417 394 410
f 417 397 394
f 418 411 416
f 418 416 419
f 418 419 420
f 418 420 421
f 418 421 422
f 418 422 423
f 418 417 411
f 424 397 417
f 424 400 397
f 425 417 418
f 425 424 417
f 425 281 280
f 425 280 282
f 425 282 279
f 425 374 400
f 425 279 374
f 425 400 424
f 426 281 425
f 426 423 427
f 426 427 428
f 426 428 429
f 426 418 423
f 426 429 281
f 426 425 418
f 430 407 431
f 430 431 404
f 256 255 432
f 430 406 407
f 433 387 406
f 314 313 374
f 433 404 403
f 433 430 404
f 433 406 430
f 433 410 387
f 434 433 403
f 434 417 410
f 434 403 411
f 434 410 433
f 279 314 374
f 258 432 435
f 434 411 417
f 258 256 432
f 263 258 435
f 274 281 429
f 436 274 429
f 272 274 436
f 273 272 436
f 431 437 438
f 431 438 439
f 431 439 440
f 431 440 441
f 442 443 444
f 442 444 445
f 442 445 446
f 442 446 447
f 442 447 437
f 442 437 431
f 448 263 435
f 448 435 449
f 448 449 450
f 448 450 443
f 448 443 442
f 404 441 451
f 404 451 405
f 404 431 441
f 407 442 431
f 407 370 369
f 409 315 263
f 409 316 315
f 409 286 316
f 409 384 286
f 409 442 407
f 409 379 384
f 409 448 442
f 409 263 448
f 403 405 452
f 403 452 412
f 287 286 384
f 319 318 159
f 320 319 159
f 318 257 148
f 159 318 148
f 321 320 167
f 320 159 167
f 257 253 144
f 148 257 144
f 310 321 169
f 321 167 169
f 252 251 140
f 253 252 140
f 144 253 140
f 311 310 181
f 312 311 181
f 310 169 181
f 251 250 139
f 140 251 139
f 260 312 182
f 312 181 182
f 250 276 137
f 139 250 137
f 254 260 189
f 260 182 189
f 275 291 134
f 276 275 134
f 137 276 134
f 255 254 196
f 432 255 196
f 254 189 196
f 291 290 453
f 134 291 453
f 435 432 209
f 432 196 209
f 290 305 454
f 453 290 454
f 449 435 210
f 435 209 210
f 304 303 455
f 305 304 455
f 454 305 455
f 450 449 217
f 443 450 217
f 449 210 217
f 303 301 456
f 455 303 456
f 443 217 224
f 444 443 224
f 301 300 457
f 456 301 457
f 444 224 230
f 445 444 230
f 300 299 458
f 457 300 458
f 445 230 238
f 445 238 446
f 458 299 298
f 459 458 298
f 238 68 447
f 446 238 447
f 459 298 297
f 460 459 297
f 68 84 437
f 447 68 437
f 460 297 295
f 461 460 295
f 84 85 438
f 437 84 438
f 461 295 294
f 438 85 439
f 461 294 293
f 462 461 293
f 85 94 440
f 439 85 440
f 462 293 283
f 463 462 283
f 94 110 441
f 440 94 441
f 464 463 271
f 463 283 271
f 110 132 451
f 441 110 451
f 464 271 273
f 451 132 405
f 464 273 436
f 465 464 436
f 132 466 452
f 405 132 452
f 465 436 429
f 467 465 429
f 452 466 412
f 466 468 412
f 467 429 428
f 469 467 428
f 412 468 413
f 468 470 413
f 469 428 427
f 413 470 414
f 469 427 423
f 471 469 423
f 414 470 415
f 470 472 415
f 471 423 422
f 473 471 422
f 415 472 416
f 472 474 416
f 473 422 421
f 475 473 421
f 416 474 419
f 474 475 419
f 475 421 420
f 419 475 420
f 476 477 478
f 479 476 478
f 480 481 482
f 477 480 482
f 481 344 482
f 457 458 483
f 456 457 483
f 458 484 483
f 484 485 486
f 485 487 486
f 487 488 489
f 488 479 489
f 486 487 489
f 479 478 490
f 344 323 491
f 490 478 491
f 478 477 491
f 482 344 491
f 477 482 491
f 456 483 492
f 484 486 493
f 492 483 493
f 483 484 493
f 493 486 494
f 486 489 494
f 489 479 495
f 479 490 495
f 494 489 495
f 323 322 496
f 491 323 496
f 490 491 496
f 455 456 497
f 456 492 497
f 492 493 498
f 493 494 499
f 498 493 499
f 494 495 500
f 499 494 500
f 495 490 501
f 322 324 501
f 496 322 501
f 490 496 501
f 454 455 502
f 455 497 502
f 497 492 503
f 492 498 503
f 503 498 504
f 498 499 504
f 504 499 505
f 499 500 505
f 324 325 506
f 495 501 506
f 501 324 506
f 500 495 506
f 453 454 507
f 134 453 507
f 135 134 507
f 142 135 507
f 454 502 507
f 502 497 508
f 497 503 508
f 503 504 509
f 509 504 510
f 504 505 510
f 505 500 511
f 325 327 511
f 510 505 511
f 506 325 511
f 500 506 511
f 502 508 512
f 507 502 512
f 142 507 512
f 508 503 513
f 503 509 513
f 512 508 513
f 509 510 514
f 511 327 515
f 327 329 515
f 329 331 515
f 510 511 515
f 142 512 516
f 512 513 516
f 143 142 516
f 153 143 516
f 513 509 517
f 509 514 517
f 516 513 517
f 331 332 518
f 514 510 518
f 515 331 518
f 510 515 518
f 153 516 519
f 516 517 519
f 91 153 519
f 518 332 520
f 514 518 520
f 517 514 520
f 332 334 521
f 520 332 521
f 519 517 521
f 517 520 521
f 91 519 521
f 334 91 521
f 91 334 92
f 132 108 522
f 108 107 522
f 466 132 522
f 466 522 523
f 468 466 523
f 522 107 524
f 470 468 525
f 472 470 525
f 468 523 525
f 523 522 526
f 522 524 526
f 107 120 527
f 526 524 527
f 524 107 527
f 472 525 528
f 523 526 529
f 528 525 529
f 525 523 529
f 526 527 530
f 529 526 530
f 530 527 531
f 120 122 531
f 527 120 531
f 474 472 532
f 475 474 532
f 472 528 532
f 528 529 533
f 533 529 534
f 529 530 534
f 534 530 535
f 530 531 535
f 133 326 536
f 326 328 536
f 535 531 536
f 122 129 536
f 129 133 536
f 531 122 536
f 475 532 537
f 528 533 538
f 532 528 538
f 537 532 538
f 533 534 539
f 538 533 539
f 534 535 540
f 539 534 540
f 536 328 541
f 535 536 541
f 475 537 542
f 473 475 542
f 537 538 543
f 543 538 544
f 538 539 544
f 539 540 545
f 328 330 546
f 535 541 546
f 540 535 546
f 541 328 546
f 545 540 546
f 471 473 547
f 473 542 547
f 537 543 548
f 542 537 548
f 548 543 549
f 543 544 549
f 544 539 550
f 539 545 550
f 549 544 550
f 330 333 551
f 546 330 551
f 545 546 551
f 469 471 552
f 467 469 552
f 471 547 552
f 552 547 553
f 547 542 553
f 542 548 553
f 553 548 554
f 548 549 554
f 549 550 555
f 550 545 556
f 333 335 556
f 545 551 556
f 551 333 556
f 555 550 556
f 467 552 557
f 552 553 558
f 553 554 559
f 558 553 559
f 549 555 560
f 559 554 560
f 554 549 560
f 556 335 561
f 335 336 561
f 555 556 561
f 467 557 562
f 465 467 562
f 464 465 562
f 557 552 563
f 552 558 563
f 558 559 564
f 563 558 564
f 559 560 565
f 564 559 565
f 336 337 566
f 560 555 566
f 561 336 566
f 555 561 566
f 464 562 567
f 463 464 567
f 557 563 568
f 562 557 568
f 563 564 569
f 564 565 570
f 337 338 571
f 565 560 571
f 560 566 571
f 570 565 571
f 566 337 571
f 463 567 572
f 567 562 573
f 562 568 573
f 568 563 574
f 563 569 574
f 573 568 574
f 569 564 575
f 564 570 575
f 571 338 576
f 338 339 576
f 339 340 576
f 570 571 576
f 462 463 577
f 463 572 577
f 572 567 578
f 567 573 578
f 573 574 579
f 578 573 579
f 574 569 580
f 569 575 580
f 575 570 581
f 576 340 581
f 570 576 581
f 462 577 582
f 461 462 582
f 460 461 582
f 577 572 583
f 572 578 583
f 578 579 584
f 579 574 585
f 574 580 585
f 340 341 586
f 581 340 586
f 580 575 586
f 575 581 586
f 460 582 587
f 587 582 588
f 582 577 588
f 577 583 588
f 583 578 589
f 588 583 589
f 578 584 589
f 579 585 480
f 584 579 480
f 585 580 590
f 341 342 590
f 580 586 590
f 586 341 590
f 459 460 485
f 460 587 485
f 587 588 488
f 588 589 476
f 488 588 476
f 589 584 477
f 476 589 477
f 584 480 477
f 480 585 481
f 342 343 481
f 343 344 481
f 585 590 481
f 590 342 481
f 459 485 484
f 458 459 484
f 587 488 487
f 485 587 487
f 488 476 479
f 591 378 377
f 591 377 592
f 592 377 372
f 593 592 368
f 592 372 368
f 593 368 402
f 594 376 375
f 594 375 595
f 595 375 383
f 596 595 386
f 595 383 386
f 596 386 378
f 597 396 399
f 597 399 598
f 598 399 401
f 599 598 373
f 598 401 373
f 599 373 376
f 600 382 388
f 600 388 601
f 601 388 390
f 602 601 393
f 601 390 393
f 602 393 396
f 603 389 385
f 603 385 604
f 604 385 380
f 605 604 371
f 604 380 371
f 605 371 382
f 606 402 398
f 606 398 607
f 607 398 395
f 608 607 392
f 607 395 392
f 608 392 389
f 609 610 611
f 610 609 612
f 613 614 615
f 616 614 617
f 614 613 617
f 618 619 620
f 619 621 620
f 612 622 623
f 58 610 623
f 610 612 623
f 622 616 624
f 623 622 624
f 616 617 624
f 617 625 626
f 624 617 626
f 620 54 627
f 625 618 627
f 618 620 627
f 626 625 627
f 60 58 628
f 58 623 628
f 60 628 629
f 628 623 629
f 623 624 629
f 626 627 630
f 60 630 631
f 630 627 631
f 54 60 632
f 631 627 632
f 627 54 632
f 60 631 632
f 60 629 633
f 630 60 633
f 629 624 634
f 626 630 634
f 624 626 634
f 633 629 634
f 630 633 634
f 596 378 621
f 596 621 619
f 595 596 618
f 596 619 618
f 595 618 625
f 594 595 617
f 595 625 617
f 594 617 613
f 376 594 615
f 594 613 615
f 402 41 593
f 41 40 593
f 40 54 592
f 54 620 592
f 593 40 592
f 620 621 591
f 592 620 591
f 591 621 378
f 608 389 45
f 608 45 44
f 607 608 46
f 608 44 46
f 607 46 52
f 606 607 42
f 607 52 42
f 606 42 39
f 402 606 41
f 606 39 41
f 605 382 51
f 605 51 49
f 604 605 48
f 605 49 48
f 604 48 56
f 603 604 47
f 604 56 47
f 603 47 43
f 389 603 45
f 603 43 45
f 602 396 611
f 601 602 610
f 602 611 610
f 601 610 58
f 600 601 50
f 601 58 50
f 382 600 51
f 600 50 51
f 599 376 615
f 599 615 614
f 598 599 616
f 599 614 616
f 598 616 622
f 597 598 612
f 598 622 612
f 597 612 609
f 396 597 611
f 597 609 611
f 350 38 37
f 350 37 635
f 351 350 635
f 352 635 636
f 352 351 635
f 354 352 636
f 358 636 637
f 358 354 636
f 359 358 637
f 360 637 638
f 360 359 637
f 361 360 638
f 362 638 639
f 362 361 638
f 363 362 639
f 364 639 640
f 364 363 639
f 365 364 640
f 366 640 641
f 366 365 640
f 367 366 641
f 345 641 642
f 345 367 641
f 346 345 642
f 347 642 643
f 347 346 642
f 348 347 643
f 349 643 644
f 349 348 643
f 353 349 644
f 355 353 644
f 355 644 645
f 356 355 645
f 357 356 645
f 357 645 2
f 4 357 2
f 635 37 34
f 636 635 31
f 635 34 31
f 637 636 28
f 638 637 28
f 636 31 28
f 638 28 25
f 639 638 22
f 638 25 22
f 640 639 19
f 641 640 19
f 639 22 19
f 641 19 16
f 644 643 3
f 645 644 3
f 2 645 3
f 642 641 13
f 641 16 13
f 3 643 7
f 643 642 10
f 642 13 10
f 7 643 10
