# Created by FreeCAD <http://www.freecadweb.org>
v -32.153625 263.106995 498.360413
v -31.738846 262.655090 498.010406
v -31.886786 262.548523 498.010406
v -31.963448 263.225891 498.360413
v -32.329292 262.967560 498.360413
v -32.019554 262.423584 498.010406
v -32.488243 262.809326 498.360413
v -32.134872 262.282379 498.010406
v -29.076908 262.022552 498.360413
v -29.625381 261.703583 498.010406
v -29.667208 261.881042 498.010406
v -29.027500 261.803772 498.360413
v -32.628479 262.634308 498.360413
v -29.150501 262.234406 498.360413
v -29.731836 262.051514 498.010406
v -32.748238 262.444672 498.360413
v -32.230778 262.127319 498.010406
v -29.247355 262.436707 498.360413
v -29.818165 262.212097 498.010406
v -32.846012 262.242828 498.360413
v -32.305622 261.961090 498.010406
v -29.366245 262.626862 498.360413
v -29.924715 262.360046 498.010406
v -32.920567 262.031311 498.360413
v -32.358128 261.786499 498.010406
v -29.505684 262.802551 498.360413
v -30.049662 262.492798 498.010406
v -32.970974 261.812744 498.360413
v -32.387394 261.606537 498.010406
v -32.996593 261.589935 498.360413
v -32.392921 261.424316 498.010406
v -29.663914 262.961487 498.360413
v -30.190870 262.608124 498.010406
v -32.997105 261.365662 498.360413
v -32.374619 261.242920 498.010406
v -32.972500 261.142731 498.360413
v -29.838945 263.101715 498.360413
v -30.028578 263.221497 498.360413
v -30.345924 262.704041 498.010406
v -30.230425 263.319244 498.360413
v -30.512169 262.778870 498.010406
v -30.441952 263.393829 498.360413
v -30.686760 262.831390 498.010406
v -30.660496 263.444214 498.360413
v -30.866711 262.860657 498.010406
v -30.883310 263.469849 498.360413
v -31.048943 262.866180 498.010406
v -31.107592 263.470367 498.360413
v -31.230337 262.847870 498.010406
v -31.330519 263.445740 498.360413
v -31.549292 263.396332 498.360413
v -31.407789 262.806030 498.010406
v -31.761156 263.322754 498.360413
v -31.578264 262.741425 498.010406
v -31.160938 261.150269 512.235413
v -30.885429 261.131073 512.235413
v -30.892651 261.328247 512.122925
v -30.677034 261.312317 512.235413
v -31.000000 261.473236 512.010437
v -32.172535 260.906952 512.822815
v -32.142799 260.729492 512.860840
v -31.914431 260.480499 512.852112
v -32.113548 260.554901 512.910400
v -31.712803 260.405182 512.811279
v -30.597479 260.184967 512.852112
v -31.049137 260.157196 512.831909
v -30.761469 260.049713 512.910400
v -30.431423 260.321899 512.811279
v -29.677176 261.142639 512.860840
v -29.884840 260.772675 512.831909
v -29.647921 260.968048 512.910400
v -29.706909 261.320099 512.822815
v -31.528791 260.336426 512.792236
v -31.505728 260.958405 512.460449
v -32.232811 261.266663 512.789856
v -32.202595 261.086334 512.798462
v -31.342630 260.266876 512.792480
v -31.106518 260.759460 512.460449
v -30.279875 260.446899 512.792236
v -30.666624 260.833160 512.460449
v -30.126556 260.573334 512.792480
v -29.736967 261.499481 512.798462
v -30.354067 261.151367 512.460449
v -29.767187 261.679810 512.789856
v -31.320036 261.306549 512.235413
v -31.252863 261.215820 512.235413
v -30.643108 261.419983 512.235413
v -31.574392 259.496429 511.951843
v -31.565525 259.526947 511.910431
v -31.344051 259.475861 511.910431
v -31.349447 259.444550 511.951843
v -31.769575 259.627228 511.810425
v -31.558048 259.552673 511.810425
v -31.559950 259.546143 511.862183
v -31.772196 259.620941 511.862183
v -31.779884 259.602509 511.910431
v -30.644983 259.354553 512.003601
v -30.887030 259.376282 511.983612
v -30.652954 259.402130 511.983612
v -31.122524 259.376831 511.983612
v -30.889257 259.417664 511.951843
v -31.120108 259.418182 511.951843
v -30.193256 259.426514 512.010437
v -30.425463 259.403259 512.003601
v -30.212238 259.474670 512.003601
v -31.118254 259.449921 511.910431
v -30.438364 259.449738 511.983612
v -31.339504 259.502289 511.810425
v -31.340660 259.495544 511.862183
v -31.116690 259.476654 511.810425
v -30.659800 259.442963 511.951843
v -29.983732 259.522034 512.010437
v -30.007645 259.567963 512.003601
v -29.785343 259.638947 512.010437
v -30.890966 259.449402 511.910431
v -30.229927 259.519531 511.983612
v -31.117086 259.469849 511.862183
v -30.449442 259.489655 511.951843
v -29.813923 259.682129 512.003601
v -29.600264 259.775970 512.010437
v -30.665052 259.474335 511.910431
v -30.029926 259.610748 511.983612
v -30.892408 259.476135 511.810425
v -30.892042 259.469330 511.862183
v -30.245117 259.558075 511.951843
v -29.430517 259.931580 512.010437
v -29.633198 259.815918 512.003601
v -30.457943 259.520294 511.910431
v -29.840555 259.722351 511.983612
v -30.669481 259.500763 511.810425
v -30.668354 259.494019 511.862183
v -30.049061 259.647461 511.951843
v -29.467445 259.967865 512.003601
v -30.256771 259.587646 511.910431
v -29.663887 259.853119 511.983612
v -30.463285 259.539551 511.862183
v -30.450708 259.550171 511.810425
v -29.863424 259.756866 511.951843
v -29.277967 260.104095 512.010437
v -29.318485 260.136292 512.003601
v -29.144285 260.291595 512.010437
v -30.063744 259.675659 511.910431
v -29.501858 260.001648 511.983612
v -30.238844 259.623749 511.810425
v -30.264097 259.606232 511.862183
v -29.690241 259.885071 511.951843
v -29.030933 260.492035 512.010437
v -29.187948 260.319397 512.003601
v -29.880974 259.783386 511.910431
v -29.356241 260.166321 511.983612
v -30.072973 259.693390 511.862183
v -30.036552 259.720612 511.810425
v -29.531408 260.030701 511.951843
v -29.077263 260.515137 512.003601
v -29.710463 259.909607 511.910431
v -29.228636 260.345306 511.983612
v -29.017166 260.646637 512.003601
v -28.939156 260.703247 512.010437
v -29.846376 259.839508 511.810425
v -29.892004 259.800018 511.862183
v -29.388664 260.192108 511.951843
v -29.554083 260.052948 511.910431
v -29.120436 260.536652 511.983612
v -28.937082 260.873840 512.003601
v -28.869957 260.922882 512.010437
v -29.723175 259.925018 511.862183
v -29.670708 259.978943 511.810425
v -28.830250 261.836823 512.010437
v -28.804132 261.608032 512.010437
v -28.881302 261.828278 512.003601
v -29.263575 260.367554 511.951843
v -29.061689 260.665192 511.983612
v -29.413542 260.211884 511.910431
v -29.511755 260.137177 511.810425
v -29.568336 260.066956 511.862183
v -28.824095 261.148529 512.010437
v -28.882942 261.108582 512.003601
v -29.157509 260.555115 511.951843
v -28.983404 260.887299 511.983612
v -29.020779 261.804901 511.862183
v -29.002895 261.580841 511.810425
v -29.027500 261.803772 511.810425
v -33.169750 261.109680 512.010437
v -33.118698 261.118225 512.003601
v -33.069981 260.898712 512.003601
v -29.290384 260.384613 511.910431
v -33.119862 260.884857 512.010437
v -32.998589 260.685486 512.003601
v -29.099920 260.681122 511.951843
v -33.046745 260.666504 512.010437
v -32.951206 260.456970 512.010437
v -29.371519 260.312195 511.810425
v -29.429182 260.224304 511.862183
v -33.071125 261.126190 511.983612
v -33.023502 260.911621 511.983612
v -33.030273 261.133057 511.951843
v -28.802073 261.377747 512.010437
v -28.855423 261.347900 512.003601
v -32.834286 260.258606 512.010437
v -32.905296 260.480896 512.003601
v -28.930477 261.116760 511.983612
v -32.953712 260.703186 511.983612
v -29.185957 260.569275 511.910431
v -32.998928 261.138306 511.910431
v -32.983589 260.922699 511.951843
v -32.791130 260.287170 512.003601
v -29.023180 260.898865 511.951843
v -32.697273 260.073517 512.010437
v -29.307238 260.395355 511.862183
v -29.251762 260.501831 511.810425
v -28.928875 261.820282 511.983612
v -28.854874 261.588806 512.003601
v -32.862514 260.503174 511.983612
v -29.129257 260.693359 511.910431
v -32.915176 260.718353 511.951843
v -28.903578 261.350739 511.983612
v -32.541664 259.903778 512.010437
v -32.657337 260.106445 512.003601
v -28.971298 261.123810 511.951843
v -29.203840 260.578186 511.862183
v -32.952965 260.931183 511.910431
v -29.153990 260.703674 511.810425
v -32.750912 260.313812 511.983612
v -29.053701 260.907715 511.910431
v -29.147699 260.701050 511.862183
v -29.079432 260.915192 511.810425
v -32.825775 260.522308 511.951843
v -32.505390 259.940704 512.003601
v -28.903040 261.586212 511.983612
v -32.369164 259.751221 512.010437
v -32.885605 260.730011 511.910431
v -28.944929 261.353149 511.951843
v -29.002621 261.129211 511.910431
v -32.620125 260.137146 511.983612
v -29.072887 260.913300 511.862183
v -32.972500 261.142731 511.810425
v -32.923092 260.923950 511.810425
v -32.933712 260.936523 511.862183
v -32.979221 261.141602 511.862183
v -28.969727 261.813446 511.951843
v -28.944403 261.583984 511.951843
v -32.716373 260.336670 511.951843
v -32.336948 259.791748 512.003601
v -28.976658 261.354980 511.910431
v -29.029026 261.133759 511.810425
v -29.022310 261.132599 511.862183
v -29.003407 261.356567 511.810425
v -32.797588 260.536987 511.910431
v -29.001074 261.808197 511.910431
v -28.976139 261.582275 511.910431
v -28.996603 261.356171 511.862183
v -32.471588 259.975098 511.983612
v -28.996092 261.581207 511.862183
v -32.867016 260.737335 511.862183
v -32.849499 260.712097 511.810425
v -32.588169 260.163483 511.951843
v -32.181660 259.617523 512.010437
v -32.153858 259.661194 512.003601
v -32.689877 260.354218 511.910431
v -32.306927 259.829498 511.983612
v -32.779865 260.546234 511.862183
v -32.752647 260.509796 511.810425
v -32.442562 260.004669 511.951843
v -31.981211 259.504181 512.010437
v -31.958124 259.550507 512.003601
v -32.563648 260.183716 511.910431
v -32.127949 259.701874 511.983612
v -31.826614 259.490417 512.003601
v -31.770012 259.412415 512.010437
v -32.673218 260.365265 511.862183
v -32.633755 260.319611 511.810425
v -32.281147 259.861908 511.951843
v -32.420288 260.027344 511.910431
v -31.936611 259.593689 511.983612
v -32.494316 260.143951 511.810425
v -32.548233 260.196411 511.862183
v -31.599409 259.410339 512.003601
v -31.550377 259.343201 512.010437
v -32.105701 259.736816 511.951843
v -31.808054 259.534943 511.983612
v -32.261368 259.886780 511.910431
v -32.336086 259.985016 511.810425
v -32.406288 260.041595 511.862183
v -31.364666 259.356201 512.003601
v -31.324713 259.297333 512.010437
v -31.918137 259.630768 511.951843
v -31.585951 259.456665 511.983612
v -32.088627 259.763641 511.910431
v -31.792114 259.573181 511.951843
v -32.161057 259.844757 511.810425
v -32.248932 259.902435 511.862183
v -31.125338 259.328674 512.003601
v -31.095490 259.275330 512.010437
v -31.356478 259.403717 511.983612
v -31.903961 259.659210 511.910431
v -31.971422 259.725006 511.810425
v -32.077896 259.780487 511.862183
v -30.865221 259.277374 512.010437
v -30.884434 259.328125 512.003601
v -31.895050 259.677094 511.862183
v -30.636429 259.303497 512.010437
v -30.411619 259.353394 512.010437
v -33.608063 259.987854 513.393127
v -33.952236 259.570465 512.667358
v -33.034771 259.451691 513.536438
v -34.100624 260.456055 513.063904
v -33.213390 260.517670 513.938904
v -33.785931 261.049347 513.587036
v -32.972500 261.142731 514.210449
v -34.262844 261.424164 513.063904
v -33.403992 261.655121 513.938904
v -33.949810 262.027344 513.393127
v -34.411236 262.309723 512.667358
v -30.667994 257.687775 512.010437
v -30.372013 257.725494 512.010437
v -30.393627 257.854492 512.349121
v -33.582607 262.721100 513.536438
v -30.420221 258.013184 512.674622
v -30.966021 257.673401 512.010437
v -31.653522 257.931946 512.496033
v -32.422749 257.949646 512.010437
v -32.141903 257.848877 512.010437
v -31.854017 257.770447 512.010437
v -31.560867 257.714874 512.010437
v -31.264259 257.682434 512.010437
v -30.451572 258.200317 512.984253
v -31.769682 258.625153 513.449829
v -30.571432 258.915619 513.792969
v -31.116690 259.476654 514.210449
v -30.487429 258.414276 513.275391
v -30.527491 258.653381 513.545715
v -31.558048 259.552673 514.210449
v -31.928608 259.573608 514.141968
v -31.971422 259.725006 514.210449
v -32.336086 259.985016 514.210449
v -32.890591 258.591248 512.782104
v -33.662872 258.762329 512.010437
v -33.441967 258.561768 512.010437
v -33.206005 258.379120 512.010437
v -32.956444 258.215607 512.010437
v -32.694820 258.072144 512.010437
v -32.633755 260.319611 514.210449
v -34.603371 260.266724 512.010437
v -34.497601 259.987732 512.010437
v -34.370262 259.717865 512.010437
v -34.222149 259.458862 512.010437
v -34.054169 259.212250 512.010437
v -30.618893 259.198853 514.015137
v -33.867359 258.979614 512.010437
v -30.669481 259.500763 514.210449
v -31.920097 265.160187 512.010437
v -31.606373 265.092010 512.349121
v -31.627987 265.221008 512.010437
v -31.579779 264.933289 512.674622
v -32.849499 260.712097 514.210449
v -32.206532 265.076630 512.010437
v -31.548428 264.746185 512.984253
v -32.497120 262.966431 514.141968
v -32.488243 262.809326 514.210449
v -32.153625 263.106995 514.210449
v -32.748238 262.444672 514.210449
v -32.996593 261.589935 514.210449
v -32.920567 262.031311 514.210449
v -34.747749 260.845276 512.010437
v -34.686924 260.553162 512.010437
v -32.656048 263.914886 513.449829
v -31.761156 263.322754 514.210449
v -31.428568 264.030884 513.792969
v -31.512571 264.532227 513.275391
v -31.472509 264.293121 513.545715
v -34.799847 261.439270 512.010437
v -34.785469 261.141235 512.010437
v -32.772205 264.608093 512.496033
v -32.485531 264.970856 512.010437
v -32.755371 264.843506 512.010437
v -33.014385 264.695404 512.010437
v -33.260983 264.527405 512.010437
v -33.493641 264.340607 512.010437
v -33.726788 263.581543 512.782104
v -33.710926 264.136108 512.010437
v -33.911495 263.915222 512.010437
v -34.094112 263.679260 512.010437
v -34.257656 263.429688 512.010437
v -34.401115 263.168060 512.010437
v -31.330519 263.445740 514.210449
v -31.381107 263.747650 514.015137
v -34.523605 262.895996 512.010437
v -34.624371 262.615143 512.010437
v -34.702789 262.327271 512.010437
v -34.758381 262.034119 512.010437
v -34.790802 261.737518 512.010437
v -31.549292 263.396332 511.810425
v -31.330519 263.445740 511.810425
v -31.761156 263.322754 511.810425
v -31.963448 263.225891 511.810425
v -29.076908 262.022552 511.810425
v -32.153625 263.106995 511.810425
v -29.150501 262.234406 511.810425
v -32.329292 262.967560 511.810425
v -29.247355 262.436707 511.810425
v -32.488243 262.809326 511.810425
v -29.366245 262.626862 511.810425
v -32.628479 262.634308 511.810425
v -32.748238 262.444672 511.810425
v -29.505684 262.802551 511.810425
v -29.663914 262.961487 511.810425
v -32.846012 262.242828 511.810425
v -32.920567 262.031311 511.810425
v -29.838945 263.101715 511.810425
v -32.970974 261.812744 511.810425
v -30.028578 263.221497 511.810425
v -32.996593 261.589935 511.810425
v -30.230425 263.319244 511.810425
v -32.997105 261.365662 511.810425
v -30.441952 263.393829 511.810425
v -30.660496 263.444214 511.810425
v -30.883310 263.469849 511.810425
v -31.107592 263.470367 511.810425
v -30.450708 259.550171 498.360413
v -30.238844 259.623749 498.360413
v -30.036552 259.720612 498.360413
v -32.923092 260.923950 498.360413
v -29.846376 259.839508 498.360413
v -29.670708 259.978943 498.360413
v -32.849499 260.712097 498.360413
v -32.752647 260.509796 498.360413
v -32.633755 260.319611 498.360413
v -29.511755 260.137177 498.360413
v -29.371519 260.312195 498.360413
v -32.494316 260.143951 498.360413
v -32.336086 259.985016 498.360413
v -29.251762 260.501831 498.360413
v -29.153990 260.703674 498.360413
v -32.161057 259.844757 498.360413
v -29.079432 260.915192 498.360413
v -29.029026 261.133759 498.360413
v -31.971422 259.725006 498.360413
v -31.769575 259.627228 498.360413
v -29.003407 261.356567 498.360413
v -29.002895 261.580841 498.360413
v -31.558048 259.552673 498.360413
v -31.339504 259.502289 498.360413
v -31.116690 259.476654 498.360413
v -30.892408 259.476135 498.360413
v -30.669481 259.500763 498.360413
v -31.324387 260.066803 514.210449
v -31.505190 260.121155 514.210449
v -29.886454 262.391602 514.210449
v -29.366245 262.626862 514.210449
v -29.663914 262.961487 514.210449
v -31.422298 262.853455 514.210449
v -31.238531 262.896790 514.210449
v -31.050684 262.915741 514.210449
v -30.015848 262.529083 514.210449
v -30.883310 263.469849 514.210449
v -31.677349 260.198669 514.210449
v -32.423531 261.234711 514.210449
v -32.442486 261.422577 514.210449
v -32.380215 261.050964 514.210449
v -29.511755 260.137177 514.210449
v -29.251762 260.501831 514.210449
v -29.824745 260.635315 514.210449
v -30.162081 262.648499 514.210449
v -29.725430 260.795898 514.210449
v -29.944170 260.489105 514.210449
v -31.837919 260.298004 514.210449
v -31.598841 262.786530 514.210449
v -31.765137 262.697144 514.210449
v -29.079432 260.915192 514.210449
v -29.647921 260.968048 514.210449
v -30.322651 262.747833 514.210449
v -30.028578 263.221497 514.210449
v -32.436760 261.611267 514.210449
v -32.406452 261.797638 514.210449
v -31.984152 260.417419 514.210449
v -29.846376 259.839508 514.210449
v -30.081661 260.359711 514.210449
v -31.918339 262.586792 514.210449
v -29.593548 261.148865 514.210449
v -29.003407 261.356567 514.210449
v -30.494810 262.825317 514.210449
v -32.352077 261.978424 514.210449
v -30.238844 259.623749 514.210449
v -30.234863 260.249359 514.210449
v -32.113548 260.554901 514.210449
v -32.055828 262.457397 514.210449
v -32.175255 262.311157 514.210449
v -29.563240 261.335205 514.210449
v -30.401159 260.159973 514.210449
v -32.274570 262.150604 514.210449
v -29.557514 261.523926 514.210449
v -30.675613 262.879700 514.210449
v -30.441952 263.393829 514.210449
v -29.027500 261.803772 514.210449
v -30.577702 260.093018 514.210449
v -32.223888 260.708099 514.210449
v -29.576471 261.711792 514.210449
v -30.761469 260.049713 514.210449
v -29.619783 261.895538 514.210449
v -29.150501 262.234406 514.210449
v -30.949316 260.030762 514.210449
v -30.861967 262.910004 514.210449
v -32.313286 260.874420 514.210449
v -29.686712 262.072083 514.210449
v -31.138033 260.036499 514.210449
v -29.776114 262.238373 514.210449
v -28.391935 262.958649 513.393127
v -27.899374 262.490448 513.063904
v -28.047766 263.376007 512.667358
v -28.228058 261.980652 513.587036
v -28.786610 262.428833 513.938904
v -31.033979 265.273102 512.010437
v -31.332006 265.258728 512.010437
v -27.588766 260.636780 512.667358
v -27.598885 259.778442 512.010437
v -27.476395 260.050507 512.010437
v -27.375629 260.331360 512.010437
v -27.297211 260.619232 512.010437
v -27.241619 260.912384 512.010437
v -27.209200 261.208984 512.010437
v -27.200151 261.507233 512.010437
v -28.273211 259.364929 512.782104
v -28.506359 258.605896 512.010437
v -28.289076 258.810364 512.010437
v -28.088505 259.031281 512.010437
v -27.905886 259.267242 512.010437
v -27.742344 259.516815 512.010437
v -29.227793 258.338409 512.496033
v -29.793467 257.869873 512.010437
v -29.514469 257.975647 512.010437
v -29.244631 258.102997 512.010437
v -28.985613 258.251099 512.010437
v -28.739016 258.419067 512.010437
v -27.737156 261.522339 513.063904
v -27.214531 261.805267 512.010437
v -27.252251 262.101227 512.010437
v -28.417391 260.225403 513.536438
v -29.343954 259.031616 513.449829
v -27.313074 262.393341 512.010437
v -27.396629 262.679779 512.010437
v -28.596010 261.291351 513.938904
v -29.502878 259.980072 514.141968
v -30.079903 257.786316 512.010437
v -27.502401 262.958771 512.010437
v -27.629736 263.228607 512.010437
v -27.777851 263.487640 512.010437
v -27.945831 263.734222 512.010437
v -28.132641 263.966888 512.010437
v -28.337128 264.184174 512.010437
v -28.965227 263.494812 513.536438
v -29.109407 264.355255 512.782104
v -28.558033 264.384735 512.010437
v -28.793995 264.567352 512.010437
v -29.043556 264.730896 512.010437
v -29.305180 264.874359 512.010437
v -29.577253 264.996857 512.010437
v -30.071392 263.372894 514.141968
v -30.230318 264.321350 513.449829
v -30.346478 265.014557 512.496033
v -29.858097 265.097626 512.010437
v -30.145983 265.176025 512.010437
v -30.439133 265.231628 512.010437
v -30.735741 265.264038 512.010437
v -28.050190 260.919159 513.393127
v -29.302727 262.872986 512.010437
v -29.458338 263.042725 512.010437
v -30.018789 263.442322 512.010437
v -29.818340 263.328949 512.010437
v -29.630838 263.195282 512.010437
v -33.195869 261.338470 512.010437
v -33.197926 261.568726 512.010437
v -33.175903 261.797974 512.010437
v -33.130043 262.023621 512.010437
v -33.060844 262.243256 512.010437
v -32.969067 262.454468 512.010437
v -32.855717 262.654907 512.010437
v -32.722034 262.842407 512.010437
v -32.569481 263.014923 512.010437
v -32.399738 263.170532 512.010437
v -32.214657 263.307526 512.010437
v -32.016266 263.424438 512.010437
v -31.806744 263.519989 512.010437
v -31.588381 263.593109 512.010437
v -31.363571 263.643005 512.010437
v -31.134779 263.669128 512.010437
v -28.880140 262.061615 512.010437
v -30.904510 263.671173 512.010437
v -28.953255 262.279999 512.010437
v -30.675287 263.649139 512.010437
v -29.048796 262.489502 512.010437
v -30.449623 263.603302 512.010437
v -29.165712 262.687897 512.010437
v -30.229988 263.534088 512.010437
v -31.355017 263.591949 512.003601
v -31.112970 263.570221 511.983612
v -31.347046 263.544373 511.983612
v -30.879892 263.528320 511.951843
v -31.110743 263.528839 511.951843
v -31.787762 263.471832 512.003601
v -31.574537 263.543243 512.003601
v -30.881746 263.496582 511.910431
v -30.655949 263.470642 511.910431
v -31.561636 263.496765 511.983612
v -30.659340 263.450928 511.862183
v -30.434475 263.419556 511.910431
v -30.440050 263.400360 511.862183
v -31.340200 263.503510 511.951843
v -31.992355 263.378540 512.003601
v -31.109034 263.497101 511.910431
v -31.770073 263.426971 511.983612
v -30.882914 263.476654 511.862183
v -31.550558 263.456848 511.951843
v -32.186077 263.264374 512.003601
v -31.334948 263.472168 511.910431
v -31.970074 263.335754 511.983612
v -31.107958 263.477142 511.862183
v -31.754883 263.388428 511.951843
v -32.366802 263.130585 512.003601
v -31.542057 263.426208 511.910431
v -32.159443 263.224152 511.983612
v -31.331646 263.452484 511.862183
v -31.950939 263.299011 511.951843
v -32.532555 262.978638 512.003601
v -31.743229 263.358856 511.910431
v -32.336113 263.093384 511.983612
v -31.536715 263.406952 511.862183
v -32.136574 263.189636 511.951843
v -32.681515 262.810181 512.003601
v -31.936256 263.270844 511.910431
v -32.498142 262.944824 511.983612
v -31.735903 263.340271 511.862183
v -32.309757 263.061401 511.951843
v -32.812054 262.627106 512.003601
v -32.119026 263.163116 511.910431
v -32.643757 262.780182 511.983612
v -31.927027 263.253113 511.862183
v -32.468594 262.915802 511.951843
v -32.922737 262.431366 512.003601
v -32.289536 263.036896 511.910431
v -32.771366 262.601196 511.983612
v -32.982834 262.299866 512.003601
v -32.107994 263.146454 511.862183
v -32.611336 262.754395 511.951843
v -32.445919 262.893524 511.910431
v -32.879562 262.409851 511.983612
v -33.062916 262.072662 512.003601
v -32.276825 263.021484 511.862183
v -32.736427 262.578949 511.951843
v -32.938313 262.281311 511.983612
v -32.586456 262.734619 511.910431
v -32.431664 262.879547 511.862183
v -33.117058 261.837921 512.003601
v -32.842491 262.391388 511.951843
v -33.016598 262.059204 511.983612
v -32.709618 262.561890 511.910431
v -32.900078 262.265350 511.951843
v -32.570820 262.722168 511.862183
v -33.144577 261.598572 512.003601
v -33.069523 261.829712 511.983612
v -28.930017 262.047791 512.003601
v -29.001413 262.261017 512.003601
v -32.814041 262.377197 511.910431
v -28.976498 262.034882 511.983612
v -32.976822 262.047638 511.951843
v -32.692764 262.551147 511.862183
v -29.094706 262.465607 512.003601
v -33.145126 261.357697 512.003601
v -29.046289 262.243317 511.983612
v -32.870743 262.253143 511.910431
v -33.096424 261.595764 511.983612
v -29.016409 262.023804 511.951843
v -33.028702 261.822693 511.951843
v -29.208872 262.659332 512.003601
v -32.796162 262.368286 511.862183
v -29.137486 262.443329 511.983612
v -32.946301 262.038788 511.910431
v -29.084826 262.228119 511.951843
v -32.852303 262.245453 511.862183
v -33.096958 261.360291 511.983612
v -29.342663 262.840057 512.003601
v -29.047035 262.015320 511.910431
v -33.055073 261.593353 511.951843
v -29.249088 262.632690 511.983612
v -32.997379 261.817291 511.910431
v -32.927113 262.033203 511.862183
v -29.174223 262.424194 511.951843
v -33.055599 261.362518 511.951843
v -33.023342 261.591492 511.910431
v -29.494612 263.005798 512.003601
v -32.977688 261.813904 511.862183
v -29.114395 262.216492 511.910431
v -33.023861 261.364227 511.910431
v -29.379875 262.809357 511.983612
v -33.003395 261.590332 511.862183
v -29.066288 262.009949 511.862183
v -33.003910 261.365295 511.862183
v -29.283625 262.609833 511.951843
v -29.663054 263.154755 512.003601
v -29.202412 262.409515 511.910431
v -29.528414 262.971405 511.983612
v -29.132982 262.209137 511.862183
v -29.411833 262.783020 511.951843
v -29.846144 263.285309 512.003601
v -29.310125 262.592285 511.910431
v -29.693073 263.117004 511.983612
v -29.220133 262.400269 511.862183
v -29.557440 262.941833 511.951843
v -30.041876 263.395996 512.003601
v -29.436352 262.762787 511.910431
v -29.872051 263.244598 511.983612
v -30.173386 263.456085 512.003601
v -29.326784 262.581238 511.862183
v -29.718851 263.084595 511.951843
v -29.579712 262.919159 511.910431
v -30.063389 263.352814 511.983612
v -29.451767 262.750061 511.862183
v -30.400591 263.536163 512.003601
v -29.894300 263.209686 511.951843
v -30.191946 263.411560 511.983612
v -29.738632 263.059692 511.910431
v -29.593714 262.904907 511.862183
v -30.635334 263.590302 512.003601
v -30.081863 263.315735 511.951843
v -30.414049 263.489838 511.983612
v -29.911371 263.182861 511.910431
v -30.207886 263.373322 511.951843
v -29.751066 263.044067 511.862183
v -30.874662 263.617828 512.003601
v -30.643522 263.542786 511.983612
v -30.096039 263.287292 511.910431
v -30.425608 263.450073 511.951843
v -29.922104 263.166016 511.862183
v -31.115566 263.618378 512.003601
v -30.220116 263.343994 511.910431
v -30.877476 263.569672 511.983612
v -30.650553 263.501953 511.951843
v -30.104950 263.269409 511.862183
v -30.227804 263.325562 511.862183
v -32.319050 261.781311 514.187744
v -32.285988 261.584015 514.171448
v -32.252892 261.386505 514.162415
v -32.219746 261.188690 514.161499
v -32.166607 260.871582 514.177063
v -31.393190 262.769226 514.187683
v -31.547850 262.641693 514.171387
v -31.702509 262.514130 514.162354
v -31.857168 262.386597 514.161560
v -32.104626 262.182526 514.177063
v -30.074242 262.461761 514.187683
v -30.262032 262.531921 514.171387
v -30.449820 262.602081 514.162354
v -30.637608 262.672241 514.161560
v -30.938070 262.784515 514.177063
v -29.681061 261.165833 514.187683
v -29.714272 261.364014 514.171387
v -29.747484 261.562256 514.162354
v -29.780640 261.760101 514.161560
v -29.833591 262.076111 514.177124
v -30.606810 260.177277 514.187683
v -30.452150 260.304810 514.171387
v -30.297491 260.432373 514.162354
v -30.142832 260.559906 514.161560
v -29.895376 260.763977 514.177063
v -31.925758 260.484741 514.187683
v -31.737968 260.414581 514.171387
v -31.550180 260.344421 514.162354
v -31.362392 260.274261 514.161560
v -31.061930 260.161987 514.177063
v -30.945784 261.645325 512.122925
v -30.747137 261.730682 512.235413
v -31.003227 261.834076 512.235413
v -30.893482 262.187042 512.460449
v -31.333376 262.113312 512.460449
v -29.827765 262.041351 512.822693
v -29.857388 262.218109 512.860901
v -30.085569 262.465973 512.852112
v -29.886454 262.391602 512.910400
v -30.287197 262.541321 512.811279
v -31.402521 262.761536 512.852112
v -30.950863 262.789307 512.831909
v -31.238531 262.896790 512.910400
v -31.568577 262.624603 512.811279
v -32.323013 261.804962 512.860901
v -32.115158 262.173828 512.831909
v -32.352077 261.978424 512.910400
v -32.293388 261.628174 512.822693
v -30.471209 262.610077 512.792236
v -30.494272 261.988098 512.460449
v -29.797548 261.861023 512.798279
v -30.657370 262.679626 512.792480
v -31.720125 262.499603 512.792236
v -31.873444 262.373169 512.792480
v -32.263172 261.447876 512.798279
v -31.645933 261.795135 512.460449
v -30.679964 261.639923 512.235413
v -31.257427 261.726105 512.235413
v -31.322966 261.634186 512.235413
v -31.356892 261.526520 512.235413
v -30.261154 260.291412 498.010406
v -30.113214 260.397949 498.010406
v -29.980448 260.522919 498.010406
v -29.865126 260.664124 498.010406
v -32.332794 261.065460 498.010406
v -32.268162 260.894989 498.010406
v -29.769222 260.819183 498.010406
v -32.181835 260.734406 498.010406
v -29.694378 260.985413 498.010406
v -32.075287 260.586456 498.010406
v -29.641872 261.160004 498.010406
v -31.950338 260.453705 498.010406
v -29.612606 261.339966 498.010406
v -29.607077 261.522186 498.010406
v -31.809130 260.338379 498.010406
v -31.654076 260.242462 498.010406
v -31.487831 260.167633 498.010406
v -31.313240 260.115112 498.010406
v -31.133289 260.085846 498.010406
v -30.951057 260.080322 498.010406
v -30.769663 260.098633 498.010406
v -30.592211 260.140442 498.010406
v -30.421736 260.205078 498.010406
f 1 2 3
f 1 4 2
f 5 3 6
f 5 1 3
f 7 6 8
f 7 5 6
f 9 10 11
f 9 12 10
f 13 7 8
f 14 11 15
f 14 9 11
f 16 8 17
f 18 15 19
f 16 13 8
f 18 14 15
f 20 17 21
f 20 16 17
f 22 19 23
f 22 18 19
f 24 21 25
f 24 20 21
f 26 23 27
f 28 25 29
f 26 22 23
f 28 24 25
f 30 29 31
f 32 27 33
f 30 28 29
f 32 26 27
f 34 30 31
f 34 31 35
f 36 34 35
f 37 32 33
f 38 33 39
f 38 37 33
f 40 39 41
f 40 38 39
f 42 41 43
f 42 40 41
f 44 42 43
f 44 43 45
f 46 44 45
f 46 45 47
f 48 46 47
f 48 47 49
f 50 48 49
f 51 50 49
f 51 49 52
f 53 52 54
f 53 51 52
f 4 54 2
f 4 53 54
f 55 56 57
f 56 58 57
f 59 55 57
f 58 59 57
f 60 61 62
f 62 61 63
f 60 62 64
f 65 66 67
f 66 65 68
f 69 70 71
f 70 69 72
f 64 73 74
f 75 76 74
f 76 60 74
f 60 64 74
f 73 77 78
f 77 66 78
f 74 73 78
f 66 68 78
f 68 79 80
f 79 81 80
f 78 68 80
f 72 82 83
f 82 84 83
f 81 70 83
f 80 81 83
f 70 72 83
f 59 75 85
f 75 74 85
f 85 74 86
f 59 85 86
f 59 86 55
f 74 78 55
f 86 74 55
f 80 83 58
f 84 59 87
f 58 83 87
f 83 84 87
f 59 58 87
f 55 78 56
f 80 58 56
f 78 80 56
f 88 89 90
f 91 88 90
f 92 93 94
f 95 92 94
f 89 96 94
f 96 95 94
f 97 98 99
f 98 100 101
f 100 102 101
f 103 104 105
f 91 90 106
f 102 91 106
f 104 97 107
f 97 99 107
f 105 104 107
f 93 108 109
f 108 110 109
f 89 94 109
f 90 89 109
f 94 93 109
f 99 98 111
f 98 101 111
f 112 103 113
f 114 112 113
f 103 105 113
f 101 102 115
f 102 106 115
f 105 107 116
f 106 90 117
f 90 109 117
f 109 110 117
f 99 111 118
f 107 99 118
f 116 107 118
f 114 113 119
f 120 114 119
f 111 101 121
f 101 115 121
f 113 105 122
f 105 116 122
f 119 113 122
f 110 123 124
f 106 117 124
f 117 110 124
f 115 106 124
f 116 118 125
f 126 120 127
f 120 119 127
f 118 111 128
f 111 121 128
f 125 118 128
f 119 122 129
f 123 130 131
f 124 123 131
f 121 115 131
f 115 124 131
f 122 116 132
f 116 125 132
f 126 127 133
f 125 128 134
f 127 119 135
f 119 129 135
f 134 128 136
f 130 137 136
f 131 130 136
f 128 121 136
f 121 131 136
f 129 122 138
f 122 132 138
f 139 126 140
f 141 139 140
f 126 133 140
f 125 134 142
f 132 125 142
f 133 127 143
f 127 135 143
f 137 144 145
f 134 136 145
f 136 137 145
f 129 138 146
f 135 129 146
f 147 141 148
f 141 140 148
f 138 132 149
f 132 142 149
f 140 133 150
f 148 140 150
f 133 143 150
f 145 144 151
f 142 134 151
f 144 152 151
f 149 142 151
f 134 145 151
f 143 135 153
f 135 146 153
f 147 148 154
f 146 138 155
f 138 149 155
f 148 150 156
f 147 154 157
f 158 147 157
f 152 159 160
f 149 151 160
f 151 152 160
f 143 153 161
f 150 143 161
f 146 155 162
f 153 146 162
f 148 156 163
f 154 148 163
f 158 157 164
f 165 158 164
f 160 159 166
f 159 167 166
f 155 149 166
f 149 160 166
f 168 169 170
f 156 150 171
f 150 161 171
f 157 154 172
f 164 157 172
f 154 163 172
f 161 153 173
f 153 162 173
f 167 174 175
f 166 167 175
f 162 155 175
f 155 166 175
f 176 165 177
f 165 164 177
f 163 156 178
f 156 171 178
f 164 172 179
f 180 181 182
f 183 184 185
f 171 161 186
f 187 183 185
f 161 173 186
f 187 185 188
f 172 163 189
f 163 178 189
f 190 187 188
f 191 190 188
f 174 192 193
f 175 174 193
f 173 162 193
f 162 175 193
f 186 173 193
f 184 194 195
f 194 196 195
f 197 176 198
f 185 184 195
f 176 177 198
f 199 191 200
f 191 188 200
f 177 164 201
f 164 179 201
f 188 185 202
f 185 195 202
f 178 171 203
f 171 186 203
f 196 204 205
f 195 196 205
f 199 200 206
f 179 172 207
f 172 189 207
f 208 199 206
f 193 192 209
f 192 210 209
f 186 193 209
f 211 170 212
f 197 198 212
f 169 197 212
f 170 169 212
f 200 188 213
f 188 202 213
f 178 203 214
f 195 205 215
f 189 178 214
f 202 195 215
f 198 177 216
f 177 201 216
f 217 208 218
f 201 179 219
f 208 206 218
f 179 207 219
f 203 186 220
f 209 210 220
f 205 204 221
f 210 222 220
f 186 209 220
f 206 200 223
f 207 189 224
f 200 213 223
f 189 214 224
f 203 220 225
f 222 226 225
f 213 202 227
f 220 222 225
f 202 215 227
f 214 203 225
f 217 218 228
f 198 216 229
f 230 217 228
f 212 198 229
f 211 212 229
f 215 205 231
f 205 221 231
f 216 201 232
f 201 219 232
f 219 207 233
f 228 218 234
f 218 206 234
f 207 224 233
f 206 223 234
f 224 214 235
f 214 225 235
f 236 237 238
f 225 226 235
f 204 239 238
f 239 236 238
f 240 211 241
f 221 204 238
f 213 227 242
f 211 229 241
f 229 216 241
f 216 232 241
f 223 213 242
f 230 228 243
f 219 233 244
f 232 219 244
f 226 245 246
f 245 247 246
f 224 235 246
f 233 224 246
f 235 226 246
f 215 231 248
f 249 240 250
f 240 241 250
f 227 215 248
f 241 232 250
f 232 244 250
f 244 233 251
f 228 234 252
f 246 247 251
f 233 246 251
f 180 249 253
f 238 237 254
f 181 180 253
f 237 255 254
f 249 250 253
f 244 251 253
f 247 181 253
f 221 238 254
f 250 244 253
f 231 221 254
f 251 247 253
f 223 242 256
f 234 223 256
f 252 234 256
f 257 230 258
f 230 243 258
f 227 248 259
f 242 227 259
f 243 228 260
f 258 243 260
f 228 252 260
f 231 254 261
f 255 262 261
f 248 231 261
f 254 255 261
f 252 256 263
f 264 257 265
f 257 258 265
f 242 259 266
f 256 242 266
f 258 260 267
f 264 265 268
f 269 264 268
f 259 248 270
f 262 271 270
f 261 262 270
f 248 261 270
f 260 252 272
f 252 263 272
f 263 256 273
f 256 266 273
f 265 258 274
f 258 267 274
f 271 275 276
f 270 271 276
f 266 259 276
f 259 270 276
f 273 266 276
f 269 268 277
f 278 269 277
f 260 272 279
f 267 260 279
f 277 268 280
f 268 265 280
f 265 274 280
f 272 263 281
f 263 273 281
f 275 282 283
f 273 276 283
f 276 275 283
f 278 277 284
f 285 278 284
f 274 267 286
f 267 279 286
f 277 280 287
f 279 272 288
f 272 281 288
f 280 274 289
f 274 286 289
f 282 290 291
f 283 282 291
f 281 273 291
f 273 283 291
f 288 281 291
f 285 284 292
f 293 285 292
f 284 277 294
f 292 284 294
f 277 287 294
f 279 288 295
f 286 279 295
f 287 280 88
f 280 289 88
f 290 296 297
f 291 290 297
f 288 291 297
f 298 293 299
f 293 292 299
f 289 286 96
f 286 295 96
f 292 294 100
f 299 292 100
f 287 88 91
f 294 287 91
f 296 92 300
f 295 288 300
f 297 296 300
f 288 297 300
f 96 295 300
f 301 298 97
f 298 299 97
f 88 289 89
f 289 96 89
f 96 300 95
f 300 92 95
f 97 299 98
f 299 100 98
f 100 294 102
f 294 91 102
f 302 301 104
f 103 302 104
f 301 97 104
f 303 304 305
f 303 306 304
f 303 305 307
f 308 307 309
f 308 310 306
f 308 306 303
f 308 303 307
f 308 309 311
f 312 313 310
f 314 315 316
f 312 310 308
f 312 308 311
f 312 317 313
f 312 311 317
f 318 314 316
f 319 314 318
f 320 321 322
f 320 322 323
f 320 323 324
f 320 324 325
f 320 325 319
f 326 319 318
f 320 319 326
f 327 328 329
f 327 326 330
f 327 330 331
f 327 331 328
f 327 329 332
f 327 320 326
f 333 327 332
f 333 334 335
f 333 332 334
f 336 337 338
f 336 320 327
f 336 338 339
f 336 339 340
f 336 340 341
f 336 341 321
f 336 321 320
f 305 336 327
f 305 327 333
f 305 333 335
f 305 335 342
f 304 343 344
f 304 344 345
f 304 345 346
f 304 346 347
f 329 328 348
f 304 347 349
f 329 348 350
f 304 349 337
f 304 336 305
f 351 352 353
f 304 337 336
f 351 354 352
f 307 305 342
f 307 355 309
f 307 342 355
f 356 357 354
f 356 354 351
f 358 359 360
f 358 361 359
f 311 362 363
f 311 309 362
f 306 364 365
f 306 365 343
f 306 343 304
f 366 367 368
f 366 360 367
f 366 369 357
f 366 370 369
f 366 368 370
f 366 358 360
f 317 363 361
f 317 311 363
f 317 361 358
f 317 358 366
f 310 371 372
f 310 372 364
f 310 364 306
f 373 356 374
f 373 374 375
f 373 375 376
f 373 376 377
f 373 377 378
f 373 366 357
f 373 357 356
f 379 378 380
f 379 380 381
f 379 381 382
f 379 382 383
f 379 383 384
f 379 366 373
f 379 317 366
f 367 385 386
f 379 373 378
f 368 367 386
f 313 371 310
f 313 384 387
f 313 387 388
f 313 388 389
f 313 389 390
f 313 390 391
f 313 391 371
f 313 379 384
f 313 317 379
f 392 50 51
f 392 393 50
f 394 51 53
f 394 53 4
f 394 392 51
f 395 394 4
f 396 12 9
f 396 182 12
f 397 4 1
f 397 395 4
f 398 9 14
f 398 14 18
f 399 1 5
f 398 396 9
f 399 5 7
f 399 397 1
f 400 398 18
f 401 399 7
f 402 18 22
f 402 22 26
f 403 7 13
f 402 400 18
f 403 401 7
f 404 13 16
f 405 402 26
f 404 403 13
f 406 26 32
f 406 32 37
f 407 16 20
f 406 405 26
f 407 404 16
f 408 20 24
f 409 406 37
f 408 407 20
f 410 24 28
f 411 37 38
f 410 408 24
f 411 409 37
f 412 28 30
f 412 410 28
f 413 38 40
f 414 30 34
f 414 412 30
f 413 411 38
f 236 34 36
f 236 414 34
f 415 40 42
f 415 42 44
f 415 413 40
f 416 415 44
f 417 416 44
f 417 44 46
f 417 46 48
f 418 417 48
f 418 48 50
f 393 418 50
f 137 130 419
f 144 419 420
f 144 420 421
f 144 137 419
f 152 144 421
f 237 236 36
f 237 36 422
f 159 421 423
f 159 423 424
f 159 152 421
f 255 422 425
f 167 159 424
f 255 237 422
f 262 425 426
f 262 426 427
f 174 424 428
f 262 255 425
f 174 167 424
f 192 428 429
f 271 262 427
f 192 174 428
f 275 427 430
f 275 430 431
f 210 429 432
f 275 271 427
f 210 192 429
f 222 432 433
f 282 275 431
f 222 210 432
f 290 431 434
f 226 433 435
f 290 282 431
f 226 222 433
f 245 435 436
f 296 434 437
f 296 437 438
f 245 226 435
f 296 290 434
f 247 436 439
f 247 439 440
f 247 245 436
f 181 247 440
f 181 440 12
f 92 296 438
f 182 181 12
f 93 92 438
f 93 438 441
f 108 93 441
f 108 441 442
f 110 108 442
f 110 442 443
f 110 443 444
f 123 444 445
f 123 110 444
f 130 445 419
f 130 123 445
f 332 446 447
f 448 449 450
f 332 447 334
f 451 452 385
f 452 453 385
f 448 450 454
f 453 455 385
f 334 447 456
f 457 458 309
f 459 457 309
f 355 459 309
f 460 461 462
f 454 450 463
f 462 461 464
f 460 462 465
f 334 456 466
f 467 451 367
f 468 467 367
f 461 469 470
f 451 385 367
f 471 463 472
f 464 461 470
f 473 474 362
f 463 450 472
f 458 473 362
f 466 475 335
f 334 466 335
f 309 458 362
f 476 460 477
f 468 367 360
f 460 465 477
f 478 468 360
f 470 469 479
f 469 480 479
f 362 474 363
f 471 472 481
f 474 482 363
f 483 476 484
f 335 475 485
f 476 477 484
f 486 478 359
f 487 486 359
f 478 360 359
f 479 480 488
f 363 482 361
f 483 484 489
f 487 359 361
f 490 487 361
f 482 490 361
f 488 480 491
f 492 481 493
f 480 494 491
f 481 472 493
f 483 489 495
f 485 496 342
f 335 485 342
f 350 483 495
f 491 494 497
f 350 495 498
f 497 494 499
f 494 500 499
f 329 350 501
f 350 498 501
f 502 492 455
f 453 502 455
f 492 493 455
f 503 459 355
f 496 503 355
f 342 496 355
f 499 500 504
f 329 501 505
f 504 500 506
f 500 449 506
f 332 329 446
f 329 505 446
f 506 449 448
f 507 508 509
f 507 510 508
f 507 511 510
f 354 357 512
f 513 354 512
f 352 354 513
f 353 352 513
f 514 515 516
f 514 516 517
f 514 517 518
f 514 518 519
f 514 519 520
f 514 520 521
f 522 523 524
f 522 524 525
f 522 525 526
f 522 526 527
f 522 527 515
f 522 515 514
f 528 529 530
f 528 530 531
f 348 328 483
f 528 531 532
f 528 532 533
f 528 533 523
f 528 326 529
f 528 523 522
f 534 514 521
f 534 521 535
f 534 535 536
f 350 348 483
f 537 469 461
f 537 522 514
f 538 330 326
f 538 331 330
f 538 328 331
f 538 528 522
f 538 483 328
f 538 326 528
f 538 476 483
f 538 522 537
f 508 534 536
f 508 536 539
f 508 539 540
f 541 469 537
f 541 480 469
f 541 494 480
f 542 476 538
f 542 538 537
f 542 537 461
f 542 460 476
f 316 315 543
f 542 461 460
f 511 500 494
f 511 449 500
f 318 543 529
f 509 540 544
f 509 544 545
f 509 545 546
f 509 546 547
f 509 547 548
f 318 316 543
f 509 548 549
f 509 508 540
f 550 449 511
f 326 318 529
f 550 450 449
f 551 549 552
f 551 552 553
f 551 550 509
f 551 553 554
f 551 554 555
f 551 555 556
f 551 509 549
f 557 450 550
f 557 472 450
f 557 493 472
f 558 550 551
f 386 385 455
f 558 357 369
f 558 369 370
f 558 370 368
f 558 455 493
f 558 493 557
f 558 368 455
f 558 557 550
f 559 558 551
f 559 556 560
f 368 386 455
f 559 560 561
f 559 561 562
f 559 562 563
f 559 563 512
f 559 551 556
f 559 357 558
f 559 512 357
f 564 541 537
f 564 537 514
f 564 514 534
f 510 534 508
f 510 541 564
f 510 511 494
f 510 494 541
f 510 564 534
f 507 550 511
f 507 509 550
f 565 566 548
f 548 566 549
f 567 556 555
f 567 555 554
f 568 567 554
f 549 566 552
f 566 569 552
f 568 554 553
f 552 569 553
f 569 568 553
f 339 338 230
f 340 339 257
f 339 230 257
f 337 349 217
f 338 337 217
f 230 338 217
f 341 340 264
f 321 341 264
f 340 257 264
f 349 347 208
f 217 349 208
f 322 321 269
f 321 264 269
f 208 347 199
f 347 346 199
f 323 322 278
f 322 269 278
f 199 346 191
f 345 344 191
f 346 345 191
f 324 323 285
f 325 324 285
f 323 278 285
f 191 344 190
f 344 343 190
f 319 325 293
f 325 285 293
f 190 343 187
f 343 365 187
f 314 319 298
f 319 293 298
f 364 372 183
f 365 364 183
f 187 365 183
f 315 314 301
f 543 315 301
f 314 298 301
f 372 371 570
f 183 372 570
f 529 543 302
f 543 301 302
f 371 391 571
f 570 371 571
f 529 302 103
f 530 529 103
f 390 389 572
f 391 390 572
f 571 391 572
f 530 103 112
f 531 530 112
f 532 531 112
f 389 388 573
f 572 389 573
f 532 112 114
f 533 532 114
f 388 387 574
f 573 388 574
f 523 533 120
f 533 114 120
f 387 384 575
f 574 387 575
f 524 523 126
f 523 120 126
f 575 384 383
f 524 126 525
f 575 383 576
f 525 126 139
f 576 383 382
f 525 139 526
f 576 382 577
f 526 139 141
f 577 382 381
f 526 141 527
f 577 381 578
f 527 141 147
f 578 381 380
f 527 147 515
f 579 578 378
f 578 380 378
f 515 147 516
f 147 158 516
f 579 378 377
f 580 579 377
f 516 158 517
f 158 165 517
f 580 377 376
f 581 580 376
f 517 165 518
f 165 176 518
f 581 376 375
f 518 176 519
f 581 375 374
f 582 581 374
f 519 176 520
f 176 197 520
f 582 374 356
f 583 582 356
f 197 169 521
f 520 197 521
f 583 356 351
f 584 583 351
f 521 169 535
f 169 168 535
f 584 351 353
f 535 168 536
f 584 353 513
f 585 584 513
f 536 168 539
f 168 586 539
f 585 513 512
f 587 585 512
f 539 586 540
f 586 588 540
f 587 512 563
f 589 587 563
f 540 588 544
f 588 590 544
f 589 563 562
f 544 590 545
f 591 589 561
f 589 562 561
f 590 592 546
f 545 590 546
f 593 591 560
f 591 561 560
f 592 565 547
f 546 592 547
f 593 560 556
f 567 593 556
f 547 565 548
f 594 595 596
f 595 597 598
f 586 168 170
f 582 583 599
f 583 600 599
f 598 597 601
f 597 602 601
f 594 596 603
f 600 594 603
f 415 416 604
f 602 605 604
f 606 415 604
f 605 606 604
f 601 602 604
f 596 595 607
f 595 598 607
f 582 599 608
f 581 582 608
f 580 581 608
f 598 601 609
f 607 598 609
f 599 600 610
f 600 603 610
f 416 417 611
f 604 416 611
f 601 604 611
f 609 601 611
f 603 596 612
f 596 607 612
f 610 603 612
f 580 608 613
f 607 609 614
f 608 599 615
f 599 610 615
f 613 608 615
f 417 418 616
f 418 393 616
f 611 417 616
f 609 611 616
f 610 612 617
f 579 580 618
f 578 579 618
f 580 613 618
f 612 607 619
f 607 614 619
f 617 612 619
f 613 615 620
f 614 609 621
f 609 616 621
f 616 393 621
f 615 610 622
f 610 617 622
f 620 615 622
f 578 618 623
f 617 619 624
f 623 618 625
f 618 613 625
f 613 620 625
f 393 392 626
f 619 614 626
f 614 621 626
f 621 393 626
f 620 622 627
f 577 578 628
f 578 623 628
f 617 624 629
f 627 622 629
f 622 617 629
f 628 623 630
f 623 625 630
f 619 626 631
f 624 619 631
f 392 394 631
f 626 392 631
f 630 625 632
f 620 627 632
f 625 620 632
f 576 577 633
f 577 628 633
f 627 629 634
f 628 630 635
f 624 631 636
f 629 624 636
f 394 395 636
f 631 394 636
f 634 629 636
f 630 632 637
f 575 576 638
f 576 633 638
f 637 632 639
f 632 627 639
f 627 634 639
f 633 628 640
f 628 635 640
f 574 575 641
f 575 638 641
f 395 397 642
f 636 395 642
f 634 636 642
f 635 630 643
f 630 637 643
f 637 639 644
f 643 637 644
f 633 640 645
f 638 633 645
f 574 641 646
f 573 574 646
f 642 397 647
f 397 399 647
f 634 642 647
f 644 639 647
f 639 634 647
f 640 635 648
f 635 643 648
f 638 645 649
f 641 638 649
f 643 644 650
f 648 643 650
f 399 401 651
f 647 399 651
f 644 647 651
f 183 570 184
f 650 644 651
f 573 646 652
f 572 573 652
f 645 640 653
f 640 648 653
f 652 646 654
f 641 649 654
f 646 641 654
f 648 650 655
f 653 648 655
f 645 653 656
f 649 645 656
f 401 403 657
f 651 401 657
f 650 651 657
f 572 652 658
f 571 572 658
f 239 414 236
f 652 654 659
f 586 170 660
f 586 660 661
f 656 653 662
f 588 586 661
f 653 655 662
f 660 170 663
f 170 211 663
f 211 240 663
f 654 649 664
f 649 656 664
f 650 657 665
f 661 660 663
f 403 404 665
f 657 403 665
f 590 588 666
f 655 650 665
f 592 590 666
f 570 571 667
f 588 661 666
f 184 570 667
f 571 658 667
f 661 663 668
f 656 662 669
f 652 659 670
f 667 658 670
f 658 652 670
f 668 663 671
f 663 240 671
f 670 659 672
f 659 654 672
f 565 592 673
f 592 666 673
f 654 664 672
f 655 665 674
f 662 655 674
f 666 661 675
f 665 404 674
f 404 407 674
f 669 662 674
f 673 666 675
f 664 656 676
f 661 668 675
f 656 669 676
f 672 664 676
f 668 671 677
f 407 408 678
f 669 674 678
f 674 407 678
f 667 670 679
f 566 565 680
f 184 667 679
f 194 184 679
f 565 673 680
f 671 240 681
f 240 249 681
f 670 672 682
f 677 671 681
f 673 675 683
f 672 676 684
f 682 672 684
f 680 673 683
f 676 669 685
f 669 678 685
f 675 668 686
f 678 408 685
f 679 670 687
f 668 677 686
f 670 682 687
f 683 675 686
f 194 679 687
f 196 194 687
f 687 682 688
f 682 684 688
f 566 680 689
f 408 410 690
f 677 681 691
f 684 676 690
f 686 677 691
f 676 685 690
f 685 408 690
f 196 687 692
f 687 688 692
f 689 680 693
f 204 196 692
f 680 683 693
f 688 684 694
f 182 396 695
f 410 412 694
f 412 414 694
f 684 690 694
f 249 180 695
f 690 410 694
f 180 182 695
f 681 249 695
f 694 414 696
f 414 239 696
f 688 694 696
f 692 688 696
f 204 692 696
f 693 683 697
f 239 204 696
f 683 686 697
f 569 566 698
f 568 569 698
f 566 689 698
f 697 686 699
f 686 691 699
f 689 693 700
f 396 398 701
f 691 681 701
f 695 396 701
f 681 695 701
f 693 697 702
f 700 693 702
f 568 698 703
f 697 699 704
f 702 697 704
f 689 700 705
f 698 689 705
f 398 400 706
f 691 701 706
f 699 691 706
f 701 398 706
f 704 699 706
f 700 702 707
f 568 703 708
f 567 568 708
f 707 702 709
f 702 704 709
f 698 705 710
f 703 698 710
f 567 708 711
f 593 567 711
f 400 402 712
f 706 400 712
f 709 704 712
f 704 706 712
f 700 707 713
f 705 700 713
f 710 705 713
f 707 709 714
f 713 707 714
f 711 708 715
f 703 710 715
f 708 703 715
f 402 405 716
f 712 402 716
f 709 712 716
f 714 709 716
f 593 711 717
f 591 593 717
f 710 713 718
f 711 715 719
f 717 711 719
f 713 714 720
f 718 713 720
f 405 406 721
f 716 405 721
f 714 716 721
f 589 591 722
f 591 717 722
f 710 718 723
f 719 715 723
f 715 710 723
f 717 719 724
f 722 717 724
f 718 720 725
f 723 718 725
f 719 723 726
f 406 409 727
f 720 714 727
f 714 721 727
f 721 406 727
f 587 589 728
f 589 722 728
f 722 724 729
f 728 722 729
f 726 723 730
f 723 725 730
f 724 719 731
f 719 726 731
f 409 411 732
f 727 409 732
f 725 720 732
f 720 727 732
f 585 587 733
f 587 728 733
f 726 730 734
f 731 726 734
f 733 728 735
f 728 729 735
f 735 729 736
f 729 724 736
f 724 731 736
f 411 413 737
f 732 411 737
f 730 725 737
f 725 732 737
f 734 730 737
f 584 585 594
f 585 733 594
f 736 731 605
f 731 734 605
f 734 737 738
f 413 415 738
f 737 413 738
f 733 735 595
f 594 733 595
f 735 736 597
f 595 735 597
f 583 584 600
f 584 594 600
f 597 736 602
f 736 605 602
f 738 415 606
f 605 734 606
f 734 738 606
f 739 482 474
f 740 739 473
f 739 474 473
f 741 740 458
f 740 473 458
f 742 741 457
f 741 458 457
f 742 457 459
f 742 459 743
f 743 459 503
f 743 503 496
f 743 496 485
f 744 452 451
f 745 744 467
f 744 451 467
f 746 745 468
f 745 467 468
f 747 746 478
f 746 468 478
f 747 478 486
f 747 486 748
f 748 486 487
f 748 487 490
f 748 490 482
f 749 448 454
f 750 749 463
f 749 454 463
f 751 750 471
f 750 463 471
f 752 751 481
f 751 471 481
f 752 481 492
f 752 492 753
f 753 492 502
f 753 502 453
f 753 453 452
f 754 470 479
f 755 754 488
f 754 479 488
f 756 755 491
f 755 488 491
f 757 756 497
f 756 491 497
f 757 497 499
f 757 499 758
f 758 499 504
f 758 504 506
f 758 506 448
f 759 498 495
f 760 759 489
f 759 495 489
f 761 760 484
f 760 489 484
f 762 761 477
f 761 484 477
f 762 477 465
f 762 465 763
f 763 465 462
f 763 462 464
f 763 464 470
f 764 485 475
f 765 764 466
f 764 475 466
f 766 765 456
f 765 466 456
f 767 766 447
f 766 456 447
f 767 447 446
f 767 446 768
f 768 446 505
f 768 505 501
f 768 501 498
f 769 770 771
f 772 773 771
f 774 775 776
f 776 775 777
f 774 776 778
f 779 780 781
f 780 779 782
f 783 784 785
f 784 783 786
f 778 787 788
f 84 789 788
f 789 774 788
f 774 778 788
f 787 790 772
f 790 780 772
f 788 787 772
f 780 782 772
f 782 791 773
f 791 792 773
f 772 782 773
f 786 793 794
f 793 75 794
f 792 784 794
f 773 792 794
f 784 786 794
f 59 84 795
f 84 788 795
f 788 772 770
f 59 795 770
f 795 788 770
f 773 794 796
f 796 794 797
f 59 796 797
f 75 59 798
f 797 794 798
f 794 75 798
f 59 797 798
f 796 59 769
f 59 770 769
f 770 772 771
f 773 796 771
f 796 769 771
f 748 482 785
f 747 748 784
f 748 785 784
f 747 784 792
f 746 747 791
f 747 792 791
f 745 746 782
f 746 791 782
f 745 782 779
f 744 745 781
f 452 744 781
f 745 779 781
f 485 63 743
f 61 60 743
f 63 61 743
f 76 75 742
f 60 76 742
f 743 60 742
f 793 786 741
f 75 793 741
f 742 75 741
f 783 785 740
f 786 783 740
f 741 786 740
f 740 785 739
f 739 785 482
f 768 498 67
f 767 768 66
f 768 67 66
f 767 66 77
f 766 767 73
f 767 77 73
f 765 766 64
f 766 73 64
f 765 64 62
f 764 765 63
f 485 764 63
f 765 62 63
f 763 470 71
f 762 763 70
f 763 71 70
f 762 70 81
f 761 762 79
f 762 81 79
f 760 761 68
f 761 79 68
f 760 68 65
f 759 760 67
f 498 759 67
f 760 65 67
f 758 448 777
f 758 777 775
f 757 758 774
f 758 775 774
f 757 774 789
f 756 757 84
f 757 789 84
f 756 84 82
f 755 756 72
f 756 82 72
f 755 72 69
f 754 755 71
f 470 754 71
f 755 69 71
f 753 452 781
f 752 753 780
f 753 781 780
f 752 780 790
f 751 752 787
f 752 790 787
f 750 751 778
f 751 787 778
f 750 778 776
f 749 750 777
f 448 749 777
f 750 776 777
f 423 799 800
f 423 421 799
f 424 800 801
f 424 423 800
f 428 801 802
f 428 424 801
f 422 36 35
f 422 35 803
f 429 428 802
f 425 803 804
f 425 422 803
f 432 802 805
f 426 804 806
f 432 429 802
f 426 425 804
f 433 805 807
f 433 432 805
f 427 806 808
f 427 426 806
f 435 807 809
f 435 433 807
f 430 808 810
f 436 809 811
f 430 427 808
f 436 435 809
f 439 811 812
f 431 810 813
f 439 436 811
f 431 430 810
f 440 439 812
f 440 812 10
f 12 440 10
f 434 431 813
f 437 813 814
f 437 434 813
f 438 814 815
f 438 437 814
f 441 815 816
f 441 438 815
f 442 441 816
f 442 816 817
f 443 442 817
f 443 817 818
f 444 443 818
f 444 818 819
f 445 444 819
f 419 445 819
f 419 819 820
f 420 820 821
f 420 419 820
f 421 821 799
f 421 420 821
f 816 815 3
f 816 3 2
f 807 805 809
f 816 2 54
f 817 816 54
f 808 806 804
f 804 803 35
f 811 809 812
f 54 52 49
f 818 817 49
f 819 818 49
f 821 819 49
f 817 54 49
f 812 809 10
f 809 805 10
f 35 31 29
f 49 47 45
f 821 49 45
f 808 804 29
f 804 35 29
f 11 10 15
f 10 805 15
f 820 819 821
f 821 45 43
f 810 808 25
f 799 821 43
f 808 29 25
f 799 43 41
f 802 801 41
f 801 799 41
f 802 41 39
f 19 15 27
f 23 19 27
f 15 805 27
f 25 21 17
f 813 810 17
f 805 802 27
f 802 39 27
f 27 39 33
f 810 25 17
f 800 799 801
f 814 813 8
f 813 17 8
f 814 8 6
f 814 6 3
f 815 814 3
