# Created by FreeCAD <http://www.freecadweb.org>
v 27.650000 531.988281 11.000034
v 28.000000 532.070007 11.607976
v 28.000000 531.887695 11.610749
v 27.650000 532.212280 11.011297
v 27.650000 531.764404 11.013923
v 28.000000 531.707336 11.637294
v 27.650000 531.543518 11.052787
v 28.000000 531.531982 11.687154
v 27.650000 533.891602 13.649479
v 28.000000 533.259277 13.597366
v 28.000000 533.326477 13.427887
v 27.650000 533.807007 13.857188
v 27.650000 531.328369 11.116138
v 27.650000 533.952454 13.433602
v 28.000000 533.370972 13.251086
v 27.650000 531.121704 11.203181
v 28.000000 531.364624 11.759478
v 27.650000 533.988708 13.212273
v 28.000000 533.392029 13.069990
v 27.650000 530.926025 11.312819
v 28.000000 531.208130 11.853026
v 27.650000 533.999939 12.988274
v 28.000000 533.389221 12.887695
v 27.650000 530.743896 11.443675
v 28.000000 531.065186 11.966200
v 27.650000 533.986084 12.764422
v 28.000000 533.362732 12.707323
v 27.650000 530.577515 11.594102
v 28.000000 530.938232 12.097063
v 27.650000 530.429077 11.762210
v 28.000000 530.829468 12.243375
v 27.650000 533.947205 12.543533
v 28.000000 533.312866 12.531958
v 27.650000 530.300354 11.945883
v 28.000000 530.740723 12.402634
v 27.650000 530.192993 12.142812
v 27.650000 533.883850 12.328385
v 27.650000 533.796814 12.121683
v 28.000000 533.240540 12.364601
v 27.650000 533.687195 11.926025
v 28.000000 533.146973 12.208117
v 27.650000 533.556335 11.743874
v 28.000000 533.033813 12.065181
v 27.650000 533.405884 11.577519
v 28.000000 532.902954 11.938240
v 27.650000 533.237793 11.429053
v 28.000000 532.756653 11.829467
v 27.650000 533.054138 11.300343
v 28.000000 532.597351 11.740722
v 27.650000 532.857178 11.193006
v 27.650000 532.649475 11.108393
v 28.000000 532.427917 11.673523
v 27.650000 532.433594 11.047568
v 28.000000 532.251099 11.629021
v 11.775000 531.898254 13.346201
v 11.775000 532.172852 13.316750
v 11.887500 532.005127 13.180349
v 12.000000 532.000000 13.000000
v 11.775000 531.683228 13.172853
v 11.187605 530.714294 12.793802
v 11.149570 530.637207 12.956369
v 11.163756 530.695618 13.310786
v 11.100000 530.561340 13.116301
v 11.205489 530.831787 13.508054
v 11.163756 531.616943 14.285043
v 11.173704 531.220581 14.071160
v 11.100000 531.381348 14.304086
v 11.205489 531.855896 14.265728
v 11.149570 532.895935 14.027854
v 11.173704 532.537964 14.210592
v 11.100000 532.820068 14.187785
v 11.187605 532.973022 13.865287
v 11.219975 530.943787 13.670280
v 11.550000 531.290649 13.133023
v 11.220577 530.870605 12.464257
v 11.211981 530.792236 12.629473
v 11.214800 531.056702 13.833804
v 11.550000 531.504333 13.524548
v 11.219975 532.052368 14.249844
v 11.550000 531.907349 13.715713
v 11.214800 532.250427 14.233832
v 11.211981 533.051025 13.700957
v 11.550000 532.345703 13.633499
v 11.220577 533.129395 13.535743
v 11.775000 531.642151 12.953660
v 11.775000 531.645325 13.066512
v 11.775000 532.262268 13.247832
v 12.148236 530.307068 14.077634
v 12.200000 530.312805 14.073975
v 12.148236 530.438354 14.260406
v 12.100000 530.290222 14.088363
v 12.200000 530.443665 14.256126
v 12.100000 530.422852 14.272955
v 12.006815 531.079285 14.940926
v 12.026795 530.893188 14.784641
v 12.026795 531.099976 14.897345
v 12.058578 530.914978 14.749440
v 12.058578 530.725952 14.616960
v 12.000000 531.490967 15.140300
v 12.006815 531.287231 15.026534
v 12.006815 531.502930 15.089940
v 12.058578 530.552917 14.464145
v 12.100000 530.575256 14.441539
v 12.100000 530.745605 14.591994
v 12.026795 531.303223 14.981030
v 12.200000 530.594116 14.422481
v 12.148236 530.589294 14.427328
v 12.058578 531.117676 14.859921
v 12.000000 531.717468 15.181784
v 12.006815 531.724121 15.130448
v 12.000000 531.947083 15.199364
v 12.100000 530.931763 14.722429
v 12.026795 531.514099 15.043013
v 12.200000 530.762207 14.570947
v 12.148236 530.757996 14.576300
v 12.200000 530.945862 14.699657
v 12.058578 531.316956 14.941957
v 12.006815 531.948303 15.147614
v 12.000000 532.177246 15.192846
v 12.100000 531.131348 14.831203
v 12.026795 531.730286 15.082611
v 12.200000 531.142822 14.806994
v 12.148236 530.942261 14.705449
v 12.058578 531.523682 15.002716
v 12.000000 532.405518 15.162305
v 12.006815 532.173096 15.141252
v 12.100000 531.327515 14.911973
v 12.026795 531.949463 15.099392
v 12.148236 531.139893 14.813151
v 12.058578 531.735657 15.041533
v 12.006815 532.395996 15.111428
v 12.100000 531.531067 14.971794
v 12.026795 532.169189 15.093172
v 12.148236 531.334106 14.893125
v 12.200000 531.350525 14.891607
v 12.058578 531.950500 15.057983
v 12.000000 532.629333 15.108072
v 12.006815 532.614502 15.058472
v 12.000000 532.846191 15.030743
v 12.100000 531.739746 15.010013
v 12.026795 532.387085 15.064018
v 12.200000 531.566406 14.952432
v 12.148236 531.535645 14.952356
v 12.058578 532.165894 15.051886
v 12.000000 533.053833 14.931165
v 12.006815 532.826294 14.982962
v 12.100000 531.951233 15.026209
v 12.026795 532.600708 15.012251
v 12.148236 531.742310 14.990198
v 12.200000 531.787720 14.988703
v 12.058578 532.379456 15.023307
v 12.006815 533.029053 14.885726
v 12.100000 532.163330 15.020205
v 12.026795 532.807739 14.938437
v 12.006815 533.153564 14.812231
v 12.000000 533.249939 14.810428
v 12.148236 531.951721 15.006234
v 12.200000 532.011719 14.999966
v 12.058578 532.588867 14.972560
v 12.100000 532.373596 14.992067
v 12.026795 533.005920 14.843385
v 12.006815 533.349243 14.671677
v 12.000000 533.432312 14.669856
v 12.200000 532.235596 14.986077
v 12.148236 532.161682 15.000290
v 12.058578 532.791809 14.900202
v 12.026795 533.127686 14.771540
v 12.000000 533.987671 13.942906
v 12.000000 533.878235 14.145512
v 12.006815 533.940918 13.920721
v 12.100000 532.579773 14.942104
v 12.200000 532.456482 14.947213
v 12.148236 532.369873 14.972429
v 12.000000 533.599060 14.510988
v 12.006815 533.527893 14.510100
v 12.058578 532.986084 14.807025
v 12.026795 533.318909 14.634141
v 12.100000 532.779602 14.870864
v 12.058578 533.105408 14.736597
v 12.000000 530.012329 12.057094
v 12.006815 530.059082 12.079279
v 12.006815 529.973450 12.287205
v 12.200000 532.671631 14.883862
v 12.148236 532.574036 14.922959
v 12.000000 529.924622 12.270029
v 12.006815 529.910034 12.502940
v 12.000000 533.748230 14.335567
v 12.006815 533.687378 14.329533
v 12.000000 529.859680 12.490963
v 12.000000 529.818237 12.717474
v 12.026795 533.493591 14.476192
v 12.026795 530.102661 12.099953
v 12.026795 530.018982 12.303210
v 12.058578 530.140076 12.117705
v 12.000000 529.800659 12.947080
v 12.006815 529.869568 12.724121
v 12.100000 532.970886 14.779125
v 12.058578 533.292908 14.601909
v 12.026795 529.956970 12.514101
v 12.148236 532.771912 14.852421
v 12.200000 532.878296 14.796819
v 12.058578 530.058044 12.316954
v 12.026795 533.897339 13.900047
v 12.006815 533.825623 14.132246
v 12.006815 529.852356 12.948325
v 12.000000 529.807129 13.177266
v 12.100000 533.088379 14.709785
v 12.026795 533.649475 14.299680
v 12.026795 529.917358 12.730316
v 12.058578 529.997314 12.523685
v 12.058578 533.464172 14.447076
v 12.148236 532.961304 14.761586
v 12.000000 529.837708 13.405510
v 12.006815 529.858765 13.173095
v 12.200000 533.073975 14.687181
v 12.100000 533.272949 14.577176
v 12.100000 530.088013 12.327499
v 12.100000 530.168823 12.131328
v 12.148236 533.077637 14.692929
v 12.200000 533.256104 14.556325
v 12.026795 529.900635 12.949486
v 12.058578 533.859924 13.882295
v 12.026795 533.784668 14.106823
v 12.058578 529.958496 12.735635
v 12.058578 533.616943 14.274044
v 12.000000 529.891907 13.629311
v 12.006815 529.888550 13.395968
v 12.100000 533.441528 14.424733
v 12.148236 533.260376 14.561628
v 12.100000 530.028198 12.531039
v 12.026795 529.906799 13.169209
v 12.058578 533.749451 14.084991
v 12.100000 533.591980 14.254374
v 12.200000 530.192993 12.142812
v 12.200000 530.108398 12.350521
v 12.148236 530.106873 12.334129
v 12.148236 530.186829 12.139892
v 12.200000 533.422485 14.405898
v 12.148236 533.427307 14.410688
v 12.200000 533.570923 14.237790
v 12.058578 529.942017 12.950481
v 12.100000 533.831177 13.868672
v 12.100000 533.722412 14.068239
v 12.148236 533.576294 14.242008
v 12.006815 529.941528 13.614504
v 12.148236 533.813171 13.860108
v 12.148236 533.705444 14.057709
v 12.200000 533.807007 13.857188
v 12.200000 533.699646 14.054117
v 12.100000 529.989990 12.739717
v 12.026795 529.935974 13.387077
v 12.148236 530.047668 12.535663
v 12.200000 530.047546 12.566398
v 12.058578 529.948120 13.165871
v 12.006815 530.017029 13.826306
v 12.000000 529.969238 13.846217
v 12.100000 529.973816 12.951246
v 12.026795 529.987732 13.600706
v 12.200000 530.011292 12.787727
v 12.148236 530.009827 12.742283
v 12.058578 529.976685 13.379442
v 12.000000 530.068848 14.053852
v 12.006815 530.114258 14.029056
v 12.100000 529.979797 13.163310
v 12.026795 530.061584 13.807753
v 12.006815 530.187744 14.153576
v 12.000000 530.189575 14.249940
v 12.148236 529.993774 12.951727
v 12.200000 530.000061 13.011726
v 12.058578 530.027466 13.588857
v 12.100000 530.007935 13.373584
v 12.026795 530.156616 14.005949
v 12.200000 530.013916 13.235578
v 12.148236 529.999695 13.161700
v 12.006815 530.328308 14.349228
v 12.000000 530.330139 14.432334
v 12.058578 530.099792 13.791820
v 12.026795 530.228455 14.127673
v 12.100000 530.057922 13.579765
v 12.200000 530.052795 13.456467
v 12.148236 530.027588 13.369902
v 12.006815 530.489929 14.527912
v 12.000000 530.489014 14.599035
v 12.058578 530.192993 13.986108
v 12.026795 530.365845 14.318933
v 12.100000 530.129150 13.779594
v 12.058578 530.263428 14.105431
v 12.200000 530.116150 13.671615
v 12.148236 530.077026 13.574050
v 12.006815 530.670471 14.687383
v 12.000000 530.664429 14.748217
v 12.026795 530.523804 14.493605
v 12.100000 530.220886 13.970882
v 12.058578 530.398071 14.292917
v 12.200000 530.203186 13.878317
v 12.148236 530.147583 13.771910
v 12.000000 530.854492 14.878244
v 12.006815 530.867737 14.825633
v 12.026795 530.700317 14.649494
v 12.148236 530.238403 13.961311
v 12.000000 531.057068 14.987694
v 12.000000 531.270020 15.075366
v 11.514369 529.438293 15.530923
v 12.000000 528.933594 15.244333
v 12.000000 529.129395 15.489891
v 12.000000 530.093384 16.287069
v 12.000000 530.371338 16.433290
v 11.661279 530.427429 16.315117
v 12.000000 529.344788 15.718440
v 12.000000 529.578369 15.928420
v 12.000000 529.828430 16.118397
v 11.335786 530.496399 16.169729
v 11.026194 530.577698 15.998321
v 10.560568 529.739502 14.895864
v 10.735044 530.670654 15.802299
v 10.464727 530.774597 15.583271
v 10.217463 530.888550 15.343037
v 9.800000 530.762207 14.570947
v 9.800000 530.443665 14.256126
v 9.868483 530.151672 14.026997
v 9.800000 530.203186 13.878317
v 9.800000 530.052795 13.456467
v 11.228342 528.800720 14.282512
v 12.000000 528.234985 13.514375
v 12.000000 528.290283 13.823531
v 12.000000 528.370972 14.127062
v 12.000000 528.476440 14.422894
v 12.000000 528.606018 14.709006
v 12.000000 528.758728 14.983444
v 10.474010 529.174622 13.494260
v 9.800000 530.000061 13.011726
v 11.343061 528.490051 12.872023
v 12.000000 528.345459 11.958657
v 12.000000 528.271973 12.264003
v 12.000000 528.223938 12.574375
v 12.000000 528.201660 12.887656
v 12.000000 528.205383 13.201704
v 10.071543 529.637878 12.517731
v 9.800000 530.047546 12.566398
v 9.800000 530.192993 12.142812
v 12.000000 533.339600 9.443943
v 11.661279 533.572571 9.684883
v 12.000000 533.628662 9.566710
v 11.335786 533.503601 9.830271
v 9.995278 531.011597 15.083568
v 9.800000 531.142822 14.806994
v 9.868483 531.626099 10.918857
v 9.800000 531.543518 11.052787
v 9.800000 531.988281 11.000034
v 9.800000 531.121704 11.203181
v 12.000000 533.041321 9.345468
v 11.026194 533.422302 10.001679
v 10.071543 530.132202 11.475698
v 9.800000 530.429077 11.762210
v 9.800000 530.743896 11.443675
v 10.946512 528.874878 12.060749
v 12.000000 528.566711 11.371344
v 12.000000 528.443970 11.660424
v 10.560568 532.038269 10.049990
v 9.800000 532.433594 11.047568
v 10.217463 533.111450 10.656963
v 10.735044 533.329346 10.197701
v 10.464727 533.225403 10.416729
v 10.474010 530.595398 10.499168
v 10.946512 529.295593 11.173883
v 12.000000 528.881592 10.828455
v 12.000000 528.712952 11.093387
v 11.514369 532.339539 9.414929
v 12.000000 532.736023 9.271956
v 12.000000 532.425598 9.223911
v 12.000000 532.112366 9.201661
v 12.000000 531.798279 9.205357
v 11.228342 530.969360 9.710917
v 12.000000 531.485596 9.234974
v 12.000000 531.176453 9.290311
v 12.000000 530.872925 9.370988
v 12.000000 530.577087 9.476455
v 12.000000 530.291016 9.605990
v 12.000000 530.016541 9.758712
v 11.343061 529.680420 10.362610
v 12.000000 529.755676 9.933574
v 12.000000 529.510132 10.129383
v 12.000000 529.281555 10.344801
v 12.000000 529.071594 10.578357
v 9.800000 532.857178 11.193006
v 9.995278 532.988403 10.916432
v 10.617274 529.011108 12.726544
v 10.423390 529.472351 11.754121
v 10.617274 529.897400 10.858175
v 12.200000 532.649475 11.108393
v 12.200000 532.857178 11.193006
v 12.200000 532.433594 11.047568
v 12.200000 532.212280 11.011297
v 12.200000 533.891602 13.649479
v 12.200000 531.988281 11.000034
v 12.200000 533.952454 13.433602
v 12.200000 531.764404 11.013923
v 12.200000 531.543518 11.052787
v 12.200000 533.988708 13.212273
v 12.200000 533.999939 12.988274
v 12.200000 531.328369 11.116138
v 12.200000 531.121704 11.203181
v 12.200000 533.986084 12.764422
v 12.200000 533.947205 12.543533
v 12.200000 530.926025 11.312819
v 12.200000 533.883850 12.328385
v 12.200000 530.743896 11.443675
v 12.200000 530.577515 11.594102
v 12.200000 530.429077 11.762210
v 12.200000 533.796814 12.121683
v 12.200000 533.687195 11.926025
v 12.200000 530.300354 11.945883
v 12.200000 533.556335 11.743874
v 12.200000 533.405884 11.577519
v 12.200000 533.237793 11.429053
v 12.200000 533.054138 11.300343
v 27.650000 531.142822 14.806994
v 27.650000 531.350525 14.891607
v 27.650000 531.566406 14.952432
v 27.650000 531.787720 14.988703
v 27.650000 530.108398 12.350521
v 27.650000 532.011719 14.999966
v 27.650000 532.235596 14.986077
v 27.650000 530.047546 12.566398
v 27.650000 530.011292 12.787727
v 27.650000 530.000061 13.011726
v 27.650000 532.456482 14.947213
v 27.650000 530.013916 13.235578
v 27.650000 532.671631 14.883862
v 27.650000 532.878296 14.796819
v 27.650000 533.073975 14.687181
v 27.650000 530.052795 13.456467
v 27.650000 530.116150 13.671615
v 27.650000 530.203186 13.878317
v 27.650000 533.256104 14.556325
v 27.650000 533.422485 14.405898
v 27.650000 530.312805 14.073975
v 27.650000 533.570923 14.237790
v 27.650000 533.699646 14.054117
v 27.650000 530.443665 14.256126
v 27.650000 530.594116 14.422481
v 27.650000 530.762207 14.570947
v 27.650000 530.945862 14.699657
v 9.800000 533.952454 13.433602
v 9.800000 533.999939 12.988274
v 9.800000 533.441528 13.072480
v 9.800000 533.419739 13.260020
v 9.800000 530.929443 13.968081
v 9.800000 530.812195 13.820061
v 9.800000 530.580261 12.739980
v 9.800000 530.626343 12.556888
v 9.800000 530.558472 12.927520
v 9.800000 533.438660 12.883699
v 9.800000 532.935059 11.900461
v 9.800000 533.070557 12.031919
v 9.800000 533.237793 11.429053
v 9.800000 532.783569 11.787817
v 9.800000 532.456482 14.947213
v 9.800000 532.878296 14.796819
v 9.800000 532.484680 14.359560
v 9.800000 533.556335 11.743874
v 9.800000 533.947205 12.543533
v 9.800000 532.303101 14.411194
v 9.800000 532.658020 14.284663
v 9.800000 530.715332 13.658008
v 9.800000 532.011719 14.999966
v 9.800000 532.116272 14.438683
v 9.800000 533.411194 12.696909
v 9.800000 530.640442 13.484696
v 9.800000 533.256104 14.556325
v 9.800000 532.820068 14.187785
v 9.800000 531.566406 14.952432
v 9.800000 531.927490 14.441555
v 9.800000 533.570923 14.237790
v 9.800000 532.968079 14.070584
v 9.800000 533.359558 12.515304
v 9.800000 531.739990 14.419762
v 9.800000 533.099548 13.935065
v 9.800000 531.556885 14.373675
v 9.800000 530.695923 12.381378
v 9.800000 530.787842 12.216453
v 9.800000 530.588806 13.303091
v 9.800000 532.443115 11.626325
v 9.800000 532.618652 11.695914
v 9.800000 533.284668 12.341992
v 9.800000 533.796814 12.121683
v 9.800000 533.212158 13.783547
v 9.800000 533.807007 13.857188
v 9.800000 530.561340 13.116301
v 9.800000 531.381348 14.304086
v 9.800000 533.187805 12.179939
v 9.800000 530.900452 12.064935
v 9.800000 531.031921 11.929416
v 9.800000 533.304077 13.618622
v 9.800000 532.260010 11.580238
v 9.800000 531.216431 14.212183
v 9.800000 532.072510 11.558445
v 9.800000 531.179932 11.812215
v 9.800000 533.373657 13.443112
v 9.800000 531.064941 14.099539
v 9.800000 531.883728 11.561317
v 9.800000 531.341980 11.715337
v 9.800000 531.515320 11.640440
v 9.800000 531.696899 11.588806
v 12.000000 533.906616 9.712931
v 11.343061 534.319580 15.637390
v 12.000000 533.983459 16.241289
v 12.000000 534.244324 16.066425
v 12.000000 534.489868 15.870617
v 12.000000 534.718445 15.655199
v 12.000000 534.928406 15.421643
v 12.000000 535.118408 15.171545
v 11.228342 533.030640 16.289083
v 12.000000 532.201721 16.794643
v 12.000000 532.514404 16.765026
v 12.000000 532.823547 16.709690
v 12.000000 533.127075 16.629013
v 12.000000 533.422913 16.523546
v 12.000000 533.708984 16.394009
v 11.514369 531.660461 16.585070
v 12.000000 530.958679 16.654531
v 12.000000 531.263977 16.728043
v 12.000000 531.574402 16.776089
v 12.000000 531.887634 16.798340
v 10.946512 534.704407 14.826117
v 12.000000 535.287048 14.906613
v 12.000000 535.433289 14.628656
v 10.474010 533.404602 15.500832
v 10.560568 531.961731 15.950010
v 10.946512 535.125122 13.939251
v 12.000000 535.556030 14.339576
v 12.000000 535.654541 14.041343
v 10.071543 533.867798 14.524302
v 9.868483 532.373901 15.081143
v 10.071543 534.362122 13.482269
v 11.343061 535.509949 13.127977
v 12.000000 535.728027 13.735997
v 12.000000 535.776062 13.425625
v 12.000000 535.798340 13.112344
v 12.000000 535.794617 12.798296
v 12.000000 530.660400 16.556057
v 12.000000 535.765015 12.485625
v 10.474010 534.825378 12.505740
v 11.228342 535.199280 11.717488
v 12.000000 535.709717 12.176469
v 12.000000 535.629028 11.872938
v 12.000000 535.523560 11.577106
v 12.000000 535.393982 11.290994
v 12.000000 535.241272 11.016556
v 12.000000 535.066406 10.755667
v 9.868483 533.848328 11.973003
v 10.560568 534.260498 11.104136
v 11.514369 534.561707 10.469077
v 12.000000 534.870605 10.510109
v 12.000000 534.655212 10.281560
v 12.000000 534.421631 10.071580
v 12.000000 534.171570 9.881604
v 10.617274 534.102600 15.141825
v 10.423390 534.563904 14.169402
v 10.617274 534.988892 13.273456
v 12.000000 530.121765 11.854488
v 12.000000 530.251770 11.664433
v 12.000000 530.400940 11.489012
v 12.000000 530.567688 11.330144
v 12.000000 530.750061 11.189572
v 12.000000 530.946167 11.068835
v 12.000000 531.153809 10.969257
v 12.000000 531.370667 10.891928
v 12.000000 531.594482 10.837695
v 12.000000 531.822754 10.807154
v 12.000000 532.052917 10.800636
v 12.000000 532.282532 10.818216
v 12.000000 532.509033 10.859700
v 12.000000 532.729980 10.924634
v 12.000000 532.942932 11.012306
v 12.000000 534.075378 13.729971
v 12.000000 533.145508 11.121756
v 12.000000 534.140320 13.509037
v 12.000000 533.335571 11.251783
v 12.000000 534.181763 13.282526
v 12.000000 533.510986 11.400965
v 12.000000 534.199341 13.052920
v 12.000000 533.669861 11.567666
v 12.000000 534.192871 12.822734
v 12.000000 533.810425 11.750060
v 12.000000 534.162292 12.594490
v 12.000000 533.931152 11.946148
v 12.000000 534.108093 12.370689
v 12.000000 534.030762 12.153783
v 12.006815 533.132263 11.174367
v 12.026795 533.106812 11.215359
v 12.026795 532.900024 11.102655
v 12.006815 532.920715 11.059074
v 12.058578 533.274048 11.383040
v 12.058578 533.085022 11.250560
v 12.006815 532.712769 10.973466
v 12.006815 532.497070 10.910060
v 12.100000 533.424744 11.558461
v 12.100000 533.254395 11.408006
v 12.026795 532.696777 11.018970
v 12.148236 533.410706 11.572672
v 12.148236 533.561646 11.739594
v 12.058578 532.882324 11.140079
v 12.006815 532.275879 10.869552
v 12.100000 533.068237 11.277571
v 12.026795 532.485901 10.956987
v 12.148236 533.242004 11.423700
v 12.058578 532.683044 11.058043
v 12.006815 532.051697 10.852386
v 12.100000 532.868652 11.168797
v 12.026795 532.269714 10.917389
v 12.148236 533.057739 11.294551
v 12.058578 532.476318 10.997284
v 12.006815 531.826904 10.858748
v 12.100000 532.672485 11.088027
v 12.026795 532.050537 10.900608
v 12.148236 532.860107 11.186849
v 12.058578 532.264343 10.958467
v 12.006815 531.604004 10.888572
v 12.100000 532.468933 11.028206
v 12.026795 531.830811 10.906828
v 12.148236 532.665894 11.106875
v 12.058578 532.049500 10.942017
v 12.006815 531.385498 10.941528
v 12.100000 532.260254 10.989987
v 12.026795 531.612915 10.935982
v 12.148236 532.464355 11.047644
v 12.058578 531.834106 10.948114
v 12.006815 531.173706 11.017038
v 12.100000 532.048767 10.973791
v 12.026795 531.399292 10.987749
v 12.148236 532.257690 11.009802
v 12.058578 531.620544 10.976693
v 12.006815 530.970947 11.114274
v 12.100000 531.836670 10.979795
v 12.026795 531.192261 11.061563
v 12.006815 530.846436 11.187769
v 12.148236 532.048279 10.993766
v 12.058578 531.411133 11.027440
v 12.100000 531.626404 11.007933
v 12.026795 530.994080 11.156615
v 12.148236 531.838318 10.999710
v 12.006815 530.650757 11.328323
v 12.058578 531.208191 11.099798
v 12.026795 530.872314 11.228460
v 12.100000 531.420227 11.057896
v 12.148236 531.630127 11.027571
v 12.006815 530.472107 11.489900
v 12.058578 531.013916 11.192975
v 12.026795 530.681091 11.365859
v 12.100000 531.220398 11.129136
v 12.058578 530.894592 11.263403
v 12.148236 531.425964 11.077041
v 12.006815 530.312622 11.670467
v 12.026795 530.506409 11.523808
v 12.006815 534.026550 13.712795
v 12.100000 531.029114 11.220875
v 12.006815 534.089966 13.497060
v 12.058578 530.707092 11.398091
v 12.026795 533.981018 13.696790
v 12.148236 531.228088 11.147579
v 12.006815 530.174377 11.867754
v 12.006815 534.130432 13.275879
v 12.100000 530.911621 11.290215
v 12.026795 534.043030 13.485899
v 12.026795 530.350525 11.700320
v 12.058578 530.535828 11.552924
v 12.058578 533.941956 13.683046
v 12.006815 534.147644 13.051675
v 12.148236 531.038696 11.238414
v 12.026795 534.082642 13.269684
v 12.100000 530.727051 11.422824
v 12.148236 530.922363 11.307071
v 12.058578 534.002686 13.476315
v 12.026795 530.215332 11.893177
v 12.058578 530.383057 11.725956
v 12.006815 534.141235 12.826905
v 12.100000 530.558472 11.575267
v 12.100000 533.911987 13.672501
v 12.026795 534.099365 13.050514
v 12.148236 530.739624 11.438372
v 12.058578 530.250549 11.915009
v 12.058578 534.041504 13.264365
v 12.100000 530.408020 11.745626
v 12.148236 530.572693 11.589312
v 12.006815 534.111450 12.604032
v 12.100000 530.277588 11.931761
v 12.100000 533.971802 13.468961
v 12.148236 530.423706 11.757992
v 12.026795 534.093201 12.830791
v 12.148236 533.893127 13.665871
v 12.148236 530.294556 11.942291
v 12.058578 534.057983 13.049519
v 12.006815 534.058472 12.385496
v 12.100000 534.010010 13.260283
v 12.026795 534.064026 12.612923
v 12.148236 533.952332 13.464337
v 12.058578 534.051880 12.834129
v 12.006815 533.982971 12.173694
v 12.100000 534.026184 13.048754
v 12.026795 534.012268 12.399294
v 12.148236 533.990173 13.257717
v 12.058578 534.023315 12.620558
v 12.006815 533.885742 11.970944
v 12.100000 534.020203 12.836690
v 12.026795 533.938416 12.192247
v 12.006815 533.812256 11.846424
v 12.148236 534.006226 13.048273
v 12.058578 533.972534 12.411143
v 12.100000 533.992065 12.626416
v 12.026795 533.843384 11.994051
v 12.148236 534.000305 12.838300
v 12.006815 533.671692 11.650772
v 12.058578 533.900208 12.208180
v 12.026795 533.771545 11.872327
v 12.100000 533.942078 12.420235
v 12.148236 533.972412 12.630098
v 12.006815 533.510071 11.472088
v 12.058578 533.807007 12.013892
v 12.026795 533.634155 11.681067
v 12.100000 533.870850 12.220406
v 12.058578 533.736572 11.894569
v 12.148236 533.922974 12.425950
v 12.006815 533.329529 11.312617
v 12.026795 533.476196 11.506395
v 12.100000 533.779114 12.029118
v 12.058578 533.601929 11.707083
v 12.148236 533.852417 12.228090
v 12.100000 533.709778 11.911637
v 12.026795 533.299683 11.350506
v 12.058578 533.447083 11.535855
v 12.148236 533.761597 12.038689
v 12.100000 533.577148 11.727045
v 12.148236 533.692932 11.922366
v 9.822696 531.094299 11.992791
v 9.838990 531.008545 12.173543
v 9.848012 530.922668 12.354492
v 9.848900 530.836731 12.535687
v 9.833362 530.698914 12.826207
v 9.822752 532.418823 11.712067
v 9.839050 532.218994 11.728220
v 9.848040 532.019165 11.744372
v 9.848886 531.819336 11.760526
v 9.833360 531.499634 11.786370
v 9.822752 533.324768 12.718729
v 9.839050 533.210876 12.553759
v 9.848040 533.096985 12.388789
v 9.848886 532.983093 12.223819
v 9.833360 532.800842 11.959867
v 9.822742 532.906006 14.006608
v 9.839060 532.992126 13.825043
v 9.848058 533.078247 13.643458
v 9.848866 533.164246 13.462193
v 9.833297 533.301575 13.172705
v 9.822752 531.581177 14.287933
v 9.839050 531.781006 14.271780
v 9.848040 531.980835 14.255628
v 9.848886 532.180664 14.239474
v 9.833360 532.500366 14.213630
v 9.822752 530.675232 13.281271
v 9.839050 530.789124 13.446241
v 9.848040 530.903015 13.611211
v 9.848886 531.016907 13.776181
v 9.833360 531.199158 14.040133
v 11.550000 532.092651 12.284287
v 11.775000 531.933472 12.645339
v 11.775000 532.203735 12.702186
v 11.887500 532.142883 12.889862
v 11.187756 533.286499 13.204560
v 11.149528 533.363281 13.042610
v 11.163756 533.304382 12.689214
v 11.100000 533.438660 12.883699
v 11.205489 533.168213 12.491946
v 11.163756 532.383057 11.714957
v 11.173704 532.779419 11.928840
v 11.100000 532.618652 11.695914
v 11.205489 532.144104 11.734272
v 11.149528 531.104553 11.971126
v 11.173704 531.462036 11.789408
v 11.100000 531.179932 11.812215
v 11.187756 531.027710 12.133076
v 11.219975 533.056213 12.329720
v 11.550000 532.709351 12.866977
v 11.212113 533.208130 13.369753
v 11.214800 532.943298 12.166196
v 11.550000 532.495667 12.475452
v 11.219975 531.947632 11.750156
v 11.214800 531.749573 11.766168
v 11.212113 530.949341 12.298268
v 11.550000 531.654297 12.366501
v 11.775000 532.357849 13.046340
v 11.775000 532.354675 12.933488
v 11.775000 531.827148 12.683250
v 11.775000 531.737732 12.752168
v 28.000000 531.929993 14.392024
v 28.000000 532.112305 14.389251
v 28.000000 532.292664 14.362706
v 28.000000 532.468018 14.312846
v 28.000000 530.673523 12.572113
v 28.000000 530.629028 12.748914
v 28.000000 532.635376 14.240522
v 28.000000 530.607971 12.930010
v 28.000000 532.791870 14.146974
v 28.000000 530.610779 13.112305
v 28.000000 532.934814 14.033800
v 28.000000 530.637268 13.292677
v 28.000000 533.061768 13.902937
v 28.000000 533.170532 13.756625
v 28.000000 530.687134 13.468042
v 28.000000 530.759460 13.635399
v 28.000000 530.853027 13.791883
v 28.000000 530.966187 13.934819
v 28.000000 531.097046 14.061760
v 28.000000 531.243347 14.170533
v 28.000000 531.402649 14.259278
v 28.000000 531.572083 14.326477
v 28.000000 531.748901 14.370979
f 1 2 3
f 1 4 2
f 5 3 6
f 5 1 3
f 7 6 8
f 7 5 6
f 9 10 11
f 9 12 10
f 13 7 8
f 14 11 15
f 14 9 11
f 16 8 17
f 18 15 19
f 16 13 8
f 18 14 15
f 20 17 21
f 20 16 17
f 22 19 23
f 22 18 19
f 24 21 25
f 24 20 21
f 26 23 27
f 28 25 29
f 26 22 23
f 28 24 25
f 30 29 31
f 32 27 33
f 30 28 29
f 32 26 27
f 34 30 31
f 34 31 35
f 36 34 35
f 37 32 33
f 38 33 39
f 38 37 33
f 40 39 41
f 40 38 39
f 42 41 43
f 42 40 41
f 44 42 43
f 44 43 45
f 46 44 45
f 46 45 47
f 48 46 47
f 48 47 49
f 50 48 49
f 51 50 49
f 51 49 52
f 53 52 54
f 53 51 52
f 4 54 2
f 4 53 54
f 55 56 57
f 56 58 57
f 58 59 57
f 59 55 57
f 60 61 62
f 62 61 63
f 60 62 64
f 65 66 67
f 66 65 68
f 69 70 71
f 70 69 72
f 64 73 74
f 75 76 74
f 76 60 74
f 60 64 74
f 73 77 78
f 77 66 78
f 66 68 78
f 74 73 78
f 68 79 80
f 79 81 80
f 78 68 80
f 72 82 83
f 82 84 83
f 81 70 83
f 80 81 83
f 70 72 83
f 58 75 85
f 75 74 85
f 58 85 86
f 85 74 86
f 86 74 59
f 74 78 59
f 58 86 59
f 80 83 56
f 84 58 87
f 83 84 87
f 56 83 87
f 58 56 87
f 80 56 55
f 59 78 55
f 78 80 55
f 88 89 90
f 91 88 90
f 89 92 90
f 93 91 90
f 94 95 96
f 96 95 97
f 95 98 97
f 99 100 101
f 102 103 104
f 98 102 104
f 100 94 105
f 94 96 105
f 101 100 105
f 92 106 107
f 103 93 107
f 90 92 107
f 93 90 107
f 96 97 108
f 109 99 110
f 111 109 110
f 99 101 110
f 97 98 112
f 98 104 112
f 101 105 113
f 106 114 115
f 114 116 115
f 104 103 115
f 107 106 115
f 103 107 115
f 113 105 117
f 105 96 117
f 96 108 117
f 111 110 118
f 119 111 118
f 97 112 120
f 108 97 120
f 118 110 121
f 110 101 121
f 101 113 121
f 116 122 123
f 115 116 123
f 112 104 123
f 104 115 123
f 113 117 124
f 125 119 126
f 119 118 126
f 124 117 127
f 117 108 127
f 108 120 127
f 118 121 128
f 120 112 129
f 123 122 129
f 112 123 129
f 121 113 130
f 113 124 130
f 128 121 130
f 125 126 131
f 124 127 132
f 126 118 133
f 118 128 133
f 132 127 134
f 122 135 134
f 129 122 134
f 127 120 134
f 120 129 134
f 133 128 136
f 128 130 136
f 137 125 138
f 139 137 138
f 125 131 138
f 124 132 140
f 130 124 140
f 131 126 141
f 126 133 141
f 135 142 143
f 132 134 143
f 134 135 143
f 141 133 144
f 133 136 144
f 145 139 146
f 139 138 146
f 136 130 147
f 130 140 147
f 138 131 148
f 146 138 148
f 131 141 148
f 143 142 149
f 140 132 149
f 142 150 149
f 132 143 149
f 141 144 151
f 145 146 152
f 136 147 153
f 144 136 153
f 146 148 154
f 145 152 155
f 156 145 155
f 140 149 157
f 150 158 157
f 147 140 157
f 149 150 157
f 148 141 159
f 141 151 159
f 154 148 159
f 151 144 160
f 144 153 160
f 146 154 161
f 152 146 161
f 156 155 162
f 163 156 162
f 158 164 165
f 157 158 165
f 153 147 165
f 147 157 165
f 154 159 166
f 161 154 166
f 155 152 167
f 168 169 170
f 152 161 167
f 162 155 167
f 159 151 171
f 151 160 171
f 164 172 173
f 165 164 173
f 160 153 173
f 153 165 173
f 174 163 175
f 163 162 175
f 161 166 176
f 162 167 177
f 166 159 178
f 159 171 178
f 167 161 179
f 161 176 179
f 180 181 182
f 177 167 179
f 172 183 184
f 185 180 182
f 173 172 184
f 171 160 184
f 160 173 184
f 185 182 186
f 187 174 188
f 189 185 186
f 190 189 186
f 174 175 188
f 175 162 191
f 181 192 193
f 162 177 191
f 192 194 193
f 182 181 193
f 195 190 196
f 190 186 196
f 176 166 197
f 166 178 197
f 191 177 198
f 186 182 199
f 182 193 199
f 177 179 198
f 171 184 200
f 183 201 200
f 184 183 200
f 199 193 202
f 178 171 200
f 193 194 202
f 203 170 204
f 187 188 204
f 195 196 205
f 169 187 204
f 170 169 204
f 206 195 205
f 176 197 207
f 179 176 207
f 188 175 208
f 175 191 208
f 196 186 209
f 186 199 209
f 199 202 210
f 208 191 211
f 209 199 210
f 191 198 211
f 197 178 212
f 200 201 212
f 213 206 214
f 201 215 212
f 206 205 214
f 178 200 212
f 198 179 216
f 202 194 217
f 179 207 216
f 194 218 217
f 197 212 219
f 215 220 219
f 205 196 221
f 212 215 219
f 207 197 219
f 196 209 221
f 222 203 223
f 188 208 223
f 204 188 223
f 203 204 223
f 209 210 224
f 208 211 225
f 223 208 225
f 226 213 227
f 198 216 228
f 211 198 228
f 213 214 227
f 216 207 229
f 202 217 230
f 207 219 229
f 210 202 230
f 219 220 229
f 227 214 231
f 222 223 232
f 223 225 232
f 214 205 231
f 205 221 231
f 211 228 233
f 225 211 233
f 234 235 236
f 218 237 236
f 220 238 239
f 237 234 236
f 238 240 239
f 217 218 236
f 216 229 239
f 228 216 239
f 209 224 241
f 231 221 241
f 229 220 239
f 242 222 243
f 221 209 241
f 222 232 243
f 232 225 243
f 225 233 243
f 239 240 244
f 233 228 244
f 228 239 244
f 226 227 245
f 246 242 247
f 248 246 247
f 242 243 247
f 240 249 247
f 249 248 247
f 244 240 247
f 210 230 250
f 243 233 247
f 233 244 247
f 224 210 250
f 227 231 251
f 230 217 252
f 235 253 252
f 236 235 252
f 217 236 252
f 251 231 254
f 231 241 254
f 226 245 255
f 256 226 255
f 224 250 257
f 241 224 257
f 255 245 258
f 245 227 258
f 227 251 258
f 253 259 260
f 230 252 260
f 252 253 260
f 250 230 260
f 251 254 261
f 262 256 263
f 256 255 263
f 254 241 264
f 241 257 264
f 261 254 264
f 255 258 265
f 262 263 266
f 267 262 266
f 250 260 268
f 259 269 268
f 257 250 268
f 260 259 268
f 265 258 270
f 251 261 270
f 258 251 270
f 261 264 271
f 263 255 272
f 255 265 272
f 269 273 274
f 268 269 274
f 264 257 274
f 257 268 274
f 267 266 275
f 276 267 275
f 265 270 277
f 272 265 277
f 266 263 278
f 275 266 278
f 263 272 278
f 261 271 279
f 270 261 279
f 273 280 281
f 274 273 281
f 271 264 281
f 264 274 281
f 276 275 282
f 283 276 282
f 272 277 284
f 278 272 284
f 275 278 285
f 277 270 286
f 270 279 286
f 278 284 287
f 285 278 287
f 280 288 289
f 281 280 289
f 279 271 289
f 271 281 289
f 283 282 290
f 291 283 290
f 282 275 292
f 290 282 292
f 275 285 292
f 277 286 293
f 284 277 293
f 285 287 294
f 288 295 296
f 289 288 296
f 286 279 296
f 279 289 296
f 297 291 298
f 291 290 298
f 287 284 91
f 284 293 91
f 290 292 299
f 298 290 299
f 299 292 102
f 292 285 102
f 285 294 102
f 293 286 300
f 295 89 300
f 296 295 300
f 286 296 300
f 301 297 94
f 297 298 94
f 294 287 93
f 287 91 93
f 91 293 88
f 293 300 88
f 300 89 88
f 94 298 95
f 298 299 95
f 95 299 98
f 299 102 98
f 302 301 100
f 99 302 100
f 301 94 100
f 294 93 103
f 102 294 103
f 303 304 305
f 306 307 308
f 303 305 309
f 303 309 310
f 303 310 311
f 312 306 308
f 303 311 313
f 311 306 312
f 314 313 315
f 314 315 316
f 314 316 317
f 313 311 312
f 314 318 319
f 314 303 313
f 314 317 318
f 320 314 319
f 320 321 322
f 320 319 321
f 323 303 314
f 323 324 325
f 323 325 326
f 323 326 327
f 323 327 328
f 323 328 329
f 323 329 304
f 323 304 303
f 330 320 322
f 330 314 320
f 330 322 331
f 330 323 314
f 332 333 334
f 332 334 335
f 332 335 336
f 332 336 337
f 332 337 324
f 332 323 330
f 332 324 323
f 338 339 340
f 341 342 343
f 338 331 339
f 341 344 342
f 318 317 345
f 338 330 331
f 318 345 346
f 347 348 349
f 347 350 348
f 351 352 344
f 351 344 341
f 353 354 355
f 353 340 354
f 356 357 358
f 356 358 333
f 356 333 332
f 359 360 361
f 359 349 360
f 359 362 352
f 359 363 362
f 359 361 363
f 359 347 349
f 364 353 355
f 364 355 350
f 364 347 359
f 364 350 347
f 365 357 356
f 365 366 367
f 365 367 357
f 368 351 369
f 368 369 370
f 368 370 371
f 368 371 372
f 368 352 351
f 368 359 352
f 373 364 359
f 373 372 374
f 373 374 375
f 373 375 376
f 373 376 377
f 373 377 378
f 373 378 379
f 373 359 368
f 373 368 372
f 380 379 381
f 380 381 382
f 380 382 383
f 380 383 384
f 380 384 366
f 380 373 379
f 360 385 386
f 380 364 373
f 380 366 365
f 361 360 386
f 387 356 332
f 387 332 330
f 387 330 338
f 388 356 387
f 388 365 356
f 388 387 338
f 388 340 353
f 388 338 340
f 389 353 364
f 389 380 365
f 389 364 380
f 389 388 353
f 389 365 388
f 390 50 51
f 390 391 50
f 392 51 53
f 392 390 51
f 393 53 4
f 393 4 1
f 393 392 53
f 394 12 9
f 394 9 14
f 394 248 12
f 395 393 1
f 396 14 18
f 397 1 5
f 396 394 14
f 397 395 1
f 398 5 7
f 399 396 18
f 398 397 5
f 400 18 22
f 400 22 26
f 401 7 13
f 400 399 18
f 401 398 7
f 402 13 16
f 402 16 20
f 403 400 26
f 402 401 13
f 404 26 32
f 404 32 37
f 405 20 24
f 404 403 26
f 405 402 20
f 406 37 38
f 406 404 37
f 407 405 24
f 408 24 28
f 408 407 24
f 409 28 30
f 410 406 38
f 409 408 28
f 411 410 38
f 412 30 34
f 412 34 36
f 411 38 40
f 412 409 30
f 234 412 36
f 413 40 42
f 413 42 44
f 413 411 40
f 414 44 46
f 414 413 44
f 415 46 48
f 415 414 46
f 416 48 50
f 416 415 48
f 391 416 50
f 135 417 418
f 135 122 417
f 142 418 419
f 142 135 418
f 150 419 420
f 150 142 419
f 235 234 36
f 235 36 421
f 158 420 422
f 158 422 423
f 158 150 420
f 253 421 424
f 164 158 423
f 253 235 421
f 259 424 425
f 259 425 426
f 172 423 427
f 259 253 424
f 172 164 423
f 269 426 428
f 183 427 429
f 269 259 426
f 183 172 427
f 201 429 430
f 273 269 428
f 201 430 431
f 201 183 429
f 280 428 432
f 280 273 428
f 215 201 431
f 288 432 433
f 288 433 434
f 220 431 435
f 220 435 436
f 288 280 432
f 220 215 431
f 238 220 436
f 295 434 437
f 240 436 438
f 295 288 434
f 240 238 436
f 249 240 438
f 249 438 439
f 249 439 12
f 89 295 437
f 248 249 12
f 92 89 437
f 92 437 440
f 92 440 441
f 106 441 442
f 106 92 441
f 114 106 442
f 114 442 443
f 116 114 443
f 122 443 417
f 122 116 443
f 444 445 446
f 447 444 446
f 319 448 449
f 450 451 339
f 452 450 339
f 331 452 339
f 446 445 453
f 454 455 456
f 457 454 456
f 319 449 321
f 458 459 460
f 455 461 456
f 453 445 462
f 458 460 463
f 460 459 464
f 321 449 465
f 466 458 467
f 453 462 468
f 458 463 467
f 321 465 469
f 459 470 471
f 464 459 471
f 472 466 473
f 466 467 473
f 470 474 475
f 471 470 475
f 468 462 476
f 472 473 477
f 475 474 478
f 339 451 340
f 472 477 479
f 480 481 340
f 346 472 479
f 451 480 340
f 321 469 322
f 469 482 322
f 483 484 385
f 485 476 486
f 476 462 486
f 478 474 487
f 484 457 385
f 474 488 487
f 457 456 385
f 322 482 489
f 346 479 490
f 485 486 491
f 492 493 354
f 481 492 354
f 487 488 494
f 340 481 354
f 495 483 360
f 318 346 496
f 497 495 360
f 346 490 496
f 483 385 360
f 489 452 331
f 493 498 355
f 322 489 331
f 488 444 499
f 455 491 461
f 354 493 355
f 494 488 499
f 497 360 349
f 491 486 461
f 318 496 500
f 501 497 349
f 355 498 350
f 502 503 350
f 498 502 350
f 501 349 348
f 350 503 348
f 504 501 348
f 503 504 348
f 499 444 447
f 319 318 448
f 318 500 448
f 342 344 505
f 343 342 505
f 506 507 508
f 506 508 509
f 506 509 510
f 506 510 511
f 506 511 512
f 513 514 515
f 513 515 516
f 513 516 517
f 513 517 518
f 513 518 519
f 513 519 507
f 513 507 506
f 520 521 522
f 520 522 523
f 520 523 524
f 520 524 514
f 520 313 521
f 345 317 472
f 520 514 513
f 525 506 512
f 525 512 526
f 525 526 527
f 528 470 459
f 528 513 506
f 529 315 313
f 529 316 315
f 529 317 316
f 346 345 472
f 529 313 520
f 529 472 317
f 529 513 528
f 529 466 472
f 529 520 513
f 530 527 531
f 530 531 532
f 530 525 527
f 533 474 470
f 533 488 474
f 533 470 528
f 534 529 528
f 534 466 529
f 534 458 466
f 534 459 458
f 534 528 459
f 535 444 488
f 535 445 444
f 536 532 537
f 536 537 538
f 536 538 539
f 536 539 540
f 308 307 541
f 536 530 532
f 536 540 542
f 312 541 521
f 543 445 535
f 543 462 445
f 312 308 541
f 544 542 545
f 544 545 546
f 544 546 547
f 544 547 548
f 544 548 549
f 313 312 521
f 544 549 550
f 544 536 542
f 544 543 536
f 551 462 543
f 551 486 462
f 551 461 486
f 552 352 362
f 386 385 456
f 552 362 363
f 552 363 361
f 552 461 551
f 552 456 461
f 552 361 456
f 552 551 543
f 552 543 544
f 553 550 554
f 553 554 555
f 553 555 556
f 361 386 456
f 553 556 557
f 553 544 550
f 553 352 552
f 553 552 544
f 553 557 352
f 558 533 528
f 558 528 506
f 558 506 525
f 559 535 488
f 559 533 558
f 559 558 525
f 559 488 533
f 559 525 530
f 560 543 535
f 560 530 536
f 560 535 559
f 560 536 543
f 560 559 530
f 344 352 557
f 505 344 557
f 326 325 226
f 327 326 256
f 328 327 256
f 326 226 256
f 329 328 262
f 328 256 262
f 325 324 213
f 226 325 213
f 304 329 267
f 329 262 267
f 324 337 206
f 213 324 206
f 305 304 276
f 309 305 276
f 304 267 276
f 336 335 195
f 337 336 195
f 206 337 195
f 310 309 283
f 309 276 283
f 335 334 190
f 195 335 190
f 190 334 189
f 334 333 189
f 311 310 291
f 310 283 291
f 189 333 185
f 333 358 185
f 306 311 297
f 311 291 297
f 357 367 180
f 358 357 180
f 185 358 180
f 307 306 301
f 541 307 301
f 306 297 301
f 367 366 561
f 180 367 561
f 521 541 302
f 541 301 302
f 366 384 562
f 561 366 562
f 521 302 99
f 522 521 99
f 384 383 563
f 562 384 563
f 522 99 109
f 523 522 109
f 563 383 564
f 382 381 564
f 383 382 564
f 524 523 111
f 514 524 111
f 523 109 111
f 381 379 565
f 564 381 565
f 514 111 119
f 515 514 119
f 379 378 566
f 565 379 566
f 516 515 125
f 515 119 125
f 378 377 567
f 566 378 567
f 517 516 137
f 516 125 137
f 137 139 518
f 517 137 518
f 567 377 376
f 568 567 376
f 139 145 519
f 518 139 519
f 568 376 375
f 569 568 375
f 145 156 507
f 519 145 507
f 569 375 374
f 570 569 374
f 156 163 508
f 507 156 508
f 571 570 372
f 570 374 372
f 508 163 509
f 571 372 371
f 509 163 510
f 163 174 510
f 571 371 370
f 572 571 370
f 510 174 511
f 174 187 511
f 572 370 369
f 573 572 369
f 511 187 512
f 187 169 512
f 573 369 351
f 574 573 351
f 169 168 526
f 512 169 526
f 574 351 341
f 575 574 341
f 526 168 527
f 575 341 343
f 527 168 531
f 168 576 531
f 575 343 505
f 577 575 505
f 531 576 532
f 576 578 532
f 577 505 557
f 579 577 557
f 532 578 537
f 578 580 537
f 579 557 556
f 581 579 556
f 537 580 538
f 580 582 538
f 581 556 555
f 583 581 555
f 538 582 539
f 583 555 554
f 582 584 540
f 539 582 540
f 585 583 550
f 583 554 550
f 540 584 542
f 584 586 542
f 587 585 549
f 585 550 549
f 542 586 545
f 586 588 545
f 589 587 548
f 587 549 548
f 545 588 546
f 546 588 547
f 588 589 547
f 589 548 547
f 590 591 592
f 593 590 592
f 591 594 595
f 576 168 170
f 573 596 597
f 594 598 599
f 595 594 599
f 593 592 600
f 596 593 600
f 413 414 601
f 602 413 601
f 598 602 601
f 599 598 601
f 592 591 603
f 591 595 603
f 572 573 604
f 571 572 604
f 573 597 604
f 595 599 605
f 603 595 605
f 597 596 606
f 596 600 606
f 414 415 607
f 415 416 607
f 601 414 607
f 599 601 607
f 605 599 607
f 600 592 608
f 592 603 608
f 606 600 608
f 571 604 609
f 603 605 610
f 604 597 611
f 597 606 611
f 609 604 611
f 416 391 612
f 607 416 612
f 605 607 612
f 610 605 612
f 606 608 613
f 570 571 614
f 569 570 614
f 571 609 614
f 613 608 615
f 608 603 615
f 603 610 615
f 609 611 616
f 610 612 617
f 612 391 617
f 611 606 618
f 606 613 618
f 616 611 618
f 569 614 619
f 613 615 620
f 619 614 621
f 614 609 621
f 609 616 621
f 620 615 622
f 391 390 622
f 617 391 622
f 615 610 622
f 610 617 622
f 616 618 623
f 568 569 624
f 569 619 624
f 613 620 625
f 623 618 625
f 618 613 625
f 619 621 626
f 390 392 627
f 622 390 627
f 620 622 627
f 621 616 628
f 626 621 628
f 616 623 628
f 567 568 629
f 568 624 629
f 623 625 630
f 624 619 631
f 619 626 631
f 630 625 632
f 392 393 632
f 620 627 632
f 625 620 632
f 627 392 632
f 626 628 633
f 567 629 634
f 566 567 634
f 628 623 635
f 633 628 635
f 623 630 635
f 624 631 636
f 629 624 636
f 565 566 637
f 566 634 637
f 393 395 638
f 632 393 638
f 630 632 638
f 631 626 639
f 626 633 639
f 633 635 640
f 639 633 640
f 634 629 641
f 629 636 641
f 638 395 642
f 395 397 642
f 635 630 642
f 640 635 642
f 630 638 642
f 565 637 643
f 564 565 643
f 631 639 644
f 636 631 644
f 634 641 645
f 637 634 645
f 644 639 646
f 639 640 646
f 397 398 647
f 642 397 647
f 640 642 647
f 646 640 647
f 564 643 648
f 563 564 648
f 180 561 181
f 641 636 649
f 636 644 649
f 637 645 650
f 643 637 650
f 644 646 651
f 649 644 651
f 641 649 652
f 645 641 652
f 398 401 653
f 647 398 653
f 646 647 653
f 651 646 653
f 562 563 654
f 563 648 654
f 237 412 234
f 648 643 655
f 643 650 655
f 170 203 656
f 576 170 656
f 652 649 657
f 649 651 657
f 576 656 658
f 578 576 658
f 650 645 659
f 645 652 659
f 203 222 660
f 651 653 661
f 657 651 661
f 401 402 661
f 656 203 660
f 653 401 661
f 561 562 662
f 580 578 663
f 181 561 662
f 582 580 663
f 562 654 662
f 578 658 663
f 652 657 664
f 656 660 665
f 654 648 666
f 648 655 666
f 658 656 665
f 655 650 667
f 665 660 668
f 660 222 668
f 650 659 667
f 584 582 669
f 661 402 670
f 402 405 670
f 582 663 669
f 657 661 670
f 664 657 670
f 658 665 671
f 667 659 672
f 669 663 671
f 663 658 671
f 659 652 672
f 652 664 672
f 664 670 673
f 405 407 673
f 670 405 673
f 665 668 674
f 181 662 675
f 662 654 675
f 192 181 675
f 194 192 675
f 654 666 675
f 655 667 676
f 586 584 677
f 584 669 677
f 666 655 676
f 676 667 678
f 668 222 679
f 222 242 679
f 674 668 679
f 669 671 680
f 667 672 678
f 672 664 681
f 664 673 681
f 677 669 680
f 673 407 681
f 678 672 681
f 194 675 682
f 675 666 682
f 666 676 682
f 680 671 683
f 665 674 683
f 676 678 684
f 671 665 683
f 682 676 684
f 407 408 685
f 586 677 686
f 684 678 685
f 681 407 685
f 678 681 685
f 194 682 687
f 674 679 688
f 683 674 688
f 682 684 687
f 218 194 687
f 408 409 689
f 686 677 690
f 685 408 689
f 677 680 690
f 687 684 689
f 684 685 689
f 248 394 691
f 689 409 692
f 412 237 692
f 688 679 691
f 409 412 692
f 242 246 691
f 218 687 692
f 246 248 691
f 687 689 692
f 679 242 691
f 237 218 692
f 690 680 693
f 680 683 693
f 586 686 694
f 588 586 694
f 589 588 694
f 693 683 695
f 683 688 695
f 686 690 696
f 394 396 697
f 691 394 697
f 695 688 697
f 688 691 697
f 690 693 698
f 696 690 698
f 589 694 699
f 693 695 700
f 698 693 700
f 694 686 701
f 686 696 701
f 396 399 702
f 700 695 702
f 695 697 702
f 697 396 702
f 696 698 703
f 587 589 704
f 589 699 704
f 698 700 705
f 703 698 705
f 699 694 706
f 694 701 706
f 587 704 707
f 585 587 707
f 399 400 708
f 700 702 708
f 705 700 708
f 702 399 708
f 701 696 709
f 696 703 709
f 706 701 709
f 703 705 710
f 704 699 711
f 699 706 711
f 707 704 711
f 400 403 712
f 705 708 712
f 708 400 712
f 710 705 712
f 585 707 713
f 583 585 713
f 706 709 714
f 707 711 715
f 714 709 716
f 709 703 716
f 703 710 716
f 712 403 717
f 403 404 717
f 716 710 717
f 710 712 717
f 581 583 718
f 583 713 718
f 711 706 719
f 706 714 719
f 715 711 719
f 713 707 720
f 707 715 720
f 714 716 721
f 715 719 722
f 404 406 723
f 717 404 723
f 716 717 723
f 721 716 723
f 579 581 724
f 581 718 724
f 713 720 725
f 718 713 725
f 724 718 725
f 722 719 726
f 719 714 726
f 714 721 726
f 720 715 727
f 715 722 727
f 406 410 728
f 726 721 728
f 723 406 728
f 721 723 728
f 577 579 590
f 579 724 590
f 722 726 729
f 727 722 729
f 724 725 730
f 590 724 730
f 730 725 731
f 725 720 731
f 720 727 731
f 410 411 732
f 728 410 732
f 726 728 732
f 729 726 732
f 575 577 593
f 577 590 593
f 731 727 733
f 727 729 733
f 729 732 734
f 411 413 734
f 733 729 734
f 732 411 734
f 590 730 591
f 591 730 594
f 730 731 594
f 574 575 596
f 573 574 596
f 575 593 596
f 594 731 598
f 731 733 598
f 598 733 602
f 734 413 602
f 733 734 602
f 735 498 493
f 736 735 492
f 735 493 492
f 737 736 481
f 736 492 481
f 738 737 480
f 737 481 480
f 738 480 451
f 738 451 739
f 739 451 450
f 739 450 452
f 739 452 489
f 740 484 483
f 741 740 495
f 740 483 495
f 742 741 497
f 741 495 497
f 743 742 501
f 742 497 501
f 743 501 504
f 743 504 744
f 744 504 503
f 744 503 502
f 744 502 498
f 745 453 468
f 746 745 476
f 745 468 476
f 747 746 485
f 746 476 485
f 748 747 491
f 747 485 491
f 748 491 455
f 748 455 749
f 749 455 454
f 749 454 457
f 749 457 484
f 750 471 475
f 751 750 478
f 750 475 478
f 752 751 487
f 751 478 487
f 753 752 494
f 752 487 494
f 753 494 499
f 753 499 754
f 754 499 447
f 754 447 446
f 754 446 453
f 755 490 479
f 756 755 477
f 755 479 477
f 757 756 473
f 756 477 473
f 758 757 467
f 757 473 467
f 758 467 463
f 758 463 759
f 759 463 460
f 759 460 464
f 759 464 471
f 760 489 482
f 761 760 469
f 760 482 469
f 762 761 465
f 761 469 465
f 763 762 449
f 762 465 449
f 763 449 448
f 763 448 764
f 764 448 500
f 764 500 496
f 764 496 490
f 765 766 767
f 766 768 767
f 769 770 771
f 771 770 772
f 769 771 773
f 774 775 776
f 775 774 777
f 778 779 780
f 779 778 781
f 773 782 783
f 84 784 783
f 784 769 783
f 769 773 783
f 782 785 786
f 785 775 786
f 775 777 786
f 783 782 786
f 777 787 765
f 787 788 765
f 786 777 765
f 781 789 790
f 789 75 790
f 788 779 790
f 779 781 790
f 765 788 790
f 58 84 791
f 84 783 791
f 58 791 792
f 783 786 792
f 791 783 792
f 765 790 766
f 58 766 793
f 766 790 793
f 75 58 794
f 58 793 794
f 793 790 794
f 790 75 794
f 766 58 768
f 58 792 768
f 792 786 767
f 768 792 767
f 786 765 767
f 744 498 780
f 743 744 779
f 744 780 779
f 743 779 788
f 742 743 787
f 743 788 787
f 742 787 777
f 741 742 774
f 742 777 774
f 740 741 776
f 484 740 776
f 741 774 776
f 489 63 739
f 61 60 739
f 63 61 739
f 76 75 738
f 60 76 738
f 739 60 738
f 789 781 737
f 75 789 737
f 738 75 737
f 778 780 736
f 781 778 736
f 737 781 736
f 736 780 735
f 735 780 498
f 764 490 67
f 763 764 66
f 764 67 66
f 763 66 77
f 762 763 73
f 763 77 73
f 762 73 64
f 761 762 62
f 762 64 62
f 760 761 63
f 489 760 63
f 761 62 63
f 759 471 71
f 758 759 70
f 759 71 70
f 758 70 81
f 757 758 79
f 758 81 79
f 757 79 68
f 756 757 65
f 757 68 65
f 755 756 67
f 490 755 67
f 756 65 67
f 754 453 772
f 754 772 770
f 753 754 769
f 754 770 769
f 753 769 784
f 752 753 84
f 753 784 84
f 752 84 82
f 751 752 72
f 752 82 72
f 751 72 69
f 750 751 71
f 471 750 71
f 751 69 71
f 749 484 776
f 748 749 775
f 749 776 775
f 748 775 785
f 747 748 782
f 748 785 782
f 747 782 773
f 746 747 771
f 747 773 771
f 745 746 772
f 453 745 772
f 746 771 772
f 422 795 796
f 422 420 795
f 423 796 797
f 423 422 796
f 427 797 798
f 427 423 797
f 421 36 35
f 421 35 799
f 429 427 798
f 424 799 800
f 424 421 799
f 430 798 801
f 425 800 802
f 430 429 798
f 425 424 800
f 431 801 803
f 431 430 801
f 426 802 804
f 426 425 802
f 435 803 805
f 435 431 803
f 428 804 806
f 436 805 807
f 428 426 804
f 436 435 805
f 438 807 808
f 432 806 809
f 438 436 807
f 432 428 806
f 439 438 808
f 439 808 10
f 12 439 10
f 433 432 809
f 434 809 810
f 434 433 809
f 437 810 811
f 437 434 810
f 440 811 812
f 440 437 811
f 441 440 812
f 441 812 813
f 442 441 813
f 442 813 814
f 443 442 814
f 443 814 815
f 417 443 815
f 418 417 815
f 418 815 816
f 419 816 817
f 419 418 816
f 420 817 795
f 420 419 817
f 54 49 45
f 795 54 45
f 49 47 45
f 809 806 804
f 810 809 804
f 11 10 15
f 15 10 19
f 804 802 800
f 45 43 41
f 810 804 800
f 811 810 813
f 812 811 813
f 23 19 27
f 10 795 27
f 795 45 27
f 19 10 27
f 41 39 33
f 800 799 35
f 45 41 33
f 27 45 33
f 814 813 815
f 35 31 29
f 810 800 29
f 800 35 29
f 816 815 817
f 815 813 817
f 813 810 25
f 810 29 25
f 795 817 21
f 817 813 21
f 813 25 21
f 795 21 17
f 796 795 797
f 795 17 8
f 798 797 801
f 797 795 801
f 8 6 3
f 803 801 805
f 795 8 54
f 8 3 54
f 3 2 54
f 805 801 808
f 807 805 808
f 801 795 808
f 808 795 10
f 54 52 49
