# Created by FreeCAD <http://www.freecadweb.org>
v -26.350000 215.457672 16.259523
v -26.000000 214.839142 16.287863
v -26.000000 214.862625 16.121199
v -26.350000 215.423706 16.452831
v -26.350000 215.472534 16.063816
v -26.000000 214.865845 15.952921
v -26.350000 215.468140 15.867595
v -26.000000 214.848755 15.785481
v -26.350000 213.030838 17.960876
v -26.000000 213.033188 17.332911
v -26.000000 213.195801 17.376310
v -26.350000 212.841797 17.908119
v -26.350000 215.444534 15.672750
v -26.350000 213.224152 17.994848
v -26.000000 213.362473 17.399794
v -26.350000 215.401947 15.481155
v -26.000000 214.811615 15.621323
v -26.350000 213.419846 18.009708
v -26.000000 213.530746 17.403017
v -26.350000 215.340790 15.294658
v -26.000000 214.754959 15.462836
v -26.350000 213.616074 18.005316
v -26.000000 213.698181 17.385933
v -26.350000 215.261627 15.115054
v -26.000000 214.679611 15.312336
v -26.350000 215.165253 14.944074
v -26.000000 214.586670 15.172015
v -26.350000 213.810913 17.981710
v -26.350000 214.002518 17.939119
v -26.000000 213.862350 17.348789
v -26.350000 215.052597 14.783362
v -26.000000 214.477493 15.043921
v -26.350000 214.189011 17.877954
v -26.000000 214.020828 17.292131
v -26.350000 214.924713 14.634468
v -26.350000 214.368622 17.798805
v -26.000000 214.171341 17.216782
v -26.350000 214.782852 14.498825
v -26.000000 214.353668 14.929919
v -26.350000 214.628387 14.377740
v -26.000000 214.217010 14.831674
v -26.350000 214.539597 17.702433
v -26.000000 214.311661 17.123842
v -26.350000 214.462799 14.272378
v -26.000000 214.069504 14.750617
v -26.350000 214.287674 14.183754
v -26.000000 213.913300 14.687932
v -26.350000 214.700302 17.589766
v -26.000000 214.439743 17.014664
v -26.350000 214.104706 14.112722
v -26.350000 214.849197 17.461887
v -26.350000 214.984848 17.320030
v -26.000000 214.553757 16.890844
v -26.350000 215.105927 17.165562
v -26.000000 214.651993 16.754185
v -26.350000 215.211288 16.999969
v -26.000000 214.733047 16.606680
v -26.350000 215.299911 16.824846
v -26.000000 214.795731 16.450480
v -26.350000 215.370941 16.641880
v -34.779423 213.867905 14.824360
v -34.450001 213.255096 15.322496
v -34.224998 213.475800 15.649587
v -34.000000 213.473251 16.010422
v -34.224998 213.364166 15.666459
v -34.450001 212.892395 15.582108
v -34.224998 213.263214 15.717001
v -34.450001 212.751572 16.005322
v -34.450001 212.886414 16.430483
v -34.224998 213.179825 16.220451
v -34.779423 213.078583 17.196484
v -34.224998 213.259094 16.300844
v -34.812397 213.521820 14.709200
v -34.850430 213.351089 14.652390
v -34.841705 213.024170 14.737614
v -34.224998 213.117249 15.951456
v -34.112499 213.294846 16.037386
v -34.900002 213.183136 14.596501
v -34.800873 212.863205 14.880505
v -34.817741 212.347946 15.337889
v -34.854034 212.225098 15.446941
v -34.841705 212.146423 15.762929
v -34.900002 212.103699 15.554706
v -34.800873 212.189682 15.973778
v -34.817741 212.328171 16.648693
v -34.854034 212.361191 16.809608
v -34.850430 212.561768 17.024513
v -34.900002 212.393814 16.968624
v -34.812397 212.732498 17.081324
v -34.782917 212.731079 14.997787
v -34.788021 213.694397 14.766624
v -34.780411 212.597382 15.116476
v -34.792679 212.472092 15.227688
v -34.782917 212.225204 16.146839
v -34.780411 212.261139 16.321978
v -34.788021 212.905075 17.138748
v -34.792679 212.294800 16.486080
v -33.973206 212.128159 14.397740
v -33.941422 212.306183 14.314632
v -33.941422 212.154694 14.429549
v -33.973206 212.028503 14.486382
v -33.993187 211.719559 14.769663
v -33.993187 211.849609 14.603745
v -33.973206 211.886078 14.635331
v -33.799999 212.757492 14.142887
v -33.799999 212.577881 14.222037
v -33.851765 212.658661 14.176366
v -33.900002 212.483154 14.241916
v -33.900002 212.650558 14.158106
v -33.851765 212.831360 14.109030
v -33.941422 212.467621 14.214183
v -33.900002 212.324203 14.340815
v -34.000000 211.548950 14.944073
v -34.000000 211.655548 14.771070
v -33.993187 211.606384 14.947530
v -33.941422 212.056992 14.516443
v -33.973206 211.758926 14.797523
v -33.851765 212.492920 14.259350
v -33.799999 212.406906 14.318410
v -33.900002 212.175049 14.453958
v -34.000000 211.458771 15.126172
v -33.993187 211.511200 15.135633
v -33.941422 211.917374 14.662454
v -33.799999 212.246185 14.431078
v -33.851765 212.335526 14.357273
v -33.973206 211.648300 14.971395
v -33.900002 212.078857 14.539510
v -34.000000 211.385773 15.315817
v -33.993187 211.434891 15.332160
v -34.000000 211.330597 15.511387
v -33.941422 211.792740 14.821446
v -33.851765 212.187851 14.469301
v -33.799999 212.097290 14.558955
v -33.973206 211.555252 15.155275
v -33.900002 211.941406 14.683267
v -34.000000 211.293686 15.711215
v -33.993187 211.381012 15.523129
v -33.941422 211.684296 14.991890
v -33.851765 212.092606 14.554009
v -33.973206 211.480667 15.347389
v -33.900002 211.818695 14.839804
v -33.993187 211.344971 15.718255
v -33.941422 211.593079 15.172142
v -33.851765 211.956497 14.696349
v -33.799999 211.961655 14.700811
v -33.799999 211.840561 14.855280
v -33.973206 211.427994 15.534070
v -33.900002 211.711914 15.007616
v -34.000000 211.275375 15.913595
v -33.993187 211.327087 15.915874
v -34.000000 211.275818 16.116802
v -33.941422 211.519974 15.360468
v -33.799999 211.735199 15.020873
v -33.851765 211.835007 14.851344
v -33.973206 211.392761 15.724815
v -33.900002 211.622116 15.185085
v -34.000000 211.295013 16.319101
v -33.993187 211.327530 16.114300
v -33.941422 211.468323 15.543467
v -33.851765 211.729279 15.017502
v -33.973206 211.375290 15.917996
v -33.900002 211.550125 15.370502
v -33.993187 211.346268 16.311838
v -33.941422 211.433792 15.730449
v -33.851765 211.640350 15.193221
v -33.799999 211.646576 15.195996
v -33.799999 211.575546 15.378963
v -33.973206 211.375702 16.111967
v -33.900002 211.499283 15.550675
v -33.993187 211.383148 16.506805
v -34.000000 211.332779 16.518766
v -34.000000 211.388824 16.714096
v -33.941422 211.416672 15.919820
v -33.851765 211.569077 15.376811
v -33.973206 211.394028 16.305071
v -33.900002 211.465286 15.734772
v -33.993187 211.437866 16.697538
v -34.000000 211.462631 16.903421
v -33.941422 211.417084 16.109964
v -33.799999 211.522797 15.568010
v -33.851765 211.518738 15.555208
v -33.973206 211.430084 16.495661
v -33.900002 211.448410 15.921219
v -33.993187 211.509949 16.882410
v -33.941422 211.435028 16.299259
v -33.851765 211.485077 15.737489
v -33.799999 211.488815 15.761318
v -33.973206 211.483566 16.682110
v -33.900002 211.448822 16.108427
v -33.993187 211.598785 17.059841
v -34.000000 211.553604 17.085127
v -34.000000 212.778641 18.097889
v -34.000000 212.589005 18.024895
v -33.993187 212.794983 18.048773
v -33.941422 211.470383 16.486090
v -33.799999 211.473969 15.957026
v -33.851765 211.468384 15.922098
v -33.973206 211.554031 16.862829
v -33.900002 211.466507 16.294800
v -34.000000 211.660965 17.257664
v -33.993187 211.703598 17.228317
v -33.941422 211.522812 16.668861
v -33.799999 211.478348 16.153248
v -33.851765 211.468781 16.107460
v -33.973206 211.640869 17.036276
v -33.851765 212.839645 17.914585
v -33.799999 212.658829 17.837088
v -33.799999 212.841797 17.908119
v -34.000000 214.167847 13.922953
v -33.993187 214.151505 13.972069
v -33.993187 213.960541 13.918182
v -33.900002 211.501297 16.478745
v -34.000000 213.972290 13.867767
v -34.000000 213.772461 13.830863
v -33.993187 213.765411 13.882146
v -33.993187 211.823532 17.386404
v -34.000000 213.570068 13.812553
v -34.000000 211.783768 17.419561
v -33.973206 213.949600 13.965160
v -33.941422 211.591888 16.846016
v -33.973206 214.136276 14.017838
v -33.941422 214.123199 14.057140
v -33.851765 211.486282 16.291996
v -33.799999 211.501953 16.348093
v -33.993187 213.567795 13.864266
v -33.973206 211.743332 17.200972
v -33.973206 213.758850 13.929934
v -33.993187 211.914200 17.488358
v -33.993187 213.369370 13.864698
v -34.000000 213.366867 13.812995
v -34.000000 211.921005 17.569435
v -33.900002 211.552933 16.658695
v -33.941422 213.940201 14.005503
v -33.941422 211.677017 17.016043
v -33.973206 213.565674 13.912457
v -33.851765 211.520737 16.474129
v -33.993187 213.171829 13.883436
v -33.799999 211.544556 16.539688
v -34.000000 213.164566 13.832184
v -34.000000 212.964905 13.869958
v -33.973206 211.860565 17.355509
v -33.941422 213.753220 13.970970
v -33.993187 212.066574 17.634054
v -34.000000 212.071472 17.706007
v -33.973206 213.371704 13.912878
v -33.900002 211.620926 16.833115
v -33.900002 213.932999 14.036458
v -33.900002 214.113174 14.087298
v -33.941422 211.777466 17.177488
v -33.993187 212.976868 13.920321
v -34.000000 212.769577 13.925993
v -33.973206 211.949203 17.455172
v -33.941422 213.563843 13.953837
v -33.851765 211.571854 16.652306
v -33.799999 211.605713 16.726185
v -33.973206 213.178604 13.931195
v -33.993187 212.232483 17.764114
v -34.000000 212.233902 17.828114
v -33.900002 211.704742 17.000515
v -33.900002 213.748901 14.002459
v -33.993187 212.786133 13.975038
v -33.941422 211.892380 17.328978
v -33.941422 213.373703 13.954250
v -33.973206 212.098160 17.597597
v -33.799999 214.104706 14.112722
v -33.799999 213.915665 14.059967
v -33.851765 213.928467 14.055917
v -33.851765 211.639191 16.825005
v -33.799999 211.684860 16.905788
v -33.851765 214.106857 14.106256
v -33.900002 211.803635 17.159470
v -33.973206 212.988007 13.967252
v -33.993187 212.410355 17.877285
v -33.900002 213.562454 13.985590
v -34.000000 212.406906 17.934713
v -33.941422 211.979263 17.426676
v -34.000000 212.580246 13.999811
v -33.993187 212.601257 14.047119
v -33.973206 212.260345 17.724737
v -33.799999 211.781235 17.076769
v -33.851765 211.722183 16.990755
v -33.941422 213.184418 13.972206
v -33.851765 213.746185 14.022253
v -33.799999 213.722351 14.025995
v -33.900002 211.916779 17.308620
v -33.993187 212.598465 17.972477
v -33.973206 212.801559 14.020740
v -33.900002 213.375244 13.985997
v -33.941422 212.125275 17.566292
v -33.799999 211.893906 17.237480
v -33.851765 211.820099 17.148142
v -34.000000 212.398544 14.090784
v -33.993187 212.423828 14.135951
v -33.973206 212.434219 17.835367
v -33.900002 212.002335 17.404808
v -33.941422 212.997574 14.007552
v -33.799999 213.526642 14.011134
v -33.851765 213.561569 14.005551
v -33.941422 212.284271 17.690924
v -33.973206 212.620834 14.091203
v -33.799999 212.021790 17.386374
v -33.851765 211.932129 17.295822
v -33.973206 212.810211 18.003004
v -33.973206 212.618103 17.928421
v -33.900002 213.188873 14.003675
v -34.000000 212.225998 14.198134
v -33.993187 212.255356 14.240775
v -33.900002 212.146088 17.542269
v -34.000000 212.064102 14.320946
v -33.941422 212.454712 17.799370
v -33.851765 212.016830 17.391064
v -33.900002 212.302628 17.664976
v -33.941422 212.814804 14.059985
v -33.799999 213.330429 14.015528
v -33.851765 213.376205 14.005954
v -33.941422 212.823288 17.963701
v -33.941422 212.634964 17.890591
v -33.851765 212.159180 17.527168
v -33.973206 212.447388 14.178041
v -33.799999 212.163635 17.522017
v -33.799999 212.318100 17.643103
v -33.900002 213.004929 14.038475
v -33.900002 212.470444 17.771749
v -33.993187 212.097260 14.360698
v -33.851765 212.314178 17.648666
v -33.799999 212.483704 17.748465
v -33.900002 212.833328 17.933544
v -33.900002 212.647919 17.861561
v -33.941422 212.637650 14.129058
v -33.851765 212.480331 17.754387
v -33.799999 213.135574 14.039133
v -33.851765 213.191681 14.023458
v -33.851765 212.656052 17.843313
v -33.973206 212.282700 14.280511
v -34.000000 211.914230 14.458172
v -33.993187 211.995316 14.451376
v -33.900002 212.824966 14.090098
v -33.799999 212.943985 14.081723
v -33.851765 213.009537 14.057915
v -34.000000 211.777664 14.608642
v -36.131519 215.493607 15.386625
v -36.200001 215.401947 15.481155
v -36.200001 215.468140 15.867595
v -36.200001 215.261627 15.115054
v -34.000000 209.962402 14.556484
v -34.000000 209.867615 14.810650
v -34.271950 209.964584 14.842914
v -34.535778 210.079987 14.881312
v -35.928459 214.759506 13.971352
v -36.200001 214.462799 14.272378
v -36.200001 214.782852 14.498825
v -36.200001 214.104706 14.112722
v -36.200001 215.457672 16.259523
v -36.200001 215.370941 16.641880
v -36.045986 215.604675 16.719652
v -34.000000 210.075073 14.309728
v -35.053486 214.026123 12.794386
v -34.000000 214.673019 12.404794
v -34.000000 214.412735 12.328390
v -35.874527 215.827194 16.793699
v -34.000000 214.147675 12.270749
v -34.656937 213.174133 12.510884
v -34.790104 210.213211 14.925646
v -35.439434 216.406082 15.690252
v -35.686531 216.037354 16.863628
v -35.264957 216.416214 16.989691
v -35.033588 216.582916 17.045162
v -35.482986 216.234039 16.929073
v -35.525990 215.785049 14.312602
v -36.200001 215.052597 14.783362
v -35.053486 214.957520 13.104303
v -34.000000 215.173935 12.612239
v -34.000000 214.927185 12.499571
v -34.485630 217.073013 15.912176
v -34.000000 217.212921 16.684847
v -34.000000 217.251511 16.416344
v -34.000000 217.270844 16.145771
v -34.000000 217.270813 15.874509
v -34.000000 217.251450 15.603940
v -34.000000 217.212814 15.335443
v -34.790104 216.733276 17.095196
v -34.771660 216.612869 14.588058
v -34.000000 217.155136 15.070384
v -34.000000 217.078705 14.810116
v -34.000000 216.983887 14.555964
v -34.000000 216.871185 14.309224
v -34.000000 216.741165 14.071153
v -34.000000 216.594482 13.842964
v -34.656937 215.809509 13.387805
v -34.000000 216.431915 13.625820
v -34.000000 216.254257 13.420827
v -34.000000 216.062424 13.229031
v -34.000000 215.857407 13.051407
v -34.000000 215.640244 12.888862
v -36.200001 211.735199 15.020873
v -35.686531 210.909134 15.157214
v -35.874527 211.119293 15.227144
v -34.000000 215.412033 12.742224
v -36.045986 211.341827 15.301189
v -36.200001 211.575546 15.378963
v -35.382725 213.381790 13.010414
v -35.525990 212.639618 13.265960
v -35.928459 213.665161 13.607210
v -35.576611 214.322708 13.323504
v -34.485630 210.650024 13.774927
v -34.000000 210.883652 13.229414
v -34.000000 210.691864 13.421239
v -34.000000 210.514236 13.626258
v -34.000000 210.351685 13.843427
v -35.382725 215.343948 13.663321
v -34.000000 210.205048 14.071637
v -35.033588 210.363586 14.975679
v -35.439434 211.316971 13.996850
v -35.264957 210.530289 15.031151
v -35.482986 210.712463 15.091769
v -36.200001 211.961655 14.700811
v -36.131519 212.229446 14.300478
v -36.200001 212.246185 14.431078
v -36.200001 212.577881 14.222037
v -34.771660 211.811798 12.990503
v -34.000000 212.272949 12.404971
v -34.000000 212.018799 12.499786
v -34.000000 211.772049 12.612492
v -34.000000 217.155273 16.949913
v -34.271950 216.981918 17.177929
v -34.000000 217.078873 17.210192
v -34.000000 211.533981 12.742511
v -34.535778 216.866516 17.139530
v -34.000000 211.305786 12.889183
v -34.000000 211.088654 13.051760
v -36.200001 212.943985 14.081723
v -36.200001 213.330429 14.015528
v -34.000000 213.879166 12.232164
v -34.000000 213.608597 12.212832
v -34.000000 213.337341 12.212852
v -34.000000 213.066772 12.232224
v -34.000000 212.798264 12.270848
v -34.000000 212.533218 12.328529
v -36.200001 213.722351 14.025995
v -33.799999 215.105927 17.165562
v -33.799999 214.628387 14.377740
v -33.799999 214.782852 14.498825
v -33.799999 214.462799 14.272378
v -33.799999 214.984848 17.320030
v -33.799999 214.287674 14.183754
v -33.799999 215.211288 16.999969
v -33.799999 215.299911 16.824846
v -33.799999 213.030838 17.960876
v -33.799999 215.370941 16.641880
v -33.799999 215.423706 16.452831
v -33.799999 213.224152 17.994848
v -33.799999 215.457672 16.259523
v -33.799999 213.419846 18.009708
v -33.799999 215.472534 16.063816
v -33.799999 213.616074 18.005316
v -33.799999 215.468140 15.867595
v -33.799999 213.810913 17.981710
v -33.799999 215.444534 15.672750
v -33.799999 214.002518 17.939119
v -33.799999 215.401947 15.481155
v -33.799999 214.189011 17.877954
v -33.799999 215.340790 15.294658
v -33.799999 214.368622 17.798805
v -33.799999 215.261627 15.115054
v -33.799999 215.165253 14.944074
v -33.799999 214.539597 17.702433
v -33.799999 214.700302 17.589766
v -33.799999 215.052597 14.783362
v -33.799999 214.849197 17.461887
v -33.799999 214.924713 14.634468
v -26.350000 212.318100 17.643103
v -26.350000 212.483704 17.748465
v -26.350000 211.840561 14.855280
v -26.350000 212.658829 17.837088
v -26.350000 211.735199 15.020873
v -26.350000 211.646576 15.195996
v -26.350000 213.915665 14.059967
v -26.350000 211.575546 15.378963
v -26.350000 211.522797 15.568010
v -26.350000 211.488815 15.761318
v -26.350000 213.722351 14.025995
v -26.350000 213.526642 14.011134
v -26.350000 213.330429 14.015528
v -26.350000 211.473969 15.957026
v -26.350000 213.135574 14.039133
v -26.350000 211.478348 16.153248
v -26.350000 211.501953 16.348093
v -26.350000 211.544556 16.539688
v -26.350000 212.943985 14.081723
v -26.350000 212.757492 14.142887
v -26.350000 211.605713 16.726185
v -26.350000 212.577881 14.222037
v -26.350000 211.684860 16.905788
v -26.350000 211.781235 17.076769
v -26.350000 212.406906 14.318410
v -26.350000 211.893906 17.237480
v -26.350000 212.246185 14.431078
v -26.350000 212.021790 17.386374
v -26.350000 212.097290 14.558955
v -26.350000 211.961655 14.700811
v -26.350000 212.163635 17.522017
v -36.200001 213.616074 18.005316
v -36.200001 214.002518 17.939119
v -36.200001 213.763367 17.424341
v -36.200001 213.576324 17.450111
v -36.200001 213.928970 14.640875
v -36.200001 214.103821 14.712074
v -36.200001 213.746307 14.593109
v -36.200001 213.945435 17.374378
v -36.200001 214.890564 16.283478
v -36.200001 214.842789 16.466137
v -36.200001 212.515045 14.930986
v -36.200001 212.664139 14.815150
v -36.200001 214.771591 16.641001
v -36.200001 215.211288 16.999969
v -36.200001 212.827072 14.719766
v -36.200001 214.267899 14.805490
v -36.200001 214.368622 17.798805
v -36.200001 214.119431 17.301077
v -36.200001 214.914078 16.096144
v -36.200001 211.544556 16.539688
v -36.200001 211.684860 16.905788
v -36.200001 212.109299 16.482605
v -36.200001 213.001068 14.646465
v -36.200001 212.182587 16.656597
v -36.200001 211.893906 17.237480
v -36.200001 212.277985 16.819532
v -36.200001 214.282364 17.205692
v -36.200001 214.418381 14.919520
v -36.200001 214.552689 15.052217
v -36.200001 214.912933 15.907346
v -36.200001 212.059326 16.300533
v -36.200001 214.887161 15.720310
v -36.200001 213.183136 14.596501
v -36.200001 211.478348 16.153248
v -36.200001 214.431458 17.089855
v -36.200001 214.700302 17.589766
v -36.200001 214.837204 15.538239
v -36.200001 212.393814 16.968624
v -36.200001 212.163635 17.522017
v -36.200001 214.668518 15.201309
v -36.200001 212.033554 16.113497
v -36.200001 214.763901 15.364245
v -36.200001 212.528122 17.101322
v -36.200001 213.370178 14.570731
v -36.200001 213.558975 14.569593
v -36.200001 212.032425 15.924698
v -36.200001 211.488815 15.761318
v -36.200001 214.564148 16.955551
v -36.200001 214.984848 17.320030
v -36.200001 214.678177 16.805073
v -36.200001 212.483704 17.748465
v -36.200001 212.678589 17.215353
v -36.200001 212.055939 15.737366
v -36.200001 212.842667 17.308767
v -36.200001 212.841797 17.908119
v -36.200001 212.103699 15.554706
v -36.200001 213.017532 17.379967
v -36.200001 212.174896 15.379842
v -36.200001 213.200195 17.427732
v -36.200001 213.224152 17.994848
v -36.200001 212.268311 15.215769
v -36.200001 213.387527 17.451248
v -36.200001 212.382355 15.065292
v -35.928459 213.281342 18.413631
v -34.656937 213.772369 19.509958
v -34.000000 212.798828 19.750093
v -34.000000 213.067322 19.788679
v -34.000000 213.337906 19.808010
v -34.000000 213.609161 19.807989
v -34.000000 213.879730 19.788618
v -34.000000 214.148224 19.749994
v -34.000000 214.413284 19.692314
v -34.000000 214.673553 19.615871
v -35.053486 212.920364 19.226456
v -35.525990 214.306885 18.754883
v -34.771660 215.134705 19.030338
v -34.000000 214.927704 19.521055
v -34.000000 215.174438 19.408352
v -34.000000 215.412521 19.278332
v -34.000000 215.640701 19.131660
v -34.000000 215.857849 18.969082
v -34.000000 216.062836 18.791430
v -36.131519 214.717056 17.720364
v -35.439434 215.629532 18.023993
v -34.485630 216.296463 18.245916
v -34.000000 216.871429 17.711115
v -34.000000 216.254639 18.599604
v -34.000000 216.432266 18.394585
v -34.000000 216.594803 18.177416
v -34.000000 216.741440 17.949205
v -35.382725 211.602554 18.357523
v -34.656937 211.136993 18.633038
v -35.053486 211.988983 18.916538
v -35.525990 211.161453 17.708241
v -35.928459 212.186996 18.049490
v -35.576611 212.623779 18.697338
v -35.382725 213.564697 19.010427
v -34.000000 216.984100 17.464357
v -34.000000 210.352005 18.177877
v -34.000000 210.514587 18.395023
v -34.000000 210.692245 18.600016
v -34.000000 210.884064 18.791813
v -34.000000 211.089081 18.969435
v -34.000000 211.306259 19.131981
v -34.000000 211.534470 19.278620
v -34.000000 211.772552 19.408604
v -34.771660 210.333633 17.432783
v -34.000000 209.733673 16.685400
v -34.000000 209.791351 16.950459
v -34.000000 209.867798 17.210726
v -34.000000 209.962616 17.464878
v -34.000000 210.075317 17.711618
v -34.000000 210.205338 17.949690
v -34.000000 209.791214 15.070930
v -34.485630 209.873474 16.108667
v -34.000000 209.733582 15.335996
v -34.000000 209.694992 15.604500
v -34.000000 209.675659 15.875072
v -34.000000 209.675674 16.146334
v -34.000000 209.695053 16.416903
v -34.000000 212.019318 19.521271
v -34.000000 212.273483 19.616049
v -35.439434 210.540421 16.330589
v -34.000000 212.533752 19.692453
v -36.131519 211.452896 16.634218
v -34.000000 215.487717 16.894670
v -34.000000 215.560715 16.705027
v -34.000000 212.974213 18.153074
v -34.000000 213.174042 18.189980
v -34.000000 215.397537 17.076771
v -34.000000 213.376419 18.208290
v -34.000000 215.290939 17.249773
v -34.000000 213.579636 18.207848
v -34.000000 215.168839 17.412201
v -34.000000 213.781921 18.188658
v -34.000000 215.032257 17.562670
v -34.000000 213.981598 18.150885
v -34.000000 214.882385 17.699896
v -34.000000 214.176926 18.094851
v -34.000000 214.720490 17.822708
v -34.000000 214.547958 17.930059
v -34.000000 214.366241 18.021030
v -34.000000 214.357498 13.995948
v -34.000000 214.539597 14.086129
v -34.000000 214.712601 14.192728
v -34.000000 214.875031 14.314835
v -34.000000 215.025497 14.451408
v -34.000000 215.162720 14.601282
v -34.000000 215.285538 14.763178
v -34.000000 215.392883 14.935716
v -34.000000 215.483856 15.117422
v -34.000000 215.557678 15.306746
v -34.000000 215.613708 15.502075
v -34.000000 215.651489 15.701741
v -34.000000 215.670670 15.904040
v -34.000000 215.671112 16.107246
v -34.000000 215.652802 16.309628
v -34.000000 215.615906 16.509455
v -33.941422 214.478867 17.806660
v -33.941422 214.308838 17.891785
v -33.900002 214.463348 17.778927
v -33.900002 214.295944 17.862736
v -33.973206 214.818329 17.623102
v -33.973206 214.663803 17.740332
v -33.941422 214.791809 17.591293
v -33.941422 214.640320 17.706209
v -33.973206 214.917999 17.534460
v -33.993187 215.226944 17.251179
v -33.993187 215.096878 17.417097
v -33.973206 215.060425 17.385511
v -33.993187 214.951187 17.569468
v -33.851765 214.287827 17.844477
v -33.851765 214.115128 17.911814
v -33.900002 214.121521 17.930744
v -33.900002 214.622299 17.680027
v -33.993187 215.340118 17.073313
v -33.941422 214.889496 17.504400
v -33.973206 215.187561 17.223320
v -33.851765 214.453583 17.761492
v -33.900002 214.771454 17.566885
v -33.993187 215.435303 16.885210
v -33.941422 215.029114 17.358389
v -33.851765 214.610962 17.663568
v -33.973206 215.298187 17.049446
v -33.900002 214.867630 17.481333
v -33.993187 215.511597 16.688683
v -33.941422 215.153748 17.199396
v -33.851765 214.758652 17.551540
v -33.973206 215.391251 16.865568
v -33.900002 215.005096 17.337576
v -33.993187 215.565491 16.497713
v -33.941422 215.262192 17.028952
v -33.851765 214.853897 17.466833
v -33.973206 215.465836 16.673452
v -33.900002 215.127808 17.181038
v -33.993187 215.601517 16.302588
v -33.941422 215.353424 16.848700
v -33.851765 214.989990 17.324493
v -33.973206 215.518509 16.486773
v -33.900002 215.234573 17.013227
v -33.993187 215.619400 16.104969
v -33.941422 215.426529 16.660376
v -33.851765 215.111496 17.169498
v -33.973206 215.553741 16.296026
v -33.900002 215.324387 16.835758
v -33.993187 215.618973 15.906543
v -33.941422 215.478165 16.477377
v -33.851765 215.217209 17.003342
v -33.973206 215.571213 16.102846
v -33.900002 215.396378 16.650339
v -33.993187 215.600235 15.709003
v -33.941422 215.512695 16.290394
v -33.851765 215.306137 16.827621
v -33.973206 215.570786 15.908875
v -33.900002 215.447205 16.470167
v -33.993187 215.563354 15.514036
v -33.941422 215.529831 16.101023
v -33.851765 215.377411 16.644032
v -33.973206 215.552475 15.715772
v -33.900002 215.481216 16.286072
v -33.993187 215.508636 15.323303
v -33.941422 215.529419 15.910878
v -33.851765 215.427750 16.465635
v -33.973206 215.516418 15.525182
v -33.900002 215.498077 16.099625
v -33.993187 215.436554 15.138433
v -33.941422 215.511459 15.721583
v -33.851765 215.461411 16.283354
v -33.973206 215.462936 15.338732
v -33.900002 215.497665 15.912416
v -33.993187 215.347717 14.961002
v -33.941422 215.476120 15.534753
v -33.851765 215.478119 16.098743
v -33.973206 215.392471 15.158012
v -33.900002 215.479996 15.726043
v -33.993187 215.242889 14.792524
v -33.993187 212.985962 18.102661
v -33.993187 213.181076 18.138697
v -33.941422 215.423691 15.351980
v -33.851765 215.477722 15.913382
v -33.973206 212.996902 18.055681
v -33.993187 213.378708 18.156576
v -33.973206 215.305634 14.984566
v -33.900002 215.445190 15.542097
v -33.973206 213.187637 18.090908
v -33.993187 213.577133 18.156145
v -33.993187 215.122971 14.634438
v -33.941422 215.354614 15.174826
v -33.941422 213.006287 18.015341
v -33.851765 215.460205 15.728847
v -33.973206 213.380829 18.108387
v -33.973206 215.203156 14.819871
v -33.993187 213.774658 18.137407
v -33.993187 215.032288 14.532485
v -33.941422 213.193283 18.049873
v -33.900002 215.393570 15.362146
v -33.973206 213.574799 18.107965
v -33.900002 213.013504 17.984385
v -33.941422 215.269485 15.004800
v -33.851765 215.425751 15.546714
v -33.993187 213.969635 18.100521
v -33.973206 215.085922 14.665334
v -33.941422 213.382645 18.067005
v -33.993187 214.879929 14.386788
v -33.900002 215.325562 15.187727
v -33.973206 213.767899 18.089647
v -33.941422 215.169037 14.843354
v -33.900002 213.197601 18.018385
v -33.993187 214.160370 18.045805
v -33.973206 214.997284 14.565670
v -33.941422 213.572784 18.066591
v -33.851765 215.374634 15.368538
v -33.851765 213.018036 17.964926
v -33.993187 214.714005 14.256728
v -33.973206 213.958481 18.053591
v -33.900002 215.241760 15.020327
v -33.900002 213.384048 18.035252
v -33.941422 215.054123 14.691865
v -33.993187 214.345230 17.973722
v -33.973206 214.848343 14.423245
v -33.851765 215.307297 15.195837
v -33.941422 213.762085 18.048635
v -33.851765 213.200317 17.998590
v -33.900002 215.142853 14.861373
v -33.993187 214.536133 14.143558
v -33.973206 214.144943 18.000103
v -33.941422 214.967224 14.594168
v -33.900002 213.571259 18.034845
v -33.973206 214.686142 14.296105
v -33.993187 214.522675 17.884892
v -33.851765 215.224319 15.030087
v -33.900002 215.029709 14.712223
v -33.941422 213.948914 18.013290
v -33.993187 214.348038 14.048366
v -33.851765 213.384918 18.015291
v -33.941422 214.821213 14.454552
v -33.973206 214.325653 17.929640
v -33.851765 215.126389 14.872701
v -33.900002 213.757629 18.017166
v -33.973206 214.512268 14.185475
v -33.900002 214.944153 14.616034
v -33.993187 214.691147 17.780067
v -33.941422 214.662216 14.329920
v -33.941422 214.131683 17.960857
v -33.851765 215.014374 14.725020
v -33.851765 213.570282 18.014889
v -33.973206 214.328400 14.092421
v -33.900002 214.800400 14.478574
v -33.973206 214.499100 17.842802
v -33.941422 214.491776 14.221472
v -33.900002 213.941574 17.982367
v -33.851765 214.929657 14.629780
v -33.900002 214.643860 14.355865
v -33.993187 214.849228 17.660145
v -33.941422 214.311523 14.130253
v -33.851765 213.754822 17.997385
v -33.851765 214.787323 14.493674
v -33.900002 214.476059 14.249092
v -33.851765 214.632324 14.372176
v -33.900002 214.298584 14.159282
v -33.851765 214.466171 14.266456
v -33.851765 214.290451 14.177530
v -33.851765 213.936951 17.962927
v -36.177303 214.363037 14.989115
v -36.161011 214.173218 14.925951
v -36.151989 213.983185 14.862718
v -36.151100 213.792892 14.799398
v -36.156414 213.640381 14.748652
v -36.166637 213.487793 14.697876
v -36.181320 213.335312 14.647137
v -36.177246 214.802505 16.269760
v -36.160950 214.762207 16.073381
v -36.151958 214.721909 15.877004
v -36.151115 214.681625 15.680626
v -36.156429 214.649384 15.523524
v -36.166641 214.617157 15.366422
v -36.181309 214.584915 15.209320
v -36.177246 213.913284 17.291258
v -36.160950 214.063202 17.158173
v -36.151958 214.213120 17.025089
v -36.151115 214.363052 16.892006
v -36.156429 214.482986 16.785538
v -36.166641 214.602921 16.679071
v -36.181309 214.722855 16.572605
v -36.177258 212.584091 17.031939
v -36.160942 212.774765 17.095387
v -36.151943 212.965469 17.158842
v -36.151134 213.155823 17.222185
v -36.156479 213.307907 17.272789
v -36.166702 213.459854 17.323347
v -36.181358 213.611664 17.373863
v -36.177246 212.143997 15.751082
v -36.160950 212.184296 15.947460
v -36.151958 212.224579 16.143839
v -36.151115 212.264877 16.340216
v -36.156429 212.297104 16.497318
v -36.166641 212.329346 16.654421
v -36.181309 212.361572 16.811523
v -36.177246 213.033218 14.729586
v -36.160950 212.883301 14.862669
v -36.151958 212.733368 14.995753
v -36.151115 212.583450 15.128837
v -36.156429 212.463516 15.235304
v -36.166641 212.343582 15.341771
v -36.181309 212.223633 15.448238
v -34.224998 213.470703 16.371256
v -34.450001 213.691406 16.698345
v -34.224998 213.582321 16.354383
v -34.450001 214.054092 16.438734
v -34.224998 213.683273 16.303841
v -34.450001 214.194916 16.015520
v -34.450001 214.060089 15.590360
v -34.224998 213.766663 15.800390
v -34.224998 213.687408 15.719998
v -34.812244 213.426392 17.312216
v -34.850471 213.596466 17.368809
v -34.841705 213.922318 17.283230
v -34.224998 213.829239 16.069387
v -34.112499 213.651642 15.983457
v -34.900002 213.763367 17.424341
v -34.800873 214.083298 17.140339
v -34.817741 214.598541 16.682953
v -34.854034 214.721390 16.573900
v -34.841705 214.800064 16.257914
v -34.900002 214.842789 16.466137
v -34.800873 214.756805 16.047064
v -34.817741 214.618332 15.372150
v -34.854034 214.585312 15.211233
v -34.850471 214.385788 14.996686
v -34.900002 214.552689 15.052217
v -34.812244 214.215714 14.940092
v -34.782917 214.215408 17.023056
v -34.787888 213.252914 17.254488
v -34.780411 214.349121 16.904366
v -34.792679 214.474396 16.793156
v -34.782917 214.721298 15.874004
v -34.780411 214.685364 15.698866
v -34.787888 214.042236 14.882365
v -34.792679 214.651688 15.534762
v -26.000000 212.107361 15.732981
v -26.000000 212.083878 15.899643
v -26.000000 212.080658 16.067921
v -26.000000 212.097733 16.235361
v -26.000000 213.750687 14.644531
v -26.000000 213.584030 14.621048
v -26.000000 212.134872 16.399521
v -26.000000 213.415741 14.617826
v -26.000000 212.191544 16.558006
v -26.000000 213.248306 14.634910
v -26.000000 212.266891 16.708506
v -26.000000 212.359833 16.848827
v -26.000000 213.084152 14.672052
v -26.000000 212.469009 16.976923
v -26.000000 212.925659 14.728711
v -26.000000 212.775162 14.804061
v -26.000000 212.592819 17.090923
v -26.000000 212.729492 17.189169
v -26.000000 212.634842 14.897001
v -26.000000 212.876984 17.270226
v -26.000000 212.506744 15.006178
v -26.000000 212.392746 15.129999
v -26.000000 212.294495 15.266658
v -26.000000 212.213440 15.414164
v -26.000000 212.150757 15.570363
f 1 2 3
f 1 4 2
f 5 3 6
f 5 1 3
f 7 6 8
f 7 5 6
f 9 10 11
f 9 12 10
f 13 7 8
f 14 11 15
f 16 8 17
f 14 9 11
f 16 13 8
f 18 15 19
f 18 14 15
f 20 17 21
f 20 16 17
f 22 19 23
f 24 21 25
f 22 18 19
f 24 20 21
f 26 25 27
f 28 22 23
f 26 24 25
f 29 23 30
f 31 27 32
f 31 26 27
f 29 28 23
f 33 30 34
f 35 31 32
f 33 29 30
f 36 34 37
f 38 32 39
f 36 33 34
f 38 35 32
f 40 39 41
f 42 37 43
f 40 38 39
f 42 36 37
f 44 41 45
f 44 40 41
f 46 45 47
f 48 43 49
f 46 44 45
f 48 42 43
f 50 46 47
f 51 48 49
f 52 51 49
f 52 49 53
f 54 53 55
f 54 52 53
f 56 55 57
f 56 54 55
f 58 57 59
f 58 56 57
f 60 58 59
f 4 59 2
f 4 60 59
f 61 62 63
f 64 63 65
f 63 62 65
f 62 66 67
f 65 62 67
f 64 65 67
f 68 69 70
f 71 64 72
f 64 70 72
f 70 69 72
f 69 71 72
f 73 74 75
f 66 68 76
f 67 66 76
f 68 70 76
f 70 64 77
f 75 74 78
f 76 70 77
f 64 67 77
f 67 76 77
f 73 75 79
f 80 81 82
f 82 81 83
f 80 82 84
f 85 86 87
f 87 86 88
f 85 87 89
f 79 90 62
f 61 91 62
f 91 73 62
f 73 79 62
f 90 92 66
f 92 93 66
f 93 80 66
f 62 90 66
f 80 84 66
f 84 94 68
f 94 95 68
f 66 84 68
f 89 96 69
f 96 71 69
f 95 97 69
f 97 85 69
f 68 95 69
f 85 89 69
f 64 61 63
f 98 99 100
f 101 98 100
f 102 103 104
f 103 101 104
f 105 106 107
f 108 109 107
f 110 105 107
f 109 110 107
f 111 108 112
f 99 111 112
f 100 99 112
f 113 114 115
f 114 102 115
f 101 100 116
f 104 101 116
f 102 104 117
f 107 106 118
f 108 107 118
f 106 119 118
f 112 108 118
f 116 100 120
f 100 112 120
f 121 113 122
f 113 115 122
f 117 104 123
f 104 116 123
f 119 124 125
f 118 119 125
f 112 118 125
f 120 112 125
f 102 117 126
f 115 102 126
f 122 115 126
f 116 120 127
f 123 116 127
f 128 121 129
f 130 128 129
f 121 122 129
f 117 123 131
f 127 120 132
f 124 133 132
f 120 125 132
f 125 124 132
f 122 126 134
f 129 122 134
f 131 123 135
f 123 127 135
f 136 130 137
f 130 129 137
f 126 117 138
f 134 126 138
f 117 131 138
f 127 132 139
f 132 133 139
f 135 127 139
f 129 134 140
f 131 135 141
f 136 137 142
f 134 138 143
f 140 134 143
f 139 133 144
f 133 145 144
f 145 146 144
f 135 139 144
f 141 135 144
f 137 129 147
f 129 140 147
f 142 137 147
f 138 131 148
f 131 141 148
f 143 138 148
f 149 136 150
f 136 142 150
f 151 149 150
f 140 143 152
f 147 140 152
f 146 153 154
f 144 146 154
f 141 144 154
f 142 147 155
f 143 148 156
f 152 143 156
f 157 151 158
f 151 150 158
f 155 147 159
f 147 152 159
f 141 154 160
f 156 148 160
f 148 141 160
f 154 153 160
f 142 155 161
f 150 142 161
f 152 156 162
f 159 152 162
f 157 158 163
f 155 159 164
f 156 160 165
f 153 166 165
f 166 167 165
f 162 156 165
f 160 153 165
f 150 161 168
f 158 150 168
f 164 159 169
f 159 162 169
f 157 163 170
f 171 157 170
f 172 171 170
f 155 164 173
f 161 155 173
f 162 165 174
f 165 167 174
f 169 162 174
f 158 168 175
f 163 158 175
f 164 169 176
f 172 170 177
f 178 172 177
f 161 173 179
f 175 168 179
f 168 161 179
f 167 180 181
f 169 174 181
f 174 167 181
f 176 169 181
f 170 163 182
f 177 170 182
f 163 175 182
f 164 176 183
f 173 164 183
f 179 173 183
f 178 177 184
f 182 175 185
f 175 179 185
f 181 180 186
f 180 187 186
f 176 181 186
f 177 182 188
f 179 183 189
f 185 179 189
f 178 184 190
f 191 178 190
f 192 193 194
f 182 185 195
f 188 182 195
f 187 196 197
f 183 176 197
f 186 187 197
f 176 186 197
f 189 183 197
f 184 177 198
f 177 188 198
f 185 189 199
f 195 185 199
f 200 191 201
f 191 190 201
f 188 195 202
f 196 203 204
f 197 196 204
f 189 197 204
f 199 189 204
f 184 198 205
f 206 207 208
f 190 184 205
f 209 210 211
f 202 195 212
f 213 209 211
f 214 213 211
f 214 211 215
f 195 199 212
f 200 201 216
f 217 214 215
f 218 200 216
f 211 210 219
f 188 202 220
f 215 211 219
f 210 221 219
f 221 222 219
f 205 198 220
f 198 188 220
f 199 204 223
f 203 224 223
f 212 199 223
f 217 215 225
f 204 203 223
f 190 205 226
f 215 219 227
f 201 190 226
f 218 216 228
f 217 225 229
f 230 217 229
f 231 218 228
f 220 202 232
f 219 222 233
f 202 212 232
f 226 205 234
f 229 225 235
f 225 215 235
f 205 220 234
f 215 227 235
f 212 223 236
f 232 212 236
f 230 229 237
f 224 238 236
f 223 224 236
f 239 230 237
f 240 239 237
f 228 216 241
f 201 226 241
f 216 201 241
f 219 233 242
f 227 219 242
f 231 228 243
f 244 231 243
f 229 235 245
f 234 220 246
f 242 233 247
f 233 222 247
f 220 232 246
f 222 248 247
f 226 234 249
f 240 237 250
f 251 240 250
f 243 228 252
f 228 241 252
f 235 227 253
f 232 236 254
f 227 242 253
f 246 232 254
f 238 255 254
f 250 237 256
f 236 238 254
f 229 245 256
f 244 243 257
f 258 244 257
f 237 229 256
f 234 246 259
f 242 247 260
f 253 242 260
f 249 234 259
f 251 250 261
f 241 226 262
f 252 241 262
f 226 249 262
f 245 235 263
f 235 253 263
f 243 252 264
f 265 266 267
f 246 254 268
f 255 269 268
f 248 270 267
f 259 246 268
f 260 247 267
f 254 255 268
f 270 265 267
f 247 248 267
f 249 259 271
f 250 256 272
f 258 257 273
f 263 253 274
f 253 260 274
f 275 258 273
f 252 262 276
f 277 251 278
f 264 252 276
f 251 261 278
f 257 243 279
f 243 264 279
f 269 280 281
f 272 256 282
f 259 268 281
f 245 263 282
f 268 269 281
f 256 245 282
f 271 259 281
f 274 260 283
f 266 284 283
f 267 266 283
f 262 249 285
f 260 267 283
f 249 271 285
f 276 262 285
f 194 193 286
f 261 250 287
f 275 273 286
f 250 272 287
f 193 275 286
f 263 274 288
f 264 276 289
f 282 263 288
f 280 290 291
f 281 280 291
f 271 281 291
f 292 277 293
f 273 257 294
f 257 279 294
f 286 273 294
f 277 278 293
f 276 285 295
f 289 276 295
f 287 272 296
f 272 282 296
f 284 297 298
f 274 283 298
f 288 274 298
f 279 264 299
f 264 289 299
f 283 284 298
f 293 278 300
f 290 301 302
f 278 261 300
f 291 290 302
f 285 271 302
f 271 291 302
f 261 287 300
f 295 285 302
f 303 194 304
f 286 294 304
f 194 286 304
f 282 288 305
f 296 282 305
f 306 292 307
f 289 295 308
f 309 306 307
f 279 299 310
f 304 294 310
f 292 293 307
f 294 279 310
f 308 295 311
f 295 302 311
f 302 301 311
f 299 289 312
f 287 296 313
f 297 314 315
f 298 297 315
f 288 298 315
f 289 308 312
f 305 288 315
f 316 303 317
f 304 310 317
f 303 304 317
f 311 301 318
f 293 300 319
f 308 311 318
f 301 320 318
f 320 321 318
f 296 305 322
f 313 296 322
f 317 310 323
f 299 312 323
f 310 299 323
f 309 307 324
f 308 318 325
f 312 308 325
f 318 321 325
f 321 326 325
f 327 316 328
f 316 317 328
f 317 323 328
f 300 287 329
f 287 313 329
f 323 312 330
f 312 325 330
f 319 300 329
f 314 331 332
f 325 326 330
f 315 314 332
f 328 323 330
f 305 315 332
f 206 327 333
f 322 305 332
f 327 328 333
f 207 206 333
f 326 207 333
f 330 326 333
f 328 330 333
f 324 307 334
f 307 293 334
f 293 319 334
f 335 309 336
f 309 324 336
f 313 322 337
f 319 329 111
f 331 338 339
f 332 331 339
f 322 332 339
f 337 322 339
f 324 334 98
f 336 324 98
f 340 335 103
f 335 336 103
f 329 313 109
f 313 337 109
f 111 329 109
f 98 334 99
f 334 319 99
f 319 111 99
f 336 98 101
f 103 336 101
f 338 105 110
f 339 338 110
f 337 339 110
f 109 337 110
f 114 340 102
f 340 103 102
f 111 109 108
f 341 342 343
f 341 344 342
f 345 346 347
f 348 345 347
f 349 350 351
f 349 352 350
f 353 354 355
f 356 345 348
f 357 358 359
f 360 353 355
f 357 359 361
f 357 361 362
f 363 356 348
f 364 341 343
f 364 353 365
f 364 343 353
f 365 353 360
f 364 366 367
f 364 368 366
f 364 365 368
f 369 344 341
f 369 341 364
f 369 349 351
f 369 370 344
f 369 351 370
f 371 372 373
f 371 373 358
f 371 358 357
f 374 375 376
f 374 376 377
f 374 377 378
f 374 378 379
f 374 379 380
f 374 381 375
f 374 367 381
f 374 364 367
f 382 380 383
f 382 383 384
f 382 374 380
f 382 384 385
f 382 385 386
f 382 386 387
f 382 387 388
f 382 364 374
f 382 369 364
f 389 369 382
f 389 388 390
f 389 390 391
f 389 391 392
f 389 392 393
f 389 393 394
f 395 396 397
f 389 394 398
f 395 397 399
f 389 398 372
f 395 399 400
f 389 372 371
f 389 382 388
f 401 357 362
f 401 402 403
f 401 362 402
f 404 357 401
f 404 352 349
f 404 401 403
f 405 406 407
f 404 371 357
f 405 407 408
f 404 403 352
f 405 408 409
f 410 389 371
f 405 409 411
f 410 371 404
f 405 411 356
f 410 349 369
f 405 363 412
f 410 369 389
f 410 404 349
f 405 356 363
f 413 396 395
f 413 405 412
f 413 412 414
f 413 414 415
f 413 415 396
f 413 395 416
f 417 413 416
f 417 418 419
f 417 416 418
f 420 405 413
f 420 421 422
f 420 422 423
f 424 425 426
f 420 423 427
f 424 428 425
f 420 427 429
f 420 429 430
f 420 430 406
f 420 406 405
f 402 420 413
f 375 381 428
f 402 417 419
f 375 428 424
f 402 413 417
f 402 431 432
f 402 419 431
f 362 361 433
f 362 433 434
f 362 434 435
f 362 435 436
f 362 436 437
f 362 437 438
f 362 438 421
f 362 420 402
f 362 421 420
f 403 402 432
f 403 439 352
f 403 432 439
f 440 52 54
f 441 442 40
f 443 40 44
f 440 444 52
f 443 441 40
f 445 44 46
f 445 46 50
f 446 54 56
f 445 443 44
f 446 56 58
f 265 445 50
f 446 440 54
f 447 58 60
f 447 446 58
f 448 12 9
f 448 9 14
f 448 208 12
f 449 447 60
f 450 60 4
f 451 14 18
f 451 448 14
f 450 449 60
f 452 4 1
f 452 1 5
f 453 451 18
f 452 450 4
f 454 5 7
f 455 18 22
f 454 452 5
f 455 453 18
f 456 7 13
f 457 22 28
f 456 454 7
f 457 455 22
f 458 456 13
f 459 28 29
f 460 13 16
f 459 457 28
f 460 458 13
f 461 459 29
f 461 29 33
f 462 16 20
f 462 460 16
f 463 461 33
f 463 33 36
f 464 20 24
f 463 36 42
f 464 462 20
f 465 464 24
f 465 24 26
f 466 463 42
f 467 42 48
f 468 26 31
f 468 31 35
f 467 466 42
f 468 465 26
f 469 48 51
f 469 51 52
f 469 467 48
f 470 468 35
f 442 35 38
f 442 38 40
f 444 469 52
f 442 470 35
f 326 471 472
f 146 145 473
f 326 321 471
f 207 326 472
f 207 472 474
f 207 474 12
f 208 207 12
f 153 146 475
f 166 475 476
f 265 50 477
f 166 153 475
f 167 476 478
f 167 478 479
f 167 166 476
f 266 265 477
f 180 479 480
f 180 167 479
f 284 477 481
f 284 266 477
f 187 180 480
f 297 481 482
f 297 482 483
f 196 480 484
f 297 284 481
f 196 187 480
f 314 483 485
f 203 484 486
f 203 486 487
f 314 297 483
f 203 196 484
f 224 487 488
f 331 314 485
f 224 203 487
f 338 485 489
f 338 489 490
f 338 331 485
f 238 224 488
f 255 488 491
f 105 490 492
f 255 238 488
f 105 338 490
f 269 491 493
f 106 105 492
f 269 493 494
f 106 492 495
f 269 255 491
f 280 494 496
f 119 106 495
f 119 495 497
f 280 269 494
f 290 496 498
f 124 119 497
f 290 280 496
f 133 124 497
f 133 497 499
f 133 499 500
f 301 290 498
f 320 498 501
f 320 501 471
f 145 500 473
f 320 301 498
f 145 133 500
f 321 320 471
f 146 473 475
f 502 503 504
f 505 502 504
f 506 507 352
f 508 506 352
f 439 508 352
f 504 503 509
f 510 511 354
f 418 512 513
f 511 514 354
f 514 515 354
f 418 513 419
f 419 513 516
f 507 517 350
f 509 503 518
f 519 509 518
f 352 507 350
f 520 510 353
f 510 354 353
f 521 522 523
f 419 516 524
f 522 525 523
f 522 526 527
f 519 518 528
f 529 530 351
f 525 522 527
f 517 529 351
f 350 517 351
f 520 353 343
f 531 520 343
f 521 523 532
f 533 531 343
f 524 534 431
f 419 524 431
f 535 521 532
f 533 343 342
f 536 528 537
f 538 533 342
f 527 526 539
f 528 518 537
f 526 540 539
f 351 530 370
f 530 541 370
f 535 532 542
f 538 342 344
f 370 541 344
f 543 538 344
f 541 543 344
f 539 540 544
f 545 546 432
f 535 542 547
f 534 545 432
f 431 534 432
f 548 535 547
f 549 536 550
f 551 549 550
f 536 537 550
f 540 552 553
f 544 540 553
f 400 548 554
f 548 547 554
f 553 552 555
f 552 556 555
f 546 508 439
f 400 554 557
f 432 546 439
f 555 556 558
f 514 551 515
f 551 550 515
f 395 400 559
f 400 557 559
f 558 556 560
f 556 561 560
f 395 559 562
f 416 395 562
f 561 502 563
f 560 561 563
f 563 502 505
f 416 562 564
f 418 416 512
f 416 564 512
f 565 561 556
f 565 502 561
f 566 567 568
f 566 568 569
f 566 569 570
f 566 570 571
f 566 571 572
f 566 572 573
f 566 573 574
f 566 575 567
f 576 502 565
f 576 503 502
f 576 518 503
f 355 354 515
f 577 566 574
f 577 576 566
f 577 574 578
f 577 578 579
f 577 579 580
f 577 580 581
f 577 581 582
f 577 582 583
f 360 355 515
f 584 518 576
f 365 360 515
f 584 537 518
f 584 550 537
f 585 365 515
f 585 367 366
f 585 366 368
f 585 368 365
f 585 576 577
f 585 584 576
f 585 550 584
f 585 515 550
f 586 367 585
f 586 587 381
f 586 585 577
f 586 583 588
f 586 588 589
f 586 589 590
f 586 590 591
f 586 591 587
f 586 381 367
f 586 577 583
f 592 593 594
f 592 595 593
f 592 596 595
f 597 594 575
f 597 565 556
f 597 556 596
f 597 592 594
f 597 596 592
f 598 597 575
f 598 565 597
f 598 566 576
f 428 381 587
f 598 575 566
f 598 576 565
f 599 428 587
f 548 397 396
f 425 428 599
f 426 425 599
f 593 600 601
f 593 601 602
f 593 602 603
f 593 603 604
f 593 604 605
f 593 605 606
f 593 606 607
f 399 397 548
f 608 609 610
f 608 610 611
f 608 611 612
f 608 612 613
f 608 613 614
f 400 399 548
f 608 614 600
f 608 600 593
f 347 346 615
f 616 412 363
f 616 363 617
f 616 609 608
f 616 617 618
f 616 618 619
f 616 619 620
f 616 620 621
f 616 621 609
f 348 615 617
f 594 593 607
f 594 607 622
f 594 622 623
f 348 347 615
f 595 526 522
f 595 540 526
f 595 608 593
f 624 414 412
f 363 348 617
f 624 415 414
f 624 396 415
f 624 608 595
f 624 616 608
f 624 535 548
f 624 548 396
f 624 412 616
f 575 623 625
f 575 625 567
f 575 594 623
f 596 540 595
f 596 552 540
f 596 556 552
f 626 595 522
f 626 535 624
f 626 521 535
f 626 522 521
f 626 624 595
f 627 628 599
f 628 426 599
f 625 629 567
f 629 630 567
f 631 627 587
f 627 599 587
f 567 630 568
f 630 632 568
f 633 631 591
f 631 587 591
f 568 632 569
f 633 591 590
f 569 632 570
f 632 634 570
f 635 633 589
f 633 590 589
f 634 636 571
f 570 634 571
f 637 635 588
f 635 589 588
f 571 636 572
f 636 638 572
f 637 588 583
f 639 637 583
f 572 638 573
f 638 640 573
f 639 583 582
f 641 639 582
f 573 640 574
f 641 582 581
f 423 422 277
f 641 581 580
f 642 641 580
f 574 640 578
f 640 643 578
f 642 580 579
f 578 643 579
f 643 642 579
f 427 423 292
f 423 277 292
f 421 438 251
f 422 421 251
f 277 422 251
f 427 292 306
f 429 427 306
f 430 429 306
f 438 437 240
f 251 438 240
f 406 430 309
f 430 306 309
f 407 406 335
f 406 309 335
f 437 436 239
f 240 437 239
f 239 436 230
f 436 435 230
f 408 407 340
f 407 335 340
f 434 433 217
f 435 434 217
f 230 435 217
f 408 340 114
f 409 408 114
f 411 409 114
f 217 433 214
f 433 361 214
f 356 411 113
f 411 114 113
f 214 361 213
f 361 359 213
f 356 113 121
f 345 356 121
f 358 373 209
f 359 358 209
f 213 359 209
f 346 345 128
f 615 346 128
f 345 121 128
f 373 372 644
f 209 373 644
f 617 615 130
f 615 128 130
f 372 398 645
f 644 372 645
f 617 130 136
f 618 617 136
f 394 393 646
f 398 394 646
f 645 398 646
f 619 618 149
f 620 619 149
f 618 136 149
f 393 392 647
f 646 393 647
f 620 149 151
f 621 620 151
f 392 391 648
f 647 392 648
f 609 621 157
f 621 151 157
f 391 390 649
f 648 391 649
f 610 609 171
f 609 157 171
f 390 388 650
f 649 390 650
f 611 610 172
f 610 171 172
f 611 172 612
f 650 388 387
f 650 387 651
f 612 172 178
f 612 178 613
f 651 387 386
f 651 386 652
f 613 178 191
f 652 386 385
f 613 191 614
f 652 385 653
f 614 191 200
f 653 385 384
f 614 200 600
f 654 653 383
f 653 384 383
f 600 200 601
f 200 218 601
f 601 218 602
f 218 231 602
f 655 654 380
f 654 383 380
f 656 655 379
f 655 380 379
f 231 244 603
f 602 231 603
f 657 656 378
f 656 379 378
f 244 258 604
f 603 244 604
f 657 378 377
f 604 258 605
f 258 275 606
f 605 258 606
f 658 657 376
f 657 377 376
f 659 658 375
f 658 376 375
f 606 275 607
f 275 193 607
f 628 659 424
f 659 375 424
f 607 193 622
f 193 192 622
f 628 424 426
f 622 192 623
f 623 192 625
f 192 629 625
f 660 661 662
f 661 663 662
f 629 192 194
f 664 665 666
f 665 667 666
f 668 664 666
f 669 670 671
f 670 672 671
f 672 668 671
f 461 463 673
f 674 461 673
f 663 675 673
f 675 674 673
f 667 660 676
f 660 662 676
f 631 633 677
f 633 669 677
f 668 666 678
f 677 669 679
f 669 671 679
f 662 663 680
f 663 673 680
f 463 466 680
f 673 463 680
f 667 676 681
f 666 667 681
f 678 666 681
f 627 631 682
f 631 677 682
f 668 678 683
f 679 671 683
f 671 668 683
f 466 467 684
f 676 662 684
f 680 466 684
f 662 680 684
f 677 679 685
f 678 681 686
f 628 627 687
f 627 682 687
f 679 683 688
f 467 469 689
f 681 676 689
f 684 467 689
f 676 684 689
f 687 682 690
f 677 685 690
f 682 677 690
f 678 686 691
f 683 678 691
f 688 683 691
f 659 628 692
f 658 659 692
f 628 687 692
f 685 679 693
f 679 688 693
f 690 685 693
f 689 469 694
f 686 681 694
f 681 689 694
f 687 690 695
f 688 691 696
f 693 688 696
f 657 658 697
f 658 692 697
f 690 693 698
f 469 444 699
f 691 686 699
f 686 694 699
f 696 691 699
f 694 469 699
f 692 687 700
f 687 695 700
f 697 692 700
f 693 696 701
f 657 697 702
f 695 690 703
f 690 698 703
f 444 440 704
f 440 446 704
f 696 699 704
f 699 444 704
f 697 700 705
f 702 697 705
f 698 693 706
f 693 701 706
f 703 698 706
f 656 657 707
f 657 702 707
f 695 703 708
f 700 695 708
f 696 704 709
f 704 446 709
f 701 696 709
f 702 705 710
f 707 702 710
f 703 706 711
f 656 707 712
f 655 656 712
f 705 700 713
f 700 708 713
f 710 705 713
f 446 447 714
f 701 709 714
f 706 701 714
f 709 446 714
f 707 710 715
f 708 703 716
f 703 711 716
f 655 712 717
f 654 655 717
f 653 654 717
f 715 710 718
f 710 713 718
f 447 449 719
f 706 714 719
f 711 706 719
f 714 447 719
f 707 715 720
f 717 712 720
f 712 707 720
f 708 716 721
f 713 708 721
f 718 713 721
f 653 717 722
f 652 653 722
f 715 718 723
f 449 450 724
f 719 449 724
f 716 711 724
f 711 719 724
f 717 720 725
f 718 721 726
f 652 722 727
f 651 652 727
f 715 723 728
f 725 720 728
f 720 715 728
f 450 452 729
f 724 450 729
f 716 724 729
f 726 721 729
f 721 716 729
f 209 644 210
f 727 722 730
f 722 717 730
f 717 725 730
f 723 718 731
f 718 726 731
f 651 727 732
f 725 728 733
f 452 454 734
f 729 452 734
f 726 729 734
f 732 727 735
f 727 730 735
f 728 723 736
f 723 731 736
f 650 651 737
f 649 650 737
f 629 194 738
f 651 732 737
f 629 738 739
f 630 629 739
f 730 725 740
f 725 733 740
f 735 730 740
f 454 456 741
f 738 194 742
f 194 303 742
f 734 454 741
f 731 726 741
f 726 734 741
f 739 738 742
f 632 630 743
f 634 632 743
f 732 735 744
f 740 733 745
f 630 739 743
f 733 728 745
f 739 742 746
f 728 736 745
f 743 739 746
f 634 743 747
f 649 737 748
f 744 735 749
f 742 303 750
f 735 740 749
f 303 316 750
f 316 327 750
f 731 741 751
f 746 742 750
f 456 458 751
f 741 456 751
f 743 746 752
f 736 731 751
f 747 743 752
f 732 744 753
f 748 737 753
f 634 747 754
f 737 732 753
f 636 634 754
f 649 748 755
f 648 649 755
f 746 750 756
f 740 745 757
f 747 752 758
f 327 206 759
f 744 749 760
f 750 327 759
f 745 736 761
f 751 458 761
f 458 460 761
f 736 751 761
f 636 754 762
f 638 636 762
f 748 753 763
f 755 748 763
f 746 756 764
f 648 755 765
f 647 648 765
f 752 746 764
f 740 757 766
f 754 747 767
f 749 740 766
f 762 754 767
f 747 758 767
f 760 749 766
f 763 753 768
f 764 756 769
f 750 759 769
f 756 750 769
f 638 762 770
f 744 760 768
f 753 744 768
f 640 638 770
f 765 755 771
f 752 764 772
f 755 763 771
f 460 462 773
f 757 745 773
f 758 752 772
f 761 460 773
f 208 448 774
f 745 761 773
f 759 206 774
f 647 765 775
f 206 208 774
f 646 647 775
f 762 767 776
f 770 762 776
f 760 766 777
f 764 769 778
f 763 768 779
f 771 763 779
f 640 770 780
f 775 765 781
f 643 640 780
f 765 771 781
f 462 464 782
f 766 757 782
f 773 462 782
f 758 772 783
f 757 773 782
f 777 766 782
f 767 758 783
f 448 451 784
f 768 760 785
f 774 448 784
f 760 777 785
f 759 774 784
f 769 759 784
f 646 775 786
f 645 646 786
f 770 776 787
f 771 779 788
f 772 764 789
f 775 781 790
f 764 778 789
f 642 643 791
f 641 642 791
f 464 465 792
f 782 464 792
f 777 782 792
f 779 768 793
f 643 780 791
f 788 779 793
f 768 785 793
f 767 783 794
f 787 776 794
f 210 644 795
f 776 767 794
f 644 645 795
f 451 453 796
f 645 786 795
f 778 769 796
f 221 210 795
f 784 451 796
f 769 784 796
f 781 771 797
f 780 770 798
f 771 788 797
f 465 468 799
f 770 787 798
f 792 465 799
f 785 777 799
f 777 792 799
f 772 789 800
f 786 775 801
f 775 790 801
f 783 772 800
f 795 786 801
f 788 793 802
f 639 641 803
f 797 788 802
f 641 791 803
f 790 781 804
f 781 797 804
f 798 787 805
f 787 794 805
f 799 468 806
f 468 470 806
f 453 455 807
f 802 793 806
f 796 453 807
f 793 785 806
f 778 796 807
f 785 799 806
f 789 778 807
f 221 795 808
f 795 801 808
f 797 802 809
f 780 798 810
f 791 780 810
f 804 797 809
f 790 804 811
f 808 801 811
f 783 800 812
f 794 783 812
f 801 790 811
f 802 806 813
f 806 470 813
f 470 442 813
f 804 809 814
f 639 803 815
f 221 808 816
f 798 805 661
f 222 221 816
f 808 811 816
f 455 457 817
f 813 442 818
f 807 455 817
f 800 789 817
f 789 807 817
f 809 802 818
f 802 813 818
f 816 811 819
f 804 814 819
f 803 791 665
f 811 804 819
f 791 810 665
f 814 809 820
f 809 818 820
f 639 815 672
f 442 441 820
f 637 639 672
f 818 442 820
f 816 819 821
f 222 816 821
f 248 222 821
f 270 248 821
f 819 814 822
f 821 819 822
f 805 794 675
f 820 441 822
f 794 812 675
f 814 820 822
f 441 443 822
f 443 445 823
f 445 265 823
f 821 822 823
f 270 821 823
f 810 798 660
f 822 443 823
f 798 661 660
f 265 270 823
f 457 459 824
f 817 457 824
f 812 800 824
f 800 817 824
f 672 815 664
f 815 803 664
f 803 665 664
f 635 637 670
f 637 672 670
f 661 805 663
f 805 675 663
f 665 810 667
f 810 660 667
f 672 664 668
f 459 461 674
f 675 812 674
f 824 459 674
f 812 824 674
f 633 635 669
f 635 670 669
f 825 530 529
f 826 825 517
f 825 529 517
f 827 826 507
f 826 517 507
f 828 827 506
f 827 507 506
f 829 828 508
f 828 506 508
f 830 829 546
f 829 508 546
f 831 830 545
f 830 546 545
f 831 545 534
f 832 511 510
f 833 832 520
f 832 510 520
f 834 833 531
f 833 520 531
f 835 834 533
f 834 531 533
f 836 835 538
f 835 533 538
f 837 836 543
f 836 538 543
f 838 837 541
f 837 543 541
f 838 541 530
f 839 504 509
f 840 839 519
f 839 509 519
f 841 840 528
f 840 519 528
f 842 841 536
f 841 528 536
f 843 842 549
f 842 536 549
f 844 843 551
f 843 549 551
f 845 844 514
f 844 551 514
f 845 514 511
f 846 539 544
f 847 846 553
f 846 544 553
f 848 847 555
f 847 553 555
f 849 848 558
f 848 555 558
f 850 849 560
f 849 558 560
f 851 850 563
f 850 560 563
f 852 851 505
f 851 563 505
f 852 505 504
f 853 557 554
f 854 853 547
f 853 554 547
f 855 854 542
f 854 547 542
f 856 855 532
f 855 542 532
f 857 856 523
f 856 532 523
f 858 857 525
f 857 523 525
f 859 858 527
f 858 525 527
f 859 527 539
f 860 534 524
f 861 860 516
f 860 524 516
f 862 861 513
f 861 516 513
f 863 862 512
f 862 513 512
f 864 863 564
f 863 512 564
f 865 864 562
f 864 564 562
f 866 865 559
f 865 562 559
f 866 559 557
f 64 71 867
f 71 868 867
f 64 867 869
f 867 868 869
f 868 870 871
f 869 868 871
f 64 869 871
f 872 873 874
f 61 64 875
f 64 874 875
f 874 873 875
f 873 61 875
f 876 877 878
f 870 872 879
f 871 870 879
f 872 874 879
f 878 877 881
f 874 64 880
f 64 871 880
f 879 874 880
f 871 879 880
f 876 878 882
f 883 884 885
f 885 884 886
f 883 885 887
f 888 889 890
f 890 889 891
f 888 890 892
f 882 893 868
f 71 894 868
f 894 876 868
f 876 882 868
f 893 895 870
f 895 896 870
f 896 883 870
f 868 893 870
f 883 887 870
f 887 897 872
f 897 898 872
f 870 887 872
f 892 899 873
f 899 61 873
f 898 900 873
f 900 888 873
f 872 898 873
f 888 892 873
f 838 530 891
f 837 838 891
f 836 837 889
f 837 891 889
f 836 889 888
f 835 836 900
f 836 888 900
f 835 900 898
f 834 835 897
f 835 898 897
f 833 834 887
f 834 897 887
f 833 887 885
f 832 833 886
f 511 832 886
f 833 885 886
f 534 78 831
f 78 74 830
f 831 78 830
f 73 91 829
f 74 73 829
f 830 74 829
f 91 61 828
f 829 91 828
f 899 892 827
f 61 899 827
f 828 61 827
f 890 891 826
f 892 890 826
f 827 892 826
f 826 891 825
f 825 891 530
f 866 557 83
f 865 866 83
f 864 865 81
f 865 83 81
f 864 81 80
f 863 864 93
f 864 80 93
f 863 93 92
f 862 863 90
f 863 92 90
f 861 862 79
f 862 90 79
f 861 79 75
f 860 861 78
f 534 860 78
f 861 75 78
f 859 539 88
f 858 859 88
f 857 858 86
f 858 88 86
f 857 86 85
f 856 857 97
f 857 85 97
f 856 97 95
f 855 856 94
f 856 95 94
f 854 855 84
f 855 94 84
f 854 84 82
f 853 854 83
f 557 853 83
f 854 82 83
f 852 504 881
f 851 852 881
f 850 851 877
f 851 881 877
f 850 877 876
f 849 850 894
f 850 876 894
f 848 849 71
f 849 894 71
f 848 71 96
f 847 848 89
f 848 96 89
f 847 89 87
f 846 847 88
f 539 846 88
f 847 87 88
f 845 511 886
f 844 845 886
f 843 844 884
f 844 886 884
f 843 884 883
f 842 843 896
f 843 883 896
f 842 896 895
f 841 842 893
f 842 895 893
f 840 841 882
f 841 893 882
f 840 882 878
f 839 840 881
f 504 839 881
f 840 878 881
f 480 901 902
f 480 479 901
f 484 902 903
f 484 480 902
f 486 903 904
f 486 484 903
f 477 50 47
f 477 47 905
f 487 486 904
f 481 905 906
f 488 904 907
f 481 477 905
f 488 487 904
f 482 906 908
f 482 481 906
f 491 907 909
f 491 488 907
f 483 908 910
f 493 909 911
f 483 482 908
f 493 491 909
f 494 493 911
f 494 911 912
f 485 483 910
f 489 910 913
f 496 912 914
f 496 494 912
f 489 485 910
f 490 913 915
f 498 496 914
f 490 489 913
f 492 915 916
f 501 914 917
f 492 490 915
f 501 498 914
f 471 917 918
f 495 916 919
f 471 501 917
f 495 492 916
f 472 918 920
f 472 471 918
f 474 920 10
f 497 919 921
f 474 472 920
f 497 495 919
f 12 474 10
f 499 497 921
f 500 499 921
f 500 921 922
f 473 922 923
f 473 500 922
f 475 923 924
f 475 473 923
f 476 924 925
f 476 475 924
f 478 476 925
f 479 925 901
f 479 478 925
f 913 910 912
f 915 913 912
f 911 909 912
f 909 915 912
f 919 916 921
f 21 17 8
f 922 921 923
f 910 908 917
f 914 912 917
f 908 905 917
f 912 910 917
f 908 906 905
f 924 923 925
f 918 917 920
f 6 3 2
f 917 905 10
f 901 925 902
f 920 917 10
f 925 923 902
f 923 921 902
f 10 905 11
f 41 39 11
f 45 41 11
f 47 45 11
f 905 47 11
f 11 39 15
f 15 39 19
f 903 902 907
f 904 903 907
f 6 2 53
f 57 55 53
f 59 57 53
f 2 59 53
f 8 6 53
f 32 27 23
f 39 32 23
f 19 39 23
f 916 915 909
f 921 916 909
f 907 902 909
f 902 921 909
f 23 27 30
f 53 49 43
f 21 8 43
f 25 21 43
f 27 25 43
f 8 53 43
f 30 27 43
f 34 30 37
f 30 43 37
