# Created by FreeCAD <http://www.freecadweb.org>
v -31.625000 225.083664 210.604248
v -31.625000 221.483673 210.604248
v -31.595184 221.483673 210.377777
v -31.507772 225.083664 210.166748
v -31.595184 225.083664 210.377777
v -31.368719 225.083664 209.985535
v -31.507772 221.483673 210.166748
v -31.368719 221.483673 209.985535
v -30.976467 225.083664 209.759064
v -31.187500 225.083664 209.846481
v -31.187500 221.483673 209.846481
v -30.976467 221.483673 209.759064
v -30.523533 225.083664 209.759064
v -30.750000 225.083664 209.729248
v -30.750000 221.483673 209.729248
v -30.312500 225.083664 209.846481
v -30.523533 221.483673 209.759064
v -30.312500 221.483673 209.846481
v -29.992228 225.083664 210.166748
v -30.131281 225.083664 209.985535
v -30.131281 221.483673 209.985535
v -29.992228 221.483673 210.166748
v -29.904816 225.083664 210.377777
v -29.904816 221.483673 210.377777
v -29.875000 225.083664 210.604248
v -29.875000 221.483673 210.604248
v -22.095184 225.083664 210.377777
v -22.125000 225.083664 210.604248
v -22.125000 221.483673 210.604248
v -22.095184 221.483673 210.377777
v -22.007772 225.083664 210.166748
v -22.007772 221.483673 210.166748
v -21.868719 225.083664 209.985535
v -21.687500 225.083664 209.846481
v -21.868719 221.483673 209.985535
v -21.687500 221.483673 209.846481
v -21.476467 225.083664 209.759064
v -21.476467 221.483673 209.759064
v -21.250000 225.083664 209.729248
v -21.250000 221.483673 209.729248
v -21.023533 225.083664 209.759064
v -21.023533 221.483673 209.759064
v -20.812500 225.083664 209.846481
v -20.812500 221.483673 209.846481
v -20.631281 225.083664 209.985535
v -20.631281 221.483673 209.985535
v -20.492228 225.083664 210.166748
v -20.492228 221.483673 210.166748
v -20.404816 225.083664 210.377777
v -20.404816 221.483673 210.377777
v -20.375000 225.083664 210.604248
v -20.375000 221.483673 210.604248
v -25.171391 221.483673 205.632217
v -25.142160 221.483673 205.854248
v -25.142160 225.083664 205.854248
v -25.171391 225.083664 205.632217
v -25.257090 221.483673 205.425323
v -25.257090 225.083664 205.425323
v -25.571081 221.483673 205.111343
v -25.393415 221.483673 205.247665
v -25.393415 225.083664 205.247665
v -25.571081 225.083664 205.111343
v -25.777975 221.483673 205.025635
v -25.777975 225.083664 205.025635
v -26.222025 221.483673 205.025635
v -26.000000 221.483673 204.996414
v -26.000000 225.083664 204.996414
v -26.428919 221.483673 205.111343
v -26.222025 225.083664 205.025635
v -26.606585 221.483673 205.247665
v -26.428919 225.083664 205.111343
v -26.606585 225.083664 205.247665
v -26.742910 221.483673 205.425323
v -26.742910 225.083664 205.425323
v -26.828609 221.483673 205.632217
v -26.828609 225.083664 205.632217
v -26.857840 221.483673 205.854248
v -26.857840 225.083664 205.854248
v -22.095184 225.083664 215.127777
v -22.125000 225.083664 215.354248
v -22.125000 221.483673 215.354248
v -22.095184 221.483673 215.127777
v -22.007772 225.083664 214.916748
v -22.007772 221.483673 214.916748
v -21.868719 225.083664 214.735535
v -21.868719 221.483673 214.735535
v -21.687500 225.083664 214.596481
v -21.687500 221.483673 214.596481
v -21.476467 225.083664 214.509064
v -21.476467 221.483673 214.509064
v -21.250000 225.083664 214.479248
v -21.250000 221.483673 214.479248
v -21.023533 225.083664 214.509064
v -21.023533 221.483673 214.509064
v -20.812500 225.083664 214.596481
v -20.812500 221.483673 214.596481
v -20.631281 225.083664 214.735535
v -20.631281 221.483673 214.735535
v -20.492228 225.083664 214.916748
v -20.492228 221.483673 214.916748
v -20.404816 225.083664 215.127777
v -20.404816 221.483673 215.127777
v -20.375000 225.083664 215.354248
v -20.375000 221.483673 215.354248
v -31.595184 225.083664 215.127777
v -31.625000 225.083664 215.354248
v -31.625000 221.483673 215.354248
v -31.595184 221.483673 215.127777
v -31.507772 225.083664 214.916748
v -31.507772 221.483673 214.916748
v -31.368719 225.083664 214.735535
v -31.368719 221.483673 214.735535
v -31.187500 225.083664 214.596481
v -31.187500 221.483673 214.596481
v -30.976467 225.083664 214.509064
v -30.976467 221.483673 214.509064
v -30.750000 225.083664 214.479248
v -30.750000 221.483673 214.479248
v -30.523533 225.083664 214.509064
v -30.523533 221.483673 214.509064
v -30.312500 225.083664 214.596481
v -30.312500 221.483673 214.596481
v -30.131281 225.083664 214.735535
v -30.131281 221.483673 214.735535
v -29.992228 225.083664 214.916748
v -29.992228 221.483673 214.916748
v -29.904816 225.083664 215.127777
v -29.904816 221.483673 215.127777
v -29.875000 225.083664 215.354248
v -29.875000 221.483673 215.354248
v -36.375000 225.083664 215.354248
v -36.375000 221.483673 215.354248
v -36.345184 221.483673 215.127777
v -36.257771 225.083664 214.916748
v -36.345184 225.083664 215.127777
v -36.118717 225.083664 214.735535
v -36.257771 221.483673 214.916748
v -36.118717 221.483673 214.735535
v -35.937500 225.083664 214.596481
v -35.937500 221.483673 214.596481
v -35.500000 225.083664 214.479248
v -35.726467 225.083664 214.509064
v -35.726467 221.483673 214.509064
v -35.500000 221.483673 214.479248
v -35.062500 225.083664 214.596481
v -35.273533 225.083664 214.509064
v -35.273533 221.483673 214.509064
v -35.062500 221.483673 214.596481
v -34.881283 225.083664 214.735535
v -34.881283 221.483673 214.735535
v -34.654816 225.083664 215.127777
v -34.742229 225.083664 214.916748
v -34.742229 221.483673 214.916748
v -34.654816 221.483673 215.127777
v -34.625000 225.083664 215.354248
v -34.625000 221.483673 215.354248
v -36.375000 225.083664 205.854248
v -36.375000 221.483673 205.854248
v -36.345184 221.483673 205.627777
v -36.345184 225.083664 205.627777
v -36.118717 225.083664 205.235535
v -36.257771 225.083664 205.416748
v -36.257771 221.483673 205.416748
v -36.118717 221.483673 205.235535
v -35.726467 225.083664 205.009064
v -35.937500 225.083664 205.096481
v -35.937500 221.483673 205.096481
v -35.500000 225.083664 204.979248
v -35.726467 221.483673 205.009064
v -35.273533 225.083664 205.009064
v -35.500000 221.483673 204.979248
v -35.273533 221.483673 205.009064
v -35.062500 225.083664 205.096481
v -35.062500 221.483673 205.096481
v -34.881283 225.083664 205.235535
v -34.881283 221.483673 205.235535
v -34.742229 225.083664 205.416748
v -34.742229 221.483673 205.416748
v -34.654816 225.083664 205.627777
v -34.654816 221.483673 205.627777
v -34.625000 225.083664 205.854248
v -34.625000 221.483673 205.854248
v -17.345184 225.083664 215.127777
v -17.375000 225.083664 215.354248
v -17.375000 221.483673 215.354248
v -17.345184 221.483673 215.127777
v -17.257772 225.083664 214.916748
v -17.257772 221.483673 214.916748
v -17.118719 225.083664 214.735535
v -17.118719 221.483673 214.735535
v -16.937500 225.083664 214.596481
v -16.726467 225.083664 214.509064
v -16.937500 221.483673 214.596481
v -16.726467 221.483673 214.509064
v -16.500000 225.083664 214.479248
v -16.500000 221.483673 214.479248
v -16.273533 225.083664 214.509064
v -16.273533 221.483673 214.509064
v -16.062500 225.083664 214.596481
v -16.062500 221.483673 214.596481
v -15.881282 225.083664 214.735535
v -15.881282 221.483673 214.735535
v -15.742228 225.083664 214.916748
v -15.742228 221.483673 214.916748
v -15.654815 225.083664 215.127777
v -15.654815 221.483673 215.127777
v -15.625000 225.083664 215.354248
v -15.625000 221.483673 215.354248
v -17.345184 225.083664 205.627777
v -17.375000 225.083664 205.854248
v -17.375000 221.483673 205.854248
v -17.345184 221.483673 205.627777
v -17.257772 225.083664 205.416748
v -17.257772 221.483673 205.416748
v -17.118719 225.083664 205.235535
v -16.937500 225.083664 205.096481
v -17.118719 221.483673 205.235535
v -16.937500 221.483673 205.096481
v -16.726467 225.083664 205.009064
v -16.726467 221.483673 205.009064
v -16.500000 225.083664 204.979248
v -16.500000 221.483673 204.979248
v -16.273533 225.083664 205.009064
v -16.273533 221.483673 205.009064
v -16.062500 225.083664 205.096481
v -16.062500 221.483673 205.096481
v -15.881282 225.083664 205.235535
v -15.881282 221.483673 205.235535
v -15.742228 225.083664 205.416748
v -15.742228 221.483673 205.416748
v -15.654815 225.083664 205.627777
v -15.654815 221.483673 205.627777
v -15.625000 225.083664 205.854248
v -15.625000 221.483673 205.854248
v -31.625000 225.083664 205.854248
v -31.625000 221.483673 205.854248
v -31.595184 221.483673 205.627777
v -31.595184 225.083664 205.627777
v -31.368719 225.083664 205.235535
v -31.507772 225.083664 205.416748
v -31.507772 221.483673 205.416748
v -31.368719 221.483673 205.235535
v -31.187500 225.083664 205.096481
v -31.187500 221.483673 205.096481
v -30.976467 225.083664 205.009064
v -30.976467 221.483673 205.009064
v -30.523533 225.083664 205.009064
v -30.750000 225.083664 204.979248
v -30.750000 221.483673 204.979248
v -30.312500 225.083664 205.096481
v -30.523533 221.483673 205.009064
v -30.312500 221.483673 205.096481
v -29.992228 225.083664 205.416748
v -30.131281 225.083664 205.235535
v -30.131281 221.483673 205.235535
v -29.992228 221.483673 205.416748
v -29.904816 225.083664 205.627777
v -29.904816 221.483673 205.627777
v -29.875000 225.083664 205.854248
v -29.875000 221.483673 205.854248
v -22.095184 225.083664 205.627777
v -22.125000 225.083664 205.854248
v -22.125000 221.483673 205.854248
v -22.095184 221.483673 205.627777
v -22.007772 225.083664 205.416748
v -22.007772 221.483673 205.416748
v -21.868719 225.083664 205.235535
v -21.687500 225.083664 205.096481
v -21.868719 221.483673 205.235535
v -21.687500 221.483673 205.096481
v -21.476467 225.083664 205.009064
v -21.476467 221.483673 205.009064
v -21.250000 225.083664 204.979248
v -21.250000 221.483673 204.979248
v -21.023533 225.083664 205.009064
v -21.023533 221.483673 205.009064
v -20.812500 225.083664 205.096481
v -20.812500 221.483673 205.096481
v -20.631281 225.083664 205.235535
v -20.631281 221.483673 205.235535
v -20.492228 225.083664 205.416748
v -20.492228 221.483673 205.416748
v -20.404816 225.083664 205.627777
v -20.404816 221.483673 205.627777
v -20.375000 225.083664 205.854248
v -20.375000 221.483673 205.854248
v -34.654816 225.083664 215.580719
v -31.595184 225.083664 215.580719
v -25.171391 225.083664 206.076279
v -25.257090 225.083664 206.283173
v -22.095184 225.083664 206.080719
v -34.742229 225.083664 215.791748
v -34.881283 225.083664 215.972961
v -31.507772 225.083664 215.791748
v -30.523533 225.083664 216.199432
v -32.585785 225.083664 223.440033
v -27.414213 225.083664 223.440033
v -30.312500 225.083664 211.362015
v -30.523533 225.083664 211.449432
v -37.414215 225.083664 203.440033
v -37.732052 225.083664 203.854248
v -37.931850 225.083664 204.336609
v -36.517639 225.083664 202.922394
v -37.000000 225.083664 203.122192
v -32.267948 225.083664 223.854248
v -38.000000 225.083664 204.854248
v -27.732050 225.083664 223.854248
v -25.393415 225.083664 206.460831
v -22.007772 225.083664 206.291748
v -32.068150 225.083664 224.336609
v -36.000000 225.083664 202.854248
v -30.312500 225.083664 216.112015
v -27.000000 225.083664 223.122192
v -31.368719 225.083664 215.972961
v -30.131281 225.083664 211.222961
v -27.931852 225.083664 224.336609
v -32.000000 225.083664 224.854248
v -26.517637 225.083664 222.922394
v -30.131281 225.083664 215.972961
v -21.868719 225.083664 206.472961
v -36.345184 225.083664 206.080719
v -36.000000 225.083664 224.854248
v -36.345184 225.083664 215.580719
v -38.000000 225.083664 234.854248
v -36.257771 225.083664 206.291748
v -35.062500 225.083664 216.112015
v -31.187500 225.083664 216.112015
v -28.000000 225.083664 224.854248
v -29.992228 225.083664 211.041748
v -29.992228 225.083664 215.791748
v -26.000000 225.083664 222.854248
v -36.118717 225.083664 206.472961
v -22.007772 225.083664 215.791748
v -21.868719 225.083664 215.972961
v -36.000000 225.083664 232.854248
v -35.931850 225.083664 233.371887
v -25.482363 225.083664 222.922394
v -21.687500 225.083664 216.112015
v -20.492228 225.083664 211.041748
v -20.631281 225.083664 211.222961
v -20.404816 225.083664 210.830719
v -16.000000 225.083664 202.854248
v -16.500000 225.083664 206.729248
v -31.595184 225.083664 206.080719
v -34.654816 225.083664 206.080719
v -25.000000 225.083664 223.122192
v -35.937500 225.083664 216.112015
v -36.118717 225.083664 215.972961
v -35.414215 225.083664 223.440033
v -21.476467 225.083664 216.199432
v -34.742229 225.083664 206.291748
v -31.507772 225.083664 206.291748
v -35.732052 225.083664 233.854248
v -17.345184 225.083664 215.580719
v -20.404816 225.083664 215.580719
v -34.881283 225.083664 206.472961
v -31.368719 225.083664 206.472961
v -20.492228 225.083664 215.791748
v -25.571081 225.083664 206.597153
v -16.273533 225.083664 206.699432
v -17.257772 225.083664 215.791748
v -21.687500 225.083664 206.612015
v -16.062500 225.083664 206.612015
v -36.257771 225.083664 215.791748
v -35.732052 225.083664 223.854248
v -37.931850 225.083664 235.371887
v -37.732052 225.083664 235.854248
v -35.414215 225.083664 234.268463
v -35.000000 225.083664 223.122192
v -37.414215 225.083664 236.268463
v -35.726467 225.083664 216.199432
v -17.118719 225.083664 215.972961
v -20.631281 225.083664 215.972961
v -20.812500 225.083664 216.112015
v -14.000000 225.083664 204.854248
v -15.881282 225.083664 206.472961
v -24.585787 225.083664 223.440033
v -31.187500 225.083664 206.612015
v -25.777975 225.083664 206.682861
v -16.937500 225.083664 216.112015
v -21.476467 225.083664 206.699432
v -37.000000 225.083664 236.586304
v -26.000000 225.083664 206.712082
v -35.062500 225.083664 206.612015
v -35.273533 225.083664 206.699432
v -35.937500 225.083664 206.612015
v -21.250000 225.083664 206.729248
v -30.976467 225.083664 206.699432
v -35.931850 225.083664 224.336609
v -34.517639 225.083664 222.922394
v -35.500000 225.083664 216.229248
v -36.517639 225.083664 236.786102
v -35.273533 225.083664 216.199432
v -35.726467 225.083664 206.699432
v -20.404816 225.083664 206.080719
v -36.000000 225.083664 236.854248
v -34.517639 225.083664 234.786102
v -35.000000 225.083664 234.586304
v -32.000000 225.083664 232.854248
v -30.750000 225.083664 206.729248
v -21.023533 225.083664 206.699432
v -34.000000 225.083664 234.854248
v -29.904816 225.083664 210.830719
v -33.482361 225.083664 234.786102
v -15.482362 225.083664 202.922394
v -33.000000 225.083664 234.586304
v -35.500000 225.083664 206.729248
v -17.345184 225.083664 206.080719
v -19.414213 225.083664 223.440033
v -30.523533 225.083664 206.699432
v -24.267950 225.083664 223.854248
v -22.095184 225.083664 210.830719
v -21.250000 225.083664 216.229248
v -19.732050 225.083664 223.854248
v -24.068148 225.083664 224.336609
v -34.000000 225.083664 222.854248
v -19.000000 225.083664 223.122192
v -21.023533 225.083664 216.199432
v -19.931852 225.083664 224.336609
v -30.312500 225.083664 206.612015
v -20.492228 225.083664 206.291748
v -17.257772 225.083664 206.291748
v -18.517637 225.083664 222.922394
v -14.585787 225.083664 203.440033
v -15.000000 225.083664 203.122192
v -32.068150 225.083664 233.371887
v -28.000000 225.083664 232.854248
v -31.595184 225.083664 210.830719
v -20.812500 225.083664 206.612015
v -26.828609 225.083664 206.076279
v -20.000000 225.083664 224.854248
v -24.000000 225.083664 224.854248
v -29.904816 225.083664 206.080719
v -22.007772 225.083664 211.041748
v -20.631281 225.083664 206.472961
v -17.118719 225.083664 206.472961
v -16.726467 225.083664 216.199432
v -18.000000 225.083664 222.854248
v -27.931852 225.083664 233.371887
v -32.267948 225.083664 233.854248
v -16.273533 225.083664 216.199432
v -16.500000 225.083664 216.229248
v -17.482363 225.083664 222.922394
v -31.507772 225.083664 211.041748
v -27.732050 225.083664 233.854248
v -26.742910 225.083664 206.283173
v -29.992228 225.083664 206.291748
v -30.976467 225.083664 216.199432
v -33.482361 225.083664 222.922394
v -16.062500 225.083664 216.112015
v -17.000000 225.083664 223.122192
v -14.267949 225.083664 203.854248
v -30.131281 225.083664 206.472961
v -27.414213 225.083664 234.268463
v -32.585785 225.083664 234.268463
v -26.606585 225.083664 206.460831
v -15.881282 225.083664 215.972961
v -16.585787 225.083664 223.440033
v -27.000000 225.083664 234.586304
v -31.368719 225.083664 211.222961
v -16.937500 225.083664 206.612015
v -15.742228 225.083664 215.791748
v -16.267950 225.083664 223.854248
v -26.428919 225.083664 206.597153
v -26.517637 225.083664 234.786102
v -15.654815 225.083664 215.580719
v -16.068148 225.083664 224.336609
v -16.726467 225.083664 206.699432
v -33.000000 225.083664 223.122192
v -30.750000 225.083664 216.229248
v -26.222025 225.083664 206.682861
v -26.000000 225.083664 234.854248
v -16.000000 225.083664 224.854248
v -14.068149 225.083664 204.336609
v -24.000000 225.083664 232.854248
v -20.000000 225.083664 232.854248
v -24.068148 225.083664 233.371887
v -19.931852 225.083664 233.371887
v -24.267950 225.083664 233.854248
v -24.585787 225.083664 234.268463
v -19.732050 225.083664 233.854248
v -25.000000 225.083664 234.586304
v -19.414213 225.083664 234.268463
v -19.000000 225.083664 234.586304
v -15.654815 225.083664 206.080719
v -15.742228 225.083664 206.291748
v -25.482363 225.083664 234.786102
v -16.000000 225.083664 236.854248
v -16.585787 225.083664 234.268463
v -17.000000 225.083664 234.586304
v -17.482363 225.083664 234.786102
v -18.000000 225.083664 234.854248
v -18.517637 225.083664 234.786102
v -14.000000 225.083664 234.854248
v -16.000000 225.083664 232.854248
v -16.068148 225.083664 233.371887
v -16.267950 225.083664 233.854248
v -15.482362 225.083664 236.786102
v -14.068149 225.083664 235.371887
v -21.687500 225.083664 211.362015
v -21.868719 225.083664 211.222961
v -14.267949 225.083664 235.854248
v -15.000000 225.083664 236.586304
v -14.585787 225.083664 236.268463
v -21.476467 225.083664 211.449432
v -21.250000 225.083664 211.479248
v -21.023533 225.083664 211.449432
v -31.187500 225.083664 211.362015
v -29.904816 225.083664 215.580719
v -22.095184 225.083664 215.580719
v -20.812500 225.083664 211.362015
v -30.976467 225.083664 211.449432
v -30.750000 225.083664 211.479248
v -30.523533 221.483673 211.449432
v -30.312500 221.483673 211.362015
v -27.414213 221.483673 223.440033
v -32.585785 221.483673 223.440033
v -30.523533 221.483673 216.199432
v -22.007772 221.483673 206.291748
v -25.393415 221.483673 206.460831
v -25.257090 221.483673 206.283173
v -22.095184 221.483673 206.080719
v -32.267948 221.483673 223.854248
v -27.732050 221.483673 223.854248
v -32.068150 221.483673 224.336609
v -31.368719 221.483673 215.972961
v -35.062500 221.483673 216.112015
v -34.881283 221.483673 215.972961
v -31.507772 221.483673 215.791748
v -27.000000 221.483673 223.122192
v -30.312500 221.483673 216.112015
v -30.131281 221.483673 211.222961
v -37.931850 221.483673 204.336609
v -37.732052 221.483673 203.854248
v -37.414215 221.483673 203.440033
v -27.931852 221.483673 224.336609
v -37.000000 221.483673 203.122192
v -36.517639 221.483673 202.922394
v -21.868719 221.483673 206.472961
v -26.517637 221.483673 222.922394
v -30.131281 221.483673 215.972961
v -38.000000 221.483673 204.854248
v -29.992228 221.483673 211.041748
v -38.000000 221.483673 234.854248
v -36.345184 221.483673 215.580719
v -36.000000 221.483673 224.854248
v -31.187500 221.483673 216.112015
v -36.000000 221.483673 202.854248
v -36.000000 221.483673 232.854248
v -28.000000 221.483673 224.854248
v -32.000000 221.483673 224.854248
v -36.345184 221.483673 206.080719
v -26.000000 221.483673 222.854248
v -29.992228 221.483673 215.791748
v -22.007772 221.483673 215.791748
v -36.257771 221.483673 206.291748
v -21.868719 221.483673 215.972961
v -35.931850 221.483673 233.371887
v -36.118717 221.483673 206.472961
v -25.482363 221.483673 222.922394
v -21.687500 221.483673 216.112015
v -20.631281 221.483673 211.222961
v -20.492228 221.483673 211.041748
v -20.404816 221.483673 210.830719
v -16.000000 221.483673 202.854248
v -20.404816 221.483673 215.580719
v -16.500000 221.483673 206.729248
v -35.414215 221.483673 223.440033
v -36.118717 221.483673 215.972961
v -35.937500 221.483673 216.112015
v -35.732052 221.483673 233.854248
v -34.654816 221.483673 206.080719
v -25.000000 221.483673 223.122192
v -21.476467 221.483673 216.199432
v -31.595184 221.483673 206.080719
v -17.345184 221.483673 215.580719
v -25.571081 221.483673 206.597153
v -20.492228 221.483673 215.791748
v -31.507772 221.483673 206.291748
v -16.273533 221.483673 206.699432
v -34.881283 221.483673 206.472961
v -34.742229 221.483673 206.291748
v -21.687500 221.483673 206.612015
v -17.257772 221.483673 215.791748
v -31.368719 221.483673 206.472961
v -35.732052 221.483673 223.854248
v -36.257771 221.483673 215.791748
v -16.062500 221.483673 206.612015
v -35.000000 221.483673 223.122192
v -35.726467 221.483673 216.199432
v -35.414215 221.483673 234.268463
v -37.414215 221.483673 236.268463
v -37.732052 221.483673 235.854248
v -37.931850 221.483673 235.371887
v -25.777975 221.483673 206.682861
v -17.118719 221.483673 215.972961
v -20.631281 221.483673 215.972961
v -20.812500 221.483673 216.112015
v -24.585787 221.483673 223.440033
v -15.881282 221.483673 206.472961
v -14.000000 221.483673 204.854248
v -21.476467 221.483673 206.699432
v -16.937500 221.483673 216.112015
v -26.000000 221.483673 206.712082
v -37.000000 221.483673 236.586304
v -31.187500 221.483673 206.612015
v -21.250000 221.483673 206.729248
v -35.931850 221.483673 224.336609
v -35.937500 221.483673 206.612015
v -34.517639 221.483673 222.922394
v -35.500000 221.483673 216.229248
v -35.273533 221.483673 216.199432
v -35.062500 221.483673 206.612015
v -30.976467 221.483673 206.699432
v -36.517639 221.483673 236.786102
v -21.023533 221.483673 206.699432
v -36.000000 221.483673 236.854248
v -35.000000 221.483673 234.586304
v -34.517639 221.483673 234.786102
v -20.404816 221.483673 206.080719
v -35.726467 221.483673 206.699432
v -34.000000 221.483673 234.854248
v -35.273533 221.483673 206.699432
v -30.750000 221.483673 206.729248
v -33.482361 221.483673 234.786102
v -22.095184 221.483673 210.830719
v -33.000000 221.483673 234.586304
v -29.904816 221.483673 210.830719
v -15.482362 221.483673 202.922394
v -19.414213 221.483673 223.440033
v -24.267950 221.483673 223.854248
v -17.345184 221.483673 206.080719
v -35.500000 221.483673 206.729248
v -21.250000 221.483673 216.229248
v -19.732050 221.483673 223.854248
v -24.068148 221.483673 224.336609
v -19.000000 221.483673 223.122192
v -34.000000 221.483673 222.854248
v -30.523533 221.483673 206.699432
v -21.023533 221.483673 216.199432
v -19.931852 221.483673 224.336609
v -24.000000 221.483673 224.854248
v -22.007772 221.483673 211.041748
v -18.517637 221.483673 222.922394
v -20.812500 221.483673 206.612015
v -17.257772 221.483673 206.291748
v -20.492228 221.483673 206.291748
v -28.000000 221.483673 232.854248
v -32.068150 221.483673 233.371887
v -32.000000 221.483673 232.854248
v -30.312500 221.483673 206.612015
v -15.000000 221.483673 203.122192
v -14.585787 221.483673 203.440033
v -20.000000 221.483673 224.854248
v -31.595184 221.483673 210.830719
v -20.631281 221.483673 206.472961
v -18.000000 221.483673 222.854248
v -17.118719 221.483673 206.472961
v -26.828609 221.483673 206.076279
v -29.904816 221.483673 206.080719
v -16.726467 221.483673 216.199432
v -27.931852 221.483673 233.371887
v -32.267948 221.483673 233.854248
v -17.482363 221.483673 222.922394
v -16.500000 221.483673 216.229248
v -16.273533 221.483673 216.199432
v -33.482361 221.483673 222.922394
v -30.976467 221.483673 216.199432
v -31.507772 221.483673 211.041748
v -27.732050 221.483673 233.854248
v -26.742910 221.483673 206.283173
v -14.267949 221.483673 203.854248
v -17.000000 221.483673 223.122192
v -16.062500 221.483673 216.112015
v -29.992228 221.483673 206.291748
v -27.414213 221.483673 234.268463
v -32.585785 221.483673 234.268463
v -16.585787 221.483673 223.440033
v -16.937500 221.483673 206.612015
v -15.881282 221.483673 215.972961
v -31.368719 221.483673 211.222961
v -27.000000 221.483673 234.586304
v -26.606585 221.483673 206.460831
v -30.131281 221.483673 206.472961
v -16.267950 221.483673 223.854248
v -15.742228 221.483673 215.791748
v -16.726467 221.483673 206.699432
v -26.517637 221.483673 234.786102
v -26.428919 221.483673 206.597153
v -16.068148 221.483673 224.336609
v -15.654815 221.483673 215.580719
v -33.000000 221.483673 223.122192
v -30.750000 221.483673 216.229248
v -26.000000 221.483673 234.854248
v -16.000000 221.483673 224.854248
v -26.222025 221.483673 206.682861
v -14.068149 221.483673 204.336609
v -20.000000 221.483673 232.854248
v -24.000000 221.483673 232.854248
v -19.931852 221.483673 233.371887
v -24.068148 221.483673 233.371887
v -24.267950 221.483673 233.854248
v -19.732050 221.483673 233.854248
v -24.585787 221.483673 234.268463
v -19.414213 221.483673 234.268463
v -25.000000 221.483673 234.586304
v -19.000000 221.483673 234.586304
v -15.654815 221.483673 206.080719
v -15.742228 221.483673 206.291748
v -16.000000 221.483673 236.854248
v -25.482363 221.483673 234.786102
v -17.000000 221.483673 234.586304
v -16.585787 221.483673 234.268463
v -17.482363 221.483673 234.786102
v -18.000000 221.483673 234.854248
v -18.517637 221.483673 234.786102
v -14.000000 221.483673 234.854248
v -16.068148 221.483673 233.371887
v -16.000000 221.483673 232.854248
v -16.267950 221.483673 233.854248
v -21.868719 221.483673 211.222961
v -21.687500 221.483673 211.362015
v -14.068149 221.483673 235.371887
v -15.482362 221.483673 236.786102
v -14.267949 221.483673 235.854248
v -15.000000 221.483673 236.586304
v -14.585787 221.483673 236.268463
v -21.476467 221.483673 211.449432
v -31.187500 221.483673 211.362015
v -21.250000 221.483673 211.479248
v -29.904816 221.483673 215.580719
v -21.023533 221.483673 211.449432
v -22.095184 221.483673 215.580719
v -20.812500 221.483673 211.362015
v -30.976467 221.483673 211.449432
v -30.750000 221.483673 211.479248
v -25.171391 221.483673 206.076279
v -31.595184 221.483673 215.580719
v -34.654816 221.483673 215.580719
v -34.742229 221.483673 215.791748
f 1 2 3
f 4 5 3
f 5 1 3
f 6 4 7
f 4 3 7
f 6 7 8
f 9 10 11
f 10 6 11
f 6 8 11
f 9 11 12
f 13 14 15
f 14 9 15
f 9 12 15
f 16 13 17
f 13 15 17
f 16 17 18
f 19 20 21
f 20 16 21
f 16 18 21
f 19 21 22
f 23 19 24
f 19 22 24
f 25 23 26
f 23 24 26
f 27 28 29
f 27 29 30
f 31 27 32
f 33 31 32
f 27 30 32
f 34 33 35
f 33 32 35
f 34 35 36
f 37 34 38
f 39 37 38
f 34 36 38
f 39 38 40
f 41 39 42
f 43 41 42
f 39 40 42
f 43 42 44
f 45 43 46
f 43 44 46
f 47 45 48
f 45 46 48
f 49 47 50
f 47 48 50
f 51 49 52
f 49 50 52
f 53 54 55
f 53 55 56
f 57 53 58
f 53 56 58
f 59 60 61
f 60 57 61
f 57 58 61
f 59 61 62
f 63 59 64
f 59 62 64
f 65 66 67
f 66 63 67
f 63 64 67
f 68 65 69
f 65 67 69
f 70 68 71
f 68 69 71
f 70 71 72
f 73 70 74
f 70 72 74
f 75 73 76
f 73 74 76
f 77 75 78
f 75 76 78
f 79 80 81
f 79 81 82
f 83 79 84
f 85 83 84
f 79 82 84
f 85 84 86
f 87 85 88
f 85 86 88
f 89 87 90
f 91 89 90
f 87 88 90
f 91 90 92
f 93 91 94
f 95 93 94
f 91 92 94
f 95 94 96
f 97 95 98
f 95 96 98
f 99 97 100
f 97 98 100
f 101 99 102
f 103 101 102
f 99 100 102
f 103 102 104
f 105 106 107
f 105 107 108
f 109 105 110
f 111 109 110
f 105 108 110
f 111 110 112
f 113 111 114
f 115 113 114
f 111 112 114
f 115 114 116
f 117 115 118
f 115 116 118
f 119 117 120
f 121 119 120
f 117 118 120
f 121 120 122
f 123 121 124
f 121 122 124
f 125 123 126
f 123 124 126
f 127 125 128
f 129 127 128
f 125 126 128
f 129 128 130
f 131 132 133
f 134 135 133
f 135 131 133
f 136 134 137
f 134 133 137
f 136 137 138
f 139 136 140
f 136 138 140
f 141 142 143
f 142 139 143
f 139 140 143
f 141 143 144
f 145 146 147
f 146 141 147
f 141 144 147
f 145 147 148
f 149 145 150
f 145 148 150
f 151 152 153
f 152 149 153
f 149 150 153
f 151 153 154
f 155 151 156
f 151 154 156
f 157 158 159
f 160 157 159
f 161 162 163
f 162 160 163
f 160 159 163
f 161 163 164
f 165 166 167
f 166 161 167
f 161 164 167
f 168 165 169
f 165 167 169
f 170 168 171
f 168 169 171
f 170 171 172
f 173 170 174
f 170 172 174
f 175 173 176
f 173 174 176
f 177 175 178
f 175 176 178
f 179 177 180
f 177 178 180
f 181 179 182
f 179 180 182
f 183 184 185
f 183 185 186
f 187 183 188
f 183 186 188
f 189 187 190
f 191 189 190
f 187 188 190
f 192 191 193
f 191 190 193
f 192 193 194
f 195 192 196
f 197 195 196
f 192 194 196
f 197 196 198
f 199 197 200
f 201 199 200
f 197 198 200
f 201 200 202
f 203 201 204
f 201 202 204
f 205 203 206
f 207 205 206
f 203 204 206
f 207 206 208
f 209 210 211
f 209 211 212
f 213 209 214
f 215 213 214
f 209 212 214
f 216 215 217
f 215 214 217
f 216 217 218
f 219 216 220
f 216 218 220
f 221 219 222
f 223 221 222
f 219 220 222
f 223 222 224
f 225 223 226
f 223 224 226
f 227 225 228
f 225 226 228
f 229 227 230
f 227 228 230
f 231 229 232
f 229 230 232
f 233 231 234
f 231 232 234
f 235 236 237
f 238 235 237
f 239 240 241
f 240 238 241
f 238 237 241
f 239 241 242
f 243 239 244
f 239 242 244
f 245 243 246
f 243 244 246
f 247 248 249
f 248 245 249
f 245 246 249
f 250 247 251
f 247 249 251
f 250 251 252
f 253 254 255
f 254 250 255
f 250 252 255
f 253 255 256
f 257 253 258
f 253 256 258
f 259 257 260
f 257 258 260
f 261 262 263
f 261 263 264
f 265 261 266
f 267 265 266
f 261 264 266
f 268 267 269
f 267 266 269
f 268 269 270
f 271 268 272
f 273 271 272
f 268 270 272
f 273 272 274
f 275 273 276
f 277 275 276
f 273 274 276
f 277 276 278
f 279 277 280
f 277 278 280
f 281 279 282
f 279 280 282
f 283 281 284
f 281 282 284
f 285 283 286
f 283 284 286
f 155 287 288
f 106 155 288
f 289 290 291
f 262 289 291
f 292 293 294
f 287 292 294
f 288 287 294
f 295 296 297
f 298 299 121
f 300 301 161
f 301 302 161
f 299 119 121
f 303 304 166
f 304 300 166
f 296 305 297
f 300 161 166
f 302 306 162
f 297 305 307
f 290 308 309
f 291 290 309
f 161 302 162
f 305 310 307
f 162 306 160
f 311 303 165
f 312 295 313
f 294 293 314
f 298 121 123
f 303 166 165
f 315 298 123
f 295 297 313
f 311 165 168
f 307 310 316
f 310 317 316
f 160 306 157
f 312 313 318
f 319 312 318
f 309 308 320
f 157 306 321
f 311 168 170
f 322 323 324
f 321 306 325
f 293 326 327
f 314 293 327
f 316 317 328
f 311 170 173
f 315 123 125
f 329 315 125
f 330 319 331
f 325 306 332
f 333 330 331
f 311 173 175
f 334 333 331
f 319 318 331
f 322 324 335
f 335 324 336
f 334 331 337
f 338 334 337
f 339 340 189
f 340 97 189
f 97 99 189
f 189 99 187
f 99 101 187
f 311 175 239
f 239 175 240
f 339 189 191
f 175 177 240
f 187 101 183
f 311 239 243
f 101 103 183
f 177 179 238
f 341 339 192
f 240 177 238
f 339 191 192
f 311 243 245
f 183 103 184
f 179 181 235
f 311 67 342
f 238 179 235
f 67 64 342
f 64 271 342
f 51 341 195
f 271 273 342
f 343 51 195
f 273 275 342
f 275 277 342
f 311 245 248
f 277 279 342
f 341 192 195
f 235 181 344
f 181 345 344
f 338 337 346
f 311 248 247
f 347 348 349
f 350 338 346
f 345 351 352
f 344 345 352
f 336 324 353
f 342 279 215
f 184 103 354
f 103 355 354
f 351 356 357
f 355 358 354
f 352 351 357
f 279 281 215
f 343 195 197
f 308 359 33
f 360 343 197
f 354 358 361
f 362 320 33
f 320 308 33
f 360 197 199
f 363 360 199
f 348 364 365
f 349 348 365
f 366 367 368
f 347 349 369
f 367 370 368
f 371 347 369
f 353 324 368
f 324 366 368
f 361 358 372
f 358 373 372
f 373 374 372
f 375 376 201
f 215 281 213
f 363 199 201
f 376 363 201
f 281 283 213
f 350 346 377
f 342 215 216
f 378 357 6
f 359 379 31
f 375 201 203
f 372 374 380
f 357 356 6
f 33 359 31
f 332 306 136
f 375 203 205
f 381 362 34
f 362 33 34
f 254 253 72
f 368 370 382
f 342 216 219
f 379 383 27
f 31 379 27
f 136 306 134
f 6 356 4
f 384 385 4
f 356 384 4
f 375 205 207
f 332 136 139
f 386 332 139
f 381 34 37
f 387 381 37
f 388 378 10
f 213 283 209
f 378 6 10
f 250 254 71
f 364 323 389
f 254 72 71
f 365 364 389
f 371 369 390
f 391 371 390
f 253 257 74
f 368 382 392
f 393 391 390
f 72 253 74
f 134 306 135
f 209 283 210
f 394 386 142
f 285 395 210
f 386 139 142
f 283 285 210
f 368 392 396
f 397 398 396
f 398 368 396
f 4 385 5
f 328 317 399
f 342 219 221
f 400 388 9
f 387 37 39
f 388 10 9
f 401 387 39
f 257 259 76
f 397 396 402
f 74 257 76
f 25 403 28
f 383 25 28
f 247 250 69
f 311 247 69
f 402 396 404
f 27 383 28
f 250 71 69
f 405 342 223
f 135 306 131
f 342 221 223
f 404 396 406
f 407 394 141
f 401 39 41
f 394 142 141
f 210 395 408
f 5 385 1
f 385 407 1
f 407 141 1
f 350 377 409
f 410 400 14
f 377 411 409
f 28 403 412
f 400 9 14
f 413 350 409
f 409 411 414
f 411 415 414
f 326 393 416
f 76 259 78
f 393 390 416
f 311 69 67
f 413 409 417
f 418 413 417
f 410 14 13
f 414 415 419
f 389 323 322
f 420 410 13
f 395 421 422
f 408 395 422
f 418 417 423
f 380 374 423
f 424 425 225
f 425 405 225
f 374 418 423
f 405 223 225
f 1 141 146
f 399 426 427
f 401 41 43
f 428 1 146
f 328 399 427
f 429 401 43
f 78 259 430
f 419 415 431
f 415 432 431
f 259 433 430
f 403 329 434
f 412 403 434
f 421 435 436
f 437 380 438
f 422 421 436
f 380 423 438
f 427 426 439
f 424 225 227
f 420 13 16
f 426 440 439
f 435 429 45
f 436 435 45
f 429 43 45
f 441 442 443
f 146 145 444
f 442 437 443
f 437 438 443
f 428 146 444
f 439 440 445
f 430 433 446
f 433 447 446
f 448 327 449
f 450 441 451
f 326 416 449
f 441 443 451
f 444 145 149
f 327 326 449
f 424 227 452
f 420 16 20
f 453 420 20
f 445 440 454
f 440 455 454
f 455 406 454
f 453 20 456
f 447 453 456
f 446 447 456
f 457 450 458
f 450 451 458
f 406 396 459
f 444 149 460
f 454 406 459
f 461 436 47
f 436 45 47
f 462 457 463
f 456 20 464
f 457 458 463
f 459 396 465
f 466 462 467
f 461 47 49
f 464 20 19
f 462 463 467
f 468 461 49
f 448 449 469
f 470 448 469
f 464 19 471
f 465 396 472
f 466 467 473
f 49 51 343
f 468 49 343
f 471 19 23
f 452 227 474
f 227 229 474
f 471 23 383
f 432 475 476
f 431 432 476
f 475 477 478
f 477 479 478
f 383 23 25
f 476 475 478
f 479 480 481
f 478 479 481
f 480 482 483
f 481 480 483
f 483 482 484
f 470 469 296
f 295 470 296
f 231 233 375
f 474 229 375
f 233 485 375
f 485 486 375
f 486 376 375
f 229 231 375
f 482 487 488
f 487 472 488
f 489 490 488
f 490 491 488
f 491 492 488
f 492 493 488
f 493 484 488
f 484 482 488
f 466 473 494
f 495 496 494
f 496 497 494
f 497 489 494
f 473 495 494
f 489 488 498
f 494 489 499
f 500 501 85
f 501 434 85
f 499 489 502
f 489 498 503
f 85 434 83
f 502 489 504
f 489 503 504
f 131 306 324
f 323 131 324
f 329 125 83
f 472 396 488
f 434 329 83
f 207 494 375
f 466 494 207
f 62 61 267
f 505 500 87
f 500 85 87
f 83 125 79
f 460 149 111
f 125 127 79
f 64 62 268
f 506 505 89
f 62 267 268
f 505 87 89
f 152 151 109
f 149 152 109
f 111 149 109
f 79 127 80
f 127 129 80
f 506 89 91
f 61 58 265
f 267 61 265
f 507 506 91
f 508 460 113
f 129 509 510
f 509 330 510
f 460 111 113
f 80 129 510
f 507 91 93
f 64 268 271
f 511 507 93
f 151 155 105
f 109 151 105
f 510 330 333
f 508 113 115
f 512 508 115
f 340 511 95
f 511 93 95
f 58 56 261
f 265 58 261
f 512 115 117
f 513 512 117
f 340 95 97
f 105 155 106
f 55 289 262
f 56 55 262
f 261 56 262
f 513 117 119
f 299 513 119
f 122 120 514
f 122 514 515
f 516 517 518
f 519 520 521
f 519 521 522
f 516 523 517
f 524 523 516
f 524 525 523
f 526 527 528
f 526 528 529
f 530 518 531
f 124 515 532
f 124 122 515
f 164 533 534
f 164 534 535
f 530 516 518
f 536 525 524
f 167 535 537
f 167 537 538
f 539 520 519
f 167 164 535
f 540 530 531
f 540 531 541
f 163 533 164
f 163 542 533
f 126 124 532
f 126 532 543
f 159 542 163
f 544 545 546
f 547 527 526
f 169 538 548
f 169 167 538
f 549 544 546
f 550 525 536
f 158 542 159
f 171 169 548
f 550 551 525
f 552 542 158
f 553 541 554
f 553 554 555
f 553 540 541
f 172 171 548
f 556 542 552
f 553 555 557
f 174 172 548
f 558 544 549
f 559 542 556
f 176 174 548
f 560 553 557
f 560 557 561
f 190 562 563
f 190 98 562
f 190 100 98
f 188 100 190
f 188 102 100
f 193 190 563
f 186 102 188
f 242 176 548
f 242 178 176
f 186 104 102
f 194 564 52
f 194 563 564
f 241 178 242
f 565 63 66
f 194 193 563
f 565 66 548
f 565 272 63
f 185 104 186
f 244 242 548
f 565 274 272
f 565 276 274
f 185 566 104
f 565 278 276
f 565 280 278
f 237 178 241
f 237 182 180
f 237 180 178
f 196 52 567
f 196 194 52
f 246 244 548
f 568 569 570
f 236 182 237
f 571 544 558
f 236 572 182
f 249 246 548
f 573 560 561
f 217 280 565
f 573 561 574
f 575 572 236
f 576 566 185
f 35 577 520
f 251 249 548
f 576 578 566
f 35 520 539
f 579 572 575
f 198 567 580
f 579 581 582
f 579 582 572
f 198 196 567
f 35 539 583
f 584 578 576
f 585 581 579
f 586 587 569
f 586 569 568
f 200 580 588
f 589 570 590
f 200 198 580
f 591 544 571
f 591 592 593
f 589 568 570
f 591 593 594
f 591 594 544
f 32 595 577
f 596 578 584
f 32 577 35
f 596 597 578
f 596 598 597
f 599 573 574
f 202 588 600
f 202 600 601
f 36 583 602
f 36 35 583
f 202 200 588
f 214 280 217
f 214 282 280
f 204 202 601
f 214 284 282
f 218 217 565
f 138 542 559
f 603 598 596
f 30 604 595
f 206 204 601
f 8 581 585
f 605 592 591
f 8 585 606
f 30 595 32
f 220 218 565
f 38 36 602
f 70 256 255
f 38 602 607
f 208 206 601
f 212 284 214
f 137 542 138
f 608 545 587
f 140 138 559
f 140 559 609
f 608 587 586
f 610 590 611
f 610 611 612
f 7 581 8
f 7 613 581
f 11 606 614
f 610 589 590
f 615 605 591
f 11 8 606
f 40 38 607
f 73 258 256
f 40 607 616
f 73 256 70
f 68 255 252
f 68 70 255
f 617 615 591
f 617 618 619
f 617 591 618
f 29 604 30
f 29 26 604
f 211 284 212
f 133 542 137
f 211 620 286
f 143 609 621
f 143 140 609
f 211 286 284
f 622 617 619
f 222 220 565
f 3 613 7
f 3 623 613
f 12 614 624
f 42 40 616
f 625 617 622
f 12 11 614
f 626 26 29
f 75 260 258
f 627 617 625
f 626 628 26
f 75 258 73
f 224 222 565
f 65 252 251
f 65 251 548
f 224 565 629
f 65 68 252
f 630 631 599
f 132 542 133
f 632 620 211
f 630 599 574
f 144 621 633
f 546 545 608
f 630 574 634
f 144 143 621
f 2 144 633
f 2 623 3
f 635 631 630
f 2 633 623
f 635 636 631
f 15 12 624
f 637 630 634
f 638 612 527
f 15 624 639
f 66 65 548
f 638 610 612
f 637 634 640
f 641 636 635
f 77 260 75
f 641 642 636
f 643 543 628
f 643 628 626
f 644 637 640
f 44 616 645
f 44 42 616
f 644 598 603
f 646 647 620
f 147 144 2
f 644 640 598
f 648 551 550
f 17 15 639
f 646 620 632
f 648 649 650
f 17 639 651
f 226 224 629
f 648 650 551
f 226 629 652
f 226 652 653
f 46 44 645
f 654 642 641
f 655 147 2
f 46 645 656
f 657 644 603
f 658 656 647
f 659 660 260
f 659 260 77
f 658 647 646
f 657 603 661
f 658 46 656
f 662 663 649
f 662 649 648
f 228 226 653
f 664 665 666
f 664 661 665
f 667 638 527
f 18 17 651
f 664 657 661
f 667 547 668
f 669 148 147
f 670 663 662
f 669 147 655
f 667 527 547
f 671 660 659
f 672 228 653
f 673 666 674
f 671 675 660
f 673 664 666
f 676 663 670
f 676 677 663
f 676 627 677
f 150 148 669
f 678 673 674
f 679 48 46
f 679 46 658
f 678 674 680
f 681 150 669
f 682 617 627
f 683 675 671
f 683 684 675
f 682 627 676
f 21 684 683
f 21 18 651
f 21 651 684
f 685 680 686
f 50 48 679
f 685 678 680
f 687 50 679
f 688 617 682
f 689 21 683
f 690 686 691
f 690 685 686
f 692 668 693
f 692 667 668
f 694 617 688
f 22 21 689
f 695 690 691
f 696 22 689
f 567 50 687
f 567 52 50
f 697 230 228
f 697 228 672
f 24 22 696
f 604 24 696
f 698 699 642
f 698 642 654
f 700 699 698
f 700 701 699
f 700 702 701
f 703 704 702
f 26 24 604
f 703 702 700
f 705 706 704
f 705 704 703
f 707 706 705
f 517 692 693
f 517 693 518
f 601 708 234
f 601 709 708
f 601 600 709
f 601 230 697
f 601 232 230
f 601 234 232
f 710 711 706
f 710 694 711
f 710 712 713
f 710 714 712
f 710 715 714
f 710 716 715
f 710 707 716
f 710 706 707
f 717 718 719
f 717 720 718
f 717 713 720
f 717 719 695
f 717 695 691
f 86 721 722
f 86 643 721
f 723 713 717
f 724 710 713
f 725 713 723
f 84 643 86
f 726 724 713
f 727 713 725
f 112 150 681
f 727 726 713
f 84 126 543
f 84 128 126
f 710 617 694
f 84 543 643
f 544 542 132
f 544 132 545
f 601 717 208
f 208 717 691
f 269 60 59
f 88 722 728
f 88 86 722
f 82 128 84
f 82 130 128
f 114 681 729
f 114 112 681
f 90 728 730
f 110 154 153
f 110 153 150
f 110 150 112
f 90 88 728
f 81 731 130
f 81 130 82
f 270 59 63
f 270 269 59
f 266 57 60
f 92 730 732
f 266 60 269
f 92 90 730
f 733 554 731
f 108 156 154
f 108 154 110
f 733 731 81
f 94 92 732
f 116 114 729
f 94 732 734
f 116 729 735
f 555 554 733
f 272 270 63
f 264 53 57
f 96 734 562
f 96 94 734
f 264 57 266
f 107 156 108
f 98 96 562
f 118 735 736
f 118 116 735
f 263 54 53
f 263 737 54
f 263 53 264
f 120 118 736
f 120 736 514
f 738 739 156
f 738 156 107
f 522 521 737
f 522 737 263
f 529 739 738
f 529 528 740
f 529 740 739
f 419 431 654
f 419 654 641
f 414 419 635
f 409 414 635
f 419 641 635
f 417 409 630
f 409 635 630
f 417 630 637
f 423 417 644
f 417 637 644
f 438 423 657
f 443 438 657
f 423 644 657
f 443 657 664
f 451 443 673
f 458 451 673
f 443 664 673
f 458 673 678
f 463 458 685
f 467 463 685
f 458 678 685
f 473 467 690
f 467 685 690
f 473 690 695
f 316 328 550
f 316 550 536
f 307 316 524
f 297 307 524
f 316 536 524
f 313 297 516
f 297 524 516
f 313 516 530
f 318 313 540
f 313 530 540
f 331 318 553
f 318 540 553
f 337 331 560
f 346 337 560
f 331 553 560
f 346 560 573
f 377 346 599
f 346 573 599
f 411 377 631
f 377 599 631
f 415 411 636
f 432 415 636
f 411 631 636
f 432 636 642
f 389 322 546
f 389 546 608
f 365 389 586
f 349 365 586
f 389 608 586
f 369 349 568
f 349 586 568
f 369 568 589
f 390 369 610
f 369 589 610
f 416 390 638
f 390 610 638
f 449 416 667
f 469 449 667
f 416 638 667
f 469 667 692
f 296 469 517
f 469 692 517
f 305 296 523
f 296 517 523
f 310 305 525
f 305 523 525
f 317 310 551
f 310 525 551
f 544 324 542
f 542 324 306
f 710 488 617
f 617 488 396
f 601 375 717
f 717 375 494
f 548 311 565
f 565 311 342
f 399 650 649
f 426 399 649
f 440 426 649
f 455 440 663
f 440 649 663
f 406 455 677
f 455 663 677
f 406 677 627
f 404 406 625
f 402 404 625
f 406 627 625
f 397 402 622
f 402 625 622
f 397 622 619
f 398 397 618
f 397 619 618
f 368 398 591
f 398 618 591
f 353 368 571
f 368 591 571
f 336 353 558
f 335 336 558
f 353 571 558
f 335 558 549
f 475 699 701
f 477 475 701
f 479 477 701
f 480 479 702
f 479 701 702
f 480 702 704
f 482 480 706
f 480 704 706
f 487 482 711
f 472 487 711
f 482 706 711
f 472 711 694
f 465 472 688
f 472 694 688
f 459 465 682
f 454 459 682
f 465 688 682
f 445 454 676
f 454 682 676
f 445 676 670
f 439 445 662
f 445 670 662
f 427 439 648
f 439 662 648
f 495 719 718
f 496 495 718
f 497 496 718
f 497 718 720
f 489 497 713
f 490 489 713
f 497 720 713
f 490 713 712
f 491 490 714
f 492 491 714
f 490 712 714
f 492 714 715
f 493 492 716
f 492 715 716
f 484 493 707
f 483 484 707
f 493 716 707
f 481 483 705
f 483 707 705
f 481 705 703
f 478 481 700
f 476 478 700
f 481 703 700
f 476 700 698
f 285 286 620
f 395 285 620
f 421 395 620
f 435 421 647
f 421 620 647
f 435 647 656
f 429 435 645
f 401 429 645
f 435 656 645
f 401 645 616
f 387 401 607
f 381 387 607
f 401 616 607
f 362 381 602
f 381 607 602
f 320 362 583
f 362 602 583
f 309 320 539
f 320 583 539
f 291 309 519
f 309 539 519
f 262 291 522
f 291 519 522
f 262 522 263
f 433 259 260
f 447 433 660
f 433 260 660
f 447 660 675
f 453 447 684
f 447 675 684
f 410 420 651
f 420 453 651
f 453 684 651
f 410 651 639
f 388 400 624
f 400 410 624
f 410 639 624
f 388 624 614
f 378 388 606
f 388 614 606
f 357 378 585
f 378 606 585
f 352 357 579
f 357 585 579
f 235 344 575
f 344 352 575
f 352 579 575
f 235 575 236
f 233 234 708
f 485 233 708
f 486 485 708
f 486 708 709
f 376 486 600
f 363 376 600
f 486 709 600
f 363 600 588
f 360 363 580
f 363 588 580
f 343 360 567
f 468 343 567
f 360 580 567
f 468 567 687
f 461 468 679
f 436 461 679
f 468 687 679
f 422 436 658
f 436 679 658
f 422 658 646
f 408 422 632
f 210 408 632
f 422 646 632
f 210 632 211
f 207 208 691
f 466 207 691
f 462 466 691
f 462 691 686
f 457 462 680
f 450 457 680
f 462 686 680
f 441 450 674
f 450 680 674
f 442 441 666
f 441 674 666
f 437 442 665
f 442 666 665
f 437 665 661
f 380 437 603
f 437 661 603
f 372 380 596
f 361 372 596
f 380 603 596
f 354 361 584
f 361 596 584
f 354 584 576
f 184 354 185
f 354 576 185
f 345 181 182
f 345 182 572
f 356 351 582
f 351 345 582
f 345 572 582
f 356 582 581
f 385 384 613
f 384 356 613
f 356 581 613
f 407 385 623
f 385 613 623
f 407 623 633
f 386 394 621
f 394 407 621
f 407 633 621
f 386 621 609
f 332 386 559
f 386 609 559
f 321 325 556
f 325 332 556
f 332 559 556
f 157 321 552
f 321 556 552
f 157 552 158
f 155 156 739
f 292 287 739
f 287 155 739
f 292 739 740
f 293 292 528
f 292 740 528
f 393 326 527
f 326 293 527
f 293 528 527
f 391 393 612
f 393 527 612
f 371 391 611
f 391 612 611
f 371 611 590
f 348 347 570
f 347 371 570
f 371 590 570
f 364 348 569
f 348 570 569
f 364 569 587
f 131 323 545
f 323 364 545
f 364 587 545
f 131 545 132
f 615 392 382
f 615 396 392
f 615 617 396
f 605 382 370
f 605 615 382
f 592 370 367
f 592 605 370
f 593 367 366
f 593 592 367
f 594 366 324
f 594 593 366
f 544 594 324
f 723 494 499
f 723 717 494
f 725 499 502
f 725 723 499
f 727 502 504
f 727 725 502
f 726 504 503
f 726 727 504
f 724 503 498
f 724 726 503
f 710 498 488
f 710 724 498
f 542 306 302
f 533 302 301
f 533 542 302
f 534 301 300
f 534 533 301
f 535 300 304
f 535 534 300
f 537 304 303
f 537 535 304
f 538 303 311
f 538 537 303
f 548 538 311
f 629 342 405
f 629 565 342
f 652 405 425
f 652 629 405
f 653 425 424
f 653 652 425
f 672 424 452
f 672 653 424
f 697 452 474
f 697 672 452
f 601 474 375
f 601 697 474
f 551 650 317
f 650 399 317
f 549 546 335
f 546 322 335
f 642 699 432
f 699 475 432
f 648 550 427
f 550 328 427
f 695 719 473
f 719 495 473
f 698 654 476
f 654 431 476
f 129 130 731
f 509 129 731
f 330 509 731
f 319 330 554
f 330 731 554
f 312 319 541
f 319 554 541
f 295 312 531
f 312 541 531
f 295 531 518
f 470 295 693
f 448 470 693
f 295 518 693
f 327 448 668
f 448 693 668
f 314 327 547
f 327 668 547
f 294 314 526
f 314 547 526
f 294 526 529
f 288 294 738
f 106 288 738
f 294 529 738
f 106 738 107
f 103 104 566
f 355 103 566
f 358 355 566
f 373 358 578
f 358 566 578
f 373 578 597
f 374 373 598
f 373 597 598
f 418 374 640
f 413 418 640
f 374 598 640
f 350 413 634
f 413 640 634
f 338 350 574
f 350 634 574
f 334 338 561
f 338 574 561
f 334 561 557
f 333 334 555
f 510 333 555
f 334 557 555
f 80 510 733
f 510 555 733
f 80 733 81
f 77 78 430
f 671 659 430
f 659 77 430
f 671 430 446
f 689 683 456
f 683 671 456
f 671 446 456
f 689 456 464
f 696 689 471
f 689 464 471
f 604 696 383
f 696 471 383
f 577 595 379
f 595 604 379
f 604 383 379
f 577 379 359
f 520 577 308
f 577 359 308
f 521 520 290
f 520 308 290
f 54 737 289
f 737 521 289
f 521 290 289
f 54 289 55
f 51 52 564
f 341 51 564
f 339 341 564
f 340 339 563
f 339 564 563
f 340 563 562
f 511 340 734
f 507 511 734
f 340 562 734
f 507 734 732
f 506 507 730
f 505 506 730
f 507 732 730
f 500 505 728
f 505 730 728
f 501 500 722
f 500 728 722
f 434 501 721
f 501 722 721
f 412 434 643
f 434 721 643
f 28 412 626
f 412 643 626
f 28 626 29
f 25 26 628
f 329 403 628
f 403 25 628
f 329 628 543
f 315 329 532
f 329 543 532
f 299 298 515
f 298 315 515
f 315 532 515
f 513 299 514
f 299 515 514
f 513 514 736
f 508 512 735
f 512 513 735
f 513 736 735
f 460 508 729
f 508 735 729
f 444 460 681
f 460 729 681
f 444 681 669
f 428 444 655
f 444 669 655
f 1 428 2
f 428 655 2
