# Created by FreeCAD <http://www.freecadweb.org>
v 9.803395 218.836456 217.104248
v 9.590253 218.580460 217.104248
v 9.534423 218.621033 217.104248
v 9.650904 218.545013 217.104248
v 9.765871 218.876129 217.104248
v 9.486300 218.664993 217.104248
v 9.843745 218.803391 217.104248
v 9.721222 218.512726 217.104248
v 9.736719 218.917084 217.104248
v 9.438904 218.717667 217.104248
v 9.401772 218.768936 217.104248
v 9.885798 218.778442 217.104248
v 9.792061 218.488602 217.104248
v 9.711736 218.965210 217.104248
v 9.362109 218.836502 217.104248
v 9.930058 218.760925 217.104248
v 9.865432 218.470901 217.104248
v 9.691029 219.021576 217.104248
v 9.329711 218.906281 217.104248
v 9.975550 218.750137 217.104248
v 9.940472 218.460342 217.104248
v 9.985692 218.457077 217.104248
v 9.675516 219.085510 217.104248
v 9.302086 218.983627 217.104248
v 9.283298 219.058350 217.104248
v 10.033079 218.745605 217.104248
v 10.031021 218.455856 217.104248
v 10.074665 218.748001 217.104248
v 10.120207 218.459747 217.104248
v 9.666246 219.158966 217.104248
v 9.273277 219.126740 217.104248
v 9.268346 219.211945 217.104248
v 10.115692 218.755203 217.104248
v 10.191872 218.469498 217.104248
v 9.663472 219.232925 217.104248
v 9.270166 219.278519 217.104248
v 10.163873 218.771118 217.104248
v 10.264069 218.486160 217.104248
v 10.331522 218.508667 217.104248
v 9.667497 219.321091 217.104248
v 9.275524 219.344894 217.104248
v 9.287958 219.428329 217.104248
v 10.208144 218.794159 217.104248
v 10.394816 218.536942 217.104248
v 9.677709 219.391846 217.104248
v 9.305605 219.501434 217.104248
v 10.248961 218.824417 217.104248
v 10.457952 218.573669 217.104248
v 9.694278 219.454712 217.104248
v 9.330386 219.574402 217.104248
v 9.358136 219.635513 217.104248
v 10.289597 218.864548 217.104248
v 10.514674 218.614731 217.104248
v 9.714207 219.506088 217.104248
v 9.395657 219.699280 217.104248
v 9.434438 219.751480 217.104248
v 10.571475 218.665359 217.104248
v 10.321707 218.906738 217.104248
v 9.740205 219.554443 217.104248
v 9.483602 219.804596 217.104248
v 10.621308 218.719177 217.104248
v 10.348917 218.955826 217.104248
v 9.771487 219.596359 217.104248
v 9.529590 219.844772 217.104248
v 10.663375 218.774460 217.104248
v 9.591841 219.887848 217.104248
v 9.811872 219.637131 217.104248
v 10.704386 218.841202 217.104248
v 10.369739 219.007507 217.104248
v 9.656117 219.923172 217.104248
v 9.853388 219.669006 217.104248
v 10.735307 218.904984 217.104248
v 10.386502 219.071732 217.104248
v 9.726233 219.953491 217.104248
v 9.893587 219.691086 217.104248
v 10.758627 218.968506 217.104248
v 9.799318 219.977692 217.104248
v 9.939952 219.707870 217.104248
v 10.777498 219.042130 217.104248
v 10.396979 219.142197 217.104248
v 9.877681 219.996124 217.104248
v 10.790991 219.126953 217.104248
v 9.947084 220.005615 217.104248
v 9.986093 219.717224 217.104248
v 10.794737 219.177811 217.104248
v 10.401040 219.230057 217.104248
v 10.796166 219.228821 217.104248
v 10.033491 220.010010 217.104248
v 10.033079 219.720245 217.104248
v 10.792449 219.316666 217.104248
v 10.398201 219.305908 217.104248
v 10.109528 220.007095 217.104248
v 10.090460 219.715744 217.104248
v 10.781692 219.395096 217.104248
v 10.388557 219.381195 217.104248
v 10.184958 219.997162 217.104248
v 10.135849 219.705032 217.104248
v 10.763789 219.472321 217.104248
v 10.261319 219.979599 217.104248
v 10.178636 219.688049 217.104248
v 10.741335 219.538788 217.104248
v 10.373250 219.445709 217.104248
v 10.330383 219.956223 217.104248
v 10.217938 219.665283 217.104248
v 10.709322 219.609436 217.104248
v 10.352548 219.501709 217.104248
v 10.395936 219.925873 217.104248
v 10.258152 219.633316 217.104248
v 10.673443 219.671417 217.104248
v 10.457677 219.889557 217.104248
v 10.629223 219.732285 217.104248
v 10.325778 219.552246 217.104248
v 10.516828 219.845428 217.104248
v 10.294334 219.595825 217.104248
v 10.577120 219.790329 217.104248
v 9.534423 218.621033 217.105255
v 9.590253 218.580460 217.105255
v 9.803395 218.836456 217.105255
v 9.650904 218.545013 217.105255
v 9.486300 218.664993 217.105255
v 9.765871 218.876129 217.105255
v 9.721222 218.512726 217.105255
v 9.843745 218.803391 217.105255
v 9.401772 218.768936 217.105255
v 9.438904 218.717667 217.105255
v 9.736719 218.917084 217.105255
v 9.792061 218.488602 217.105255
v 9.885798 218.778442 217.105255
v 9.362109 218.836502 217.105255
v 9.711736 218.965210 217.105255
v 9.865432 218.470901 217.105255
v 9.930058 218.760925 217.105255
v 9.329711 218.906281 217.105255
v 9.691029 219.021576 217.105255
v 9.940472 218.460342 217.105255
v 9.975550 218.750137 217.105255
v 9.985692 218.457077 217.105255
v 9.283298 219.058350 217.105255
v 9.302086 218.983627 217.105255
v 9.675516 219.085510 217.105255
v 10.031021 218.455856 217.105255
v 10.033079 218.745605 217.105255
v 10.120207 218.459747 217.105255
v 10.074665 218.748001 217.105255
v 9.268346 219.211945 217.105255
v 9.273277 219.126740 217.105255
v 9.666246 219.158966 217.105255
v 10.191872 218.469498 217.105255
v 10.115692 218.755203 217.105255
v 9.270166 219.278519 217.105255
v 9.663472 219.232925 217.105255
v 10.264069 218.486160 217.105255
v 10.163873 218.771118 217.105255
v 10.331522 218.508667 217.105255
v 9.287958 219.428329 217.105255
v 9.275524 219.344894 217.105255
v 9.667497 219.321091 217.105255
v 10.208144 218.794159 217.105255
v 10.394816 218.536942 217.105255
v 9.305605 219.501434 217.105255
v 9.677709 219.391846 217.105255
v 10.457952 218.573669 217.105255
v 10.248961 218.824417 217.105255
v 9.358136 219.635513 217.105255
v 9.330386 219.574402 217.105255
v 9.694278 219.454712 217.105255
v 10.289597 218.864548 217.105255
v 10.514674 218.614731 217.105255
v 9.714207 219.506088 217.105255
v 9.434438 219.751480 217.105255
v 9.395657 219.699280 217.105255
v 10.321707 218.906738 217.105255
v 10.571475 218.665359 217.105255
v 9.483602 219.804596 217.105255
v 9.740205 219.554443 217.105255
v 10.348917 218.955826 217.105255
v 10.621308 218.719177 217.105255
v 9.771487 219.596359 217.105255
v 9.529590 219.844772 217.105255
v 10.663375 218.774460 217.105255
v 9.591841 219.887848 217.105255
v 9.811872 219.637131 217.105255
v 10.704386 218.841202 217.105255
v 10.369739 219.007507 217.105255
v 9.656117 219.923172 217.105255
v 9.853388 219.669006 217.105255
v 10.386502 219.071732 217.105255
v 10.735307 218.904984 217.105255
v 9.726233 219.953491 217.105255
v 9.893587 219.691086 217.105255
v 10.758627 218.968506 217.105255
v 9.799318 219.977692 217.105255
v 9.939952 219.707870 217.105255
v 10.396979 219.142197 217.105255
v 10.777498 219.042130 217.105255
v 9.877681 219.996124 217.105255
v 10.790991 219.126953 217.105255
v 9.947084 220.005615 217.105255
v 9.986093 219.717224 217.105255
v 10.401040 219.230057 217.105255
v 10.794737 219.177811 217.105255
v 10.796166 219.228821 217.105255
v 10.033079 219.720245 217.105255
v 10.033491 220.010010 217.105255
v 10.398201 219.305908 217.105255
v 10.792449 219.316666 217.105255
v 10.109528 220.007095 217.105255
v 10.090460 219.715744 217.105255
v 10.388557 219.381195 217.105255
v 10.781692 219.395096 217.105255
v 10.184958 219.997162 217.105255
v 10.135849 219.705032 217.105255
v 10.763789 219.472321 217.105255
v 10.178636 219.688049 217.105255
v 10.261319 219.979599 217.105255
v 10.373250 219.445709 217.105255
v 10.741335 219.538788 217.105255
v 10.330383 219.956223 217.105255
v 10.217938 219.665283 217.105255
v 10.709322 219.609436 217.105255
v 10.352548 219.501709 217.105255
v 10.395936 219.925873 217.105255
v 10.258152 219.633316 217.105255
v 10.673443 219.671417 217.105255
v 10.457677 219.889557 217.105255
v 10.629223 219.732285 217.105255
v 10.325778 219.552246 217.105255
v 10.516828 219.845428 217.105255
v 10.294334 219.595825 217.105255
v 10.577120 219.790329 217.105255
f 1 2 3
f 1 4 2
f 5 1 3
f 5 3 6
f 7 4 1
f 7 8 4
f 9 10 11
f 9 6 10
f 9 5 6
f 12 8 7
f 12 13 8
f 14 9 11
f 14 11 15
f 16 17 13
f 16 13 12
f 18 14 15
f 18 15 19
f 20 17 16
f 20 21 17
f 20 22 21
f 23 24 25
f 23 19 24
f 23 18 19
f 26 27 22
f 26 22 20
f 28 29 27
f 28 27 26
f 30 23 25
f 30 31 32
f 30 25 31
f 33 34 29
f 33 29 28
f 35 32 36
f 35 30 32
f 37 38 34
f 37 39 38
f 37 34 33
f 40 41 42
f 40 36 41
f 40 35 36
f 43 44 39
f 43 39 37
f 45 42 46
f 45 40 42
f 47 48 44
f 47 44 43
f 49 50 51
f 49 46 50
f 49 45 46
f 52 53 48
f 52 48 47
f 54 49 51
f 54 55 56
f 54 51 55
f 57 53 52
f 57 52 58
f 59 56 60
f 59 54 56
f 61 57 58
f 61 58 62
f 63 59 60
f 64 63 60
f 65 61 62
f 66 63 64
f 66 67 63
f 68 65 62
f 68 62 69
f 70 67 66
f 70 71 67
f 72 68 69
f 72 69 73
f 74 71 70
f 74 75 71
f 76 72 73
f 77 75 74
f 77 78 75
f 79 76 73
f 79 73 80
f 81 78 77
f 82 79 80
f 83 84 78
f 83 78 81
f 85 82 80
f 85 80 86
f 87 85 86
f 88 84 83
f 88 89 84
f 90 87 86
f 90 86 91
f 92 93 89
f 92 89 88
f 94 91 95
f 94 90 91
f 96 97 93
f 96 93 92
f 98 94 95
f 99 100 97
f 99 97 96
f 101 95 102
f 101 98 95
f 103 104 100
f 103 100 99
f 105 102 106
f 105 101 102
f 107 108 104
f 107 104 103
f 109 105 106
f 110 108 107
f 111 106 112
f 111 109 106
f 113 114 108
f 113 108 110
f 115 112 114
f 115 111 112
f 115 114 113
f 116 117 118
f 117 119 118
f 120 116 121
f 116 118 121
f 119 122 123
f 118 119 123
f 124 125 126
f 125 120 126
f 120 121 126
f 122 127 128
f 123 122 128
f 129 124 130
f 124 126 130
f 127 131 132
f 128 127 132
f 133 129 134
f 129 130 134
f 131 135 136
f 135 137 136
f 132 131 136
f 138 139 140
f 139 133 140
f 133 134 140
f 137 141 142
f 136 137 142
f 141 143 144
f 142 141 144
f 145 146 147
f 146 138 147
f 138 140 147
f 143 148 149
f 144 143 149
f 150 145 151
f 145 147 151
f 148 152 153
f 152 154 153
f 149 148 153
f 155 156 157
f 156 150 157
f 150 151 157
f 153 154 158
f 154 159 158
f 160 155 161
f 155 157 161
f 159 162 163
f 158 159 163
f 164 165 166
f 165 160 166
f 160 161 166
f 163 162 167
f 162 168 167
f 164 166 169
f 170 171 169
f 171 164 169
f 172 167 173
f 167 168 173
f 174 170 175
f 170 169 175
f 176 172 177
f 172 173 177
f 174 175 178
f 174 178 179
f 176 177 180
f 179 178 181
f 178 182 181
f 176 180 183
f 184 176 183
f 181 182 185
f 182 186 185
f 187 184 188
f 184 183 188
f 185 186 189
f 186 190 189
f 187 188 191
f 189 190 192
f 190 193 192
f 194 187 195
f 187 191 195
f 192 193 196
f 194 195 197
f 196 193 198
f 193 199 198
f 200 194 201
f 194 197 201
f 200 201 202
f 199 203 204
f 198 199 204
f 205 200 206
f 200 202 206
f 204 203 207
f 203 208 207
f 209 205 210
f 205 206 210
f 207 208 211
f 208 212 211
f 209 210 213
f 212 214 215
f 211 212 215
f 216 209 217
f 209 213 217
f 215 214 218
f 214 219 218
f 216 217 220
f 221 216 220
f 218 219 222
f 219 223 222
f 221 220 224
f 222 223 225
f 221 224 226
f 227 221 226
f 225 223 228
f 223 229 228
f 227 226 230
f 228 229 230
f 229 227 230
f 198 204 88
f 198 88 83
f 196 83 81
f 196 198 83
f 192 81 77
f 192 196 81
f 74 192 77
f 189 192 74
f 185 74 70
f 185 189 74
f 181 70 66
f 181 185 70
f 64 181 66
f 179 181 64
f 60 179 64
f 174 179 60
f 170 60 56
f 170 174 60
f 55 170 56
f 171 170 55
f 51 171 55
f 164 171 51
f 50 164 51
f 165 164 50
f 46 165 50
f 160 165 46
f 155 46 42
f 155 160 46
f 156 42 41
f 156 155 42
f 36 156 41
f 150 156 36
f 145 150 36
f 145 36 32
f 206 202 87
f 206 87 90
f 94 206 90
f 210 206 94
f 213 94 98
f 213 210 94
f 217 98 101
f 217 213 98
f 220 101 105
f 220 217 101
f 109 220 105
f 224 220 109
f 226 109 111
f 226 224 109
f 230 111 115
f 230 226 111
f 228 115 113
f 228 230 115
f 225 113 110
f 225 228 113
f 107 225 110
f 222 225 107
f 103 222 107
f 218 222 103
f 99 218 103
f 215 218 99
f 96 215 99
f 211 215 96
f 92 211 96
f 207 211 92
f 88 207 92
f 204 207 88
f 143 141 27
f 143 27 29
f 148 29 34
f 148 143 29
f 152 34 38
f 152 148 34
f 39 152 38
f 154 152 39
f 159 39 44
f 159 154 39
f 162 44 48
f 162 159 44
f 53 162 48
f 168 162 53
f 173 53 57
f 173 168 53
f 177 57 61
f 177 173 57
f 65 177 61
f 180 177 65
f 183 65 68
f 183 180 65
f 188 68 72
f 188 183 68
f 76 188 72
f 191 188 76
f 79 191 76
f 195 191 79
f 197 79 82
f 197 195 79
f 85 197 82
f 201 197 85
f 87 201 85
f 202 201 87
f 31 145 32
f 146 145 31
f 25 146 31
f 138 146 25
f 139 25 24
f 139 138 25
f 133 24 19
f 133 139 24
f 129 19 15
f 129 133 19
f 124 15 11
f 124 129 15
f 10 124 11
f 125 124 10
f 120 10 6
f 120 125 10
f 116 6 3
f 116 120 6
f 117 3 2
f 117 116 3
f 119 2 4
f 119 117 2
f 8 119 4
f 122 119 8
f 13 122 8
f 127 122 13
f 17 127 13
f 131 127 17
f 135 17 21
f 135 131 17
f 22 135 21
f 137 135 22
f 27 137 22
f 141 137 27
f 136 142 26
f 136 26 20
f 132 20 16
f 132 136 20
f 128 16 12
f 128 132 16
f 123 12 7
f 123 128 12
f 118 7 1
f 118 123 7
f 5 118 1
f 121 118 5
f 126 5 9
f 126 121 5
f 130 9 14
f 130 126 9
f 134 14 18
f 134 130 14
f 140 18 23
f 140 134 18
f 147 23 30
f 147 140 23
f 151 30 35
f 151 147 30
f 157 151 35
f 157 35 40
f 161 40 45
f 161 157 40
f 166 45 49
f 166 161 45
f 169 49 54
f 169 166 49
f 175 54 59
f 175 169 54
f 178 59 63
f 178 175 59
f 182 63 67
f 182 178 63
f 186 67 71
f 186 182 67
f 190 71 75
f 190 186 71
f 193 75 78
f 193 190 75
f 199 78 84
f 199 193 78
f 203 84 89
f 203 199 84
f 208 203 89
f 208 89 93
f 97 208 93
f 212 208 97
f 100 212 97
f 214 212 100
f 219 100 104
f 219 214 100
f 223 104 108
f 223 219 104
f 229 108 114
f 229 223 108
f 112 229 114
f 227 229 112
f 106 227 112
f 221 227 106
f 216 106 102
f 216 221 106
f 209 102 95
f 209 216 102
f 205 95 91
f 205 209 95
f 200 91 86
f 200 205 91
f 194 200 86
f 194 86 80
f 73 194 80
f 187 194 73
f 69 187 73
f 184 187 69
f 176 69 62
f 176 184 69
f 172 62 58
f 172 176 62
f 167 58 52
f 167 172 58
f 47 167 52
f 163 167 47
f 158 47 43
f 158 163 47
f 153 43 37
f 153 158 43
f 149 37 33
f 149 153 37
f 144 33 28
f 144 149 33
f 142 28 26
f 142 144 28
