# Created by FreeCAD <http://www.freecadweb.org>
v 8.662486 219.538330 217.104248
v 8.662486 219.983673 217.105255
v 8.662486 219.538330 217.105255
v 8.662486 219.983673 217.104248
v 8.876359 218.854309 217.105255
v 8.917672 218.850983 217.105255
v 8.917672 218.850983 217.104248
v 8.876359 218.854309 217.104248
v 8.840160 218.863373 217.104248
v 8.840160 218.863373 217.105255
v 8.808908 218.877045 217.105255
v 8.808908 218.877045 217.104248
v 8.782352 218.894608 217.104248
v 8.782352 218.894608 217.105255
v 8.758628 218.917633 217.105255
v 8.758628 218.917633 217.104248
v 8.738097 218.946198 217.104248
v 8.738097 218.946198 217.105255
v 8.719831 218.981888 217.104248
v 8.719831 218.981888 217.105255
v 8.701363 219.030441 217.105255
v 8.701363 219.030441 217.104248
v 8.688429 219.079330 217.105255
v 8.688429 219.079330 217.104248
v 8.678650 219.140015 217.105255
v 8.678650 219.140015 217.104248
v 8.669667 219.243561 217.104248
v 8.669667 219.243561 217.105255
v 8.663997 219.390884 217.105255
v 8.663997 219.390884 217.104248
v 9.047208 218.885452 217.105255
v 9.097125 218.914764 217.105255
v 9.097125 218.914764 217.104248
v 9.047208 218.885452 217.104248
v 9.004080 218.867020 217.104248
v 9.004080 218.867020 217.105255
v 8.971645 218.857407 217.105255
v 8.971645 218.857407 217.104248
v 8.944841 218.853027 217.105255
v 8.944841 218.853027 217.104248
v 9.189321 218.538986 217.104248
v 9.189321 218.538986 217.105255
v 9.010569 218.459869 217.105255
v 8.960889 218.455856 217.105255
v 8.960889 218.455856 217.104248
v 9.010569 218.459869 217.104248
v 9.050120 218.467773 217.104248
v 9.050120 218.467773 217.105255
v 9.093060 218.482590 217.105255
v 9.093060 218.482590 217.104248
v 9.136208 218.504181 217.105255
v 9.136208 218.504181 217.104248
v 9.163088 218.521057 217.104248
v 9.163088 218.521057 217.105255
v 8.708561 218.614883 217.105255
v 8.662486 218.691696 217.105255
v 8.662486 218.691696 217.104248
v 8.708561 218.614883 217.104248
v 8.743420 218.566422 217.105255
v 8.743420 218.566422 217.104248
v 8.770768 218.534149 217.105255
v 8.770768 218.534149 217.104248
v 8.795920 218.510422 217.104248
v 8.795920 218.510422 217.105255
v 8.822861 218.492203 217.105255
v 8.822861 218.492203 217.104248
v 8.860139 218.474075 217.105255
v 8.860139 218.474075 217.104248
v 8.895899 218.462921 217.105255
v 8.895899 218.462921 217.104248
v 8.928226 218.457855 217.104248
v 8.928226 218.457855 217.105255
v 8.662486 218.482193 217.104248
v 8.662486 218.482193 217.105255
v 8.267361 218.482193 217.104248
v 8.267361 218.482193 217.105255
v 8.267361 219.983673 217.105255
v 8.267361 219.983673 217.104248
f 1 2 3
f 1 4 2
f 5 6 7
f 5 7 8
f 9 5 8
f 10 5 9
f 11 9 12
f 11 10 9
f 13 11 12
f 14 11 13
f 15 13 16
f 15 14 13
f 17 15 16
f 18 15 17
f 19 18 17
f 20 18 19
f 21 19 22
f 21 20 19
f 23 22 24
f 23 21 22
f 25 24 26
f 25 23 24
f 27 25 26
f 28 25 27
f 29 27 30
f 29 28 27
f 3 30 1
f 3 29 30
f 31 32 33
f 31 33 34
f 35 31 34
f 36 31 35
f 37 35 38
f 37 36 35
f 39 38 40
f 39 37 38
f 6 40 7
f 6 39 40
f 41 32 42
f 41 33 32
f 43 44 45
f 43 45 46
f 47 43 46
f 48 43 47
f 49 47 50
f 49 48 47
f 51 50 52
f 51 49 50
f 53 51 52
f 54 51 53
f 42 53 41
f 42 54 53
f 55 56 57
f 55 57 58
f 59 58 60
f 59 55 58
f 61 60 62
f 61 59 60
f 63 61 62
f 64 61 63
f 65 63 66
f 65 64 63
f 67 66 68
f 67 65 66
f 69 68 70
f 69 67 68
f 71 69 70
f 72 69 71
f 44 71 45
f 44 72 71
f 73 56 74
f 73 57 56
f 75 74 76
f 75 73 74
f 77 75 76
f 78 75 77
f 4 77 2
f 4 78 77
f 7 71 70
f 7 40 71
f 8 60 58
f 8 7 60
f 9 8 58
f 57 9 58
f 12 9 57
f 13 12 57
f 16 13 57
f 17 16 57
f 75 57 73
f 19 17 57
f 22 19 57
f 22 57 75
f 24 22 75
f 26 24 75
f 27 26 75
f 78 27 75
f 78 4 1
f 34 33 41
f 78 30 27
f 78 1 30
f 35 53 52
f 35 41 53
f 35 34 41
f 38 47 46
f 38 50 47
f 38 52 50
f 38 35 52
f 40 46 45
f 40 45 71
f 40 38 46
f 7 62 60
f 7 63 62
f 7 66 63
f 7 68 66
f 7 70 68
f 72 39 6
f 55 59 5
f 59 6 5
f 55 5 10
f 55 10 56
f 56 10 11
f 56 11 14
f 56 14 15
f 56 15 18
f 74 56 76
f 56 18 20
f 56 20 21
f 76 56 21
f 76 21 23
f 76 23 25
f 76 25 28
f 76 28 77
f 3 2 77
f 28 29 77
f 29 3 77
f 42 32 31
f 51 54 36
f 54 42 36
f 42 31 36
f 43 48 37
f 48 49 37
f 49 51 37
f 51 36 37
f 72 44 39
f 44 43 39
f 43 37 39
f 59 61 6
f 61 64 6
f 64 65 6
f 65 67 6
f 67 69 6
f 69 72 6
