# Created by FreeCAD <http://www.freecadweb.org>
v -1.394231 225.283676 217.104248
v -1.682692 225.283676 217.105255
v -1.394231 225.283676 217.105255
v -1.682692 225.283676 217.104248
v -1.384615 224.102783 217.104248
v -1.384615 224.102783 217.105255
v -1.103065 225.283676 217.104248
v -1.103065 225.283676 217.105255
v -0.781550 225.283676 217.104248
v -0.781550 225.283676 217.105255
v -0.500000 224.102783 217.104248
v -0.500000 224.102783 217.105255
v -0.490385 225.283676 217.104248
v -0.490385 225.283676 217.105255
v -0.201923 225.283676 217.104248
v -0.201923 225.283676 217.105255
v -0.201923 223.783676 217.104248
v -0.201923 223.783676 217.105255
v -0.689904 223.783676 217.104248
v -0.689904 223.783676 217.105255
v -0.942308 224.806808 217.105255
v -0.942308 224.806808 217.104248
v -1.194712 223.783676 217.105255
v -1.194712 223.783676 217.104248
v -1.682692 223.783676 217.104248
v -1.682692 223.783676 217.105255
f 1 2 3
f 1 4 2
f 5 3 6
f 5 1 3
f 7 6 8
f 7 5 6
f 9 8 10
f 9 7 8
f 11 10 12
f 11 9 10
f 13 12 14
f 13 11 12
f 15 14 16
f 15 13 14
f 17 16 18
f 17 15 16
f 19 18 20
f 19 17 18
f 21 19 20
f 22 19 21
f 23 22 21
f 24 22 23
f 25 23 26
f 25 24 23
f 4 26 2
f 4 25 26
f 7 9 22
f 4 5 25
f 25 5 24
f 11 15 17
f 19 11 17
f 4 1 5
f 22 5 7
f 22 9 11
f 15 11 13
f 11 19 22
f 5 22 24
f 21 10 8
f 26 6 2
f 23 6 26
f 18 16 12
f 18 12 20
f 23 21 6
f 21 20 12
f 14 12 16
f 12 10 21
f 8 6 21
f 6 3 2
