# Created by FreeCAD <http://www.freecadweb.org>
v 2.105769 224.958542 217.105255
v 2.105769 225.283676 217.104248
v 2.105769 225.283676 217.105255
v 2.105769 224.958542 217.104248
v 2.261905 224.459183 217.105255
v 2.292067 224.456741 217.105255
v 2.292067 224.456741 217.104248
v 2.261905 224.459183 217.104248
v 2.235476 224.465790 217.104248
v 2.235476 224.465790 217.105255
v 2.212660 224.475784 217.105255
v 2.212660 224.475784 217.104248
v 2.193272 224.488602 217.104248
v 2.193272 224.488602 217.105255
v 2.175952 224.505417 217.105255
v 2.175952 224.505417 217.104248
v 2.160963 224.526276 217.105255
v 2.160963 224.526276 217.104248
v 2.147627 224.552338 217.105255
v 2.147627 224.552338 217.104248
v 2.134143 224.587799 217.105255
v 2.134143 224.587799 217.104248
v 2.124704 224.623489 217.105255
v 2.124704 224.623489 217.104248
v 2.117565 224.667801 217.104248
v 2.117565 224.667801 217.105255
v 2.111007 224.743423 217.104248
v 2.111007 224.743423 217.105255
v 2.106871 224.850952 217.105255
v 2.106871 224.850952 217.104248
v 2.386635 224.481918 217.105255
v 2.423077 224.503326 217.105255
v 2.423077 224.503326 217.104248
v 2.386635 224.481918 217.104248
v 2.355149 224.468460 217.105255
v 2.355149 224.468460 217.104248
v 2.331469 224.461441 217.105255
v 2.331469 224.461441 217.104248
v 2.311902 224.458252 217.105255
v 2.311902 224.458252 217.104248
v 2.490385 224.228989 217.105255
v 2.490385 224.228989 217.104248
v 2.359889 224.171219 217.105255
v 2.323618 224.168289 217.105255
v 2.323618 224.168289 217.104248
v 2.359889 224.171219 217.104248
v 2.388766 224.176987 217.104248
v 2.388766 224.176987 217.105255
v 2.420117 224.187820 217.105255
v 2.420117 224.187820 217.104248
v 2.451619 224.203583 217.104248
v 2.451619 224.203583 217.105255
v 2.471238 224.215897 217.104248
v 2.471238 224.215897 217.105255
v 2.139406 224.284393 217.105255
v 2.105769 224.340454 217.105255
v 2.105769 224.340454 217.104248
v 2.139406 224.284393 217.104248
v 2.164855 224.249008 217.105255
v 2.164855 224.249008 217.104248
v 2.184822 224.225449 217.104248
v 2.184822 224.225449 217.105255
v 2.203187 224.208115 217.105255
v 2.203187 224.208115 217.104248
v 2.222858 224.194824 217.105255
v 2.222858 224.194824 217.104248
v 2.250077 224.181595 217.105255
v 2.250077 224.181595 217.104248
v 2.276184 224.173447 217.104248
v 2.276184 224.173447 217.105255
v 2.299778 224.169754 217.104248
v 2.299778 224.169754 217.105255
v 2.105769 224.187515 217.104248
v 2.105769 224.187515 217.105255
v 1.817308 224.187515 217.104248
v 1.817308 224.187515 217.105255
v 1.817308 225.283676 217.104248
v 1.817308 225.283676 217.105255
f 1 2 3
f 4 2 1
f 5 6 7
f 5 7 8
f 9 5 8
f 10 5 9
f 11 9 12
f 11 10 9
f 13 11 12
f 14 11 13
f 15 13 16
f 15 14 13
f 17 16 18
f 17 15 16
f 19 18 20
f 19 17 18
f 21 20 22
f 21 19 20
f 23 22 24
f 23 21 22
f 25 23 24
f 26 23 25
f 27 26 25
f 28 26 27
f 29 27 30
f 29 28 27
f 4 29 30
f 1 29 4
f 31 32 33
f 31 33 34
f 35 34 36
f 35 31 34
f 37 36 38
f 37 35 36
f 39 38 40
f 39 37 38
f 6 40 7
f 6 39 40
f 41 33 32
f 42 33 41
f 43 44 45
f 43 45 46
f 47 43 46
f 48 43 47
f 49 47 50
f 49 48 47
f 51 49 50
f 52 49 51
f 53 52 51
f 54 52 53
f 41 53 42
f 41 54 53
f 55 56 57
f 55 57 58
f 59 58 60
f 59 55 58
f 61 59 60
f 62 59 61
f 63 61 64
f 63 62 61
f 65 64 66
f 65 63 64
f 67 66 68
f 67 65 66
f 69 67 68
f 70 67 69
f 71 70 69
f 72 70 71
f 45 72 71
f 44 72 45
f 73 56 74
f 73 57 56
f 75 74 76
f 75 73 74
f 77 76 78
f 77 75 76
f 2 78 3
f 2 77 78
f 7 40 71
f 8 60 58
f 8 7 60
f 9 8 58
f 57 9 58
f 12 9 57
f 13 12 57
f 16 13 57
f 18 16 57
f 75 57 73
f 20 18 57
f 22 20 57
f 22 57 75
f 24 22 75
f 25 24 75
f 27 25 75
f 77 27 75
f 77 2 4
f 34 33 42
f 77 30 27
f 77 4 30
f 36 53 51
f 36 42 53
f 36 34 42
f 38 47 46
f 38 50 47
f 38 51 50
f 38 36 51
f 40 46 45
f 40 45 71
f 40 38 46
f 7 61 60
f 7 64 61
f 7 66 64
f 7 68 66
f 7 69 68
f 7 71 69
f 72 39 6
f 55 59 5
f 59 6 5
f 55 5 10
f 55 10 56
f 56 10 11
f 56 11 14
f 56 14 15
f 56 15 17
f 74 56 76
f 56 17 19
f 56 19 21
f 76 56 21
f 76 21 23
f 76 23 26
f 76 26 28
f 76 28 78
f 1 3 78
f 28 29 78
f 29 1 78
f 41 32 31
f 52 54 35
f 54 41 35
f 41 31 35
f 43 48 37
f 48 49 37
f 49 52 37
f 52 35 37
f 72 44 39
f 44 43 39
f 43 37 39
f 59 62 6
f 62 63 6
f 63 65 6
f 65 67 6
f 67 70 6
f 70 72 6
