# Created by FreeCAD <http://www.freecadweb.org>
v 8.661110 223.107895 217.105255
v 8.796891 223.113297 217.105255
v 8.796891 223.113297 217.104248
v 8.661110 223.107895 217.104248
v 8.539769 223.092438 217.104248
v 8.539769 223.092438 217.105255
v 8.436324 223.069412 217.105255
v 8.436324 223.069412 217.104248
v 8.345630 223.039322 217.104248
v 8.345630 223.039322 217.105255
v 8.265336 223.002701 217.105255
v 8.265336 223.002701 217.104248
v 8.188057 222.955551 217.105255
v 8.188057 222.955551 217.104248
v 8.122212 222.903778 217.104248
v 8.122212 222.903778 217.105255
v 8.061535 222.842545 217.105255
v 8.061535 222.842545 217.104248
v 8.010212 222.777206 217.104248
v 8.010212 222.777206 217.105255
v 7.963185 222.700043 217.105255
v 7.963185 222.700043 217.104248
v 7.922514 222.612473 217.105255
v 7.922514 222.612473 217.104248
v 7.888144 222.512665 217.105255
v 7.888144 222.512665 217.104248
v 7.864892 222.413681 217.104248
v 7.864892 222.413681 217.105255
v 7.849514 222.313171 217.105255
v 7.849514 222.313171 217.104248
v 9.711405 222.487442 217.105255
v 9.716485 222.404388 217.105255
v 9.716485 222.404388 217.104248
v 9.711405 222.487442 217.104248
v 9.696400 222.569290 217.105255
v 9.696400 222.569290 217.104248
v 9.671551 222.645966 217.104248
v 9.671551 222.645966 217.105255
v 9.642221 222.712524 217.105255
v 9.642221 222.712524 217.104248
v 9.599064 222.785721 217.105255
v 9.599064 222.785721 217.104248
v 9.554639 222.844604 217.105255
v 9.554639 222.844604 217.104248
v 9.502692 222.899109 217.104248
v 9.502692 222.899109 217.105255
v 9.443427 222.947662 217.105255
v 9.443427 222.947662 217.104248
v 9.373971 222.992020 217.105255
v 9.373971 222.992020 217.104248
v 9.290969 223.031769 217.105255
v 9.290969 223.031769 217.104248
v 9.201049 223.063049 217.105255
v 9.201049 223.063049 217.104248
v 9.102942 223.086655 217.105255
v 9.102942 223.086655 217.104248
v 8.995082 223.103165 217.105255
v 8.995082 223.103165 217.104248
v 8.896125 223.110886 217.105255
v 8.896125 223.110886 217.104248
v 8.499118 221.518295 217.104248
v 8.451465 221.487579 217.105255
v 8.451465 221.487579 217.104248
v 8.499118 221.518295 217.105255
v 8.567971 221.549728 217.104248
v 8.567971 221.549728 217.105255
v 8.657836 221.581070 217.105255
v 8.657836 221.581070 217.104248
v 8.824479 221.627975 217.105255
v 8.824479 221.627975 217.104248
v 9.032018 221.680511 217.105255
v 9.032018 221.680511 217.104248
v 9.158185 221.718674 217.104248
v 9.158185 221.718674 217.105255
v 9.278866 221.762589 217.104248
v 9.278866 221.762589 217.105255
v 9.371475 221.804932 217.104248
v 9.371475 221.804932 217.105255
v 9.442239 221.847092 217.104248
v 9.442239 221.847092 217.105255
v 9.506751 221.897781 217.105255
v 9.506751 221.897781 217.104248
v 9.563005 221.954300 217.104248
v 9.563005 221.954300 217.105255
v 9.608621 222.013229 217.104248
v 9.608621 222.013229 217.105255
v 9.647032 222.077942 217.105255
v 9.647032 222.077942 217.104248
v 9.676873 222.147934 217.105255
v 9.676873 222.147934 217.104248
v 9.697368 222.219849 217.104248
v 9.697368 222.219849 217.105255
v 9.711678 222.306335 217.104248
v 9.711678 222.306335 217.105255
v 9.715281 222.355316 217.105255
v 9.715281 222.355316 217.104248
v 8.389181 221.397202 217.105255
v 8.382935 221.350052 217.105255
v 8.382935 221.350052 217.104248
v 8.389181 221.397202 217.104248
v 8.404400 221.432739 217.105255
v 8.404400 221.432739 217.104248
v 8.425464 221.462219 217.104248
v 8.425464 221.462219 217.105255
v 8.419301 221.243011 217.105255
v 8.455631 221.209747 217.105255
v 8.455631 221.209747 217.104248
v 8.419301 221.243011 217.104248
v 8.399794 221.273270 217.105255
v 8.399794 221.273270 217.104248
v 8.387606 221.308197 217.104248
v 8.387606 221.308197 217.105255
v 8.384497 221.328979 217.105255
v 8.384497 221.328979 217.104248
v 8.669545 221.133331 217.105255
v 8.767719 221.127792 217.105255
v 8.767719 221.127792 217.104248
v 8.669545 221.133331 217.104248
v 8.591230 221.147827 217.105255
v 8.591230 221.147827 217.104248
v 8.530454 221.168274 217.105255
v 8.530454 221.168274 217.104248
v 8.491900 221.186966 217.105255
v 8.491900 221.186966 217.104248
v 9.166418 221.380890 217.105255
v 9.183064 221.453781 217.105255
v 9.183064 221.453781 217.104248
v 9.166418 221.380890 217.104248
v 9.143448 221.317657 217.104248
v 9.143448 221.317657 217.105255
v 9.112755 221.264038 217.104248
v 9.112755 221.264038 217.105255
v 9.079718 221.224030 217.105255
v 9.079718 221.224030 217.104248
v 9.041124 221.192322 217.104248
v 9.041124 221.192322 217.105255
v 8.995056 221.167191 217.105255
v 8.995056 221.167191 217.104248
v 8.940661 221.147812 217.104248
v 8.940661 221.147812 217.105255
v 8.869514 221.133820 217.105255
v 8.869514 221.133820 217.104248
v 8.818704 221.129395 217.105255
v 8.818704 221.129395 217.104248
v 9.627582 221.424133 217.104248
v 9.627582 221.424133 217.105255
v 8.899631 220.747681 217.105255
v 8.762163 220.742554 217.105255
v 8.762163 220.742554 217.104248
v 8.899631 220.747681 217.104248
v 9.022491 220.763092 217.105255
v 9.022491 220.763092 217.104248
v 9.124380 220.785828 217.104248
v 9.124380 220.785828 217.105255
v 9.209658 220.814590 217.104248
v 9.209658 220.814590 217.105255
v 9.291427 220.852325 217.104248
v 9.291427 220.852325 217.105255
v 9.358302 220.893860 217.105255
v 9.358302 220.893860 217.104248
v 9.422036 220.946030 217.105255
v 9.422036 220.946030 217.104248
v 9.475239 221.001923 217.105255
v 9.475239 221.001923 217.104248
v 9.525019 221.069809 217.104248
v 9.525019 221.069809 217.105255
v 9.562295 221.137009 217.105255
v 9.562295 221.137009 217.104248
v 9.592464 221.213333 217.104248
v 9.592464 221.213333 217.105255
v 9.613507 221.296295 217.104248
v 9.613507 221.296295 217.105255
v 9.622785 221.359970 217.105255
v 9.622785 221.359970 217.104248
v 7.943868 221.299316 217.105255
v 7.938418 221.381073 217.105255
v 7.938418 221.381073 217.104248
v 7.943868 221.299316 217.104248
v 7.958600 221.227081 217.105255
v 7.958600 221.227081 217.104248
v 7.985700 221.149200 217.105255
v 7.985700 221.149200 217.104248
v 8.019207 221.081833 217.105255
v 8.019207 221.081833 217.104248
v 8.065722 221.012314 217.104248
v 8.065722 221.012314 217.105255
v 8.115838 220.955307 217.104248
v 8.115838 220.955307 217.105255
v 8.171392 220.907227 217.105255
v 8.171392 220.907227 217.104248
v 8.235440 220.864029 217.105255
v 8.235440 220.864029 217.104248
v 8.307484 220.826630 217.104248
v 8.307484 220.826630 217.105255
v 8.394086 220.793716 217.105255
v 8.394086 220.793716 217.104248
v 8.491523 220.768173 217.105255
v 8.491523 220.768173 217.104248
v 8.599795 220.751068 217.105255
v 8.599795 220.751068 217.104248
v 8.680865 220.744995 217.105255
v 8.680865 220.744995 217.104248
v 8.083803 221.773392 217.105255
v 8.151878 221.841797 217.105255
v 8.151878 221.841797 217.104248
v 8.083803 221.773392 217.104248
v 8.036263 221.711334 217.105255
v 8.036263 221.711334 217.104248
v 7.998854 221.647003 217.105255
v 7.998854 221.647003 217.104248
v 7.971179 221.581131 217.105255
v 7.971179 221.581131 217.104248
v 7.950316 221.504395 217.105255
v 7.950316 221.504395 217.104248
v 7.941229 221.443054 217.105255
v 7.941229 221.443054 217.104248
v 8.555792 222.035233 217.105255
v 8.680205 222.068695 217.105255
v 8.680205 222.068695 217.104248
v 8.555792 222.035233 217.104248
v 8.433459 221.994766 217.104248
v 8.433459 221.994766 217.105255
v 8.318405 221.946976 217.105255
v 8.318405 221.946976 217.104248
v 8.234446 221.901779 217.105255
v 8.234446 221.901779 217.104248
v 8.191931 221.873489 217.104248
v 8.191931 221.873489 217.105255
v 8.962261 222.141342 217.105255
v 9.055266 222.169174 217.105255
v 9.055266 222.169174 217.104248
v 8.962261 222.141342 217.104248
v 8.868425 222.116425 217.104248
v 8.868425 222.116425 217.105255
v 9.267216 222.358826 217.104248
v 9.271968 222.409027 217.105255
v 9.271968 222.409027 217.104248
v 9.267216 222.358826 217.105255
v 9.250962 222.311050 217.105255
v 9.250962 222.311050 217.104248
v 9.228698 222.275528 217.104248
v 9.228698 222.275528 217.105255
v 9.202574 222.248245 217.104248
v 9.202574 222.248245 217.105255
v 9.162134 222.218262 217.105255
v 9.162134 222.218262 217.104248
v 9.109950 222.191010 217.105255
v 9.109950 222.191010 217.104248
v 8.898422 222.724045 217.105255
v 8.808929 222.728058 217.105255
v 8.808929 222.728058 217.104248
v 8.898422 222.724045 217.104248
v 8.978136 222.711975 217.104248
v 8.978136 222.711975 217.105255
v 9.054824 222.689957 217.104248
v 9.054824 222.689957 217.105255
v 9.109591 222.663773 217.104248
v 9.109591 222.663773 217.105255
v 9.158813 222.629776 217.105255
v 9.158813 222.629776 217.104248
v 9.202342 222.587143 217.105255
v 9.202342 222.587143 217.104248
v 9.230539 222.550262 217.105255
v 9.230539 222.550262 217.104248
v 9.254710 222.502991 217.105255
v 9.254710 222.502991 217.104248
v 9.267647 222.456787 217.104248
v 9.267647 222.456787 217.105255
v 8.314665 222.372116 217.105255
v 8.294031 222.283539 217.105255
v 8.294031 222.283539 217.104248
v 8.314665 222.372116 217.104248
v 8.342155 222.449234 217.105255
v 8.342155 222.449234 217.104248
v 8.378807 222.521027 217.104248
v 8.378807 222.521027 217.105255
v 8.417439 222.574417 217.105255
v 8.417439 222.574417 217.104248
v 8.461457 222.618912 217.105255
v 8.461457 222.618912 217.104248
v 8.509533 222.653763 217.105255
v 8.509533 222.653763 217.104248
v 8.570053 222.684952 217.105255
v 8.570053 222.684952 217.104248
v 8.632274 222.706482 217.104248
v 8.632274 222.706482 217.105255
v 8.705473 222.721024 217.105255
v 8.705473 222.721024 217.104248
v 8.757083 222.726257 217.105255
v 8.757083 222.726257 217.104248
f 1 2 3
f 1 3 4
f 5 1 4
f 6 1 5
f 7 5 8
f 7 6 5
f 9 7 8
f 10 7 9
f 11 9 12
f 11 10 9
f 13 12 14
f 13 11 12
f 15 13 14
f 16 13 15
f 17 15 18
f 17 16 15
f 19 17 18
f 20 17 19
f 21 19 22
f 21 20 19
f 23 22 24
f 23 21 22
f 25 24 26
f 25 23 24
f 27 25 26
f 28 25 27
f 29 27 30
f 29 28 27
f 31 32 33
f 31 33 34
f 35 34 36
f 35 31 34
f 37 35 36
f 38 35 37
f 39 37 40
f 39 38 37
f 41 40 42
f 41 39 40
f 43 42 44
f 43 41 42
f 45 43 44
f 46 43 45
f 47 45 48
f 47 46 45
f 49 48 50
f 49 47 48
f 51 50 52
f 51 49 50
f 53 52 54
f 53 51 52
f 55 54 56
f 55 53 54
f 57 56 58
f 57 55 56
f 59 58 60
f 59 57 58
f 2 60 3
f 2 59 60
f 61 62 63
f 64 62 61
f 65 64 61
f 66 64 65
f 67 65 68
f 67 66 65
f 69 68 70
f 69 67 68
f 71 70 72
f 71 69 70
f 73 71 72
f 74 71 73
f 75 74 73
f 76 74 75
f 77 76 75
f 78 76 77
f 79 78 77
f 80 78 79
f 81 79 82
f 81 80 79
f 83 81 82
f 84 81 83
f 85 84 83
f 86 84 85
f 87 85 88
f 87 86 85
f 89 88 90
f 89 87 88
f 91 89 90
f 92 89 91
f 93 92 91
f 94 92 93
f 95 94 93
f 95 93 96
f 32 95 96
f 32 96 33
f 97 98 99
f 97 99 100
f 101 100 102
f 101 97 100
f 103 101 102
f 104 101 103
f 63 104 103
f 62 104 63
f 105 106 107
f 105 107 108
f 109 108 110
f 109 105 108
f 111 109 110
f 112 109 111
f 113 111 114
f 113 112 111
f 98 114 99
f 98 113 114
f 115 116 117
f 115 117 118
f 119 118 120
f 119 115 118
f 121 120 122
f 121 119 120
f 123 122 124
f 123 121 122
f 107 123 124
f 106 123 107
f 125 126 127
f 125 127 128
f 129 125 128
f 130 125 129
f 131 130 129
f 132 130 131
f 133 131 134
f 133 132 131
f 135 133 134
f 136 133 135
f 137 135 138
f 137 136 135
f 139 137 138
f 140 137 139
f 141 139 142
f 141 140 139
f 143 142 144
f 143 141 142
f 116 144 117
f 116 143 144
f 145 126 146
f 145 127 126
f 147 148 149
f 147 149 150
f 151 150 152
f 151 147 150
f 153 151 152
f 154 151 153
f 155 154 153
f 156 154 155
f 157 156 155
f 158 156 157
f 159 157 160
f 159 158 157
f 161 160 162
f 161 159 160
f 163 162 164
f 163 161 162
f 165 163 164
f 166 163 165
f 167 165 168
f 167 166 165
f 169 167 168
f 170 167 169
f 171 170 169
f 172 170 171
f 173 171 174
f 173 172 171
f 145 173 174
f 146 173 145
f 175 176 177
f 175 177 178
f 179 178 180
f 179 175 178
f 181 180 182
f 181 179 180
f 183 182 184
f 183 181 182
f 185 183 184
f 186 183 185
f 187 186 185
f 188 186 187
f 189 187 190
f 189 188 187
f 191 190 192
f 191 189 190
f 193 191 192
f 194 191 193
f 195 193 196
f 195 194 193
f 197 196 198
f 197 195 196
f 199 198 200
f 199 197 198
f 201 200 202
f 201 199 200
f 149 201 202
f 148 201 149
f 203 204 205
f 203 205 206
f 207 206 208
f 207 203 206
f 209 208 210
f 209 207 208
f 211 210 212
f 211 209 210
f 213 212 214
f 213 211 212
f 215 214 216
f 215 213 214
f 177 215 216
f 176 215 177
f 217 218 219
f 217 219 220
f 221 217 220
f 222 217 221
f 223 221 224
f 223 222 221
f 225 224 226
f 225 223 224
f 227 225 226
f 228 225 227
f 205 228 227
f 204 228 205
f 229 230 231
f 229 231 232
f 233 229 232
f 234 229 233
f 219 234 233
f 218 234 219
f 235 236 237
f 238 236 235
f 239 235 240
f 239 238 235
f 241 239 240
f 242 239 241
f 243 242 241
f 244 242 243
f 245 243 246
f 245 244 243
f 247 246 248
f 247 245 246
f 230 248 231
f 230 247 248
f 249 250 251
f 249 251 252
f 253 249 252
f 254 249 253
f 255 254 253
f 256 254 255
f 257 256 255
f 258 256 257
f 259 257 260
f 259 258 257
f 261 260 262
f 261 259 260
f 263 262 264
f 263 261 262
f 265 264 266
f 265 263 264
f 267 265 266
f 268 265 267
f 237 268 267
f 236 268 237
f 269 270 271
f 269 271 272
f 273 272 274
f 273 269 272
f 275 273 274
f 276 273 275
f 277 275 278
f 277 276 275
f 279 278 280
f 279 277 278
f 281 280 282
f 281 279 280
f 283 282 284
f 283 281 282
f 285 283 284
f 286 283 285
f 287 285 288
f 287 286 285
f 289 288 290
f 289 287 288
f 250 290 251
f 250 289 290
f 30 270 29
f 30 271 270
f 108 187 185
f 108 190 187
f 107 190 108
f 107 192 190
f 107 193 192
f 110 108 185
f 110 184 182
f 110 185 184
f 124 193 107
f 124 196 193
f 111 182 180
f 111 110 182
f 122 196 124
f 122 198 196
f 114 180 178
f 114 111 180
f 99 114 178
f 99 177 216
f 99 178 177
f 120 198 122
f 120 200 198
f 100 214 212
f 100 216 214
f 100 99 216
f 118 200 120
f 118 202 200
f 102 210 208
f 102 212 210
f 102 100 212
f 103 208 206
f 103 102 208
f 117 202 118
f 117 149 202
f 63 103 206
f 144 149 117
f 144 150 149
f 205 63 206
f 142 150 144
f 142 152 150
f 227 63 205
f 139 152 142
f 139 153 152
f 226 63 227
f 226 61 63
f 138 153 139
f 138 155 153
f 135 155 138
f 135 157 155
f 224 65 61
f 224 61 226
f 134 157 135
f 134 160 157
f 162 160 134
f 131 162 134
f 221 68 65
f 221 65 224
f 164 162 131
f 271 30 27
f 220 68 221
f 165 131 129
f 165 164 131
f 272 27 26
f 272 271 27
f 168 165 129
f 219 70 68
f 219 68 220
f 274 24 22
f 274 26 24
f 274 272 26
f 169 129 128
f 169 168 129
f 275 274 22
f 275 22 19
f 18 275 19
f 171 169 128
f 174 171 128
f 174 128 127
f 233 72 70
f 233 70 219
f 278 275 18
f 15 278 18
f 145 174 127
f 280 278 15
f 232 73 72
f 232 72 233
f 14 280 15
f 231 73 232
f 231 75 73
f 12 280 14
f 12 282 280
f 248 75 231
f 248 77 75
f 246 79 77
f 246 77 248
f 9 282 12
f 9 284 282
f 243 82 79
f 243 79 246
f 8 284 9
f 83 243 241
f 83 82 243
f 85 83 241
f 5 285 284
f 5 284 8
f 88 241 240
f 88 85 241
f 4 288 285
f 4 290 288
f 4 285 5
f 90 88 240
f 3 251 290
f 3 290 4
f 91 240 235
f 91 90 240
f 60 252 251
f 60 251 3
f 93 91 235
f 96 235 237
f 96 93 235
f 58 253 252
f 58 252 60
f 33 96 237
f 56 255 253
f 56 253 58
f 34 33 237
f 34 237 267
f 54 255 56
f 54 257 255
f 36 34 267
f 36 267 266
f 37 36 266
f 52 257 54
f 40 37 266
f 40 266 264
f 50 260 257
f 50 257 52
f 42 40 264
f 48 260 50
f 48 262 260
f 44 264 262
f 44 42 264
f 45 262 48
f 45 44 262
f 186 188 105
f 188 189 105
f 105 189 106
f 189 191 106
f 191 194 106
f 181 183 109
f 183 186 109
f 186 105 109
f 106 194 123
f 194 195 123
f 179 181 112
f 181 109 112
f 195 197 121
f 123 195 121
f 175 179 113
f 179 112 113
f 215 176 98
f 176 175 98
f 175 113 98
f 197 199 119
f 121 197 119
f 211 213 97
f 213 215 97
f 215 98 97
f 119 199 115
f 199 201 115
f 207 209 101
f 209 211 101
f 211 97 101
f 207 101 104
f 203 207 104
f 115 201 116
f 201 148 116
f 203 104 62
f 116 148 143
f 148 147 143
f 203 62 204
f 143 147 141
f 147 151 141
f 204 62 228
f 141 151 140
f 151 154 140
f 228 62 225
f 62 64 225
f 140 154 137
f 154 156 137
f 137 156 136
f 156 158 136
f 64 66 223
f 225 64 223
f 136 158 133
f 158 159 133
f 133 159 161
f 133 161 132
f 66 67 222
f 223 66 222
f 132 161 163
f 28 29 270
f 222 67 217
f 132 163 166
f 130 132 166
f 25 28 269
f 28 270 269
f 130 166 167
f 67 69 218
f 217 67 218
f 21 23 273
f 23 25 273
f 25 269 273
f 130 167 170
f 125 130 170
f 21 273 276
f 20 21 276
f 20 276 17
f 125 170 172
f 125 172 173
f 126 125 173
f 69 71 234
f 218 69 234
f 17 276 277
f 17 277 16
f 126 173 146
f 16 277 279
f 71 74 229
f 234 71 229
f 16 279 13
f 74 76 230
f 229 74 230
f 13 279 11
f 279 281 11
f 76 78 247
f 230 76 247
f 78 80 245
f 247 78 245
f 281 283 10
f 11 281 10
f 80 81 244
f 245 80 244
f 10 283 7
f 242 244 84
f 244 81 84
f 242 84 86
f 283 286 6
f 7 283 6
f 239 242 87
f 242 86 87
f 286 287 1
f 287 289 1
f 6 286 1
f 239 87 89
f 289 250 2
f 1 289 2
f 238 239 92
f 239 89 92
f 250 249 59
f 2 250 59
f 238 92 94
f 238 94 95
f 236 238 95
f 249 254 57
f 59 249 57
f 236 95 32
f 57 254 55
f 254 256 55
f 236 32 31
f 268 236 31
f 256 258 53
f 55 256 53
f 268 31 35
f 265 268 35
f 265 35 38
f 53 258 51
f 265 38 39
f 263 265 39
f 51 258 49
f 258 259 49
f 263 39 41
f 49 259 47
f 259 261 47
f 263 41 43
f 261 263 43
f 47 261 46
f 261 43 46
