# Created by FreeCAD <http://www.freecadweb.org>
v 9.015603 224.446152 217.104248
v 8.860024 224.259247 217.104248
v 8.819261 224.288864 217.104248
v 8.904308 224.233368 217.104248
v 8.988207 224.475128 217.104248
v 8.784131 224.320953 217.104248
v 9.045062 224.422012 217.104248
v 8.955653 224.209793 217.104248
v 8.966927 224.505020 217.104248
v 8.749525 224.359406 217.104248
v 8.722419 224.396835 217.104248
v 9.075765 224.403793 217.104248
v 9.007366 224.192184 217.104248
v 8.948687 224.540161 217.104248
v 8.693460 224.446167 217.104248
v 9.108078 224.391006 217.104248
v 9.060936 224.179260 217.104248
v 8.933573 224.581314 217.104248
v 8.669806 224.497101 217.104248
v 9.141291 224.383133 217.104248
v 9.115716 224.171570 217.104248
v 9.148713 224.169174 217.104248
v 8.922248 224.628006 217.104248
v 8.649635 224.553574 217.104248
v 8.635917 224.608139 217.104248
v 9.183293 224.379822 217.104248
v 9.181791 224.168289 217.104248
v 9.213641 224.381577 217.104248
v 9.246905 224.171127 217.104248
v 8.915485 224.681610 217.104248
v 8.628600 224.658066 217.104248
v 8.625000 224.720261 217.104248
v 9.243583 224.386826 217.104248
v 9.299227 224.178253 217.104248
v 8.913462 224.735596 217.104248
v 8.626328 224.768845 217.104248
v 9.278760 224.398438 217.104248
v 9.351937 224.190414 217.104248
v 9.401183 224.206848 217.104248
v 8.916400 224.799957 217.104248
v 8.630234 224.817276 217.104248
v 8.639309 224.878189 217.104248
v 9.311084 224.415253 217.104248
v 9.447392 224.227493 217.104248
v 8.923857 224.851624 217.104248
v 8.652188 224.931580 217.104248
v 9.340885 224.437347 217.104248
v 9.493486 224.254303 217.104248
v 8.935954 224.897522 217.104248
v 8.670280 224.984863 217.104248
v 8.690536 225.029465 217.104248
v 9.370555 224.466644 217.104248
v 9.534899 224.284286 217.104248
v 8.950503 224.935013 217.104248
v 8.717930 225.076035 217.104248
v 8.746237 225.114136 217.104248
v 9.576366 224.321259 217.104248
v 9.393997 224.497452 217.104248
v 8.969486 224.970322 217.104248
v 8.782132 225.152924 217.104248
v 9.612749 224.360550 217.104248
v 9.413866 224.533279 217.104248
v 8.992325 225.000916 217.104248
v 8.815701 225.182251 217.104248
v 9.643457 224.400909 217.104248
v 8.861151 225.213699 217.104248
v 9.021811 225.030685 217.104248
v 9.673397 224.449646 217.104248
v 9.429069 224.571014 217.104248
v 8.908077 225.239487 217.104248
v 9.052121 225.053955 217.104248
v 9.695969 224.496216 217.104248
v 9.441308 224.617905 217.104248
v 8.959267 225.261627 217.104248
v 9.081470 225.070068 217.104248
v 9.712991 224.542587 217.104248
v 9.012626 225.279312 217.104248
v 9.115323 225.082336 217.104248
v 9.726765 224.596344 217.104248
v 9.448958 224.669357 217.104248
v 9.069839 225.292755 217.104248
v 9.736612 224.658279 217.104248
v 9.120509 225.299683 217.104248
v 9.149000 225.089157 217.104248
v 9.739343 224.695374 217.104248
v 9.451923 224.733490 217.104248
v 9.740385 224.732590 217.104248
v 9.183594 225.302902 217.104248
v 9.183293 225.091354 217.104248
v 9.737671 224.796738 217.104248
v 9.449851 224.788849 217.104248
v 9.239080 225.300766 217.104248
v 9.225186 225.088074 217.104248
v 9.729816 224.853989 217.104248
v 9.442816 224.843811 217.104248
v 9.294126 225.293533 217.104248
v 9.258325 225.080246 217.104248
v 9.716745 224.910370 217.104248
v 9.349881 225.280716 217.104248
v 9.289562 225.067856 217.104248
v 9.700351 224.958893 217.104248
v 9.431641 224.890915 217.104248
v 9.400308 225.263641 217.104248
v 9.318256 225.051224 217.104248
v 9.676976 225.010468 217.104248
v 9.416530 224.931793 217.104248
v 9.448166 225.241486 217.104248
v 9.347616 225.027878 217.104248
v 9.650780 225.055725 217.104248
v 9.493246 225.214966 217.104248
v 9.618493 225.100159 217.104248
v 9.396986 224.968689 217.104248
v 9.536429 225.182770 217.104248
v 9.374032 225.000519 217.104248
v 9.580451 225.142548 217.104248
v 8.819261 224.288864 217.105255
v 8.860024 224.259247 217.105255
v 9.015603 224.446152 217.105255
v 8.904308 224.233368 217.105255
v 8.784131 224.320953 217.105255
v 8.988207 224.475128 217.105255
v 8.955653 224.209793 217.105255
v 9.045062 224.422012 217.105255
v 8.722419 224.396835 217.105255
v 8.749525 224.359406 217.105255
v 8.966927 224.505020 217.105255
v 9.007366 224.192184 217.105255
v 9.075765 224.403793 217.105255
v 8.693460 224.446167 217.105255
v 8.948687 224.540161 217.105255
v 9.060936 224.179260 217.105255
v 9.108078 224.391006 217.105255
v 8.669806 224.497101 217.105255
v 8.933573 224.581314 217.105255
v 9.115716 224.171570 217.105255
v 9.141291 224.383133 217.105255
v 9.148713 224.169174 217.105255
v 8.635917 224.608139 217.105255
v 8.649635 224.553574 217.105255
v 8.922248 224.628006 217.105255
v 9.181791 224.168289 217.105255
v 9.183293 224.379822 217.105255
v 9.246905 224.171127 217.105255
v 9.213641 224.381577 217.105255
v 8.625000 224.720261 217.105255
v 8.628600 224.658066 217.105255
v 8.915485 224.681610 217.105255
v 9.299227 224.178253 217.105255
v 9.243583 224.386826 217.105255
v 8.626328 224.768845 217.105255
v 8.913462 224.735596 217.105255
v 9.351937 224.190414 217.105255
v 9.278760 224.398438 217.105255
v 9.401183 224.206848 217.105255
v 8.639309 224.878189 217.105255
v 8.630234 224.817276 217.105255
v 8.916400 224.799957 217.105255
v 9.311084 224.415253 217.105255
v 9.447392 224.227493 217.105255
v 8.652188 224.931580 217.105255
v 8.923857 224.851624 217.105255
v 9.493486 224.254303 217.105255
v 9.340885 224.437347 217.105255
v 8.690536 225.029465 217.105255
v 8.670280 224.984863 217.105255
v 8.935954 224.897522 217.105255
v 9.370555 224.466644 217.105255
v 9.534899 224.284286 217.105255
v 8.950503 224.935013 217.105255
v 8.746237 225.114136 217.105255
v 8.717930 225.076035 217.105255
v 9.393997 224.497452 217.105255
v 9.576366 224.321259 217.105255
v 8.782132 225.152924 217.105255
v 8.969486 224.970322 217.105255
v 9.413866 224.533279 217.105255
v 9.612749 224.360550 217.105255
v 8.992325 225.000916 217.105255
v 8.815701 225.182251 217.105255
v 9.643457 224.400909 217.105255
v 8.861151 225.213699 217.105255
v 9.021811 225.030685 217.105255
v 9.673397 224.449646 217.105255
v 9.429069 224.571014 217.105255
v 8.908077 225.239487 217.105255
v 9.052121 225.053955 217.105255
v 9.441308 224.617905 217.105255
v 9.695969 224.496216 217.105255
v 8.959267 225.261627 217.105255
v 9.081470 225.070068 217.105255
v 9.712991 224.542587 217.105255
v 9.012626 225.279312 217.105255
v 9.115323 225.082336 217.105255
v 9.448958 224.669357 217.105255
v 9.726765 224.596344 217.105255
v 9.069839 225.292755 217.105255
v 9.736612 224.658279 217.105255
v 9.120509 225.299683 217.105255
v 9.149000 225.089157 217.105255
v 9.451923 224.733490 217.105255
v 9.739343 224.695374 217.105255
v 9.740385 224.732590 217.105255
v 9.183293 225.091354 217.105255
v 9.183594 225.302902 217.105255
v 9.449851 224.788849 217.105255
v 9.737671 224.796738 217.105255
v 9.239080 225.300766 217.105255
v 9.225186 225.088074 217.105255
v 9.442816 224.843811 217.105255
v 9.729816 224.853989 217.105255
v 9.294126 225.293533 217.105255
v 9.258325 225.080246 217.105255
v 9.716745 224.910370 217.105255
v 9.289562 225.067856 217.105255
v 9.349881 225.280716 217.105255
v 9.431641 224.890915 217.105255
v 9.700351 224.958893 217.105255
v 9.400308 225.263641 217.105255
v 9.318256 225.051224 217.105255
v 9.676976 225.010468 217.105255
v 9.416530 224.931793 217.105255
v 9.448166 225.241486 217.105255
v 9.347616 225.027878 217.105255
v 9.650780 225.055725 217.105255
v 9.493246 225.214966 217.105255
v 9.618493 225.100159 217.105255
v 9.396986 224.968689 217.105255
v 9.536429 225.182770 217.105255
v 9.374032 225.000519 217.105255
v 9.580451 225.142548 217.105255
f 1 2 3
f 1 4 2
f 5 1 3
f 5 3 6
f 7 4 1
f 7 8 4
f 9 10 11
f 9 6 10
f 9 5 6
f 12 8 7
f 12 13 8
f 14 9 11
f 14 11 15
f 16 17 13
f 16 13 12
f 18 14 15
f 18 15 19
f 20 17 16
f 20 21 17
f 20 22 21
f 23 24 25
f 23 19 24
f 23 18 19
f 26 27 22
f 26 22 20
f 28 29 27
f 28 27 26
f 30 23 25
f 30 31 32
f 30 25 31
f 33 34 29
f 33 29 28
f 35 32 36
f 35 30 32
f 37 38 34
f 37 39 38
f 37 34 33
f 40 41 42
f 40 36 41
f 40 35 36
f 43 44 39
f 43 39 37
f 45 42 46
f 45 40 42
f 47 48 44
f 47 44 43
f 49 50 51
f 49 46 50
f 49 45 46
f 52 53 48
f 52 48 47
f 54 49 51
f 54 55 56
f 54 51 55
f 57 53 52
f 57 52 58
f 59 56 60
f 59 54 56
f 61 57 58
f 61 58 62
f 63 59 60
f 64 63 60
f 65 61 62
f 66 63 64
f 66 67 63
f 68 65 62
f 68 62 69
f 70 67 66
f 70 71 67
f 72 68 69
f 72 69 73
f 74 71 70
f 74 75 71
f 76 72 73
f 77 75 74
f 77 78 75
f 79 76 73
f 79 73 80
f 81 78 77
f 82 79 80
f 83 84 78
f 83 78 81
f 85 82 80
f 85 80 86
f 87 85 86
f 88 84 83
f 88 89 84
f 90 87 86
f 90 86 91
f 92 93 89
f 92 89 88
f 94 91 95
f 94 90 91
f 96 97 93
f 96 93 92
f 98 94 95
f 99 100 97
f 99 97 96
f 101 95 102
f 101 98 95
f 103 104 100
f 103 100 99
f 105 102 106
f 105 101 102
f 107 108 104
f 107 104 103
f 109 105 106
f 110 108 107
f 111 106 112
f 111 109 106
f 113 114 108
f 113 108 110
f 115 112 114
f 115 111 112
f 115 114 113
f 116 117 118
f 117 119 118
f 120 116 121
f 116 118 121
f 119 122 123
f 118 119 123
f 124 125 126
f 125 120 126
f 120 121 126
f 122 127 128
f 123 122 128
f 129 124 130
f 124 126 130
f 127 131 132
f 128 127 132
f 133 129 134
f 129 130 134
f 131 135 136
f 135 137 136
f 132 131 136
f 138 139 140
f 139 133 140
f 133 134 140
f 137 141 142
f 136 137 142
f 141 143 144
f 142 141 144
f 145 146 147
f 146 138 147
f 138 140 147
f 143 148 149
f 144 143 149
f 150 145 151
f 145 147 151
f 148 152 153
f 152 154 153
f 149 148 153
f 155 156 157
f 156 150 157
f 150 151 157
f 153 154 158
f 154 159 158
f 160 155 161
f 155 157 161
f 159 162 163
f 158 159 163
f 164 165 166
f 165 160 166
f 160 161 166
f 163 162 167
f 162 168 167
f 164 166 169
f 170 171 169
f 171 164 169
f 172 167 173
f 167 168 173
f 174 170 175
f 170 169 175
f 176 172 177
f 172 173 177
f 174 175 178
f 174 178 179
f 176 177 180
f 179 178 181
f 178 182 181
f 176 180 183
f 184 176 183
f 181 182 185
f 182 186 185
f 187 184 188
f 184 183 188
f 185 186 189
f 186 190 189
f 187 188 191
f 189 190 192
f 190 193 192
f 194 187 195
f 187 191 195
f 192 193 196
f 194 195 197
f 196 193 198
f 193 199 198
f 200 194 201
f 194 197 201
f 200 201 202
f 199 203 204
f 198 199 204
f 205 200 206
f 200 202 206
f 204 203 207
f 203 208 207
f 209 205 210
f 205 206 210
f 207 208 211
f 208 212 211
f 209 210 213
f 212 214 215
f 211 212 215
f 216 209 217
f 209 213 217
f 215 214 218
f 214 219 218
f 216 217 220
f 221 216 220
f 218 219 222
f 219 223 222
f 221 220 224
f 222 223 225
f 221 224 226
f 227 221 226
f 225 223 228
f 223 229 228
f 227 226 230
f 228 229 230
f 229 227 230
f 198 204 88
f 198 88 83
f 196 83 81
f 196 198 83
f 192 81 77
f 192 196 81
f 189 77 74
f 189 192 77
f 70 189 74
f 185 189 70
f 66 185 70
f 181 185 66
f 64 181 66
f 179 181 64
f 174 64 60
f 174 179 64
f 170 60 56
f 170 174 60
f 171 56 55
f 171 170 56
f 164 55 51
f 164 171 55
f 165 51 50
f 165 164 51
f 46 165 50
f 160 165 46
f 155 46 42
f 155 160 46
f 41 155 42
f 156 155 41
f 36 156 41
f 150 156 36
f 145 150 36
f 145 36 32
f 90 202 87
f 206 202 90
f 94 206 90
f 210 206 94
f 213 94 98
f 213 210 94
f 217 98 101
f 217 213 98
f 220 101 105
f 220 217 101
f 224 105 109
f 224 220 105
f 226 109 111
f 226 224 109
f 230 111 115
f 230 226 111
f 113 230 115
f 228 230 113
f 225 113 110
f 225 228 113
f 107 225 110
f 222 225 107
f 218 107 103
f 218 222 107
f 99 218 103
f 215 218 99
f 96 215 99
f 211 215 96
f 207 96 92
f 207 211 96
f 204 92 88
f 204 207 92
f 143 141 27
f 143 27 29
f 34 143 29
f 148 143 34
f 152 34 38
f 152 148 34
f 154 38 39
f 154 152 38
f 159 39 44
f 159 154 39
f 162 44 48
f 162 159 44
f 168 48 53
f 168 162 48
f 173 53 57
f 173 168 53
f 177 57 61
f 177 173 57
f 180 61 65
f 180 177 61
f 183 65 68
f 183 180 65
f 188 68 72
f 188 183 68
f 76 188 72
f 191 188 76
f 79 191 76
f 195 191 79
f 197 79 82
f 197 195 79
f 201 197 82
f 201 82 85
f 202 201 85
f 202 85 87
f 146 145 32
f 146 32 31
f 138 31 25
f 138 146 31
f 139 25 24
f 139 138 25
f 19 139 24
f 133 139 19
f 15 133 19
f 129 133 15
f 124 15 11
f 124 129 15
f 125 11 10
f 125 124 11
f 6 125 10
f 120 125 6
f 116 6 3
f 116 120 6
f 117 3 2
f 117 116 3
f 119 2 4
f 119 117 2
f 122 4 8
f 122 119 4
f 13 122 8
f 127 122 13
f 131 13 17
f 131 127 13
f 21 131 17
f 135 131 21
f 22 135 21
f 137 135 22
f 27 137 22
f 141 137 27
f 20 142 26
f 136 142 20
f 132 20 16
f 132 136 20
f 128 16 12
f 128 132 16
f 123 12 7
f 123 128 12
f 118 7 1
f 118 123 7
f 5 118 1
f 121 118 5
f 9 121 5
f 126 121 9
f 14 126 9
f 130 126 14
f 18 130 14
f 134 130 18
f 140 18 23
f 140 134 18
f 147 23 30
f 147 140 23
f 35 147 30
f 151 147 35
f 157 151 35
f 157 35 40
f 45 157 40
f 161 157 45
f 166 45 49
f 166 161 45
f 54 166 49
f 169 166 54
f 59 169 54
f 175 169 59
f 63 175 59
f 178 175 63
f 67 178 63
f 182 178 67
f 186 67 71
f 186 182 67
f 75 186 71
f 190 186 75
f 193 75 78
f 193 190 75
f 84 193 78
f 199 193 84
f 203 84 89
f 203 199 84
f 208 203 89
f 208 89 93
f 212 93 97
f 212 208 93
f 100 212 97
f 214 212 100
f 104 214 100
f 219 214 104
f 108 219 104
f 223 219 108
f 229 108 114
f 229 223 108
f 112 229 114
f 227 229 112
f 221 112 106
f 221 227 112
f 102 221 106
f 216 221 102
f 209 102 95
f 209 216 102
f 205 95 91
f 205 209 95
f 200 91 86
f 200 205 91
f 194 200 86
f 194 86 80
f 187 80 73
f 187 194 80
f 184 73 69
f 184 187 73
f 176 69 62
f 176 184 69
f 172 62 58
f 172 176 62
f 52 172 58
f 167 172 52
f 163 52 47
f 163 167 52
f 43 163 47
f 158 163 43
f 153 43 37
f 153 158 43
f 149 37 33
f 149 153 37
f 144 33 28
f 144 149 33
f 142 28 26
f 142 144 28
