# Created by FreeCAD <http://www.freecadweb.org>
v -0.681852 209.483673 241.871887
v -0.750000 209.483673 241.354248
v -0.750000 213.483673 241.354248
v -0.681852 213.483673 241.871887
v -0.482051 209.483673 242.354248
v -0.482051 213.483673 242.354248
v -0.164214 209.483673 242.768463
v -0.164214 213.483673 242.768463
v 0.250000 209.483673 243.086304
v 0.250000 213.483673 243.086304
v 0.732362 209.483673 243.286102
v 0.732362 213.483673 243.286102
v 1.250000 209.483673 243.354248
v 1.250000 213.483673 243.354248
v 1.767638 209.483673 243.286102
v 1.767638 213.483673 243.286102
v 2.250000 209.483673 243.086304
v 2.250000 213.483673 243.086304
v 2.664214 209.483673 242.768463
v 2.664214 213.483673 242.768463
v 2.982051 209.483673 242.354248
v 2.982051 213.483673 242.354248
v 3.181852 209.483673 241.871887
v 3.181852 213.483673 241.871887
v 3.250000 209.483673 241.354248
v 3.250000 213.483673 241.354248
v 15.318149 209.483673 241.871887
v 15.250000 209.483673 241.354248
v 15.250000 213.483673 241.354248
v 15.318149 213.483673 241.871887
v 15.517949 209.483673 242.354248
v 15.517949 213.483673 242.354248
v 15.835787 209.483673 242.768463
v 15.835787 213.483673 242.768463
v 16.250000 209.483673 243.086304
v 16.250000 213.483673 243.086304
v 16.732363 209.483673 243.286102
v 16.732363 213.483673 243.286102
v 17.250000 209.483673 243.354248
v 17.250000 213.483673 243.354248
v 17.767637 209.483673 243.286102
v 17.767637 213.483673 243.286102
v 18.250000 209.483673 243.086304
v 18.250000 213.483673 243.086304
v 18.664213 209.483673 242.768463
v 18.664213 213.483673 242.768463
v 18.982050 209.483673 242.354248
v 18.982050 213.483673 242.354248
v 19.181852 209.483673 241.871887
v 19.181852 213.483673 241.871887
v 19.250000 209.483673 241.354248
v 19.250000 213.483673 241.354248
v -0.681852 209.483673 233.871887
v -0.750000 209.483673 233.354248
v -0.750000 213.483673 233.354248
v -0.681852 213.483673 233.871887
v -0.482051 209.483673 234.354248
v -0.482051 213.483673 234.354248
v -0.164214 209.483673 234.768463
v -0.164214 213.483673 234.768463
v 0.250000 209.483673 235.086304
v 0.250000 213.483673 235.086304
v 0.732362 209.483673 235.286102
v 0.732362 213.483673 235.286102
v 1.250000 209.483673 235.354248
v 1.250000 213.483673 235.354248
v 1.767638 209.483673 235.286102
v 1.767638 213.483673 235.286102
v 2.250000 209.483673 235.086304
v 2.250000 213.483673 235.086304
v 2.664214 209.483673 234.768463
v 2.664214 213.483673 234.768463
v 2.982051 209.483673 234.354248
v 2.982051 213.483673 234.354248
v 3.181852 209.483673 233.871887
v 3.181852 213.483673 233.871887
v 3.250000 209.483673 233.354248
v 3.250000 213.483673 233.354248
v 15.318149 209.483673 233.871887
v 15.250000 209.483673 233.354248
v 15.250000 213.483673 233.354248
v 15.318149 213.483673 233.871887
v 15.517949 209.483673 234.354248
v 15.517949 213.483673 234.354248
v 15.835787 209.483673 234.768463
v 15.835787 213.483673 234.768463
v 16.250000 209.483673 235.086304
v 16.250000 213.483673 235.086304
v 16.732363 209.483673 235.286102
v 16.732363 213.483673 235.286102
v 17.250000 209.483673 235.354248
v 17.250000 213.483673 235.354248
v 17.767637 209.483673 235.286102
v 17.767637 213.483673 235.286102
v 18.250000 209.483673 235.086304
v 18.250000 213.483673 235.086304
v 18.664213 209.483673 234.768463
v 18.664213 213.483673 234.768463
v 18.982050 209.483673 234.354248
v 18.982050 213.483673 234.354248
v 19.181852 209.483673 233.871887
v 19.181852 213.483673 233.871887
v 19.250000 209.483673 233.354248
v 19.250000 213.483673 233.354248
v -11.100000 209.483673 223.104248
v -11.100000 213.483673 223.104248
v -11.062518 213.483673 223.388947
v -11.062518 209.483673 223.388947
v -10.952628 209.483673 223.654251
v -10.777818 209.483673 223.882065
v -10.952628 213.483673 223.654251
v -10.777818 213.483673 223.882065
v -10.550000 209.483673 224.056870
v -10.550000 213.483673 224.056870
v -10.284701 209.483673 224.166763
v -10.000000 209.483673 224.204254
v -10.284701 213.483673 224.166763
v -10.000000 213.483673 224.204254
v -9.715299 209.483673 224.166763
v -9.715299 213.483673 224.166763
v -9.450000 209.483673 224.056870
v -9.222182 209.483673 223.882065
v -9.450000 213.483673 224.056870
v -9.222182 213.483673 223.882065
v -9.047372 209.483673 223.654251
v -9.047372 213.483673 223.654251
v -8.937482 209.483673 223.388947
v -8.937482 213.483673 223.388947
v -8.900000 209.483673 223.104248
v -8.900000 213.483673 223.104248
v 16.937481 209.483673 223.388947
v 16.900000 209.483673 223.104248
v 16.900000 213.483673 223.104248
v 16.937481 213.483673 223.388947
v 17.047373 209.483673 223.654251
v 17.047373 213.483673 223.654251
v 17.222183 209.483673 223.882065
v 17.222183 213.483673 223.882065
v 17.450001 209.483673 224.056870
v 17.450001 213.483673 224.056870
v 17.715300 209.483673 224.166763
v 17.715300 213.483673 224.166763
v 18.000000 209.483673 224.204254
v 18.000000 213.483673 224.204254
v 18.284700 209.483673 224.166763
v 18.284700 213.483673 224.166763
v 18.549999 209.483673 224.056870
v 18.549999 213.483673 224.056870
v 18.777817 209.483673 223.882065
v 18.777817 213.483673 223.882065
v 18.952627 209.483673 223.654251
v 18.952627 213.483673 223.654251
v 19.062519 209.483673 223.388947
v 19.062519 213.483673 223.388947
v 19.100000 209.483673 223.104248
v 19.100000 213.483673 223.104248
v -8.681851 209.483673 241.871887
v -8.750000 209.483673 241.354248
v -8.750000 213.483673 241.354248
v -8.681851 213.483673 241.871887
v -8.482051 209.483673 242.354248
v -8.482051 213.483673 242.354248
v -8.164213 209.483673 242.768463
v -8.164213 213.483673 242.768463
v -7.750000 209.483673 243.086304
v -7.750000 213.483673 243.086304
v -7.267638 209.483673 243.286102
v -7.267638 213.483673 243.286102
v -6.750000 209.483673 243.354248
v -6.750000 213.483673 243.354248
v -6.232362 209.483673 243.286102
v -5.750000 209.483673 243.086304
v -6.232362 213.483673 243.286102
v -5.750000 213.483673 243.086304
v -5.335786 209.483673 242.768463
v -5.335786 213.483673 242.768463
v -5.017949 209.483673 242.354248
v -5.017949 213.483673 242.354248
v -4.818148 209.483673 241.871887
v -4.818148 213.483673 241.871887
v -4.750000 209.483673 241.354248
v -4.750000 213.483673 241.354248
v 7.318148 209.483673 241.871887
v 7.250000 209.483673 241.354248
v 7.250000 213.483673 241.354248
v 7.318148 213.483673 241.871887
v 7.517949 209.483673 242.354248
v 7.517949 213.483673 242.354248
v 7.835786 209.483673 242.768463
v 8.250000 209.483673 243.086304
v 7.835786 213.483673 242.768463
v 8.732362 209.483673 243.286102
v 8.250000 213.483673 243.086304
v 8.732362 213.483673 243.286102
v 9.250000 209.483673 243.354248
v 9.250000 213.483673 243.354248
v 9.767638 209.483673 243.286102
v 10.250000 209.483673 243.086304
v 9.767638 213.483673 243.286102
v 10.664213 209.483673 242.768463
v 10.250000 213.483673 243.086304
v 10.664213 213.483673 242.768463
v 10.982051 209.483673 242.354248
v 10.982051 213.483673 242.354248
v 11.181851 209.483673 241.871887
v 11.181851 213.483673 241.871887
v 11.250000 209.483673 241.354248
v 11.250000 213.483673 241.354248
v -14.000000 209.483673 214.854248
v -14.000000 209.483673 242.854248
v -14.000000 213.483673 214.854248
v -14.000000 213.483673 242.854248
v 20.000000 209.483673 244.854248
v 20.000000 213.483673 244.854248
v -12.000000 209.483673 244.854248
v -12.000000 213.483673 244.854248
v 22.000000 213.483673 242.854248
v 22.000000 209.483673 242.854248
v 22.000000 213.483673 214.854248
v 22.000000 209.483673 214.854248
v -12.000000 209.483673 212.854248
v -12.000000 213.483673 212.854248
v 20.000000 209.483673 212.854248
v 20.000000 213.483673 212.854248
v -8.000000 213.483673 216.954254
v -10.284701 213.483673 222.041733
v -10.000000 213.483673 222.004242
v -7.996593 213.483673 216.928360
v -13.732051 213.483673 213.854248
v -13.000000 213.483673 213.122192
v -7.986602 213.483673 216.904251
v -12.517638 213.483673 244.786102
v -13.414213 213.483673 244.268463
v -13.000000 213.483673 244.586304
v -12.517638 213.483673 212.922394
v -13.931851 213.483673 243.371887
v -13.732051 213.483673 243.854248
v -7.970711 213.483673 216.883530
v 7.517949 213.483673 232.354248
v 2.982051 213.483673 232.354248
v 7.318148 213.483673 232.836609
v 15.517949 213.483673 240.354248
v 15.318149 213.483673 240.836609
v -7.950000 213.483673 216.867645
v -7.925882 213.483673 216.857651
v -7.900000 213.483673 216.854248
v 7.835786 213.483673 231.940033
v 2.664214 213.483673 231.940033
v 2.250000 213.483673 231.622192
v 15.835787 213.483673 239.940033
v 8.250000 213.483673 231.622192
v 1.767638 213.483673 231.422394
v 20.517637 213.483673 244.786102
v 21.000000 213.483673 244.586304
v -8.750000 213.483673 233.354248
v 21.414213 213.483673 244.268463
v 8.732362 213.483673 231.422394
v 21.732050 213.483673 243.854248
v -0.681852 213.483673 240.836609
v 11.250000 213.483673 233.354248
v -0.482051 213.483673 240.354248
v -0.164214 213.483673 239.940033
v 21.931852 213.483673 243.371887
v 19.181852 213.483673 240.836609
v 18.982050 213.483673 240.354248
v 16.250000 213.483673 239.622192
v -7.986602 213.483673 229.304245
v -8.482051 213.483673 232.354248
v -8.164213 213.483673 231.940033
v 16.732363 213.483673 239.422394
v 17.250000 213.483673 239.354248
v -7.970711 213.483673 229.324951
v -7.950000 213.483673 229.340851
v -7.750000 213.483673 231.622192
v -7.925882 213.483673 229.350845
v 11.181851 213.483673 232.836609
v -7.996593 213.483673 229.280136
v 15.318149 213.483673 232.836609
v 10.982051 213.483673 232.354248
v 17.767637 213.483673 239.422394
v 18.250000 213.483673 239.622192
v -8.000000 213.483673 229.254242
v -7.900000 213.483673 229.354248
v -6.232362 213.483673 231.422394
v -5.750000 213.483673 231.622192
v -6.750000 213.483673 231.354248
v -7.267638 213.483673 231.422394
v 15.517949 213.483673 232.354248
v 18.664213 213.483673 239.940033
v -4.750000 213.483673 233.354248
v 0.250000 213.483673 239.622192
v 15.900000 213.483673 229.354248
v 10.664213 213.483673 231.940033
v 10.250000 213.483673 231.622192
v 9.767638 213.483673 231.422394
v -8.681851 213.483673 232.836609
v 15.835787 213.483673 231.940033
v 16.250000 213.483673 231.622192
v 15.925882 213.483673 229.350845
v 16.732363 213.483673 231.422394
v 15.950000 213.483673 229.340851
v 0.732362 213.483673 239.422394
v 15.970711 213.483673 229.324951
v 17.250000 213.483673 231.354248
v 15.986603 213.483673 229.304245
v 15.996593 213.483673 229.280136
v 17.767637 213.483673 231.422394
v 16.000000 213.483673 229.254242
v 18.250000 213.483673 231.622192
v 1.250000 213.483673 239.354248
v 3.181852 213.483673 240.836609
v 2.982051 213.483673 240.354248
v 2.664214 213.483673 239.940033
v -0.681852 213.483673 232.836609
v -4.818148 213.483673 232.836609
v -5.017949 213.483673 232.354248
v 1.767638 213.483673 239.422394
v 18.664213 213.483673 231.940033
v 18.982050 213.483673 232.354248
v -0.482051 213.483673 232.354248
v 2.250000 213.483673 239.622192
v 19.181852 213.483673 232.836609
v -0.164214 213.483673 231.940033
v -5.335786 213.483673 231.940033
v 16.000000 213.483673 216.954254
v 18.000000 213.483673 222.004242
v 18.284700 213.483673 222.041733
v 17.715300 213.483673 222.041733
v 17.450001 213.483673 222.151627
v 17.222183 213.483673 222.326431
v 17.047373 213.483673 222.554245
v 0.250000 213.483673 231.622192
v 19.062519 213.483673 222.819550
v 18.952627 213.483673 222.554245
v 18.777817 213.483673 222.326431
v 18.549999 213.483673 222.151627
v 15.996593 213.483673 216.928360
v 15.900000 213.483673 216.854248
v 15.925882 213.483673 216.857651
v 15.950000 213.483673 216.867645
v 15.970711 213.483673 216.883530
v 15.986603 213.483673 216.904251
v 20.517637 213.483673 212.922394
v 21.931852 213.483673 214.336609
v 21.732050 213.483673 213.854248
v 21.000000 213.483673 213.122192
v 21.414213 213.483673 213.440033
v -8.937482 213.483673 222.819550
v -9.047372 213.483673 222.554245
v 16.937481 213.483673 222.819550
v 1.250000 213.483673 231.354248
v 9.250000 213.483673 231.354248
v 0.732362 213.483673 231.422394
v -10.550000 213.483673 222.151627
v -10.777818 213.483673 222.326431
v -10.952628 213.483673 222.554245
v -11.062518 213.483673 222.819550
v -13.931851 213.483673 214.336609
v -13.414213 213.483673 213.440033
v 7.250000 213.483673 233.354248
v 3.181852 213.483673 232.836609
v -9.222182 213.483673 222.326431
v -9.450000 213.483673 222.151627
v -9.715299 213.483673 222.041733
v -13.732051 209.483673 213.854248
v -7.996593 209.483673 216.928360
v -13.000000 209.483673 213.122192
v -7.986602 209.483673 216.904251
v -7.970711 209.483673 216.883530
v -13.732051 209.483673 243.854248
v -13.931851 209.483673 243.371887
v -12.517638 209.483673 244.786102
v -13.000000 209.483673 244.586304
v -13.414213 209.483673 244.268463
v 7.318148 209.483673 232.836609
v 2.982051 209.483673 232.354248
v 7.517949 209.483673 232.354248
v 15.318149 209.483673 240.836609
v 15.517949 209.483673 240.354248
v -7.950000 209.483673 216.867645
v -7.925882 209.483673 216.857651
v -7.900000 209.483673 216.854248
v 2.664214 209.483673 231.940033
v 7.835786 209.483673 231.940033
v 2.250000 209.483673 231.622192
v 15.835787 209.483673 239.940033
v 1.767638 209.483673 231.422394
v 8.250000 209.483673 231.622192
v 21.000000 209.483673 244.586304
v 20.517637 209.483673 244.786102
v 21.414213 209.483673 244.268463
v 8.732362 209.483673 231.422394
v -8.750000 209.483673 233.354248
v 21.732050 209.483673 243.854248
v -0.681852 209.483673 240.836609
v -0.482051 209.483673 240.354248
v -0.164214 209.483673 239.940033
v 21.931852 209.483673 243.371887
v 19.181852 209.483673 240.836609
v 18.982050 209.483673 240.354248
v 11.250000 209.483673 233.354248
v 16.732363 209.483673 239.422394
v 16.250000 209.483673 239.622192
v 11.181851 209.483673 232.836609
v -7.750000 209.483673 231.622192
v -8.164213 209.483673 231.940033
v -7.950000 209.483673 229.340851
v -7.970711 209.483673 229.324951
v 17.250000 209.483673 239.354248
v -8.482051 209.483673 232.354248
v -7.986602 209.483673 229.304245
v 17.767637 209.483673 239.422394
v -7.925882 209.483673 229.350845
v 15.318149 209.483673 232.836609
v -7.996593 209.483673 229.280136
v 18.250000 209.483673 239.622192
v 15.517949 209.483673 232.354248
v 10.982051 209.483673 232.354248
v -8.000000 209.483673 229.254242
v -5.750000 209.483673 231.622192
v -6.232362 209.483673 231.422394
v -7.900000 209.483673 229.354248
v -6.750000 209.483673 231.354248
v 18.664213 209.483673 239.940033
v -7.267638 209.483673 231.422394
v -4.750000 209.483673 233.354248
v 0.250000 209.483673 239.622192
v 16.250000 209.483673 231.622192
v 15.835787 209.483673 231.940033
v 15.900000 209.483673 229.354248
v 10.664213 209.483673 231.940033
v 10.250000 209.483673 231.622192
v 9.767638 209.483673 231.422394
v 16.732363 209.483673 231.422394
v 15.925882 209.483673 229.350845
v -8.681851 209.483673 232.836609
v 15.950000 209.483673 229.340851
v 17.250000 209.483673 231.354248
v 15.970711 209.483673 229.324951
v 0.732362 209.483673 239.422394
v 15.986603 209.483673 229.304245
v 17.767637 209.483673 231.422394
v 15.996593 209.483673 229.280136
v 18.250000 209.483673 231.622192
v 16.000000 209.483673 229.254242
v -4.818148 209.483673 232.836609
v 1.250000 209.483673 239.354248
v 3.181852 209.483673 240.836609
v 2.982051 209.483673 240.354248
v 2.664214 209.483673 239.940033
v -5.017949 209.483673 232.354248
v -0.681852 209.483673 232.836609
v 2.250000 209.483673 239.622192
v 1.767638 209.483673 239.422394
v 18.664213 209.483673 231.940033
v 18.982050 209.483673 232.354248
v -5.335786 209.483673 231.940033
v -0.482051 209.483673 232.354248
v 19.181852 209.483673 232.836609
v -0.164214 209.483673 231.940033
v 18.284700 209.483673 222.041733
v 18.000000 209.483673 222.004242
v 16.000000 209.483673 216.954254
v 17.715300 209.483673 222.041733
v 17.450001 209.483673 222.151627
v 17.222183 209.483673 222.326431
v 17.047373 209.483673 222.554245
v 0.250000 209.483673 231.622192
v 19.062519 209.483673 222.819550
v 18.952627 209.483673 222.554245
v 18.777817 209.483673 222.326431
v 18.549999 209.483673 222.151627
v 15.996593 209.483673 216.928360
v 15.986603 209.483673 216.904251
v 15.970711 209.483673 216.883530
v 15.950000 209.483673 216.867645
v 15.925882 209.483673 216.857651
v 15.900000 209.483673 216.854248
v 21.931852 209.483673 214.336609
v 21.732050 209.483673 213.854248
v 20.517637 209.483673 212.922394
v 21.414213 209.483673 213.440033
v 21.000000 209.483673 213.122192
v 16.937481 209.483673 222.819550
v -8.000000 209.483673 216.954254
v -8.937482 209.483673 222.819550
v -9.047372 209.483673 222.554245
v 1.250000 209.483673 231.354248
v 9.250000 209.483673 231.354248
v 0.732362 209.483673 231.422394
v -10.284701 209.483673 222.041733
v -10.550000 209.483673 222.151627
v -10.777818 209.483673 222.326431
v -10.952628 209.483673 222.554245
v -11.062518 209.483673 222.819550
v -13.931851 209.483673 214.336609
v -13.414213 209.483673 213.440033
v 7.250000 209.483673 233.354248
v 3.181852 209.483673 232.836609
v -9.222182 209.483673 222.326431
v -9.450000 209.483673 222.151627
v -9.715299 209.483673 222.041733
v -10.000000 209.483673 222.004242
v -12.517638 209.483673 212.922394
f 1 2 3
f 1 3 4
f 5 1 6
f 7 5 6
f 1 4 6
f 7 6 8
f 9 7 10
f 11 9 10
f 7 8 10
f 11 10 12
f 13 11 14
f 15 13 14
f 11 12 14
f 15 14 16
f 17 15 18
f 15 16 18
f 19 17 20
f 17 18 20
f 21 19 22
f 19 20 22
f 23 21 24
f 25 23 24
f 21 22 24
f 25 24 26
f 27 28 29
f 27 29 30
f 31 27 32
f 33 31 32
f 27 30 32
f 33 32 34
f 35 33 36
f 37 35 36
f 33 34 36
f 37 36 38
f 39 37 40
f 41 39 40
f 37 38 40
f 41 40 42
f 43 41 44
f 41 42 44
f 45 43 46
f 43 44 46
f 47 45 48
f 45 46 48
f 49 47 50
f 51 49 50
f 47 48 50
f 51 50 52
f 53 54 55
f 53 55 56
f 57 53 58
f 59 57 58
f 53 56 58
f 59 58 60
f 61 59 62
f 63 61 62
f 59 60 62
f 63 62 64
f 65 63 66
f 67 65 66
f 63 64 66
f 67 66 68
f 69 67 70
f 67 68 70
f 71 69 72
f 69 70 72
f 73 71 74
f 71 72 74
f 75 73 76
f 77 75 76
f 73 74 76
f 77 76 78
f 79 80 81
f 79 81 82
f 83 79 84
f 85 83 84
f 79 82 84
f 85 84 86
f 87 85 88
f 89 87 88
f 85 86 88
f 89 88 90
f 91 89 92
f 93 91 92
f 89 90 92
f 93 92 94
f 95 93 96
f 93 94 96
f 97 95 98
f 95 96 98
f 99 97 100
f 97 98 100
f 101 99 102
f 103 101 102
f 99 100 102
f 103 102 104
f 105 106 107
f 108 105 107
f 109 108 107
f 110 109 111
f 109 107 111
f 110 111 112
f 113 110 114
f 115 113 114
f 110 112 114
f 116 115 117
f 115 114 117
f 116 117 118
f 119 116 120
f 121 119 120
f 116 118 120
f 122 121 123
f 121 120 123
f 122 123 124
f 125 122 126
f 122 124 126
f 127 125 128
f 129 127 128
f 125 126 128
f 129 128 130
f 131 132 133
f 131 133 134
f 135 131 136
f 137 135 136
f 131 134 136
f 137 136 138
f 139 137 140
f 141 139 140
f 137 138 140
f 141 140 142
f 143 141 144
f 145 143 144
f 141 142 144
f 145 144 146
f 147 145 148
f 145 146 148
f 149 147 150
f 147 148 150
f 151 149 152
f 149 150 152
f 153 151 154
f 155 153 154
f 151 152 154
f 155 154 156
f 157 158 159
f 157 159 160
f 161 157 162
f 163 161 162
f 157 160 162
f 163 162 164
f 165 163 166
f 167 165 166
f 163 164 166
f 167 166 168
f 169 167 170
f 171 169 170
f 167 168 170
f 172 171 173
f 171 170 173
f 172 173 174
f 175 172 176
f 172 174 176
f 177 175 178
f 175 176 178
f 179 177 180
f 181 179 180
f 177 178 180
f 181 180 182
f 183 184 185
f 183 185 186
f 187 183 188
f 189 187 188
f 183 186 188
f 190 189 191
f 189 188 191
f 192 190 193
f 190 191 193
f 192 193 194
f 195 192 196
f 197 195 196
f 192 194 196
f 198 197 199
f 197 196 199
f 200 198 201
f 198 199 201
f 200 201 202
f 203 200 204
f 200 202 204
f 205 203 206
f 207 205 206
f 203 204 206
f 207 206 208
f 209 210 211
f 210 212 211
f 213 214 215
f 215 214 216
f 217 218 219
f 218 220 219
f 221 222 223
f 223 222 224
f 225 226 227
f 228 211 225
f 222 229 211
f 222 230 229
f 222 228 231
f 222 211 228
f 232 233 234
f 222 235 230
f 212 236 237
f 238 222 231
f 216 233 232
f 216 212 237
f 214 40 38
f 216 237 233
f 214 38 199
f 214 42 40
f 214 199 196
f 214 196 14
f 214 14 216
f 162 216 164
f 239 240 241
f 166 164 216
f 160 212 216
f 160 216 162
f 44 42 214
f 168 166 216
f 242 208 243
f 159 212 160
f 170 168 216
f 244 222 238
f 173 170 216
f 245 222 244
f 246 222 245
f 247 240 239
f 247 248 240
f 247 249 248
f 46 44 214
f 250 208 242
f 6 178 176
f 6 176 8
f 10 176 174
f 251 249 247
f 10 8 176
f 251 252 249
f 12 174 173
f 12 173 216
f 12 10 174
f 4 180 178
f 48 214 253
f 48 253 254
f 4 178 6
f 48 46 214
f 255 212 159
f 256 48 254
f 14 12 216
f 257 252 251
f 3 182 180
f 3 180 4
f 258 48 256
f 259 182 3
f 260 208 250
f 261 182 259
f 262 182 261
f 263 48 258
f 217 264 52
f 217 265 264
f 217 50 48
f 217 52 50
f 217 48 263
f 86 260 250
f 84 260 86
f 88 250 266
f 88 86 250
f 82 260 84
f 267 268 269
f 90 270 271
f 90 266 270
f 90 88 266
f 267 269 272
f 273 269 274
f 273 272 269
f 92 90 271
f 275 273 274
f 81 260 82
f 81 276 260
f 277 268 267
f 278 276 81
f 278 279 276
f 94 271 280
f 94 92 271
f 96 280 281
f 96 94 280
f 282 268 277
f 283 284 285
f 283 286 284
f 283 287 286
f 288 279 278
f 283 274 287
f 283 275 274
f 98 281 289
f 98 96 281
f 60 182 262
f 60 290 182
f 100 98 289
f 100 289 265
f 100 265 217
f 102 100 217
f 58 290 60
f 62 262 291
f 104 102 217
f 62 60 262
f 193 191 20
f 193 20 18
f 188 20 191
f 292 293 279
f 292 294 293
f 188 22 20
f 292 295 294
f 188 24 22
f 292 279 288
f 112 296 268
f 292 297 298
f 292 288 297
f 112 268 282
f 114 112 282
f 299 298 300
f 299 292 298
f 111 212 255
f 111 255 296
f 111 296 112
f 301 299 300
f 64 291 302
f 64 62 291
f 56 290 58
f 303 300 304
f 303 301 300
f 186 24 188
f 305 303 304
f 194 193 18
f 194 18 16
f 306 304 307
f 306 305 304
f 117 114 282
f 308 306 307
f 107 212 111
f 308 307 309
f 118 117 282
f 66 302 310
f 66 64 302
f 136 308 138
f 55 290 56
f 140 138 308
f 196 194 16
f 196 16 14
f 185 24 186
f 185 311 26
f 185 312 311
f 185 313 312
f 185 26 24
f 142 140 308
f 120 118 282
f 144 142 308
f 314 315 290
f 314 316 315
f 314 290 55
f 146 308 309
f 68 310 317
f 68 66 310
f 146 144 308
f 123 120 282
f 148 309 318
f 148 146 309
f 124 123 282
f 150 318 319
f 150 148 318
f 320 316 314
f 152 150 319
f 70 317 321
f 70 68 317
f 126 124 282
f 154 319 322
f 154 152 319
f 72 70 321
f 72 321 313
f 323 324 316
f 323 285 324
f 323 316 320
f 325 326 327
f 325 328 326
f 325 329 328
f 325 330 329
f 325 331 330
f 332 285 323
f 332 283 285
f 219 333 156
f 219 334 333
f 219 335 334
f 219 336 335
f 219 327 336
f 219 154 322
f 219 156 154
f 219 325 327
f 219 337 325
f 219 322 104
f 219 104 217
f 224 337 219
f 224 246 338
f 224 338 339
f 224 339 340
f 224 340 341
f 224 341 342
f 224 342 337
f 224 222 246
f 343 224 219
f 343 219 344
f 345 343 344
f 346 343 345
f 347 346 345
f 282 225 130
f 282 130 128
f 282 128 126
f 130 225 348
f 348 225 349
f 325 308 133
f 325 133 350
f 325 350 331
f 133 308 134
f 134 308 136
f 292 283 351
f 292 351 252
f 292 252 257
f 292 257 352
f 292 352 295
f 351 283 353
f 353 283 332
f 211 212 107
f 211 354 226
f 211 355 354
f 211 356 355
f 211 357 356
f 211 106 357
f 211 107 106
f 229 358 211
f 36 202 201
f 36 34 202
f 32 204 202
f 32 206 204
f 32 202 34
f 30 206 32
f 38 36 201
f 38 201 199
f 230 359 229
f 29 206 30
f 29 208 206
f 360 74 72
f 360 76 74
f 360 78 76
f 360 313 185
f 360 72 313
f 241 361 78
f 241 78 360
f 241 240 361
f 243 208 29
f 225 211 226
f 225 362 349
f 225 363 362
f 225 364 363
f 225 227 364
f 209 365 221
f 366 209 221
f 365 367 221
f 368 366 221
f 368 221 369
f 13 195 213
f 197 37 213
f 37 39 213
f 39 41 213
f 195 197 213
f 370 371 210
f 215 13 213
f 372 373 215
f 373 374 215
f 374 370 215
f 375 376 377
f 370 210 215
f 213 41 43
f 378 207 379
f 163 215 161
f 215 163 165
f 215 210 157
f 161 215 157
f 369 221 380
f 215 165 167
f 380 221 381
f 215 167 169
f 157 210 158
f 381 221 382
f 215 169 171
f 376 383 384
f 383 385 384
f 377 376 384
f 213 43 45
f 379 207 386
f 172 175 7
f 385 387 388
f 175 177 7
f 384 385 388
f 389 390 47
f 177 179 5
f 390 213 47
f 213 45 47
f 7 177 5
f 171 172 9
f 172 7 9
f 179 181 1
f 5 179 1
f 389 47 391
f 388 387 392
f 215 171 11
f 171 9 11
f 158 210 393
f 1 181 2
f 215 11 13
f 391 47 394
f 2 181 395
f 395 181 396
f 396 181 397
f 394 47 398
f 398 47 218
f 51 399 218
f 399 400 218
f 47 49 218
f 49 51 218
f 207 401 85
f 386 207 85
f 402 403 87
f 403 386 87
f 386 85 87
f 85 401 83
f 402 87 89
f 83 401 79
f 79 401 80
f 401 404 80
f 402 89 91
f 405 406 407
f 406 408 407
f 409 402 91
f 406 410 411
f 408 406 411
f 409 91 93
f 412 409 93
f 405 407 413
f 80 404 414
f 411 410 415
f 412 93 95
f 416 412 95
f 414 404 417
f 404 418 417
f 415 410 419
f 416 95 97
f 420 421 422
f 421 423 422
f 424 416 97
f 423 425 422
f 425 405 422
f 405 413 422
f 218 400 99
f 397 181 59
f 181 426 59
f 424 97 99
f 400 424 99
f 17 19 189
f 19 21 189
f 218 99 101
f 218 101 103
f 427 397 61
f 397 59 61
f 59 426 57
f 428 429 430
f 189 21 187
f 429 417 430
f 21 23 187
f 417 418 430
f 418 431 430
f 17 189 190
f 431 432 430
f 432 433 430
f 434 428 435
f 428 430 435
f 410 436 110
f 419 410 110
f 434 435 437
f 393 210 109
f 110 436 109
f 436 393 109
f 419 110 113
f 57 426 53
f 438 434 439
f 434 437 439
f 440 427 63
f 438 439 441
f 427 61 63
f 15 17 192
f 442 438 443
f 17 190 192
f 438 441 443
f 187 23 183
f 444 442 445
f 442 443 445
f 109 210 108
f 419 113 115
f 419 115 116
f 53 426 54
f 426 446 54
f 445 137 139
f 137 445 135
f 447 440 65
f 440 63 65
f 25 448 184
f 448 449 184
f 449 450 184
f 23 25 184
f 183 23 184
f 13 15 195
f 445 139 141
f 15 192 195
f 419 116 119
f 445 141 143
f 446 451 452
f 54 446 452
f 444 445 145
f 453 454 67
f 445 143 145
f 454 447 67
f 447 65 67
f 455 444 147
f 444 145 147
f 419 119 121
f 456 455 149
f 419 121 122
f 455 147 149
f 451 457 458
f 452 451 458
f 456 149 151
f 453 67 69
f 459 456 153
f 456 151 153
f 419 122 125
f 457 420 460
f 458 457 460
f 450 453 71
f 453 69 71
f 461 462 463
f 462 464 463
f 464 465 463
f 465 466 463
f 466 467 463
f 460 420 468
f 103 459 220
f 461 463 220
f 459 153 220
f 420 422 468
f 155 469 220
f 469 470 220
f 470 471 220
f 471 472 220
f 218 103 220
f 472 461 220
f 153 155 220
f 463 473 220
f 220 473 223
f 382 221 223
f 473 474 223
f 474 475 223
f 475 476 223
f 476 477 223
f 477 478 223
f 478 382 223
f 479 220 480
f 220 223 480
f 223 481 482
f 481 483 482
f 480 223 482
f 132 445 463
f 484 132 463
f 467 484 463
f 131 445 132
f 135 445 131
f 129 485 419
f 127 129 419
f 125 127 419
f 486 485 129
f 487 485 486
f 488 422 430
f 387 488 430
f 392 387 430
f 489 392 430
f 433 489 430
f 490 422 488
f 468 422 490
f 108 210 209
f 491 492 209
f 492 493 209
f 493 494 209
f 494 495 209
f 495 105 209
f 105 108 209
f 209 496 365
f 200 33 35
f 198 200 35
f 33 200 31
f 200 203 31
f 31 203 27
f 203 205 27
f 205 207 27
f 198 35 37
f 197 198 37
f 365 497 367
f 71 73 498
f 73 75 498
f 75 77 498
f 450 71 498
f 184 450 498
f 27 207 28
f 77 499 375
f 499 376 375
f 498 77 375
f 28 207 378
f 487 500 485
f 500 501 485
f 501 502 485
f 502 503 485
f 503 491 485
f 491 209 485
f 485 209 366
f 367 504 221
f 419 485 225
f 282 419 225
f 246 382 338
f 382 478 338
f 308 325 463
f 445 308 463
f 430 422 292
f 422 283 292
f 155 156 333
f 469 155 333
f 470 469 333
f 471 470 334
f 470 333 334
f 472 471 335
f 471 334 335
f 472 335 336
f 461 472 327
f 462 461 327
f 472 336 327
f 462 327 326
f 464 462 328
f 465 464 328
f 462 326 328
f 466 465 329
f 465 328 329
f 466 329 330
f 467 466 331
f 466 330 331
f 484 467 350
f 132 484 350
f 467 331 350
f 132 350 133
f 486 129 130
f 486 130 348
f 487 486 349
f 500 487 349
f 486 348 349
f 500 349 362
f 501 500 363
f 502 501 363
f 500 362 363
f 502 363 364
f 503 502 227
f 491 503 227
f 502 364 227
f 491 227 226
f 492 491 354
f 491 226 354
f 493 492 355
f 494 493 355
f 492 354 355
f 495 494 356
f 494 355 356
f 495 356 357
f 105 495 106
f 495 357 106
f 103 104 322
f 459 103 322
f 456 459 322
f 455 456 319
f 456 322 319
f 444 455 318
f 455 319 318
f 444 318 309
f 442 444 307
f 444 309 307
f 438 442 304
f 442 307 304
f 434 438 300
f 428 434 300
f 438 304 300
f 428 300 298
f 429 428 297
f 417 429 297
f 428 298 297
f 417 297 288
f 414 417 278
f 80 414 278
f 417 288 278
f 80 278 81
f 401 260 276
f 404 401 276
f 418 404 276
f 431 418 279
f 418 276 279
f 431 279 293
f 432 431 294
f 433 432 294
f 431 293 294
f 489 433 295
f 433 294 295
f 489 295 352
f 392 489 257
f 388 392 257
f 489 352 257
f 388 257 251
f 384 388 247
f 388 251 247
f 377 384 239
f 384 247 239
f 375 377 241
f 377 239 241
f 498 375 360
f 375 241 360
f 77 78 361
f 499 77 361
f 376 499 361
f 383 376 240
f 376 361 240
f 383 240 248
f 385 383 249
f 387 385 249
f 383 248 249
f 488 387 252
f 387 249 252
f 488 252 351
f 490 488 353
f 488 351 353
f 468 490 332
f 490 353 332
f 460 468 323
f 458 460 323
f 468 332 323
f 458 323 320
f 452 458 314
f 54 452 314
f 458 320 314
f 54 314 55
f 426 290 315
f 446 426 315
f 451 446 315
f 451 315 316
f 457 451 324
f 420 457 324
f 451 316 324
f 420 324 285
f 421 420 284
f 420 285 284
f 423 421 286
f 421 284 286
f 425 423 287
f 423 286 287
f 405 425 274
f 425 287 274
f 406 405 269
f 405 274 269
f 410 406 268
f 436 410 268
f 406 269 268
f 436 268 296
f 393 436 255
f 436 296 255
f 51 52 264
f 399 51 264
f 400 399 264
f 400 264 265
f 424 400 289
f 400 265 289
f 416 424 281
f 424 289 281
f 412 416 280
f 409 412 280
f 416 281 280
f 409 280 271
f 402 409 270
f 409 271 270
f 403 402 266
f 386 403 266
f 402 270 266
f 379 386 250
f 386 266 250
f 379 250 242
f 378 379 243
f 28 378 243
f 379 242 243
f 28 243 29
f 25 26 311
f 448 25 311
f 449 448 311
f 450 449 312
f 449 311 312
f 453 450 313
f 450 312 313
f 454 453 321
f 453 313 321
f 447 454 317
f 454 321 317
f 447 317 310
f 440 447 302
f 447 310 302
f 427 440 291
f 440 302 291
f 397 427 262
f 396 397 262
f 427 291 262
f 396 262 261
f 395 396 259
f 2 395 259
f 396 261 259
f 2 259 3
f 398 217 263
f 398 218 217
f 394 263 258
f 394 398 263
f 391 256 254
f 391 258 256
f 391 394 258
f 389 254 253
f 389 391 254
f 390 253 214
f 390 389 253
f 213 390 214
f 372 232 234
f 372 216 232
f 372 215 216
f 373 234 233
f 373 372 234
f 374 233 237
f 374 373 233
f 370 237 236
f 370 374 237
f 371 236 212
f 371 370 236
f 210 371 212
f 481 224 343
f 481 223 224
f 483 343 346
f 483 481 343
f 482 346 347
f 482 483 346
f 480 347 345
f 480 482 347
f 479 345 344
f 479 480 345
f 220 344 219
f 220 479 344
f 209 211 358
f 496 358 229
f 496 209 358
f 365 229 359
f 365 496 229
f 497 359 230
f 497 365 359
f 367 497 230
f 504 235 222
f 504 230 235
f 504 367 230
f 221 504 222
f 225 485 366
f 228 225 366
f 231 228 368
f 228 366 368
f 238 231 369
f 231 368 369
f 244 238 380
f 245 244 380
f 238 369 380
f 246 245 381
f 245 380 381
f 246 381 382
f 339 338 478
f 340 339 477
f 339 478 477
f 341 340 476
f 340 477 476
f 342 341 475
f 341 476 475
f 337 342 474
f 342 475 474
f 325 337 473
f 337 474 473
f 325 473 463
f 275 283 422
f 275 422 413
f 273 275 407
f 275 413 407
f 272 273 408
f 273 407 408
f 267 272 411
f 272 408 411
f 277 267 415
f 267 411 415
f 282 277 419
f 277 415 419
f 306 308 445
f 305 306 443
f 306 445 443
f 303 305 441
f 305 443 441
f 301 303 439
f 303 441 439
f 299 301 437
f 301 439 437
f 292 299 435
f 299 437 435
f 292 435 430
f 207 208 401
f 401 208 260
f 185 184 498
f 185 498 360
f 181 182 426
f 426 182 290
f 393 255 158
f 158 255 159
