# Created by FreeCAD <http://www.freecadweb.org>
v -20.725000 496.795563 48.245125
v -20.725000 496.605042 48.114628
v -17.225000 496.795563 48.245125
v -20.725000 495.780457 45.216480
v -17.225000 495.780457 45.216480
v -17.225000 495.707062 45.435425
v -17.225000 495.873718 45.005238
v -20.725000 495.873718 45.005238
v -20.725000 496.997284 48.357491
v -17.225000 496.997284 48.357491
v -20.725000 495.707062 45.435425
v -20.725000 497.208527 48.450764
v -17.225000 497.208527 48.450764
v -20.725000 497.427460 48.524147
v -17.225000 497.427460 48.524147
v -17.225000 497.652252 48.577015
v -20.725000 495.654205 45.660210
v -17.225000 495.654205 45.660210
v -17.225000 495.622284 45.888912
v -20.725000 498.111633 43.619583
v -17.225000 498.111633 43.619583
v -17.225000 497.880951 43.630249
v -20.725000 497.652252 48.577015
v -17.225000 497.880951 48.608917
v -20.725000 497.880951 48.608917
v -20.725000 498.111633 48.619583
v -17.225000 498.111633 48.619583
v -20.725000 495.622284 45.888912
v -20.725000 497.880951 43.630249
v -20.725000 495.611633 46.119583
v -17.225000 495.611633 46.119583
v -20.725000 497.652252 43.662151
v -17.225000 497.652252 43.662151
v -20.725000 495.622284 46.350254
v -17.225000 495.622284 46.350254
v -20.725000 497.427460 43.715019
v -17.225000 497.427460 43.715019
v -17.225000 497.208527 43.788403
v -20.725000 495.654205 46.578957
v -17.225000 495.654205 46.578957
v -17.225000 495.707062 46.803741
v -20.725000 497.208527 43.788403
v -17.225000 496.997284 43.881676
v -20.725000 495.707062 46.803741
v -17.225000 495.780457 47.022686
v -20.725000 496.997284 43.881676
v -20.725000 495.780457 47.022686
v -20.725000 496.795563 43.994041
v -17.225000 496.795563 43.994041
v -20.725000 495.873718 47.233929
v -17.225000 495.873718 47.233929
v -17.225000 495.986084 47.435665
v -20.725000 496.605042 44.124538
v -17.225000 496.605042 44.124538
v -17.225000 496.427399 44.272060
v -20.725000 495.986084 47.435665
v -20.725000 496.427399 44.272060
v -17.225000 496.264099 44.435345
v -20.725000 496.116577 47.626171
v -17.225000 496.116577 47.626171
v -20.725000 496.264099 44.435345
v -20.725000 496.264099 47.803822
v -17.225000 496.264099 47.803822
v -20.725000 496.116577 44.612995
v -17.225000 496.116577 44.612995
v -20.725000 496.427399 47.967106
v -17.225000 496.427399 47.967106
v -17.225000 496.605042 48.114628
v -20.725000 495.986084 44.803501
v -17.225000 495.986084 44.803501
v -17.225000 497.982208 45.636620
v -16.875000 498.111633 45.619583
v -16.875000 497.982208 45.636620
v -16.875000 497.861633 45.686569
v -17.225000 498.111633 45.619583
v -17.225000 497.861633 45.686569
v -17.225000 497.758087 45.766029
v -16.875000 497.758087 45.766029
v -16.875000 497.678619 45.869583
v -17.225000 497.678619 45.869583
v -17.225000 497.628662 45.990173
v -16.875000 497.628662 45.990173
v -16.875000 497.611633 46.119583
v -17.225000 497.611633 46.119583
v -16.875000 497.628662 46.248993
v -17.225000 497.628662 46.248993
v -16.875000 497.678619 46.369583
v -17.225000 497.678619 46.369583
v -17.225000 497.758087 46.473137
v -16.875000 497.758087 46.473137
v -16.875000 497.861633 46.552597
v -17.225000 497.861633 46.552597
v -17.225000 497.982208 46.602547
v -16.875000 497.982208 46.602547
v -16.875000 498.111633 46.619583
v -17.225000 498.111633 46.619583
v -16.475000 498.275421 48.112865
v -16.875000 498.356995 48.104473
v -16.875000 498.275421 48.112865
v -16.475000 498.356995 48.104473
v -16.475000 498.193604 48.117901
v -16.875000 498.193604 48.117901
v -16.875000 498.111633 48.119583
v -16.475000 498.111633 48.119583
v -21.075001 498.111633 45.619583
v -20.725000 498.111633 45.619583
v -20.725000 497.982208 45.636620
v -21.075001 497.982208 45.636620
v -20.725000 497.861633 45.686569
v -21.075001 497.861633 45.686569
v -20.725000 497.758087 45.766029
v -21.075001 497.758087 45.766029
v -21.075001 497.678619 45.869583
v -20.725000 497.678619 45.869583
v -20.725000 497.628662 45.990173
v -21.075001 497.628662 45.990173
v -21.075001 497.611633 46.119583
v -20.725000 497.611633 46.119583
v -20.725000 497.628662 46.248993
v -21.075001 497.628662 46.248993
v -20.725000 497.678619 46.369583
v -21.075001 497.678619 46.369583
v -21.075001 497.758087 46.473137
v -20.725000 497.758087 46.473137
v -21.075001 497.861633 46.552597
v -20.725000 497.861633 46.552597
v -20.725000 497.982208 46.602547
v -21.075001 497.982208 46.602547
v -21.075001 498.111633 46.619583
v -20.725000 498.111633 46.619583
v -21.075001 498.241028 46.602547
v -20.725000 498.241028 46.602547
v -20.725000 498.361633 46.552597
v -21.075001 498.361633 46.552597
v -21.075001 498.465179 46.473137
v -20.725000 498.465179 46.473137
v -21.075001 498.544647 46.369583
v -20.725000 498.544647 46.369583
v -21.075001 498.594604 46.248993
v -20.725000 498.594604 46.248993
v -21.075001 498.611633 46.119583
v -20.725000 498.611633 46.119583
v -21.075001 498.594604 45.990173
v -20.725000 498.594604 45.990173
v -20.725000 498.544647 45.869583
v -21.075001 498.544647 45.869583
v -21.075001 498.465179 45.766029
v -20.725000 498.465179 45.766029
v -21.075001 498.361633 45.686569
v -20.725000 498.361633 45.686569
v -20.725000 498.241028 45.636620
v -21.075001 498.241028 45.636620
v -21.075001 496.515350 47.324520
v -21.075001 496.398132 47.151062
v -21.075001 496.299713 46.966305
v -21.075001 496.221130 46.772270
v -21.075001 496.163269 46.571083
v -21.075001 496.126740 46.364948
v -21.075001 496.111969 46.156128
v -21.075001 498.356995 48.104473
v -21.075001 501.334320 47.736427
v -21.075001 496.119110 45.946903
v -21.075001 500.843597 43.766644
v -21.075001 497.866272 44.134689
v -21.075001 498.148163 48.119247
v -21.075001 497.938965 48.112114
v -21.075001 496.148071 45.739574
v -21.075001 497.660126 44.171211
v -21.075001 496.198547 45.536407
v -21.075001 497.458954 44.229080
v -21.075001 497.528442 48.032673
v -21.075001 497.331665 47.961231
v -21.075001 497.731628 48.083149
v -21.075001 496.269989 45.339630
v -21.075001 497.264923 44.307659
v -21.075001 497.143433 47.869617
v -21.075001 496.965820 47.758827
v -21.075001 496.361603 45.151398
v -21.075001 497.080139 44.406094
v -21.075001 496.472382 44.973774
v -21.075001 496.906677 44.523300
v -21.075001 496.800751 47.630077
v -21.075001 496.601135 44.808701
v -21.075001 496.746429 44.657993
v -21.075001 496.650055 47.484779
v -16.875000 496.461548 47.249744
v -16.875000 496.592743 47.420731
v -16.875000 496.349548 47.065639
v -16.875000 496.257965 46.870548
v -16.875000 496.187927 46.666737
v -16.875000 496.140228 46.456573
v -16.875000 498.361633 46.552597
v -16.875000 498.465179 46.473137
v -16.875000 496.115417 46.242496
v -16.875000 498.544647 46.369583
v -16.875000 501.334320 47.736427
v -16.875000 496.113770 46.026993
v -16.875000 497.866272 44.134689
v -16.875000 498.465179 45.766029
v -16.875000 500.843597 43.766644
v -16.875000 498.361633 45.686569
v -16.875000 498.241028 46.602547
v -16.875000 498.241028 45.636620
v -16.875000 498.594604 46.248993
v -16.875000 496.135345 45.812565
v -16.875000 497.896423 48.107971
v -16.875000 497.654114 44.172615
v -16.875000 496.179840 45.601704
v -16.875000 498.611633 46.119583
v -16.875000 497.447296 44.233147
v -16.875000 496.246796 45.396851
v -16.875000 497.683746 48.073273
v -16.875000 497.476013 48.015892
v -16.875000 497.275665 47.936489
v -16.875000 497.248169 44.315582
v -16.875000 496.335358 45.200394
v -16.875000 498.594604 45.990173
v -16.875000 497.059082 44.418961
v -16.875000 497.085022 47.835991
v -16.875000 496.906281 47.715565
v -16.875000 496.444580 45.014606
v -16.875000 496.882202 44.542088
v -16.875000 498.544647 45.869583
v -16.875000 496.573151 44.841652
v -16.875000 496.741577 47.576607
v -16.875000 496.719604 44.683533
v -21.475000 503.299896 61.599121
v -21.475000 501.091705 43.735973
v -21.475000 501.334320 47.736427
v -21.475000 503.051788 61.629795
v -21.475000 497.731628 48.083149
v -21.475000 497.938965 48.112114
v -21.475000 498.148163 48.119247
v -21.475000 497.143433 47.869617
v -21.475000 497.331665 47.961231
v -21.475000 497.528442 48.032673
v -21.475000 496.800751 47.630077
v -21.475000 496.965820 47.758827
v -21.475000 496.650055 47.484779
v -21.475000 496.299713 46.966305
v -21.475000 496.398132 47.151062
v -21.475000 496.515350 47.324520
v -21.475000 496.221130 46.772270
v -21.475000 498.356995 48.104473
v -21.475000 496.163269 46.571083
v -21.475000 496.126740 46.364948
v -21.475000 496.111969 46.156128
v -21.475000 497.866272 44.134689
v -21.475000 497.660126 44.171211
v -21.475000 497.264923 44.307659
v -21.475000 497.458954 44.229080
v -21.475000 496.361603 45.151398
v -21.475000 496.269989 45.339630
v -21.475000 496.198547 45.536407
v -21.475000 496.148071 45.739574
v -21.475000 496.119110 45.946903
v -21.475000 496.906677 44.523300
v -21.475000 497.080139 44.406094
v -21.475000 496.601135 44.808701
v -21.475000 496.472382 44.973774
v -21.475000 496.746429 44.657993
v -16.475000 503.051788 61.629795
v -16.475000 501.334320 47.736427
v -21.475000 503.300598 61.599957
v -21.475000 503.300873 61.849998
v -21.475000 503.300873 61.599998
v -21.475000 503.229218 61.839550
v -21.475000 503.163513 61.809074
v -21.475000 503.300323 61.599838
v -21.475000 503.109253 61.761105
v -21.475000 503.300110 61.599648
v -21.475000 503.070953 61.699638
v -21.475000 503.299957 61.599400
v -21.475000 503.549988 61.849998
v -21.475000 503.549988 61.599998
v -16.475000 503.300873 61.849998
v -16.475000 503.300598 61.599957
v -16.475000 503.300873 61.599998
v -16.475000 503.299896 61.599121
v -16.475000 503.299957 61.599400
v -16.475000 503.229218 61.839550
v -16.475000 503.070953 61.699638
v -16.475000 503.300110 61.599648
v -16.475000 503.163513 61.809074
v -16.475000 503.300323 61.599838
v -16.475000 503.109253 61.761105
v -16.475000 501.091705 43.735973
v -16.475000 497.866272 44.134689
v -16.475000 497.059082 44.418961
v -16.475000 497.447296 44.233147
v -16.475000 497.654114 44.172615
v -16.475000 497.248169 44.315582
v -16.475000 496.444580 45.014606
v -16.475000 496.719604 44.683533
v -16.475000 496.882202 44.542088
v -16.475000 496.573151 44.841652
v -16.475000 496.335358 45.200394
v -16.475000 496.246796 45.396851
v -16.475000 496.113770 46.026993
v -16.475000 496.179840 45.601704
v -16.475000 496.135345 45.812565
v -16.475000 497.896423 48.107971
v -16.475000 496.140228 46.456573
v -16.475000 496.115417 46.242496
v -16.475000 496.187927 46.666737
v -16.475000 497.275665 47.936489
v -16.475000 497.683746 48.073273
v -16.475000 497.476013 48.015892
v -16.475000 496.349548 47.065639
v -16.475000 496.257965 46.870548
v -16.475000 496.461548 47.249744
v -16.475000 496.906281 47.715565
v -16.475000 497.085022 47.835991
v -16.475000 496.741577 47.576607
v -16.475000 496.592743 47.420731
v -16.475000 503.549988 61.849998
v -16.475000 503.549988 61.599998
v -17.225000 498.241028 46.602547
v -17.225000 498.361633 46.552597
v -17.225000 498.465179 46.473137
v -17.225000 498.544647 46.369583
v -17.225000 498.594604 46.248993
v -17.225000 498.611633 46.119583
v -17.225000 498.594604 45.990173
v -17.225000 498.544647 45.869583
v -17.225000 498.465179 45.766029
v -17.225000 498.361633 45.686569
v -17.225000 498.241028 45.636620
v -17.225000 499.618225 48.114628
v -17.225000 499.795868 47.967106
v -17.225000 499.014740 43.788403
v -17.225000 499.225983 43.881676
v -17.225000 499.427704 43.994041
v -17.225000 499.618225 44.124538
v -17.225000 500.106659 44.612995
v -17.225000 500.237183 44.803501
v -17.225000 500.349548 45.005238
v -17.225000 500.442810 45.216480
v -17.225000 498.342285 43.630249
v -17.225000 498.571014 43.662151
v -17.225000 498.795776 43.715019
v -17.225000 499.427704 48.245125
v -17.225000 500.516205 45.435425
v -17.225000 500.569061 45.660210
v -17.225000 500.600952 45.888912
v -17.225000 499.225983 48.357491
v -17.225000 499.014740 48.450764
v -17.225000 500.611633 46.119583
v -17.225000 500.600952 46.350254
v -17.225000 498.795776 48.524147
v -17.225000 500.569061 46.578957
v -17.225000 500.516205 46.803741
v -17.225000 500.442810 47.022686
v -17.225000 498.571014 48.577015
v -17.225000 498.342285 48.608917
v -17.225000 500.349548 47.233929
v -17.225000 500.237183 47.435665
v -17.225000 500.106659 47.626171
v -17.225000 499.959137 47.803822
v -17.225000 499.795868 44.272060
v -17.225000 499.959137 44.435345
v -20.725000 499.618225 48.114628
v -20.725000 499.795868 47.967106
v -20.725000 499.225983 43.881676
v -20.725000 499.014740 43.788403
v -20.725000 499.427704 43.994041
v -20.725000 499.618225 44.124538
v -20.725000 500.237183 44.803501
v -20.725000 500.106659 44.612995
v -20.725000 500.349548 45.005238
v -20.725000 500.442810 45.216480
v -20.725000 498.571014 43.662151
v -20.725000 498.342285 43.630249
v -20.725000 498.795776 43.715019
v -20.725000 499.427704 48.245125
v -20.725000 500.516205 45.435425
v -20.725000 500.569061 45.660210
v -20.725000 500.600952 45.888912
v -20.725000 499.225983 48.357491
v -20.725000 499.014740 48.450764
v -20.725000 500.611633 46.119583
v -20.725000 500.600952 46.350254
v -20.725000 498.795776 48.524147
v -20.725000 500.569061 46.578957
v -20.725000 500.516205 46.803741
v -20.725000 500.442810 47.022686
v -20.725000 498.571014 48.577015
v -20.725000 498.342285 48.608917
v -20.725000 500.349548 47.233929
v -20.725000 500.237183 47.435665
v -20.725000 500.106659 47.626171
v -20.725000 499.959137 47.803822
v -20.725000 499.795868 44.272060
v -20.725000 499.959137 44.435345
f 1 2 3
f 4 5 6
f 4 7 5
f 4 8 7
f 9 1 10
f 11 4 6
f 12 10 13
f 12 9 10
f 14 15 16
f 14 13 15
f 14 12 13
f 17 18 19
f 17 6 18
f 20 21 22
f 23 14 16
f 17 11 6
f 23 16 24
f 25 23 24
f 26 24 27
f 26 25 24
f 28 17 19
f 29 20 22
f 30 19 31
f 30 28 19
f 32 22 33
f 32 29 22
f 34 31 35
f 34 30 31
f 36 37 38
f 36 33 37
f 36 32 33
f 39 40 41
f 39 35 40
f 39 34 35
f 42 38 43
f 42 36 38
f 44 41 45
f 46 42 43
f 44 39 41
f 47 44 45
f 48 46 43
f 48 43 49
f 50 51 52
f 50 45 51
f 50 47 45
f 53 48 49
f 53 54 55
f 53 49 54
f 56 50 52
f 57 53 55
f 57 55 58
f 59 52 60
f 59 56 52
f 61 57 58
f 62 60 63
f 62 59 60
f 64 61 58
f 64 58 65
f 66 67 68
f 66 63 67
f 66 62 63
f 69 70 7
f 69 65 70
f 69 64 65
f 2 68 3
f 2 66 68
f 8 69 7
f 1 3 10
f 71 72 73
f 71 73 74
f 71 75 72
f 76 71 74
f 77 74 78
f 77 78 79
f 77 76 74
f 80 77 79
f 81 79 82
f 81 82 83
f 81 80 79
f 84 83 85
f 84 81 83
f 86 85 87
f 86 84 85
f 88 86 87
f 89 87 90
f 89 90 91
f 89 88 87
f 92 89 91
f 93 91 94
f 93 94 95
f 93 92 91
f 96 93 95
f 97 98 99
f 97 100 98
f 101 99 102
f 101 102 103
f 101 97 99
f 104 101 103
f 105 106 107
f 108 107 109
f 108 105 107
f 110 109 111
f 110 108 109
f 112 110 111
f 113 114 115
f 113 111 114
f 113 112 111
f 116 113 115
f 117 118 119
f 117 115 118
f 117 116 115
f 120 119 121
f 120 117 119
f 122 120 121
f 123 121 124
f 123 122 121
f 125 126 127
f 125 124 126
f 125 123 124
f 128 125 127
f 129 127 130
f 129 128 127
f 131 129 130
f 131 132 133
f 131 130 132
f 134 131 133
f 135 133 136
f 135 134 133
f 137 136 138
f 137 135 136
f 139 138 140
f 139 137 138
f 141 140 142
f 141 139 140
f 143 144 145
f 143 142 144
f 143 141 142
f 146 143 145
f 147 145 148
f 147 146 145
f 149 150 151
f 149 148 150
f 149 147 148
f 152 149 151
f 105 151 106
f 105 152 151
f 122 153 154
f 122 154 155
f 120 122 155
f 120 155 156
f 120 156 157
f 120 157 158
f 117 120 158
f 117 158 159
f 135 160 134
f 161 160 137
f 160 135 137
f 117 159 162
f 116 117 162
f 163 147 164
f 134 160 131
f 152 105 164
f 149 152 164
f 147 149 164
f 161 137 139
f 105 108 164
f 165 166 129
f 160 165 129
f 116 162 167
f 131 160 129
f 164 108 168
f 161 139 141
f 116 167 169
f 161 141 163
f 168 108 170
f 171 172 128
f 173 171 128
f 166 173 128
f 129 166 128
f 113 116 174
f 116 169 174
f 170 108 175
f 163 141 143
f 108 110 175
f 176 177 125
f 172 176 125
f 113 174 178
f 128 172 125
f 175 110 179
f 112 113 180
f 113 178 180
f 163 143 146
f 110 112 181
f 177 182 123
f 179 110 181
f 125 177 123
f 163 146 147
f 112 180 183
f 181 112 184
f 123 182 185
f 112 183 184
f 123 185 153
f 122 123 153
f 186 187 87
f 188 186 87
f 189 188 87
f 189 87 85
f 190 189 85
f 191 85 83
f 191 190 85
f 192 98 193
f 194 191 83
f 195 98 196
f 195 193 98
f 197 194 83
f 198 199 200
f 198 73 72
f 198 201 199
f 202 98 192
f 198 203 201
f 198 72 203
f 204 195 196
f 205 83 82
f 205 197 83
f 95 99 98
f 95 102 99
f 95 103 102
f 95 206 103
f 207 73 198
f 95 98 202
f 208 205 82
f 209 204 196
f 210 73 207
f 211 82 79
f 200 209 196
f 94 212 206
f 94 213 212
f 94 214 213
f 211 208 82
f 215 73 210
f 215 74 73
f 94 206 95
f 216 211 79
f 217 209 200
f 218 74 215
f 91 219 214
f 91 220 219
f 221 216 79
f 91 214 94
f 222 78 74
f 222 74 218
f 223 217 200
f 224 79 78
f 224 221 79
f 90 225 220
f 226 224 78
f 226 78 222
f 90 220 91
f 199 223 200
f 187 225 90
f 187 90 87
f 227 228 229
f 229 230 227
f 231 232 233
f 234 235 236
f 234 236 231
f 237 238 234
f 239 234 231
f 239 237 234
f 240 241 242
f 240 242 239
f 243 233 244
f 243 231 233
f 243 239 231
f 243 240 239
f 245 243 244
f 246 245 244
f 247 246 244
f 248 244 229
f 248 229 228
f 249 244 248
f 250 249 251
f 252 253 254
f 252 254 255
f 252 255 256
f 252 256 247
f 257 250 258
f 257 244 249
f 257 249 250
f 259 244 257
f 259 260 252
f 259 247 244
f 259 252 247
f 261 259 257
f 244 160 161
f 229 244 161
f 161 262 230
f 161 230 229
f 196 161 163
f 196 262 161
f 263 262 196
f 200 196 163
f 264 265 266
f 264 267 265
f 264 268 267
f 269 268 264
f 270 269 271
f 270 268 269
f 272 271 273
f 272 270 271
f 230 273 227
f 230 272 273
f 266 265 274
f 266 274 275
f 276 277 278
f 262 279 280
f 281 277 276
f 282 280 283
f 282 262 280
f 284 285 277
f 284 277 281
f 286 283 285
f 286 282 283
f 286 285 284
f 262 263 279
f 287 279 263
f 263 288 287
f 289 290 291
f 289 292 290
f 293 294 295
f 293 296 294
f 297 293 295
f 298 295 289
f 298 297 295
f 100 291 288
f 100 288 263
f 100 289 291
f 100 298 289
f 299 300 298
f 299 301 300
f 299 298 100
f 101 100 97
f 101 299 100
f 302 101 104
f 303 304 299
f 303 299 101
f 305 303 101
f 306 307 308
f 306 302 307
f 309 310 305
f 309 101 302
f 309 305 101
f 311 309 302
f 312 306 313
f 312 302 306
f 314 302 312
f 314 311 302
f 314 315 311
f 281 276 265
f 281 265 267
f 284 267 268
f 284 268 270
f 284 281 267
f 286 284 270
f 282 270 272
f 282 286 270
f 262 272 230
f 262 282 272
f 265 276 316
f 265 316 274
f 275 274 317
f 274 316 317
f 317 278 266
f 275 317 266
f 266 278 277
f 264 266 277
f 269 264 277
f 271 269 285
f 269 277 285
f 271 285 283
f 273 271 280
f 271 283 280
f 227 273 279
f 273 280 279
f 227 279 228
f 228 279 287
f 228 163 248
f 248 163 164
f 200 163 287
f 163 228 287
f 198 200 288
f 200 287 288
f 316 276 278
f 317 316 278
f 247 256 159
f 246 159 158
f 246 158 157
f 246 247 159
f 245 157 156
f 245 246 157
f 243 245 156
f 249 164 168
f 249 248 164
f 240 156 155
f 240 155 154
f 240 243 156
f 251 168 170
f 251 170 175
f 241 154 153
f 251 249 168
f 241 240 154
f 250 251 175
f 242 241 153
f 258 175 179
f 258 179 181
f 239 242 153
f 239 153 185
f 239 185 182
f 258 250 175
f 257 258 181
f 237 239 182
f 261 181 184
f 238 182 177
f 261 257 181
f 238 237 182
f 259 184 183
f 234 177 176
f 259 183 180
f 234 176 172
f 234 238 177
f 259 261 184
f 235 172 171
f 260 180 178
f 235 234 172
f 260 259 180
f 236 171 173
f 252 178 174
f 236 235 171
f 252 260 178
f 231 236 173
f 253 252 174
f 232 173 166
f 232 166 165
f 232 231 173
f 233 165 160
f 233 232 165
f 254 253 174
f 254 174 169
f 244 233 160
f 255 169 167
f 255 167 162
f 255 254 169
f 256 255 162
f 256 162 159
f 100 263 196
f 100 196 98
f 299 194 197
f 299 304 194
f 301 197 205
f 301 205 208
f 301 299 197
f 104 103 206
f 300 301 208
f 302 206 212
f 298 208 211
f 302 104 206
f 298 300 208
f 297 211 216
f 307 302 212
f 297 216 221
f 297 298 211
f 308 212 213
f 308 213 214
f 308 307 212
f 293 297 221
f 296 221 224
f 306 308 214
f 296 293 221
f 313 214 219
f 313 219 220
f 294 224 226
f 313 306 214
f 294 296 224
f 312 313 220
f 295 226 222
f 295 294 226
f 314 220 225
f 314 225 187
f 289 222 218
f 314 312 220
f 289 295 222
f 292 218 215
f 315 187 186
f 292 289 218
f 315 314 187
f 290 215 210
f 290 210 207
f 290 292 215
f 311 186 188
f 291 290 207
f 311 315 186
f 288 207 198
f 288 291 207
f 309 311 188
f 310 309 188
f 310 188 189
f 305 189 190
f 305 310 189
f 303 190 191
f 303 191 194
f 303 305 190
f 304 303 194
f 96 95 202
f 318 96 202
f 319 202 192
f 319 192 193
f 319 318 202
f 320 319 193
f 321 193 195
f 321 195 204
f 321 320 193
f 322 321 204
f 323 204 209
f 323 209 217
f 323 322 204
f 324 323 217
f 325 217 223
f 325 223 199
f 325 324 217
f 326 325 199
f 327 199 201
f 327 201 203
f 327 326 199
f 328 327 203
f 75 203 72
f 75 328 203
f 329 319 320
f 329 320 330
f 45 41 86
f 45 86 88
f 10 92 13
f 51 45 88
f 327 331 332
f 3 92 10
f 327 332 333
f 327 333 334
f 327 334 326
f 52 51 88
f 68 92 3
f 325 335 336
f 325 336 337
f 68 89 92
f 325 337 338
f 60 52 88
f 60 88 89
f 70 65 80
f 67 89 68
f 325 326 335
f 63 60 89
f 63 89 67
f 328 339 340
f 328 340 341
f 342 319 329
f 328 341 331
f 7 70 80
f 328 331 327
f 324 325 338
f 324 338 343
f 324 343 344
f 324 344 345
f 346 319 342
f 5 7 80
f 5 80 81
f 347 319 346
f 75 21 339
f 75 339 328
f 347 318 319
f 75 22 21
f 6 5 81
f 323 345 348
f 323 348 349
f 350 318 347
f 323 324 345
f 18 6 81
f 322 349 351
f 322 351 352
f 322 352 353
f 354 318 350
f 322 323 349
f 19 18 81
f 71 38 37
f 71 37 33
f 71 33 22
f 71 22 75
f 19 81 84
f 355 318 354
f 321 353 356
f 321 322 353
f 321 356 357
f 355 96 318
f 321 357 358
f 31 19 84
f 76 38 71
f 76 54 49
f 76 49 43
f 76 43 38
f 27 96 355
f 24 96 27
f 320 321 358
f 24 93 96
f 320 358 359
f 77 55 54
f 77 54 76
f 35 31 84
f 58 55 77
f 35 84 86
f 330 320 359
f 16 93 24
f 40 35 86
f 15 93 16
f 41 40 86
f 326 334 360
f 326 360 361
f 326 361 335
f 65 77 80
f 13 93 15
f 65 58 77
f 13 92 93
f 136 133 362
f 363 136 362
f 119 44 47
f 121 119 47
f 12 126 9
f 121 47 50
f 364 365 150
f 9 126 1
f 366 364 150
f 367 366 150
f 148 367 150
f 121 50 56
f 1 126 2
f 368 369 145
f 370 368 145
f 126 124 2
f 371 370 145
f 121 56 59
f 124 121 59
f 114 64 69
f 2 124 66
f 369 148 145
f 124 59 62
f 66 124 62
f 372 373 151
f 374 372 151
f 362 133 375
f 365 374 151
f 114 69 8
f 150 365 151
f 371 145 144
f 376 371 144
f 377 376 144
f 378 377 144
f 375 133 379
f 114 8 4
f 115 114 4
f 379 133 380
f 373 20 106
f 151 373 106
f 133 132 380
f 20 29 106
f 115 4 11
f 381 378 142
f 382 381 142
f 380 132 383
f 378 144 142
f 115 11 17
f 384 382 140
f 385 384 140
f 386 385 140
f 383 132 387
f 382 142 140
f 115 17 28
f 36 42 107
f 32 36 107
f 29 32 107
f 106 29 107
f 118 115 28
f 387 132 388
f 389 386 138
f 386 140 138
f 390 389 138
f 132 130 388
f 391 390 138
f 118 28 30
f 107 42 109
f 48 53 109
f 46 48 109
f 42 46 109
f 388 130 26
f 26 130 25
f 391 138 136
f 130 127 25
f 392 391 136
f 53 57 111
f 109 53 111
f 118 30 34
f 111 57 61
f 119 118 34
f 392 136 363
f 25 127 23
f 119 34 39
f 23 127 14
f 119 39 44
f 393 367 148
f 394 393 148
f 369 394 148
f 114 111 64
f 14 127 12
f 111 61 64
f 127 126 12
f 366 367 334
f 386 353 352
f 386 356 353
f 386 389 356
f 364 332 331
f 364 333 332
f 364 366 333
f 385 386 352
f 365 364 331
f 374 365 331
f 374 341 340
f 374 331 341
f 384 352 351
f 384 385 352
f 372 374 340
f 373 340 339
f 388 26 27
f 373 372 340
f 382 349 348
f 20 339 21
f 382 351 349
f 20 373 339
f 382 384 351
f 388 27 355
f 381 382 348
f 387 354 350
f 387 355 354
f 387 388 355
f 378 348 345
f 378 381 348
f 383 350 347
f 383 387 350
f 377 344 343
f 377 345 344
f 377 378 345
f 380 383 347
f 379 380 347
f 376 343 338
f 376 377 343
f 379 347 346
f 371 376 338
f 375 379 346
f 375 342 329
f 375 346 342
f 370 338 337
f 370 371 338
f 362 375 329
f 362 329 330
f 368 336 335
f 368 337 336
f 368 370 337
f 363 362 330
f 369 335 361
f 369 368 335
f 392 363 330
f 392 330 359
f 394 361 360
f 394 369 361
f 391 392 359
f 393 394 360
f 391 359 358
f 390 357 356
f 390 358 357
f 390 391 358
f 367 360 334
f 367 393 360
f 389 390 356
f 366 334 333
