# Created by FreeCAD <http://www.freecadweb.org>
v -109.442574 191.448395 226.001175
v -109.684166 192.483673 225.682861
v -109.699188 191.573242 225.563950
v -109.796997 196.347366 223.195038
v -110.124954 196.001312 222.192963
v -110.010872 195.881454 223.096207
v -109.904556 195.530029 223.937912
v -110.095268 195.381454 222.971832
v -110.004601 195.081741 223.689667
v -108.607483 192.483673 226.770935
v -108.627693 193.708420 226.610977
v -109.058258 192.483673 226.507507
v -109.743217 190.724854 225.215302
v -109.829453 191.707214 225.076431
v -109.867004 190.983673 224.779099
v -109.468231 196.747467 223.261566
v -109.611397 196.897888 222.128098
v -109.926727 196.483673 222.167923
v -109.077110 191.341187 226.358292
v -109.425499 192.483673 226.136398
v -109.676109 195.947769 224.152161
v -108.103889 192.483673 226.908722
v -107.581787 192.483673 226.911469
v -107.603142 193.777771 226.742447
v -108.124947 193.760132 226.742004
v -109.046974 197.054474 223.291275
v -109.200447 197.215714 222.076187
v -108.721886 197.415527 222.015747
v -109.492645 190.483673 225.604721
v -109.813271 194.971008 224.660690
v -109.926750 194.604996 224.306091
v -108.627693 191.258926 226.610977
v -109.334831 196.306488 224.317810
v -109.813271 189.996323 224.660690
v -109.926750 190.362350 224.306091
v -108.561935 197.247467 223.282135
v -107.895058 196.813797 224.431183
v -108.046165 197.313293 223.234772
v -108.208328 197.483673 221.950882
v -109.132370 190.276566 225.920776
v -109.572304 195.312103 224.974060
v -108.124947 191.207214 226.742004
v -107.603142 191.189575 226.742447
v -108.903969 196.581741 224.423569
v -109.572304 189.655243 224.974060
v -109.743217 194.242493 225.215302
v -109.867004 193.983673 224.779099
v -109.220268 195.604996 225.224808
v -108.686928 190.117645 226.141968
v -109.904556 189.437302 223.937912
v -110.004601 189.885590 223.689667
v -110.095268 189.585892 222.971832
v -108.412888 196.754776 224.462234
v -109.492645 194.483673 225.604721
v -109.220268 189.362350 225.224808
v -108.186684 190.017746 226.253189
v -107.665733 189.983673 226.246872
v -108.781158 195.829727 225.395874
v -109.699188 193.394104 225.563950
v -109.829453 193.260132 225.076431
v -109.676109 189.019562 224.152161
v -109.132370 194.690781 225.920776
v -108.781158 189.137604 225.395874
v -108.284897 195.971008 225.475601
v -107.765297 196.019211 225.458542
v -110.010872 189.085892 223.096207
v -110.124954 188.966034 222.192963
v -109.442574 193.518951 226.001175
v -109.334831 188.660843 224.317810
v -108.284897 188.996323 225.475601
v -108.686928 194.849701 226.141968
v -107.765297 188.948135 225.458542
v -109.816643 192.483673 225.177856
v -109.796997 188.619965 223.195038
v -110.192566 189.483673 222.201492
v -109.926727 188.483673 222.167923
v -109.611397 188.069458 222.128098
v -109.077110 193.626160 226.358292
v -108.903969 188.385590 224.423569
v -108.186684 194.949600 226.253189
v -107.665733 194.983673 226.246872
v -109.468231 188.219864 223.261566
v -108.412888 188.212555 224.462234
v -107.895058 188.153549 224.431183
v -109.046974 187.912857 223.291275
v -109.200447 187.751617 222.076187
v -108.561935 187.719864 223.282135
v -108.721886 187.551819 222.015747
v -108.046165 187.654037 223.234772
v -108.208328 187.483673 221.950882
v -110.192566 195.483673 222.201492
v 48.103226 192.012268 202.683426
v 47.167980 191.517746 202.587280
v 47.135548 191.483673 202.330505
v 47.198200 191.617645 202.826553
v 47.224152 191.776566 203.032028
v 47.244068 191.983673 203.189697
v 48.127693 192.483673 202.877151
v 47.256584 192.224854 203.288818
v 47.260853 192.483673 203.322617
v 47.256584 192.742493 203.288818
v 47.244068 192.983673 203.189697
v 48.982296 192.247971 202.334824
v 48.994530 192.483673 202.431686
v 48.103226 192.955078 202.683426
v 47.224152 193.190781 203.032028
v 47.198200 193.349701 202.826553
v 48.982296 192.719376 202.334824
v 49.421833 192.365814 202.160522
v 49.861370 192.483673 201.986221
v 48.968746 192.175705 202.227539
v 49.421833 192.601517 202.160522
v 48.076122 193.099594 202.468857
v 47.135548 193.483673 202.330505
v 47.167980 193.449600 202.587280
v 40.853504 192.483673 207.357300
v 39.230320 193.777771 208.196945
v 39.251667 192.483673 208.365982
v 39.230320 191.189575 208.196945
v 40.813446 190.876404 207.040115
v 42.330559 194.887833 205.360641
v 42.422913 193.784790 206.091858
v 44.032379 193.478653 205.143616
v 45.592953 191.210876 203.808243
v 45.519779 190.820694 203.228882
v 43.961754 194.322144 204.584442
v 43.856060 194.885757 203.747589
v 40.813446 194.090942 207.040115
v 39.167728 194.983673 207.701385
v 43.856060 190.081589 203.747589
v 45.641850 191.794846 204.195358
v 42.192337 195.624863 204.266296
v 40.699360 195.453522 206.136856
v 39.068161 196.019211 206.913055
v 38.938400 196.813797 205.885681
v 43.961754 190.645187 204.584442
v 45.659016 192.483673 204.331284
v 40.528618 196.363968 204.785019
v 45.477467 190.718262 202.893875
v 44.636204 190.325943 203.078781
v 42.192337 189.342484 204.266296
v 41.442802 189.324081 205.177444
v 42.330559 190.079514 205.360641
v 40.699360 189.513824 206.136856
v 40.528618 188.603378 204.785019
v 39.588627 187.972061 204.188248
v 38.787292 187.654037 204.689285
v 38.625134 187.483673 203.405396
v 38.938400 188.153549 205.885681
v 40.429890 188.364365 204.003326
v 44.032379 191.488693 205.143616
v 41.574177 190.372498 206.217606
v 45.641850 193.172501 204.195358
v 42.422913 191.182541 206.091858
v 45.477467 194.249084 202.893875
v 45.519779 194.146652 203.228882
v 41.645275 191.742325 206.780533
v 42.455341 192.483673 206.348633
v 44.636204 194.641403 203.078781
v 41.645275 193.225006 206.780533
v 41.574177 194.594833 206.217606
v 44.057178 192.483673 205.339966
v 41.442802 195.643250 205.177444
v 45.592953 193.756454 203.808243
v 39.588627 196.995285 204.188248
v 38.787292 197.313293 204.689285
v 40.429890 196.602966 204.003326
v 38.625134 197.483673 203.405396
v 41.647995 188.901001 203.379257
v 41.647995 196.066330 203.379257
v 41.547211 188.999954 204.292725
v 41.547211 195.967377 204.292725
v 39.068161 188.948135 206.913055
v 39.167728 189.983673 207.701385
v -110.458382 190.362350 220.096893
v -110.380524 189.885590 220.713318
v -110.289856 189.585892 221.431152
v -110.555679 191.707214 219.326553
v -110.518120 190.983673 219.623901
v -110.568489 192.483673 219.225143
v -110.555679 193.260132 219.326553
v -110.518120 193.983673 219.623901
v -110.458382 194.604996 220.096893
v -110.380524 195.081741 220.713318
v -110.289856 195.381454 221.431152
v 38.462971 197.313293 202.121490
v -108.370491 197.313293 220.666992
v 38.311863 196.813797 200.925095
v -108.521599 196.813797 219.470581
v 38.182102 196.019211 199.897720
v -108.651360 196.019211 218.443207
v 38.082535 194.983673 199.109390
v -108.750923 194.983673 217.654877
v 38.019943 193.777771 198.613831
v -108.813515 193.777771 217.159317
v 37.998596 192.483673 198.444794
v -108.834862 192.483673 216.990295
v -108.813515 191.189575 217.159317
v 38.019943 191.189575 198.613831
v -108.750923 189.983673 217.654877
v 38.082535 189.983673 199.109390
v 38.182102 188.948135 199.897720
v -108.651360 188.948135 218.443207
v 38.311863 188.153549 200.925095
v -108.521599 188.153549 219.470581
v 38.462971 187.654037 202.121490
v -108.370491 187.654037 220.666992
v 43.606705 190.081589 201.773315
v 45.273975 191.210876 201.282715
v 45.347149 190.820694 201.862076
v 39.800922 192.483673 199.023514
v 45.273975 193.756454 201.282715
v 45.347149 194.146652 201.862076
v 47.072895 193.349701 201.834442
v 39.840984 194.090942 199.340698
v 41.728039 190.079514 200.590225
v 43.501007 190.645187 200.936462
v 41.635685 191.182541 199.859009
v 39.840984 190.876404 199.340698
v 45.225079 193.172501 200.895599
v 47.027027 192.983673 201.471298
v 47.014511 192.742493 201.372192
v 41.866257 189.342484 201.684570
v 39.955070 189.513824 200.243973
v 43.501007 194.322144 200.936462
v 40.125813 188.603378 201.595810
v 43.606705 194.885757 201.773315
v 45.207912 192.483673 200.759659
v 47.010239 192.483673 201.338379
v 45.389462 194.249084 202.197083
v 47.103115 193.449600 202.073715
v 47.014511 192.224854 201.372192
v 40.224541 196.602966 202.377487
v 41.085361 196.210648 202.347427
v 40.125813 196.363968 201.595810
v 40.913712 195.643250 200.988403
v 41.866257 195.624863 201.684570
v 41.728039 194.887833 200.590225
v 39.955070 195.453522 200.243973
v 39.363720 196.995285 202.407562
v 40.782337 194.594833 199.948242
v 43.430382 193.478653 200.377304
v 41.635685 193.784790 199.859009
v 45.389462 190.718262 202.197083
v 47.103115 191.517746 202.073715
v 45.225079 191.794846 200.895599
v 47.027027 191.983673 201.471298
v 40.711239 193.225006 199.385315
v 41.603252 192.483673 199.602234
v 40.711239 191.742325 199.385315
v 40.782337 190.372498 199.948242
v 40.913712 189.324081 200.988403
v 43.405582 192.483673 200.180954
v 41.085361 188.756683 202.347427
v 40.224541 188.364365 202.377487
v 39.363720 187.972061 202.407562
v 47.046940 191.776566 201.628967
v 44.127422 194.872116 202.473328
v 47.072895 191.617645 201.834442
v 44.127422 190.095230 202.473328
v 43.430382 191.488693 200.377304
v 47.046940 193.190781 201.628967
v 47.985085 192.955078 201.748047
v 47.960617 192.483673 201.554321
v 48.923225 192.719376 201.867142
v 48.910992 192.483673 201.770279
v 48.923225 192.247971 201.867142
v 47.985085 192.012268 201.748047
v 49.392296 192.601517 201.926682
v 48.936779 192.791626 201.974426
v 49.392296 192.365814 201.926682
v 48.936779 192.175705 201.974426
v -110.506683 194.242493 219.170609
v -110.550720 193.394104 218.821960
v -110.345345 189.437302 220.447998
v -110.239037 189.085892 221.289703
v -110.056458 188.619965 221.140808
v -109.754555 188.219864 220.994614
v -110.145683 193.626160 217.897903
v -110.164528 192.483673 217.748672
v -110.410873 193.518951 218.334671
v -109.339882 192.483673 217.122772
v -109.318825 191.207214 217.289490
v -110.177338 189.019562 220.183685
v -109.773201 191.258926 217.541412
v -109.793404 192.483673 217.381439
v -110.360802 194.483673 218.731125
v -109.353912 187.912857 220.861099
v -109.773201 193.708420 217.541412
v -110.436638 189.996323 219.725220
v -110.436638 194.971008 219.725220
v -109.887962 188.660843 219.938385
v -108.881836 187.719864 220.749344
v -110.090424 194.690781 218.335403
v -109.318825 193.760132 217.289490
v -110.281151 189.655243 219.361786
v -110.281151 195.312103 219.361786
v -109.496925 188.385590 219.728806
v -110.506683 190.724854 219.170609
v -109.713966 194.849701 218.010406
v -110.002518 189.362350 219.031372
v -110.345345 195.530029 220.447998
v -109.030884 188.212555 219.569260
v -110.002518 195.604996 219.031372
v -109.257088 194.949600 217.778305
v -110.360802 190.483673 218.731125
v -109.619736 189.137604 218.756500
v -110.177338 195.947769 220.183685
v -110.550720 191.573242 218.821960
v -109.619736 195.829727 218.756500
v -110.090424 190.276566 218.335403
v -110.239037 195.881454 221.289703
v -109.158875 188.996323 218.555893
v -109.887962 196.306488 219.938385
v -110.410873 191.448395 218.334671
v -109.713966 190.117645 218.010406
v -109.158875 195.971008 218.555893
v -110.565735 192.483673 218.703049
v -110.056458 196.347366 221.140808
v -110.145683 191.341187 217.897903
v -109.496925 196.581741 219.728806
v -109.257088 190.017746 217.778305
v -109.754555 196.747467 220.994614
v -110.427956 192.483673 218.199448
v -109.030884 196.754776 219.569260
v -109.353912 197.054474 220.861099
v -108.881836 197.247467 220.749344
f 1 2 3
f 4 5 6
f 7 8 9
f 10 11 12
f 7 6 8
f 13 14 15
f 13 3 14
f 16 17 18
f 13 1 3
f 16 18 4
f 19 12 20
f 19 20 1
f 21 4 6
f 22 23 24
f 21 6 7
f 22 25 11
f 22 11 10
f 26 27 17
f 22 24 25
f 26 28 27
f 26 17 16
f 29 1 13
f 29 19 1
f 30 9 31
f 30 21 7
f 32 10 12
f 30 7 9
f 32 12 19
f 33 4 21
f 33 16 4
f 34 15 35
f 36 37 38
f 36 28 26
f 36 38 28
f 34 13 15
f 38 39 28
f 40 19 29
f 41 21 30
f 40 32 19
f 42 43 23
f 42 23 22
f 42 22 10
f 42 10 32
f 44 26 16
f 44 16 33
f 45 29 13
f 46 31 47
f 45 13 34
f 45 40 29
f 46 30 31
f 48 44 33
f 48 21 41
f 49 42 32
f 49 32 40
f 48 33 21
f 50 51 52
f 53 37 36
f 50 35 51
f 53 36 26
f 50 34 35
f 53 26 44
f 50 45 34
f 54 41 30
f 54 30 46
f 55 40 45
f 56 57 43
f 58 44 48
f 56 43 42
f 56 42 49
f 59 47 60
f 59 54 46
f 59 46 47
f 61 45 50
f 61 55 45
f 62 41 54
f 63 40 55
f 63 49 40
f 62 48 41
f 64 44 58
f 64 65 37
f 64 53 44
f 64 37 53
f 66 50 52
f 66 52 67
f 68 54 59
f 69 55 61
f 69 63 55
f 70 49 63
f 71 48 62
f 70 72 57
f 70 57 56
f 71 58 48
f 70 56 49
f 2 73 14
f 74 61 50
f 2 60 73
f 74 69 61
f 2 59 60
f 74 66 67
f 67 52 75
f 74 67 76
f 2 68 59
f 74 76 77
f 74 50 66
f 78 62 54
f 79 63 69
f 78 71 62
f 79 70 63
f 78 54 68
f 80 64 58
f 80 58 71
f 80 81 65
f 82 74 77
f 82 69 74
f 80 65 64
f 83 70 79
f 83 84 72
f 20 68 2
f 83 72 70
f 85 77 86
f 11 71 78
f 85 82 77
f 85 69 82
f 85 79 69
f 87 85 86
f 87 88 89
f 3 2 14
f 87 86 88
f 87 83 79
f 87 84 83
f 87 79 85
f 87 89 84
f 12 78 68
f 90 89 88
f 12 68 20
f 12 11 78
f 6 91 8
f 25 24 81
f 6 5 91
f 25 80 71
f 25 81 80
f 25 71 11
f 4 18 5
f 1 20 2
f 92 93 94
f 92 95 93
f 92 96 95
f 92 97 96
f 98 99 97
f 98 100 99
f 98 101 100
f 98 102 101
f 98 92 103
f 98 97 92
f 98 103 104
f 105 106 102
f 105 107 106
f 105 102 98
f 105 104 108
f 105 98 104
f 109 104 103
f 111 94 110
f 111 92 94
f 111 103 92
f 111 110 109
f 111 109 103
f 112 104 109
f 112 108 104
f 112 110 108
f 112 109 110
f 113 110 114
f 113 115 107
f 113 114 115
f 113 105 108
f 113 107 105
f 113 108 110
f 116 117 118
f 116 119 120
f 121 122 123
f 124 125 95
f 121 123 126
f 121 126 127
f 128 129 117
f 130 125 124
f 131 97 99
f 128 117 116
f 132 121 127
f 131 124 97
f 133 134 129
f 133 135 134
f 133 129 128
f 136 130 124
f 137 99 100
f 137 100 101
f 138 135 133
f 139 94 93
f 139 93 125
f 140 139 125
f 137 131 99
f 140 94 139
f 140 125 130
f 141 130 136
f 142 141 143
f 142 144 145
f 146 147 148
f 146 149 147
f 146 150 145
f 146 145 149
f 151 136 124
f 146 148 150
f 151 124 131
f 152 120 144
f 151 131 137
f 152 142 143
f 152 144 142
f 153 101 102
f 152 143 154
f 155 115 114
f 155 156 115
f 157 154 158
f 157 120 152
f 153 137 101
f 157 116 120
f 157 152 154
f 159 155 114
f 159 127 156
f 159 156 155
f 143 141 136
f 160 157 158
f 143 136 151
f 160 158 122
f 160 128 116
f 160 116 157
f 161 122 121
f 161 133 128
f 161 160 122
f 161 128 160
f 162 151 137
f 163 161 121
f 162 137 153
f 163 138 133
f 163 133 161
f 163 121 132
f 164 102 106
f 164 106 107
f 165 166 135
f 165 138 167
f 165 168 166
f 165 167 168
f 165 135 138
f 169 148 94
f 169 94 140
f 169 140 130
f 164 153 102
f 169 130 141
f 169 150 148
f 154 143 151
f 170 114 168
f 154 151 162
f 170 132 127
f 170 168 167
f 170 159 114
f 170 127 159
f 171 145 150
f 171 142 145
f 171 150 169
f 123 162 153
f 171 169 141
f 171 141 142
f 172 138 163
f 144 173 149
f 172 167 138
f 144 174 173
f 172 163 132
f 172 132 170
f 172 170 167
f 144 149 145
f 156 107 115
f 156 164 107
f 158 154 162
f 158 162 123
f 126 153 164
f 126 123 153
f 126 164 156
f 120 119 174
f 120 174 144
f 125 93 95
f 122 158 123
f 127 126 156
f 124 95 96
f 124 96 97
f 116 118 119
f 90 148 147
f 89 90 147
f 84 147 149
f 84 149 173
f 84 89 147
f 72 173 174
f 72 84 173
f 57 174 119
f 57 72 174
f 43 119 118
f 43 57 119
f 23 118 117
f 23 43 118
f 24 117 129
f 24 23 117
f 81 129 134
f 81 24 129
f 65 134 135
f 65 81 134
f 37 65 135
f 38 135 166
f 38 37 135
f 39 166 168
f 39 38 166
f 175 176 177
f 178 179 180
f 179 175 181
f 180 179 181
f 177 75 52
f 182 181 183
f 52 51 35
f 52 35 15
f 184 183 185
f 175 177 185
f 181 175 185
f 183 181 185
f 15 14 73
f 15 73 60
f 91 185 8
f 177 52 9
f 185 177 9
f 52 15 9
f 8 185 9
f 15 60 9
f 60 47 31
f 9 60 31
f 39 168 186
f 187 186 188
f 187 39 186
f 189 188 190
f 189 187 188
f 191 190 192
f 191 189 190
f 193 192 194
f 193 191 192
f 195 194 196
f 195 193 194
f 197 195 196
f 198 196 199
f 198 197 196
f 200 199 201
f 200 201 202
f 200 198 199
f 203 202 204
f 203 200 202
f 205 204 206
f 205 203 204
f 207 206 148
f 207 205 206
f 90 207 148
f 208 209 210
f 211 196 194
f 211 199 196
f 212 213 214
f 211 194 215
f 216 217 208
f 216 218 217
f 219 201 199
f 220 221 222
f 219 199 211
f 223 216 208
f 220 212 221
f 224 201 219
f 224 202 201
f 224 204 202
f 225 213 212
f 226 204 224
f 225 227 213
f 228 222 229
f 230 114 231
f 228 229 232
f 230 231 213
f 228 220 222
f 233 168 234
f 233 234 235
f 236 237 238
f 236 234 237
f 236 235 234
f 236 239 235
f 237 227 225
f 240 186 168
f 240 188 186
f 240 168 233
f 240 233 235
f 240 235 188
f 241 215 239
f 241 239 236
f 242 225 212
f 241 236 238
f 241 238 243
f 242 212 220
f 244 245 94
f 246 232 247
f 244 210 245
f 248 243 249
f 248 211 215
f 248 241 243
f 248 215 241
f 250 219 211
f 246 228 232
f 250 249 218
f 250 211 248
f 250 248 249
f 251 224 219
f 251 219 250
f 251 250 218
f 251 218 216
f 238 225 242
f 252 224 251
f 238 237 225
f 252 216 223
f 252 226 224
f 252 251 216
f 253 220 228
f 253 242 220
f 254 252 223
f 254 226 252
f 253 228 246
f 255 254 148
f 255 226 254
f 256 206 204
f 256 148 206
f 256 204 226
f 256 255 148
f 256 226 255
f 209 247 257
f 258 168 114
f 209 257 259
f 258 230 213
f 258 234 168
f 258 237 234
f 258 213 227
f 258 227 237
f 258 114 230
f 260 244 94
f 260 208 210
f 209 246 247
f 260 94 148
f 260 223 208
f 260 148 254
f 260 254 223
f 260 210 244
f 243 238 242
f 261 253 246
f 239 190 188
f 239 192 190
f 239 188 235
f 210 259 245
f 210 209 259
f 249 242 253
f 249 243 242
f 249 253 261
f 217 246 209
f 217 261 246
f 215 194 192
f 215 192 239
f 213 231 214
f 218 249 261
f 218 261 217
f 208 217 209
f 212 214 262
f 212 262 221
f 263 231 114
f 263 214 231
f 263 262 214
f 263 221 262
f 264 222 221
f 264 229 222
f 264 232 229
f 264 247 232
f 264 263 265
f 264 266 267
f 264 221 263
f 264 265 266
f 268 257 247
f 268 259 257
f 268 245 259
f 268 94 245
f 268 247 264
f 268 264 267
f 269 266 265
f 270 114 110
f 270 263 114
f 270 265 263
f 270 269 265
f 270 110 269
f 271 266 269
f 271 267 266
f 271 269 110
f 272 110 94
f 272 268 267
f 272 271 110
f 272 94 268
f 272 267 271
f 273 181 182
f 273 274 181
f 275 177 176
f 275 276 177
f 275 277 276
f 278 77 76
f 278 86 77
f 279 280 281
f 282 197 198
f 282 198 283
f 278 76 277
f 284 278 277
f 282 283 285
f 282 285 286
f 284 277 275
f 287 281 274
f 287 274 273
f 288 86 278
f 289 286 280
f 290 176 175
f 289 280 279
f 290 284 275
f 290 275 176
f 291 182 183
f 292 278 284
f 291 273 182
f 292 288 278
f 293 88 86
f 293 90 88
f 294 279 281
f 293 207 90
f 294 281 287
f 294 289 279
f 293 86 288
f 295 195 197
f 295 197 282
f 296 292 284
f 295 286 289
f 295 282 286
f 296 284 290
f 297 273 291
f 298 288 292
f 298 293 288
f 297 287 273
f 299 179 178
f 299 175 179
f 300 289 294
f 300 295 289
f 299 290 175
f 301 292 296
f 302 183 184
f 301 298 292
f 302 291 183
f 303 205 207
f 303 203 205
f 303 293 298
f 303 207 293
f 304 294 287
f 304 287 297
f 305 193 195
f 306 296 290
f 306 290 299
f 305 295 300
f 305 195 295
f 307 303 298
f 307 298 301
f 308 297 291
f 309 299 178
f 309 178 180
f 308 291 302
f 309 306 299
f 310 294 304
f 311 296 306
f 310 300 294
f 312 184 185
f 312 5 18
f 311 301 296
f 313 303 307
f 312 302 184
f 313 200 203
f 312 185 5
f 313 203 303
f 314 297 308
f 315 306 309
f 315 311 306
f 314 310 304
f 316 307 301
f 314 304 297
f 316 301 311
f 317 300 310
f 317 191 193
f 317 193 305
f 317 305 300
f 318 180 181
f 319 302 312
f 319 18 17
f 318 315 309
f 319 308 302
f 318 309 180
f 320 316 311
f 5 185 91
f 319 312 18
f 320 311 315
f 321 317 310
f 321 310 314
f 322 313 307
f 322 200 313
f 323 314 308
f 323 319 17
f 322 307 316
f 323 308 319
f 324 320 315
f 325 189 191
f 325 317 321
f 324 315 318
f 325 191 317
f 285 316 320
f 326 321 314
f 326 314 323
f 285 322 316
f 326 17 27
f 326 323 17
f 326 27 28
f 274 318 181
f 327 189 325
f 274 324 318
f 327 326 28
f 327 28 39
f 327 187 189
f 327 39 187
f 327 325 321
f 327 321 326
f 280 320 324
f 283 198 200
f 283 322 285
f 283 200 322
f 276 67 75
f 276 75 177
f 281 324 274
f 281 280 324
f 277 76 67
f 286 285 320
f 286 320 280
f 277 67 276
