# Created by FreeCAD <http://www.freecadweb.org>
v 14.947372 534.496948 182.655579
v 14.947372 534.496948 183.155579
v 14.947372 535.496948 182.655579
v 14.947372 537.496948 183.155579
v 14.947372 534.496948 180.155579
v 14.947372 534.496948 181.155579
v 14.947372 535.496948 180.155579
v 14.947372 535.496948 181.155579
v 14.947372 537.496948 182.155579
v 14.947372 534.496948 178.155579
v 14.947372 534.496948 178.655579
v 14.947372 535.496948 178.655579
v 14.947372 537.496948 179.155579
v 14.947372 537.496948 178.155579
v 14.947372 545.496948 182.155579
v 14.947372 545.626343 182.138535
v 14.947372 545.746948 182.088593
v 14.947372 545.850525 182.009125
v 14.947372 545.929993 181.905579
v 14.947372 545.979919 181.784988
v 14.947372 545.996948 181.655579
v 14.947372 545.496948 179.155579
v 14.947372 545.996948 179.655579
v 14.947372 545.626343 179.172607
v 14.947372 545.929993 179.405579
v 14.947372 545.979919 179.526169
v 14.947372 545.746948 179.222565
v 14.947372 545.850525 179.302017
v 15.947372 545.996948 179.655579
v 15.947372 545.996948 181.655579
v 15.947372 545.496948 179.155579
v 15.947372 545.626343 179.172607
v 15.947372 545.746948 179.222565
v 15.947372 545.850525 179.302017
v 15.947372 545.929993 179.405579
v 15.947372 545.979919 179.526169
v 15.947372 537.496948 179.155579
v 20.447372 534.496948 178.155579
v 20.447372 537.496948 178.155579
v 20.447372 534.496948 183.155579
v 20.447372 537.496948 183.155579
v 15.947372 537.496948 182.155579
v 15.947372 545.496948 182.155579
v 15.947372 545.626343 182.138535
v 15.947372 545.746948 182.088593
v 15.947372 545.850525 182.009125
v 15.947372 545.929993 181.905579
v 15.947372 545.979919 181.784988
v 17.547373 537.496948 181.625580
v 17.547373 537.496948 182.225571
v 16.947372 537.496948 182.225571
v 16.947372 537.496948 181.625580
v 17.482533 537.496948 179.685577
v 17.482533 537.496948 179.085571
v 16.882534 537.496948 179.685577
v 16.882534 537.496948 179.085571
v 20.447372 534.496948 178.655579
v 20.447372 535.496948 178.655579
v 20.447372 534.496948 181.155579
v 20.447372 534.496948 180.155579
v 20.447372 535.496948 180.155579
v 20.447372 535.496948 181.155579
v 20.447372 534.496948 182.655579
v 20.447372 535.496948 182.655579
v 17.482533 545.296936 179.085571
v 17.482533 545.296936 179.685577
v 16.947372 545.296936 182.225571
v 16.947372 545.296936 181.625580
v 16.882534 545.296936 179.085571
v 16.882534 545.296936 179.685577
v 17.547373 545.296936 182.225571
v 17.547373 545.296936 181.625580
v 17.482533 535.496948 179.685577
v 17.482533 535.496948 179.085571
v 16.882534 535.496948 179.085571
v 16.882534 535.496948 179.685577
v 17.547373 535.496948 181.625580
v 17.547373 535.496948 182.225571
v 16.947372 535.496948 181.625580
v 16.947372 535.496948 182.225571
v 17.482533 533.496948 179.685577
v 17.482533 533.496948 179.085571
v 17.547373 533.496948 182.225571
v 17.547373 533.496948 181.625580
v 16.882534 533.496948 179.685577
v 16.882534 533.496948 179.085571
v 16.947372 533.496948 182.225571
v 16.947372 533.496948 181.625580
f 1 2 3
f 3 2 4
f 5 6 7
f 6 8 7
f 8 3 9
f 3 4 9
f 7 8 9
f 10 11 12
f 12 7 13
f 7 9 13
f 12 13 14
f 10 12 14
f 13 9 15
f 15 16 17
f 17 18 19
f 15 17 19
f 19 20 21
f 15 19 21
f 13 15 22
f 15 21 22
f 22 21 23
f 24 22 25
f 23 26 25
f 22 23 25
f 27 24 28
f 24 25 28
f 29 23 21
f 30 29 21
f 31 22 24
f 32 24 27
f 32 31 24
f 33 27 28
f 33 32 27
f 34 28 25
f 34 33 28
f 35 25 26
f 35 34 25
f 36 26 23
f 36 35 26
f 29 36 23
f 37 13 22
f 37 22 31
f 38 10 39
f 10 14 39
f 2 40 4
f 40 41 4
f 9 42 43
f 9 43 15
f 15 43 44
f 16 44 45
f 16 15 44
f 17 45 46
f 17 16 45
f 18 46 47
f 18 17 46
f 19 47 48
f 19 18 47
f 20 48 30
f 20 19 48
f 21 20 30
f 42 37 31
f 32 33 34
f 31 32 35
f 32 34 35
f 31 35 36
f 31 36 29
f 31 29 30
f 42 31 43
f 31 30 43
f 44 43 47
f 30 48 47
f 43 30 47
f 45 44 46
f 44 47 46
f 49 50 41
f 39 49 41
f 42 51 52
f 4 50 51
f 4 51 42
f 4 41 50
f 53 52 49
f 53 49 39
f 9 4 42
f 54 53 39
f 55 52 53
f 55 42 52
f 37 55 56
f 37 42 55
f 14 56 54
f 14 13 37
f 14 54 39
f 14 37 56
f 57 38 58
f 58 38 39
f 59 60 61
f 58 39 61
f 59 61 62
f 40 63 64
f 64 62 41
f 61 39 41
f 62 61 41
f 40 64 41
f 11 10 38
f 11 38 57
f 1 63 40
f 2 1 40
f 53 54 65
f 53 65 66
f 51 67 68
f 52 51 68
f 57 58 11
f 11 58 12
f 63 1 64
f 1 3 64
f 54 56 69
f 54 69 65
f 66 65 70
f 65 69 70
f 55 53 66
f 55 66 70
f 51 50 71
f 51 71 67
f 68 67 71
f 68 71 72
f 49 52 68
f 49 68 72
f 58 61 73
f 58 73 74
f 75 76 12
f 76 7 12
f 74 12 58
f 75 12 74
f 76 61 7
f 73 61 76
f 62 64 77
f 64 78 77
f 79 80 3
f 79 3 8
f 77 8 62
f 79 8 77
f 80 64 3
f 78 64 80
f 56 55 70
f 56 70 69
f 49 72 71
f 50 49 71
f 81 82 74
f 81 74 73
f 60 5 61
f 5 7 61
f 83 84 78
f 84 77 78
f 6 59 8
f 59 62 8
f 85 81 76
f 81 73 76
f 85 86 82
f 85 82 81
f 82 86 74
f 86 75 74
f 6 5 60
f 6 60 59
f 87 83 80
f 83 78 80
f 87 88 84
f 87 84 83
f 84 88 77
f 88 79 77
f 86 85 76
f 86 76 75
f 88 87 79
f 87 80 79
