# Created by FreeCAD <http://www.freecadweb.org>
v -27.766632 517.135376 5.400000
v -27.766632 517.135376 7.400000
v -27.843126 517.006409 7.400000
v -27.910227 516.872375 5.400000
v -27.910227 516.872375 7.400000
v -24.515076 517.484924 5.400000
v -24.412926 517.375183 7.400000
v -24.515076 517.484924 7.400000
v -26.298861 518.078613 5.400000
v -26.149813 518.094666 5.400000
v -26.298861 518.078613 7.400000
v -27.967594 516.733887 5.400000
v -26.446388 518.052002 7.400000
v -28.014935 516.591614 5.400000
v -27.967594 516.733887 7.400000
v -24.624792 517.587097 7.400000
v -26.591639 518.014954 5.400000
v -26.446388 518.052002 5.400000
v -28.014935 516.591614 7.400000
v -28.052008 516.446411 5.400000
v -26.591639 518.014954 7.400000
v -24.624792 517.587097 5.400000
v -28.052008 516.446411 7.400000
v -26.733875 517.967590 5.400000
v -24.741518 517.681152 7.400000
v -28.078625 516.298889 5.400000
v -28.078625 516.298889 7.400000
v -26.733875 517.967590 7.400000
v -23.905350 516.149841 5.400000
v -23.900000 516.000000 5.400000
v -23.900000 516.000000 7.400000
v -28.094650 516.149841 7.400000
v -24.741518 517.681152 5.400000
v -28.100000 516.000000 5.400000
v -28.094650 516.149841 5.400000
v -23.905350 516.149841 7.400000
v -28.100000 516.000000 7.400000
v -24.864655 517.766663 7.400000
v -26.872372 517.910217 7.400000
v -24.993578 517.843140 5.400000
v -24.864655 517.766663 5.400000
v -26.872372 517.910217 5.400000
v -23.921375 516.298889 7.400000
v -24.993578 517.843140 7.400000
v -27.006424 517.843140 7.400000
v -23.947992 516.446411 5.400000
v -23.921375 516.298889 5.400000
v -25.127628 517.910217 5.400000
v -27.006424 517.843140 5.400000
v -23.947992 516.446411 7.400000
v -27.135345 517.766663 7.400000
v -25.127628 517.910217 7.400000
v -23.985065 516.591614 5.400000
v -27.258484 517.681152 5.400000
v -27.135345 517.766663 5.400000
v -25.266125 517.967590 7.400000
v -23.985065 516.591614 7.400000
v -27.258484 517.681152 7.400000
v -25.408361 518.014954 5.400000
v -25.266125 517.967590 5.400000
v -24.032406 516.733887 7.400000
v -27.375208 517.587097 7.400000
v -25.553614 518.052002 5.400000
v -25.408361 518.014954 7.400000
v -24.032406 516.733887 5.400000
v -27.375208 517.587097 5.400000
v -24.089773 516.872375 7.400000
v -27.484924 517.484924 7.400000
v -25.553614 518.052002 7.400000
v -24.156874 517.006409 5.400000
v -24.089773 516.872375 5.400000
v -27.484924 517.484924 5.400000
v -24.156874 517.006409 7.400000
v -25.701139 518.078613 5.400000
v -25.701139 518.078613 7.400000
v -27.587074 517.375183 7.400000
v -24.233368 517.135376 5.400000
v -27.681137 517.258484 5.400000
v -27.587074 517.375183 5.400000
v -24.233368 517.135376 7.400000
v -26.000000 518.099976 5.400000
v -25.850187 518.094666 5.400000
v -25.850187 518.094666 7.400000
v -27.681137 517.258484 7.400000
v -24.318863 517.258484 7.400000
v -26.000000 518.099976 7.400000
v -24.318863 517.258484 5.400000
v -26.149813 518.094666 7.400000
v -24.412926 517.375183 5.400000
v -27.843126 517.006409 5.400000
v -29.494493 515.803772 7.400000
v -29.500000 516.000000 7.400000
v -29.500000 516.000000 5.400000
v -29.494493 515.803772 5.400000
v -29.477993 515.608154 7.400000
v -29.477993 515.608154 5.400000
v -29.450548 515.413757 7.400000
v -29.450548 515.413757 5.400000
v -29.412247 515.221191 7.400000
v -29.412247 515.221191 5.400000
v -29.363211 515.031067 7.400000
v -29.363211 515.031067 5.400000
v -29.303591 514.843994 5.400000
v -29.303591 514.843994 7.400000
v -29.233578 514.660583 5.400000
v -29.233578 514.660583 7.400000
v -29.153391 514.481384 7.400000
v -29.153391 514.481384 5.400000
v -29.063282 514.307007 7.400000
v -29.063282 514.307007 5.400000
v -28.963535 514.137878 5.400000
v -28.963535 514.137878 7.400000
v -28.854464 513.974670 7.400000
v -28.854464 513.974670 5.400000
v -28.736410 513.817810 5.400000
v -28.736410 513.817810 7.400000
v -28.609747 513.667786 7.400000
v -28.609747 513.667786 5.400000
v -28.474873 513.525146 7.400000
v -28.474873 513.525146 5.400000
v -28.332212 513.390259 7.400000
v -28.332212 513.390259 5.400000
v -28.182215 513.263611 5.400000
v -28.182215 513.263611 7.400000
v -28.025349 513.145508 5.400000
v -28.025349 513.145508 7.400000
v -27.862112 513.036438 7.400000
v -27.862112 513.036438 5.400000
v -27.693016 512.936707 7.400000
v -27.693016 512.936707 5.400000
v -27.518593 512.846619 7.400000
v -27.518593 512.846619 5.400000
v -27.339392 512.766418 7.400000
v -27.339392 512.766418 5.400000
v -27.155975 512.696411 7.400000
v -27.155975 512.696411 5.400000
v -26.968924 512.636780 7.400000
v -26.968924 512.636780 5.400000
v -26.778822 512.587769 7.400000
v -26.778822 512.587769 5.400000
v -26.586271 512.549438 5.400000
v -26.586271 512.549438 7.400000
v -26.391874 512.522034 5.400000
v -26.391874 512.522034 7.400000
v -26.196245 512.505493 7.400000
v -26.196245 512.505493 5.400000
v -26.000000 512.500000 7.400000
v -26.000000 512.500000 5.400000
v -25.803753 512.505493 7.400000
v -25.803753 512.505493 5.400000
v -25.608124 512.522034 7.400000
v -25.608124 512.522034 5.400000
v -25.413729 512.549438 5.400000
v -25.413729 512.549438 7.400000
v -25.221176 512.587769 7.400000
v -25.221176 512.587769 5.400000
v -25.031075 512.636780 7.400000
v -25.031075 512.636780 5.400000
v -24.844023 512.696411 7.400000
v -24.844023 512.696411 5.400000
v -24.660608 512.766418 5.400000
v -24.660608 512.766418 7.400000
v -24.481407 512.846619 7.400000
v -24.481407 512.846619 5.400000
v -24.306984 512.936707 7.400000
v -24.306984 512.936707 5.400000
v -24.137888 513.036438 7.400000
v -24.137888 513.036438 5.400000
v -23.974649 513.145508 7.400000
v -23.974649 513.145508 5.400000
v -23.817785 513.263611 7.400000
v -23.817785 513.263611 5.400000
v -23.667788 513.390259 5.400000
v -23.667788 513.390259 7.400000
v -23.525126 513.525146 7.400000
v -23.525126 513.525146 5.400000
v -23.390253 513.667786 7.400000
v -23.390253 513.667786 5.400000
v -23.263590 513.817810 7.400000
v -23.263590 513.817810 5.400000
v -23.145536 513.974670 7.400000
v -23.145536 513.974670 5.400000
v -23.036465 514.137878 7.400000
v -23.036465 514.137878 5.400000
v -22.936718 514.307007 5.400000
v -22.936718 514.307007 7.400000
v -22.846609 514.481384 7.400000
v -22.846609 514.481384 5.400000
v -22.766422 514.660583 7.400000
v -22.766422 514.660583 5.400000
v -22.696407 514.843994 5.400000
v -22.696407 514.843994 7.400000
v -22.636789 515.031067 7.400000
v -22.636789 515.031067 5.400000
v -22.587751 515.221191 5.400000
v -22.587751 515.221191 7.400000
v -22.549452 515.413757 5.400000
v -22.549452 515.413757 7.400000
v -22.522007 515.608154 7.400000
v -22.522007 515.608154 5.400000
v -22.505507 515.803772 7.400000
v -22.505507 515.803772 5.400000
v -22.500000 516.000000 7.400000
v -22.500000 516.000000 5.400000
v -27.484924 514.515076 5.400000
v -27.587074 514.624817 5.400000
v -23.390253 518.332214 5.400000
v -23.525127 518.474854 5.400000
v -27.375208 514.412903 5.400000
v -23.263590 518.182190 5.400000
v -27.258482 514.318848 5.400000
v -23.145536 518.025330 5.400000
v -27.135345 514.233337 5.400000
v -23.036465 517.862122 5.400000
v -27.006422 514.156860 5.400000
v -22.936718 517.692993 5.400000
v -28.609747 518.332214 5.400000
v -28.474874 518.474854 5.400000
v -28.332212 518.609741 5.400000
v -28.182215 518.736389 5.400000
v -22.846609 517.518616 5.400000
v -26.872372 514.089783 5.400000
v -28.736410 518.182190 5.400000
v -28.025351 518.854492 5.400000
v -22.766422 517.339417 5.400000
v -26.733875 514.032410 5.400000
v -28.854464 518.025330 5.400000
v -27.862112 518.963562 5.400000
v -28.963535 517.862122 5.400000
v -22.696409 517.156006 5.400000
v -26.591639 513.985046 5.400000
v -27.693016 519.063293 5.400000
v -27.518593 519.153381 5.400000
v -29.153391 517.518616 5.400000
v -29.063282 517.692993 5.400000
v -27.339392 519.233582 5.400000
v -22.636789 516.968933 5.400000
v -29.233578 517.339417 5.400000
v -27.155977 519.303589 5.400000
v -29.303593 517.156006 5.400000
v -22.587753 516.778809 5.400000
v -26.968925 519.363220 5.400000
v -26.778824 519.412231 5.400000
v -26.446386 513.947998 5.400000
v -29.412249 516.778809 5.400000
v -29.363211 516.968933 5.400000
v -26.586271 519.450562 5.400000
v -29.450548 516.586243 5.400000
v -22.549452 516.586243 5.400000
v -26.391876 519.477966 5.400000
v -26.298861 513.921387 5.400000
v -29.477993 516.391846 5.400000
v -26.196247 519.494507 5.400000
v -29.494493 516.196228 5.400000
v -22.522007 516.391846 5.400000
v -26.000000 519.500000 5.400000
v -25.803755 519.494507 5.400000
v -26.149813 513.905334 5.400000
v -22.505507 516.196228 5.400000
v -25.608126 519.477966 5.400000
v -26.000000 513.900024 5.400000
v -28.094650 515.850159 5.400000
v -25.413729 519.450562 5.400000
v -23.905350 515.850159 5.400000
v -28.078625 515.701111 5.400000
v -25.850187 513.905334 5.400000
v -23.921375 515.701111 5.400000
v -25.221178 519.412231 5.400000
v -28.052008 515.553589 5.400000
v -25.701139 513.921387 5.400000
v -25.031076 519.363220 5.400000
v -23.947992 515.553589 5.400000
v -24.844025 519.303589 5.400000
v -28.014935 515.408386 5.400000
v -25.553612 513.947998 5.400000
v -23.985065 515.408386 5.400000
v -24.660608 519.233582 5.400000
v -27.967594 515.266113 5.400000
v -25.408361 513.985046 5.400000
v -24.481407 519.153381 5.400000
v -24.032406 515.266113 5.400000
v -27.910227 515.127625 5.400000
v -25.266125 514.032410 5.400000
v -24.306984 519.063293 5.400000
v -24.137888 518.963562 5.400000
v -24.089773 515.127625 5.400000
v -27.843126 514.993591 5.400000
v -25.127628 514.089783 5.400000
v -24.156874 514.993591 5.400000
v -23.974651 518.854492 5.400000
v -24.993576 514.156860 5.400000
v -27.766632 514.864624 5.400000
v -24.233368 514.864624 5.400000
v -23.817785 518.736389 5.400000
v -24.864655 514.233337 5.400000
v -24.318863 514.741516 5.400000
v -27.681137 514.741516 5.400000
v -24.741516 514.318848 5.400000
v -24.412926 514.624817 5.400000
v -24.624792 514.412903 5.400000
v -24.515076 514.515076 5.400000
v -23.667788 518.609741 5.400000
v -27.587074 514.624817 7.400000
v -27.484924 514.515076 7.400000
v -23.390253 518.332214 7.400000
v -23.525127 518.474854 7.400000
v -27.375208 514.412903 7.400000
v -23.263590 518.182190 7.400000
v -27.258482 514.318848 7.400000
v -23.145536 518.025330 7.400000
v -27.135345 514.233337 7.400000
v -23.036465 517.862122 7.400000
v -27.006422 514.156860 7.400000
v -22.936718 517.692993 7.400000
v -28.474874 518.474854 7.400000
v -28.609747 518.332214 7.400000
v -28.332212 518.609741 7.400000
v -28.182215 518.736389 7.400000
v -22.846609 517.518616 7.400000
v -26.872372 514.089783 7.400000
v -28.736410 518.182190 7.400000
v -28.025351 518.854492 7.400000
v -22.766422 517.339417 7.400000
v -26.733875 514.032410 7.400000
v -28.854464 518.025330 7.400000
v -27.862112 518.963562 7.400000
v -28.963535 517.862122 7.400000
v -22.696409 517.156006 7.400000
v -26.591639 513.985046 7.400000
v -27.693016 519.063293 7.400000
v -27.518593 519.153381 7.400000
v -29.063282 517.692993 7.400000
v -29.153391 517.518616 7.400000
v -27.339392 519.233582 7.400000
v -22.636789 516.968933 7.400000
v -29.233578 517.339417 7.400000
v -27.155977 519.303589 7.400000
v -29.303593 517.156006 7.400000
v -22.587753 516.778809 7.400000
v -26.968925 519.363220 7.400000
v -26.778824 519.412231 7.400000
v -26.446386 513.947998 7.400000
v -29.363211 516.968933 7.400000
v -29.412249 516.778809 7.400000
v -26.586271 519.450562 7.400000
v -29.450548 516.586243 7.400000
v -22.549452 516.586243 7.400000
v -26.391876 519.477966 7.400000
v -26.298861 513.921387 7.400000
v -29.477993 516.391846 7.400000
v -26.196247 519.494507 7.400000
v -29.494493 516.196228 7.400000
v -22.522007 516.391846 7.400000
v -26.000000 519.500000 7.400000
v -25.803755 519.494507 7.400000
v -26.149813 513.905334 7.400000
v -22.505507 516.196228 7.400000
v -25.608126 519.477966 7.400000
v -26.000000 513.900024 7.400000
v -28.094650 515.850159 7.400000
v -25.413729 519.450562 7.400000
v -23.905350 515.850159 7.400000
v -28.078625 515.701111 7.400000
v -25.850187 513.905334 7.400000
v -23.921375 515.701111 7.400000
v -25.221178 519.412231 7.400000
v -28.052008 515.553589 7.400000
v -25.701139 513.921387 7.400000
v -25.031076 519.363220 7.400000
v -23.947992 515.553589 7.400000
v -24.844025 519.303589 7.400000
v -28.014935 515.408386 7.400000
v -25.553612 513.947998 7.400000
v -23.985065 515.408386 7.400000
v -24.660608 519.233582 7.400000
v -27.967594 515.266113 7.400000
v -25.408361 513.985046 7.400000
v -24.481407 519.153381 7.400000
v -24.032406 515.266113 7.400000
v -27.910227 515.127625 7.400000
v -25.266125 514.032410 7.400000
v -24.306984 519.063293 7.400000
v -24.137888 518.963562 7.400000
v -24.089773 515.127625 7.400000
v -27.843126 514.993591 7.400000
v -25.127628 514.089783 7.400000
v -24.156874 514.993591 7.400000
v -23.974651 518.854492 7.400000
v -24.993576 514.156860 7.400000
v -27.766632 514.864624 7.400000
v -24.233368 514.864624 7.400000
v -23.817785 518.736389 7.400000
v -24.864655 514.233337 7.400000
v -24.318863 514.741516 7.400000
v -27.681137 514.741516 7.400000
v -24.741516 514.318848 7.400000
v -24.412926 514.624817 7.400000
v -24.624792 514.412903 7.400000
v -24.515076 514.515076 7.400000
v -23.667788 518.609741 7.400000
f 1 2 3
f 4 3 5
f 6 7 8
f 9 10 11
f 12 4 5
f 9 11 13
f 14 12 15
f 6 8 16
f 17 18 13
f 12 5 15
f 18 9 13
f 14 15 19
f 20 14 19
f 17 13 21
f 22 6 16
f 20 19 23
f 24 17 21
f 22 16 25
f 26 20 27
f 24 21 28
f 29 30 31
f 20 23 27
f 26 27 32
f 33 22 25
f 34 35 32
f 35 26 32
f 29 31 36
f 34 32 37
f 33 25 38
f 24 28 39
f 40 41 38
f 41 33 38
f 42 24 39
f 29 36 43
f 40 38 44
f 42 39 45
f 46 47 43
f 47 29 43
f 48 40 44
f 49 42 45
f 46 43 50
f 49 45 51
f 48 44 52
f 53 46 50
f 54 55 51
f 55 49 51
f 48 52 56
f 53 50 57
f 54 51 58
f 59 60 56
f 60 48 56
f 53 57 61
f 54 58 62
f 63 59 64
f 59 56 64
f 65 53 61
f 66 54 62
f 65 61 67
f 66 62 68
f 63 64 69
f 70 71 67
f 71 65 67
f 72 66 68
f 70 67 73
f 74 63 75
f 72 68 76
f 63 69 75
f 77 70 73
f 78 79 76
f 79 72 76
f 77 73 80
f 81 82 83
f 82 74 83
f 74 75 83
f 78 76 84
f 77 80 85
f 81 83 86
f 78 84 2
f 87 77 85
f 1 78 2
f 10 81 88
f 87 85 7
f 81 86 88
f 6 89 7
f 10 88 11
f 89 87 7
f 4 90 3
f 90 1 3
f 91 92 93
f 91 93 94
f 95 91 94
f 95 94 96
f 97 95 96
f 97 96 98
f 99 97 98
f 99 98 100
f 101 102 103
f 101 100 102
f 101 99 100
f 104 103 105
f 104 101 103
f 106 104 105
f 107 106 105
f 107 105 108
f 109 110 111
f 109 108 110
f 109 107 108
f 112 109 111
f 113 114 115
f 113 111 114
f 113 112 111
f 116 113 115
f 117 115 118
f 117 116 115
f 119 118 120
f 119 117 118
f 121 119 120
f 121 122 123
f 121 120 122
f 124 123 125
f 124 121 123
f 126 124 125
f 127 126 125
f 127 125 128
f 129 127 128
f 129 128 130
f 131 129 130
f 131 130 132
f 133 131 132
f 133 132 134
f 135 133 134
f 135 134 136
f 137 135 136
f 137 136 138
f 139 137 138
f 139 140 141
f 139 138 140
f 142 141 143
f 142 139 141
f 144 142 143
f 145 143 146
f 145 144 143
f 147 145 146
f 147 146 148
f 149 148 150
f 149 147 148
f 151 149 150
f 151 152 153
f 151 150 152
f 154 151 153
f 155 153 156
f 155 154 153
f 157 156 158
f 157 155 156
f 159 157 158
f 159 160 161
f 159 158 160
f 162 159 161
f 163 161 164
f 163 162 161
f 165 164 166
f 165 163 164
f 167 166 168
f 167 165 166
f 169 168 170
f 169 167 168
f 171 172 173
f 171 170 172
f 171 169 170
f 174 171 173
f 175 173 176
f 175 174 173
f 177 176 178
f 177 175 176
f 179 177 178
f 179 178 180
f 181 179 180
f 181 180 182
f 183 184 185
f 183 182 184
f 183 181 182
f 186 183 185
f 187 185 188
f 187 186 185
f 189 187 188
f 189 190 191
f 189 188 190
f 192 189 191
f 193 194 195
f 193 191 194
f 193 192 191
f 196 195 197
f 196 193 195
f 198 196 197
f 199 197 200
f 199 198 197
f 201 200 202
f 201 199 200
f 203 202 204
f 203 201 202
f 205 118 206
f 120 118 205
f 207 89 6
f 207 6 208
f 122 120 205
f 122 205 209
f 210 89 207
f 210 87 89
f 123 122 209
f 123 209 211
f 212 87 210
f 212 77 87
f 125 123 211
f 125 211 213
f 214 77 212
f 214 70 77
f 128 125 213
f 128 213 215
f 216 70 214
f 130 128 215
f 72 217 218
f 72 218 219
f 66 219 220
f 221 70 216
f 221 71 70
f 132 130 215
f 132 215 222
f 66 72 219
f 79 223 217
f 79 217 72
f 54 220 224
f 225 71 221
f 225 65 71
f 134 132 222
f 134 222 226
f 54 66 220
f 78 227 223
f 78 223 79
f 55 224 228
f 55 54 224
f 1 229 227
f 230 53 65
f 1 227 78
f 230 65 225
f 136 134 226
f 136 226 231
f 49 228 232
f 49 232 233
f 49 55 228
f 90 234 235
f 90 235 229
f 90 229 1
f 42 233 236
f 237 53 230
f 42 49 233
f 4 238 234
f 138 136 231
f 4 234 90
f 24 236 239
f 24 42 236
f 12 240 238
f 241 53 237
f 12 238 4
f 241 46 53
f 17 239 242
f 17 242 243
f 140 231 244
f 140 138 231
f 17 24 239
f 14 245 246
f 14 246 240
f 14 240 12
f 18 243 247
f 18 17 243
f 20 248 245
f 249 47 46
f 20 245 14
f 249 46 241
f 9 247 250
f 9 18 247
f 141 244 251
f 141 140 244
f 26 252 248
f 26 248 20
f 10 250 253
f 10 9 250
f 35 254 252
f 35 252 26
f 255 29 47
f 81 10 253
f 255 47 249
f 143 141 251
f 81 253 256
f 81 256 257
f 143 251 258
f 34 93 254
f 259 29 255
f 259 30 29
f 34 254 35
f 34 94 93
f 146 143 258
f 82 257 260
f 146 258 261
f 204 30 259
f 82 81 257
f 262 96 94
f 262 94 34
f 148 146 261
f 74 82 260
f 74 260 263
f 202 264 30
f 265 98 96
f 265 96 262
f 202 30 204
f 63 74 263
f 150 261 266
f 150 148 261
f 200 264 202
f 200 267 264
f 63 263 268
f 152 150 266
f 269 100 98
f 269 98 265
f 152 266 270
f 197 267 200
f 59 268 271
f 197 272 267
f 59 271 273
f 59 63 268
f 153 152 270
f 274 103 102
f 274 102 100
f 274 100 269
f 153 270 275
f 195 272 197
f 195 276 272
f 60 59 273
f 60 273 277
f 156 153 275
f 278 105 103
f 156 275 279
f 278 103 274
f 194 276 195
f 158 156 279
f 48 277 280
f 48 60 277
f 191 276 194
f 191 281 276
f 282 108 105
f 282 105 278
f 160 158 279
f 160 279 283
f 40 280 284
f 40 284 285
f 190 286 281
f 40 48 280
f 190 281 191
f 287 111 110
f 287 110 108
f 287 108 282
f 161 160 283
f 161 283 288
f 188 286 190
f 188 289 286
f 41 285 290
f 41 40 285
f 164 288 291
f 164 161 288
f 185 289 188
f 292 114 111
f 292 111 287
f 166 164 291
f 184 289 185
f 184 293 289
f 33 290 294
f 168 291 295
f 168 166 291
f 33 41 290
f 182 296 293
f 182 293 184
f 297 115 114
f 170 295 298
f 170 168 295
f 297 114 292
f 180 299 296
f 180 296 182
f 172 170 298
f 172 298 300
f 178 301 299
f 178 299 180
f 22 294 302
f 173 300 301
f 173 172 300
f 22 33 294
f 176 173 301
f 176 301 178
f 206 115 297
f 206 118 115
f 6 22 302
f 6 302 208
f 303 117 304
f 304 117 119
f 8 7 305
f 306 8 305
f 304 119 121
f 307 304 121
f 305 7 308
f 7 85 308
f 307 121 124
f 309 307 124
f 308 85 310
f 85 80 310
f 309 124 126
f 311 309 126
f 310 80 312
f 80 73 312
f 311 126 127
f 313 311 127
f 312 73 314
f 313 127 129
f 315 316 68
f 317 315 68
f 318 317 62
f 314 73 319
f 73 67 319
f 313 129 131
f 320 313 131
f 317 68 62
f 316 321 76
f 68 316 76
f 322 318 58
f 319 67 323
f 67 61 323
f 320 131 133
f 324 320 133
f 318 62 58
f 321 325 84
f 76 321 84
f 326 322 51
f 322 58 51
f 325 327 2
f 61 57 328
f 84 325 2
f 323 61 328
f 324 133 135
f 329 324 135
f 330 326 45
f 331 330 45
f 326 51 45
f 332 333 3
f 327 332 3
f 2 327 3
f 334 331 39
f 328 57 335
f 331 45 39
f 333 336 5
f 329 135 137
f 3 333 5
f 337 334 28
f 334 39 28
f 336 338 15
f 335 57 339
f 5 336 15
f 57 50 339
f 340 337 21
f 341 340 21
f 342 329 139
f 329 137 139
f 337 28 21
f 343 344 19
f 338 343 19
f 15 338 19
f 345 341 13
f 341 21 13
f 344 346 23
f 50 43 347
f 19 344 23
f 339 50 347
f 348 345 11
f 345 13 11
f 349 342 142
f 342 139 142
f 346 350 27
f 23 346 27
f 351 348 88
f 348 11 88
f 350 352 32
f 27 350 32
f 43 36 353
f 351 88 86
f 347 43 353
f 349 142 144
f 354 351 86
f 355 354 86
f 356 349 144
f 352 92 37
f 353 36 357
f 36 31 357
f 32 352 37
f 92 91 37
f 356 144 145
f 358 355 83
f 359 356 145
f 357 31 203
f 355 86 83
f 91 95 360
f 37 91 360
f 359 145 147
f 358 83 75
f 361 358 75
f 31 362 201
f 95 97 363
f 360 95 363
f 203 31 201
f 361 75 69
f 364 359 149
f 359 147 149
f 201 362 199
f 362 365 199
f 366 361 69
f 364 149 151
f 97 99 367
f 363 97 367
f 368 364 151
f 199 365 198
f 369 366 64
f 365 370 198
f 371 369 64
f 366 69 64
f 368 151 154
f 101 104 372
f 99 101 372
f 367 99 372
f 373 368 154
f 198 370 196
f 370 374 196
f 371 64 56
f 375 371 56
f 373 154 155
f 104 106 376
f 377 373 155
f 372 104 376
f 196 374 193
f 377 155 157
f 378 375 52
f 375 56 52
f 193 374 192
f 374 379 192
f 106 107 380
f 376 106 380
f 377 157 159
f 381 377 159
f 382 378 44
f 383 382 44
f 379 384 189
f 378 52 44
f 192 379 189
f 109 112 385
f 107 109 385
f 380 107 385
f 381 159 162
f 386 381 162
f 189 384 187
f 384 387 187
f 388 383 38
f 383 44 38
f 389 386 163
f 386 162 163
f 187 387 186
f 112 113 390
f 385 112 390
f 389 163 165
f 186 387 183
f 387 391 183
f 392 388 25
f 393 389 167
f 389 165 167
f 388 38 25
f 391 394 181
f 183 391 181
f 113 116 395
f 396 393 169
f 393 167 169
f 390 113 395
f 394 397 179
f 181 394 179
f 396 169 171
f 398 396 171
f 397 399 177
f 179 397 177
f 400 392 16
f 399 398 174
f 398 171 174
f 392 25 16
f 399 174 175
f 177 399 175
f 395 116 303
f 116 117 303
f 400 16 8
f 306 400 8
f 357 203 204
f 357 204 259
f 353 357 259
f 353 259 255
f 347 353 255
f 347 255 249
f 339 347 249
f 339 249 241
f 335 241 237
f 335 339 241
f 328 237 230
f 328 335 237
f 323 230 225
f 323 328 230
f 319 323 225
f 319 225 221
f 314 221 216
f 314 319 221
f 312 314 216
f 312 216 214
f 310 214 212
f 310 312 214
f 308 310 212
f 308 212 210
f 305 207 208
f 305 210 207
f 305 308 210
f 306 305 208
f 400 208 302
f 400 306 208
f 392 302 294
f 392 400 302
f 388 290 285
f 388 294 290
f 388 392 294
f 383 388 285
f 382 383 285
f 382 284 280
f 382 285 284
f 378 382 280
f 375 378 280
f 375 280 277
f 371 375 277
f 371 277 273
f 369 371 273
f 369 273 271
f 366 369 271
f 366 271 268
f 361 366 268
f 361 263 260
f 361 268 263
f 358 361 260
f 355 260 257
f 355 358 260
f 354 355 257
f 354 256 253
f 354 257 256
f 351 354 253
f 348 253 250
f 348 351 253
f 345 250 247
f 345 348 250
f 341 345 247
f 341 247 243
f 340 243 242
f 340 341 243
f 337 242 239
f 337 340 242
f 334 337 239
f 334 239 236
f 331 236 233
f 331 334 236
f 330 233 232
f 330 331 233
f 326 232 228
f 326 330 232
f 322 228 224
f 322 326 228
f 318 224 220
f 318 322 224
f 317 220 219
f 317 318 220
f 315 219 218
f 315 317 219
f 316 218 217
f 316 315 218
f 321 316 217
f 321 223 227
f 321 217 223
f 325 321 227
f 327 227 229
f 327 325 227
f 332 235 234
f 332 229 235
f 332 327 229
f 333 332 234
f 333 234 238
f 336 333 238
f 336 238 240
f 338 336 240
f 343 246 245
f 343 240 246
f 343 338 240
f 344 343 245
f 346 245 248
f 346 344 245
f 350 252 254
f 350 248 252
f 350 346 248
f 352 350 254
f 92 254 93
f 92 352 254
f 206 297 303
f 270 266 368
f 286 387 384
f 205 303 304
f 270 368 373
f 286 384 379
f 281 286 379
f 205 304 307
f 281 379 374
f 275 270 373
f 276 281 374
f 275 373 377
f 211 209 307
f 276 374 370
f 209 205 307
f 272 276 370
f 283 279 377
f 279 275 377
f 272 370 365
f 211 307 309
f 264 267 365
f 267 272 365
f 283 377 381
f 264 365 362
f 34 37 360
f 30 264 31
f 211 309 311
f 264 362 31
f 283 381 386
f 262 34 360
f 213 211 311
f 262 360 363
f 291 288 386
f 288 283 386
f 213 311 313
f 291 386 389
f 265 262 363
f 222 215 313
f 215 213 313
f 265 363 367
f 291 389 393
f 222 313 320
f 269 265 367
f 298 295 393
f 295 291 393
f 222 320 324
f 269 367 372
f 298 393 396
f 231 226 324
f 278 274 372
f 226 222 324
f 274 269 372
f 300 298 396
f 278 372 376
f 300 396 398
f 244 231 329
f 231 324 329
f 278 376 380
f 300 398 399
f 251 244 342
f 244 329 342
f 282 278 380
f 299 301 399
f 301 300 399
f 282 380 385
f 299 399 397
f 258 251 349
f 251 342 349
f 292 287 385
f 287 282 385
f 296 299 397
f 258 349 356
f 296 397 394
f 292 385 390
f 258 356 359
f 293 296 394
f 292 390 395
f 261 258 359
f 293 394 391
f 297 292 395
f 293 391 387
f 266 261 364
f 261 359 364
f 297 395 303
f 286 289 387
f 289 293 387
f 266 364 368
f 205 206 303
