# Created by FreeCAD <http://www.freecadweb.org>
v -0.555837 197.483673 247.329651
v -0.668280 195.483673 247.230515
v -0.555837 195.483673 247.329651
v -2.501798 197.483673 246.815079
v -2.645992 197.483673 246.856079
v -2.501798 195.483673 246.815079
v -3.933153 197.483673 248.033936
v -3.986748 195.483673 248.173935
v -3.933153 195.483673 248.033936
v -0.450753 197.483673 247.436554
v -2.355047 195.483673 246.784485
v -0.353564 197.483673 247.550690
v -0.450753 195.483673 247.436554
v -2.206487 197.483673 246.764420
v -2.355047 197.483673 246.784485
v -3.869707 195.483673 247.898117
v -0.353564 195.483673 247.550690
v -0.264764 197.483673 247.671478
v -2.206487 195.483673 246.764420
v -3.796733 197.483673 247.767166
v -3.869707 197.483673 247.898117
v -0.264764 195.483673 247.671478
v -2.056875 197.483673 246.755020
v -0.114100 197.483673 247.930466
v -0.184807 197.483673 247.798279
v -0.184807 195.483673 247.798279
v -3.796733 195.483673 247.767166
v -2.056875 195.483673 246.755020
v -3.998173 197.483673 249.500244
v -3.946997 197.483673 249.641144
v -3.946997 195.483673 249.641144
v -0.053003 197.483673 248.067352
v -0.114100 195.483673 247.930466
v -0.053003 195.483673 248.067352
v -3.714604 195.483673 247.641754
v -3.998173 195.483673 249.500244
v -1.906973 195.483673 246.756302
v -3.623737 197.483673 247.522522
v -3.714604 197.483673 247.641754
v -1.906973 197.483673 246.756302
v -4.039166 195.483673 249.356049
v -3.623737 195.483673 247.522522
v -1.757544 195.483673 246.768295
v -4.069768 197.483673 249.209290
v -4.039166 197.483673 249.356049
v -3.524596 197.483673 247.410080
v -1.757544 197.483673 246.768295
v -4.069768 195.483673 249.209290
v -1.609352 195.483673 246.790909
v -3.524596 195.483673 247.410080
v -4.089824 197.483673 249.060730
v -1.463150 197.483673 246.824036
v -1.609352 197.483673 246.790909
v -3.417686 195.483673 247.305008
v -4.089824 195.483673 249.060730
v -1.463150 195.483673 246.824036
v -3.303552 197.483673 247.207809
v -3.417686 197.483673 247.305008
v -4.099230 197.483673 248.911118
v -1.319683 195.483673 246.867493
v -4.099230 195.483673 248.911118
v -3.182775 197.483673 247.119019
v -3.303552 195.483673 247.207809
v -1.179684 197.483673 246.921097
v -1.319683 197.483673 246.867493
v -4.097939 195.483673 248.761215
v -1.179684 195.483673 246.921097
v -3.182775 195.483673 247.119019
v -4.085957 197.483673 248.611786
v -4.097939 197.483673 248.761215
v -1.043864 195.483673 246.984543
v -3.055971 197.483673 247.039063
v -3.055971 195.483673 247.039063
v -4.085957 195.483673 248.611786
v -4.063345 197.483673 248.463593
v -0.912917 197.483673 247.057510
v -1.043864 197.483673 246.984543
v -2.786894 197.483673 246.907257
v -2.923787 197.483673 246.968353
v -2.923787 195.483673 246.968353
v -4.063345 195.483673 248.463593
v -0.912917 195.483673 247.057510
v -2.786894 195.483673 246.907257
v -4.030220 195.483673 248.317398
v -0.787509 195.483673 247.139648
v -4.030220 197.483673 248.317398
v -0.787509 197.483673 247.139648
v -2.645992 195.483673 246.856079
v -0.668280 197.483673 247.230515
v -3.986748 197.483673 248.173935
v 1.313426 195.483673 247.726776
v 1.244995 195.483673 247.542755
v 1.244995 197.483673 247.542755
v 1.313426 197.483673 247.726776
v 1.371431 195.483673 247.914322
v 1.371431 197.483673 247.914322
v 1.418829 195.483673 248.104843
v 1.418829 197.483673 248.104843
v 1.455470 195.483673 248.297714
v 1.455470 197.483673 248.297714
v 1.481239 195.483673 248.492340
v 1.481239 197.483673 248.492340
v 1.496055 195.483673 248.688110
v 1.496055 197.483673 248.688110
v 1.499870 197.483673 248.884399
v 1.499870 195.483673 248.884399
v 1.492674 195.483673 249.080582
v 1.492674 197.483673 249.080582
v 1.474488 195.483673 249.276062
v 1.474488 197.483673 249.276062
v 1.445371 195.483673 249.470215
v 1.445371 197.483673 249.470215
v 1.405413 195.483673 249.662430
v 1.405413 197.483673 249.662430
v 1.354740 197.483673 249.852112
v 1.354740 195.483673 249.852112
v 1.293512 195.483673 250.038635
v 1.293512 197.483673 250.038635
v 1.221922 197.483673 250.221436
v 1.221922 195.483673 250.221436
v 1.140194 195.483673 250.399948
v 1.140194 197.483673 250.399948
v 1.048586 197.483673 250.573593
v 1.048586 195.483673 250.573593
v 0.947386 197.483673 250.741821
v 0.947386 195.483673 250.741821
v 0.836912 195.483673 250.904114
v 0.836912 197.483673 250.904114
v 0.717513 197.483673 251.059952
v 0.717513 195.483673 251.059952
v 0.589563 195.483673 251.208847
v 0.589563 197.483673 251.208847
v 0.453465 195.483673 251.350342
v 0.453465 197.483673 251.350342
v 0.309648 195.483673 251.483994
v 0.309648 197.483673 251.483994
v 0.158564 195.483673 251.609360
v 0.158564 197.483673 251.609360
v 0.000688 195.483673 251.726044
v 0.000688 197.483673 251.726044
v -0.163483 197.483673 251.833710
v -0.163483 195.483673 251.833710
v -0.333432 197.483673 251.931992
v -0.333432 195.483673 251.931992
v -0.508624 195.483673 252.020599
v -0.508624 197.483673 252.020599
v -0.688509 195.483673 252.099243
v -0.688509 197.483673 252.099243
v -0.872521 195.483673 252.167679
v -0.872521 197.483673 252.167679
v -1.060080 195.483673 252.225677
v -1.060080 197.483673 252.225677
v -1.250596 195.483673 252.273071
v -1.250596 197.483673 252.273071
v -1.443470 195.483673 252.309723
v -1.443470 197.483673 252.309723
v -1.638096 195.483673 252.335480
v -1.638096 197.483673 252.335480
v -1.833860 195.483673 252.350296
v -1.833860 197.483673 252.350296
v -2.030146 197.483673 252.354111
v -2.030146 195.483673 252.354111
v -2.226338 197.483673 252.346924
v -2.226338 195.483673 252.346924
v -2.421818 195.483673 252.328735
v -2.421818 197.483673 252.328735
v -2.615971 197.483673 252.299622
v -2.615971 195.483673 252.299622
v -2.808185 195.483673 252.259659
v -2.808185 197.483673 252.259659
v -2.997857 197.483673 252.208984
v -2.997857 195.483673 252.208984
v -3.184389 195.483673 252.147766
v -3.184389 197.483673 252.147766
v -3.367194 195.483673 252.076172
v -3.367194 197.483673 252.076172
v -3.545698 195.483673 251.994446
v -3.545698 197.483673 251.994446
v -3.719338 195.483673 251.902832
v -3.719338 197.483673 251.902832
v -3.887569 197.483673 251.801636
v -3.887569 195.483673 251.801636
v -4.049860 195.483673 251.691162
v -4.049860 197.483673 251.691162
v -4.205703 197.483673 251.571762
v -4.205703 195.483673 251.571762
v -4.354605 195.483673 251.443817
v -4.354605 197.483673 251.443817
v -4.496099 197.483673 251.307709
v -4.496099 195.483673 251.307709
v -4.629739 195.483673 251.163895
v -4.629739 197.483673 251.163895
v -4.755105 195.483673 251.012817
v -4.755105 197.483673 251.012817
v -4.871802 197.483673 250.854935
v -4.871802 195.483673 250.854935
v -4.979464 195.483673 250.690765
v -4.979464 197.483673 250.690765
v -5.077751 197.483673 250.520813
v -5.077751 195.483673 250.520813
v -5.166354 195.483673 250.345627
v -5.166354 197.483673 250.345627
v -5.244995 195.483673 250.165741
v -5.244995 197.483673 250.165741
v -0.376263 197.483673 250.185974
v -0.475404 197.483673 250.298416
v -5.492674 197.483673 248.627914
v -5.474488 197.483673 248.432434
v -0.582314 197.483673 250.403488
v -5.499870 197.483673 248.824097
v -0.696448 197.483673 250.500687
v -5.496055 197.483673 249.020386
v -5.481239 197.483673 249.216156
v -0.817225 197.483673 250.589478
v -5.455470 197.483673 249.410782
v -0.454302 197.483673 245.714050
v -0.632806 197.483673 245.632324
v -0.815611 197.483673 245.560730
v -0.944028 197.483673 250.669434
v -5.418829 197.483673 249.603653
v -0.280662 197.483673 245.805664
v -1.002143 197.483673 245.499512
v -0.112431 197.483673 245.906860
v -1.191815 197.483673 245.448837
v -1.076213 197.483673 250.740143
v -5.371431 197.483673 249.794174
v 0.049861 197.483673 246.017334
v -1.384029 197.483673 245.408875
v -1.213106 197.483673 250.801239
v -5.313426 197.483673 249.981720
v -1.578182 197.483673 245.379761
v -1.773662 197.483673 245.361572
v 0.354605 197.483673 246.264679
v 0.205703 197.483673 246.136734
v -1.354008 197.483673 250.852417
v -3.885900 197.483673 249.778030
v 0.496099 197.483673 246.400787
v -1.969854 197.483673 245.354370
v -1.498202 197.483673 250.893417
v -3.815193 197.483673 249.910217
v 0.629739 197.483673 246.544601
v -2.166140 197.483673 245.358200
v -1.644953 197.483673 250.924011
v -3.735235 197.483673 250.037018
v -2.361904 197.483673 245.373001
v -2.556530 197.483673 245.398773
v -1.793513 197.483673 250.944077
v -3.646436 197.483673 250.157806
v 0.871802 197.483673 246.853561
v 0.755105 197.483673 246.695679
v -2.749404 197.483673 245.435425
v -1.943125 197.483673 250.953476
v 0.979464 197.483673 247.017731
v -3.549247 197.483673 250.271927
v 1.077751 197.483673 247.187683
v -2.093028 197.483673 250.952179
v -3.444163 197.483673 250.378845
v -2.242456 197.483673 250.940201
v -2.939920 197.483673 245.482819
v -3.331720 197.483673 250.477982
v 1.166354 197.483673 247.362869
v -3.127479 197.483673 245.540817
v -2.390648 197.483673 250.917587
v -3.212491 197.483673 250.568848
v -3.087083 197.483673 250.650986
v -2.536850 197.483673 250.884460
v -2.956136 197.483673 250.723953
v -3.311491 197.483673 245.609253
v -3.491376 197.483673 245.687897
v -2.680317 197.483673 250.841003
v -2.820316 197.483673 250.787399
v -3.666569 197.483673 245.776505
v -0.001827 197.483673 248.208252
v -3.836517 197.483673 245.874786
v 0.039166 197.483673 248.352448
v -4.000688 197.483673 245.982452
v 0.069768 197.483673 248.499207
v 0.089824 197.483673 248.647766
v -4.158564 197.483673 246.099136
v -4.309648 197.483673 246.224503
v -4.453465 197.483673 246.358154
v 0.099230 197.483673 248.797379
v -4.589563 197.483673 246.499649
v 0.097938 197.483673 248.947281
v -4.717513 197.483673 246.648544
v -4.836912 197.483673 246.804382
v 0.085957 197.483673 249.096710
v -4.947386 197.483673 246.966675
v 0.063345 197.483673 249.244904
v -5.048586 197.483673 247.134903
v 0.030220 197.483673 249.391098
v -5.140194 197.483673 247.308548
v -0.013252 197.483673 249.534561
v -0.066847 197.483673 249.674561
v -5.221922 197.483673 247.487061
v -0.130293 197.483673 249.810379
v -5.293512 197.483673 247.669861
v -0.203267 197.483673 249.941330
v -5.354740 197.483673 247.856384
v -0.285396 197.483673 250.066742
v -5.405413 197.483673 248.046066
v -5.445371 197.483673 248.238281
v -5.474488 195.483673 248.432434
v -5.492674 195.483673 248.627914
v -0.376263 195.483673 250.185974
v -0.475404 195.483673 250.298416
v -5.499870 195.483673 248.824097
v -0.582314 195.483673 250.403488
v -5.496055 195.483673 249.020386
v -0.696448 195.483673 250.500687
v -5.481239 195.483673 249.216156
v -5.455470 195.483673 249.410782
v -0.817225 195.483673 250.589478
v -5.418829 195.483673 249.603653
v -0.944028 195.483673 250.669434
v -0.632806 195.483673 245.632324
v -0.454302 195.483673 245.714050
v -0.815611 195.483673 245.560730
v -1.002143 195.483673 245.499512
v -5.371431 195.483673 249.794174
v -1.076213 195.483673 250.740143
v -0.280662 195.483673 245.805664
v -5.313426 195.483673 249.981720
v -1.191815 195.483673 245.448837
v -1.213106 195.483673 250.801239
v -0.112431 195.483673 245.906860
v -1.384029 195.483673 245.408875
v -3.885900 195.483673 249.778030
v 0.049861 195.483673 246.017334
v -1.578182 195.483673 245.379761
v -1.773662 195.483673 245.361572
v -1.354008 195.483673 250.852417
v -3.815193 195.483673 249.910217
v 0.205703 195.483673 246.136734
v 0.354605 195.483673 246.264679
v -1.498202 195.483673 250.893417
v -3.735235 195.483673 250.037018
v -1.969854 195.483673 245.354370
v -1.644953 195.483673 250.924011
v 0.496099 195.483673 246.400787
v -3.646436 195.483673 250.157806
v -2.166140 195.483673 245.358200
v -1.793513 195.483673 250.944077
v 0.629739 195.483673 246.544601
v -2.361904 195.483673 245.373001
v -2.556530 195.483673 245.398773
v -3.549247 195.483673 250.271927
v 0.755105 195.483673 246.695679
v 0.871802 195.483673 246.853561
v -1.943125 195.483673 250.953476
v -3.444163 195.483673 250.378845
v -2.749404 195.483673 245.435425
v -2.093028 195.483673 250.952179
v -3.331720 195.483673 250.477982
v 0.979464 195.483673 247.017731
v -2.242456 195.483673 250.940201
v -2.939920 195.483673 245.482819
v -3.212491 195.483673 250.568848
v 1.077751 195.483673 247.187683
v -2.390648 195.483673 250.917587
v -3.127479 195.483673 245.540817
v -3.087083 195.483673 250.650986
v 1.166354 195.483673 247.362869
v -2.536850 195.483673 250.884460
v -2.956136 195.483673 250.723953
v -2.680317 195.483673 250.841003
v -2.820316 195.483673 250.787399
v -3.311491 195.483673 245.609253
v -3.491376 195.483673 245.687897
v -3.666569 195.483673 245.776505
v -0.001827 195.483673 248.208252
v -3.836517 195.483673 245.874786
v 0.039166 195.483673 248.352448
v -4.000688 195.483673 245.982452
v 0.069768 195.483673 248.499207
v -4.158564 195.483673 246.099136
v -4.309648 195.483673 246.224503
v 0.089824 195.483673 248.647766
v -4.453465 195.483673 246.358154
v 0.099230 195.483673 248.797379
v -4.589563 195.483673 246.499649
v 0.097938 195.483673 248.947281
v -4.717513 195.483673 246.648544
v -4.836912 195.483673 246.804382
v 0.085957 195.483673 249.096710
v -4.947386 195.483673 246.966675
v 0.063345 195.483673 249.244904
v -5.048586 195.483673 247.134903
v 0.030220 195.483673 249.391098
v -5.140194 195.483673 247.308548
v -0.013252 195.483673 249.534561
v -5.221922 195.483673 247.487061
v -0.066847 195.483673 249.674561
v -5.293512 195.483673 247.669861
v -0.130293 195.483673 249.810379
v -5.354740 195.483673 247.856384
v -0.203267 195.483673 249.941330
v -5.405413 195.483673 248.046066
v -0.285396 195.483673 250.066742
v -5.445371 195.483673 248.238281
f 1 2 3
f 4 5 6
f 7 8 9
f 10 1 3
f 4 6 11
f 12 10 13
f 10 3 13
f 14 15 11
f 7 9 16
f 15 4 11
f 12 13 17
f 18 12 17
f 14 11 19
f 20 21 16
f 18 17 22
f 21 7 16
f 23 14 19
f 24 25 26
f 20 16 27
f 25 18 26
f 18 22 26
f 23 19 28
f 29 30 31
f 32 24 33
f 24 26 33
f 32 33 34
f 20 27 35
f 29 31 36
f 23 28 37
f 38 39 35
f 39 20 35
f 40 23 37
f 29 36 41
f 38 35 42
f 40 37 43
f 44 45 41
f 45 29 41
f 46 38 42
f 47 40 43
f 44 41 48
f 47 43 49
f 46 42 50
f 51 44 48
f 52 53 49
f 53 47 49
f 46 50 54
f 51 48 55
f 52 49 56
f 57 58 54
f 58 46 54
f 59 51 55
f 52 56 60
f 59 55 61
f 62 57 63
f 57 54 63
f 64 65 60
f 65 52 60
f 59 61 66
f 64 60 67
f 62 63 68
f 69 70 66
f 70 59 66
f 64 67 71
f 72 62 73
f 69 66 74
f 62 68 73
f 75 69 74
f 76 77 71
f 77 64 71
f 78 79 80
f 79 72 80
f 75 74 81
f 76 71 82
f 72 73 80
f 78 80 83
f 75 81 84
f 76 82 85
f 86 75 84
f 87 76 85
f 5 78 88
f 78 83 88
f 86 84 8
f 1 89 2
f 5 88 6
f 7 90 8
f 89 87 2
f 90 86 8
f 87 85 2
f 91 92 93
f 91 93 94
f 95 91 94
f 95 94 96
f 97 95 96
f 97 96 98
f 99 97 98
f 99 98 100
f 101 100 102
f 101 99 100
f 103 104 105
f 103 102 104
f 103 101 102
f 106 103 105
f 107 106 105
f 107 105 108
f 109 108 110
f 109 107 108
f 111 110 112
f 111 109 110
f 113 111 112
f 113 114 115
f 113 112 114
f 116 113 115
f 117 118 119
f 117 115 118
f 117 116 115
f 120 117 119
f 121 122 123
f 121 119 122
f 121 120 119
f 124 123 125
f 124 121 123
f 126 124 125
f 127 126 125
f 127 128 129
f 127 125 128
f 130 127 129
f 131 130 129
f 131 129 132
f 133 131 132
f 133 132 134
f 135 133 134
f 135 134 136
f 137 135 136
f 137 136 138
f 139 137 138
f 139 140 141
f 139 138 140
f 142 141 143
f 142 139 141
f 144 142 143
f 145 143 146
f 145 144 143
f 147 145 146
f 147 146 148
f 149 148 150
f 149 147 148
f 151 149 150
f 151 150 152
f 153 152 154
f 153 151 152
f 155 153 154
f 155 154 156
f 157 156 158
f 157 155 156
f 159 157 158
f 159 160 161
f 159 158 160
f 162 161 163
f 162 159 161
f 164 162 163
f 165 166 167
f 165 163 166
f 165 164 163
f 168 165 167
f 169 170 171
f 169 167 170
f 169 168 167
f 172 169 171
f 173 171 174
f 173 172 171
f 175 174 176
f 175 173 174
f 177 176 178
f 177 175 176
f 179 177 178
f 179 180 181
f 179 178 180
f 182 179 181
f 183 184 185
f 183 181 184
f 183 182 181
f 186 183 185
f 187 188 189
f 187 185 188
f 187 186 185
f 190 187 189
f 191 189 192
f 191 190 189
f 193 194 195
f 193 192 194
f 193 191 192
f 196 193 195
f 197 198 199
f 197 195 198
f 197 196 195
f 200 197 199
f 201 199 202
f 201 200 199
f 203 202 204
f 203 201 202
f 132 129 205
f 132 205 206
f 207 69 208
f 207 70 69
f 134 132 206
f 134 206 209
f 210 70 207
f 210 59 70
f 136 134 209
f 136 209 211
f 212 51 59
f 212 59 210
f 138 136 211
f 213 51 212
f 140 138 211
f 140 211 214
f 215 44 51
f 215 51 213
f 64 216 217
f 64 217 218
f 141 140 214
f 141 214 219
f 220 45 44
f 220 44 215
f 77 221 216
f 77 216 64
f 65 218 222
f 65 64 218
f 76 223 221
f 143 141 219
f 76 221 77
f 52 222 224
f 143 219 225
f 226 45 220
f 226 29 45
f 52 65 222
f 146 143 225
f 87 227 223
f 87 223 76
f 53 224 228
f 146 225 229
f 230 29 226
f 230 30 29
f 53 52 224
f 148 146 229
f 47 228 231
f 47 231 232
f 204 30 230
f 47 53 228
f 150 148 229
f 89 233 234
f 89 234 227
f 150 229 235
f 89 227 87
f 202 30 204
f 202 236 30
f 1 237 233
f 1 233 89
f 152 150 235
f 40 232 238
f 152 235 239
f 199 236 202
f 199 240 236
f 40 47 232
f 10 241 237
f 154 152 239
f 10 237 1
f 23 238 242
f 154 239 243
f 198 240 199
f 198 244 240
f 23 40 238
f 156 154 243
f 14 242 245
f 14 245 246
f 156 243 247
f 195 244 198
f 195 248 244
f 14 23 242
f 12 249 250
f 12 250 241
f 158 156 247
f 194 248 195
f 12 241 10
f 15 14 246
f 15 246 251
f 160 158 247
f 160 247 252
f 18 253 249
f 192 254 248
f 192 248 194
f 18 249 12
f 161 160 252
f 25 255 253
f 161 252 256
f 189 257 254
f 189 254 192
f 25 253 18
f 4 15 251
f 163 256 258
f 4 251 259
f 163 161 256
f 188 257 189
f 188 260 257
f 24 261 255
f 24 255 25
f 185 260 188
f 5 4 259
f 5 259 262
f 166 163 258
f 167 258 263
f 167 166 258
f 184 264 260
f 32 93 261
f 184 260 185
f 181 265 264
f 32 94 93
f 181 264 184
f 32 261 24
f 170 263 266
f 170 167 263
f 78 5 262
f 180 267 265
f 78 262 268
f 78 268 269
f 180 265 181
f 171 266 270
f 171 170 266
f 79 78 269
f 178 271 267
f 79 269 272
f 178 267 180
f 174 270 271
f 174 171 270
f 176 174 271
f 176 271 178
f 273 96 94
f 273 94 32
f 72 79 272
f 72 272 274
f 275 96 273
f 275 98 96
f 62 274 276
f 62 72 274
f 277 98 275
f 277 100 98
f 278 104 102
f 278 102 100
f 278 100 277
f 57 276 279
f 57 279 280
f 57 62 276
f 58 280 281
f 58 57 280
f 282 105 104
f 282 104 278
f 46 281 283
f 46 58 281
f 284 108 105
f 284 105 282
f 38 283 285
f 38 285 286
f 38 46 283
f 287 112 110
f 287 110 108
f 287 108 284
f 39 286 288
f 39 38 286
f 289 114 112
f 289 112 287
f 20 288 290
f 20 39 288
f 291 115 114
f 291 114 289
f 21 290 292
f 21 20 290
f 293 115 291
f 293 118 115
f 294 118 293
f 294 119 118
f 7 21 292
f 295 7 292
f 122 119 294
f 122 294 296
f 297 7 295
f 297 90 7
f 123 122 296
f 123 296 298
f 299 90 297
f 299 86 90
f 125 298 300
f 125 123 298
f 301 86 299
f 301 75 86
f 128 125 300
f 128 300 205
f 302 75 301
f 302 69 75
f 129 128 205
f 208 69 302
f 303 74 304
f 74 66 304
f 305 130 131
f 306 305 131
f 304 66 307
f 66 61 307
f 306 131 133
f 308 306 133
f 307 61 309
f 61 55 309
f 308 133 135
f 310 308 135
f 309 55 311
f 310 135 137
f 55 48 312
f 311 55 312
f 313 310 139
f 310 137 139
f 48 41 314
f 312 48 314
f 313 139 142
f 315 313 142
f 316 317 67
f 318 316 67
f 318 67 60
f 319 318 60
f 41 36 320
f 314 41 320
f 315 142 144
f 321 315 144
f 317 322 71
f 67 317 71
f 320 36 323
f 36 31 323
f 324 319 56
f 321 144 145
f 319 60 56
f 325 321 145
f 323 31 203
f 322 326 82
f 71 322 82
f 327 324 49
f 325 145 147
f 203 31 201
f 324 56 49
f 31 328 201
f 326 329 85
f 82 326 85
f 325 147 149
f 330 327 43
f 331 330 43
f 332 325 149
f 201 328 200
f 328 333 200
f 327 49 43
f 332 149 151
f 334 335 2
f 329 334 2
f 336 332 151
f 200 333 197
f 85 329 2
f 333 337 197
f 338 331 37
f 336 151 153
f 331 43 37
f 339 336 153
f 335 340 3
f 337 341 196
f 2 335 3
f 342 338 28
f 197 337 196
f 339 153 155
f 338 37 28
f 343 339 155
f 340 344 13
f 196 341 193
f 3 340 13
f 343 155 157
f 345 342 19
f 346 345 19
f 193 341 191
f 341 347 191
f 342 28 19
f 343 157 159
f 348 349 17
f 344 348 17
f 350 343 159
f 347 351 190
f 13 344 17
f 346 19 11
f 191 347 190
f 352 346 11
f 350 159 162
f 353 350 162
f 351 354 187
f 349 355 22
f 190 351 187
f 17 349 22
f 356 353 164
f 353 162 164
f 187 354 186
f 357 352 6
f 352 11 6
f 356 164 165
f 354 358 183
f 355 359 26
f 186 354 183
f 22 355 26
f 360 356 168
f 357 6 88
f 356 165 168
f 361 357 88
f 358 362 182
f 183 358 182
f 359 363 33
f 360 168 169
f 364 360 169
f 362 365 179
f 182 362 179
f 26 359 33
f 364 169 172
f 366 364 172
f 365 367 177
f 179 365 177
f 366 172 173
f 361 88 83
f 367 366 173
f 368 361 83
f 369 368 83
f 367 173 175
f 177 367 175
f 363 92 34
f 33 363 34
f 92 91 34
f 370 369 80
f 369 83 80
f 91 95 371
f 34 91 371
f 370 80 73
f 372 370 73
f 95 97 373
f 371 95 373
f 372 73 68
f 374 372 68
f 97 99 375
f 373 97 375
f 374 68 63
f 376 374 63
f 377 376 63
f 101 103 378
f 99 101 378
f 375 99 378
f 379 377 54
f 377 63 54
f 103 106 380
f 378 103 380
f 381 379 50
f 379 54 50
f 106 107 382
f 380 106 382
f 383 381 42
f 384 383 42
f 381 50 42
f 109 111 385
f 107 109 385
f 382 107 385
f 386 384 35
f 384 42 35
f 111 113 387
f 385 111 387
f 388 386 27
f 386 35 27
f 113 116 389
f 387 113 389
f 390 388 16
f 388 27 16
f 389 116 391
f 116 117 391
f 390 16 9
f 390 9 392
f 391 117 393
f 393 117 120
f 392 9 394
f 9 8 394
f 393 120 121
f 395 393 121
f 394 8 396
f 8 84 396
f 395 121 124
f 397 395 124
f 396 84 398
f 84 81 398
f 397 124 126
f 399 397 126
f 398 81 400
f 81 74 400
f 399 126 127
f 305 399 127
f 400 74 303
f 305 127 130
f 323 203 204
f 323 204 230
f 320 323 230
f 320 230 226
f 314 320 226
f 314 226 220
f 312 314 220
f 312 220 215
f 311 215 213
f 311 312 215
f 309 213 212
f 309 311 213
f 307 212 210
f 307 309 212
f 304 307 210
f 304 210 207
f 303 207 208
f 303 304 207
f 400 303 208
f 400 208 302
f 398 302 301
f 398 400 302
f 396 398 301
f 396 301 299
f 394 297 295
f 394 299 297
f 394 396 299
f 392 394 295
f 390 295 292
f 390 392 295
f 388 292 290
f 388 390 292
f 386 290 288
f 386 388 290
f 384 386 288
f 384 288 286
f 383 384 286
f 383 285 283
f 383 286 285
f 381 383 283
f 379 381 283
f 379 283 281
f 377 379 281
f 377 281 280
f 376 377 280
f 376 280 279
f 374 376 279
f 374 279 276
f 372 374 276
f 372 276 274
f 370 274 272
f 370 372 274
f 369 272 269
f 369 370 272
f 368 369 269
f 368 268 262
f 368 269 268
f 361 368 262
f 357 262 259
f 357 361 262
f 352 259 251
f 352 357 259
f 346 352 251
f 346 246 245
f 346 251 246
f 345 346 245
f 342 245 242
f 342 345 245
f 338 242 238
f 338 342 242
f 331 238 232
f 331 338 238
f 330 232 231
f 330 331 232
f 327 231 228
f 327 330 231
f 324 228 224
f 324 327 228
f 319 224 222
f 319 324 224
f 318 222 218
f 318 319 222
f 316 218 217
f 316 318 218
f 317 217 216
f 317 316 217
f 322 317 216
f 322 221 223
f 322 216 221
f 326 322 223
f 329 223 227
f 329 326 223
f 334 234 233
f 334 227 234
f 334 329 227
f 335 334 233
f 335 233 237
f 340 335 237
f 340 237 241
f 344 340 241
f 348 241 250
f 348 344 241
f 349 250 249
f 349 348 250
f 355 249 253
f 355 349 249
f 359 253 255
f 359 355 253
f 363 255 261
f 363 359 255
f 92 261 93
f 92 363 261
f 293 291 391
f 257 354 351
f 239 332 336
f 293 391 393
f 239 336 339
f 257 351 347
f 294 293 393
f 254 257 347
f 254 347 341
f 243 239 339
f 294 393 395
f 248 254 341
f 243 339 343
f 248 341 337
f 298 296 395
f 296 294 395
f 244 248 337
f 252 247 343
f 244 337 333
f 247 243 343
f 236 240 333
f 298 395 397
f 240 244 333
f 273 32 34
f 252 343 350
f 30 236 328
f 236 333 328
f 273 34 371
f 30 328 31
f 298 397 399
f 252 350 353
f 275 273 371
f 300 298 399
f 258 256 353
f 275 371 373
f 256 252 353
f 300 399 305
f 258 353 356
f 206 205 305
f 205 300 305
f 263 258 356
f 275 373 375
f 263 356 360
f 206 305 306
f 277 275 375
f 266 263 360
f 277 375 378
f 206 306 308
f 266 360 364
f 282 278 378
f 211 209 308
f 278 277 378
f 209 206 308
f 266 364 366
f 282 378 380
f 214 211 310
f 211 308 310
f 271 270 366
f 270 266 366
f 282 380 382
f 271 366 367
f 219 214 313
f 214 310 313
f 284 282 382
f 267 271 367
f 267 367 365
f 284 382 385
f 225 219 315
f 219 313 315
f 289 287 385
f 265 267 365
f 287 284 385
f 225 315 321
f 265 365 362
f 289 385 387
f 264 265 362
f 225 321 325
f 289 387 389
f 229 225 325
f 264 362 358
f 291 289 389
f 264 358 354
f 239 235 332
f 235 229 332
f 291 389 391
f 229 325 332
f 257 260 354
f 260 264 354
