# Created by FreeCAD <http://www.freecadweb.org>
v -38.008308 535.553467 200.239044
v -37.917469 535.553467 200.375000
v -38.008308 523.907837 200.239044
v -38.116116 535.553467 200.116119
v -38.116116 523.907837 200.116119
v -38.239048 535.553467 200.008301
v -38.239048 523.907837 200.008301
v -38.836842 535.553467 202.239304
v -39.000000 523.907837 202.250000
v -38.836842 523.907837 202.239304
v -38.676476 523.907837 202.207413
v -39.000000 535.553467 202.250000
v -38.375000 535.553467 199.917465
v -38.375000 523.907837 199.917465
v -38.521645 523.907837 199.845154
v -38.676476 535.553467 202.207413
v -38.521645 535.553467 199.845154
v -38.676476 523.907837 199.792587
v -38.521645 535.553467 202.154846
v -38.521645 523.907837 202.154846
v -38.676476 535.553467 199.792587
v -38.836842 535.553467 199.760696
v -38.836842 523.907837 199.760696
v -38.375000 535.553467 202.082535
v -38.375000 523.907837 202.082535
v -38.239048 523.907837 201.991699
v -39.000000 535.553467 199.750000
v -39.000000 523.907837 199.750000
v -38.239048 535.553467 201.991699
v -38.116116 523.907837 201.883881
v -38.116116 535.553467 201.883881
v -38.008308 535.553467 201.760956
v -38.008308 523.907837 201.760956
v -37.917469 523.907837 201.625000
v -37.917469 535.553467 201.625000
v -37.845150 523.907837 201.478348
v -37.845150 535.553467 201.478348
v -37.792591 523.907837 201.323517
v -37.792591 535.553467 201.323517
v -37.760693 523.907837 201.163162
v -37.760693 535.553467 201.163162
v -37.750000 523.907837 201.000000
v -37.750000 535.553467 201.000000
v -37.760693 523.907837 200.836838
v -37.760693 535.553467 200.836838
v -37.792591 523.907837 200.676483
v -37.792591 535.553467 200.676483
v -37.845150 523.907837 200.521652
v -37.845150 535.553467 200.521652
v -37.917469 523.907837 200.375000
v -39.000000 523.151978 200.095261
v -38.827827 522.998108 200.357437
v -39.000000 522.998108 200.334778
v -38.054996 523.367126 200.454407
v -37.925381 523.367126 200.810516
v -38.109001 523.151978 200.842896
v -38.216469 523.151978 200.547623
v -38.827827 522.998108 201.642563
v -39.000000 523.151978 201.904739
v -39.000000 522.998108 201.665222
v -38.418442 523.151978 200.306931
v -38.529613 522.998108 200.529617
v -38.667389 522.998108 200.423904
v -37.952560 523.626038 200.395264
v -37.808895 523.626038 200.789978
v -38.298592 523.367126 200.164093
v -39.000000 523.626038 199.790527
v -38.690559 523.151978 200.149826
v -38.690559 523.151978 201.850174
v -38.667389 522.998108 201.576096
v -38.222561 523.626038 200.073486
v -39.000000 523.626038 202.209473
v -38.626789 523.367126 199.974609
v -39.000000 523.367126 199.908798
v -38.626789 523.367126 202.025391
v -39.000000 523.367126 202.091202
v -38.418442 523.151978 201.693069
v -38.586334 523.626038 199.863464
v -38.529613 522.998108 201.470383
v -38.586334 523.626038 202.136536
v -38.298592 523.367126 201.835907
v -38.216469 523.151978 201.452377
v -38.423897 522.998108 201.332611
v -38.357441 522.998108 201.172180
v -38.222561 523.626038 201.926514
v -38.054996 523.367126 201.545593
v -38.109001 523.151978 201.157104
v -38.334774 522.998108 201.000000
v -37.952560 523.626038 201.604736
v -37.925381 523.367126 201.189484
v -38.357441 522.998108 200.827820
v -37.808895 523.626038 201.210022
v -38.423897 522.998108 200.667389
v -40.138721 535.553467 198.557999
v -40.347221 535.553467 198.666550
v -40.427841 534.453491 198.361572
v -41.531948 535.553467 201.921555
v -41.747318 534.453491 202.205093
v -41.837452 534.453491 201.974106
v -41.602634 535.553467 201.697372
v -40.640846 534.453491 198.488495
v -40.205086 534.453491 198.252686
v -39.921555 535.553467 198.468048
v -41.908199 534.453491 201.736450
v -41.653511 535.553467 201.467880
v -39.974098 534.453491 198.162552
v -39.697372 535.553467 198.397369
v -41.959084 534.453491 201.493790
v -41.684193 535.553467 201.234833
v -39.000000 535.553467 203.694443
v -39.000000 534.453491 204.000000
v -39.247738 534.453491 203.989746
v -39.234837 535.553467 203.684189
v -39.736458 534.453491 198.091797
v -39.467884 535.553467 198.346497
v -41.989754 534.453491 201.247742
v -41.694443 535.553467 201.000000
v -39.493782 534.453491 198.040909
v -39.234837 535.553467 198.315811
v -39.467884 535.553467 203.653503
v -39.493782 534.453491 203.959091
v -39.247738 534.453491 198.010254
v -39.000000 535.553467 198.305557
v -42.000000 534.453491 201.000000
v -39.000000 534.453491 198.000000
v -39.697372 535.553467 203.602631
v -39.736458 534.453491 203.908203
v -41.684193 535.553467 200.765167
v -41.989754 534.453491 200.752258
v -39.921555 535.553467 203.531952
v -39.974098 534.453491 203.837448
v -41.653511 535.553467 200.532120
v -41.959084 534.453491 200.506210
v -40.205086 534.453491 203.747314
v -41.602634 535.553467 200.302628
v -41.908199 534.453491 200.263550
v -40.138721 535.553467 203.442001
v -41.531948 535.553467 200.078445
v -41.837452 534.453491 200.025894
v -40.427841 534.453491 203.638428
v -40.347221 535.553467 203.333450
v -41.441998 535.553467 199.861282
v -41.747318 534.453491 199.794907
v -40.640846 534.453491 203.511505
v -40.545471 535.553467 203.207153
v -41.333458 535.553467 199.652771
v -41.638420 534.453491 199.572159
v -40.842640 534.453491 203.367416
v -40.731956 535.553467 203.064072
v -41.207161 535.553467 199.454529
v -41.511501 534.453491 199.359161
v -41.031845 534.453491 203.207169
v -40.905258 535.553467 202.905258
v -41.064064 535.553467 199.268051
v -41.367420 534.453491 199.157364
v -41.207172 534.453491 203.031845
v -41.064064 535.553467 202.731949
v -40.905258 535.553467 199.094742
v -41.207172 534.453491 198.968155
v -41.367420 534.453491 202.842636
v -41.207161 535.553467 202.545471
v -41.511501 534.453491 202.640839
v -40.731956 535.553467 198.935928
v -41.031845 534.453491 198.792831
v -41.333458 535.553467 202.347229
v -41.441998 535.553467 202.138718
v -41.638420 534.453491 202.427841
v -40.545471 535.553467 198.792847
v -40.842640 534.453491 198.632584
v -35.509106 534.993958 202.594238
v -35.201363 534.993958 201.546158
v -35.812603 535.548401 202.455627
v -35.363201 534.788757 202.427338
v -35.266708 534.788757 202.151566
v -35.480038 534.788757 202.695129
v -35.616554 534.788757 202.953430
v -35.771996 534.788757 203.200821
v -37.584400 536.148804 203.202713
v -37.021164 536.148804 202.714676
v -37.675236 536.253479 202.471298
v -38.010086 536.253479 202.714584
v -38.194733 536.253479 202.808670
v -36.351818 535.548401 198.705338
v -36.925182 534.993958 197.771515
v -37.105568 535.548401 198.052200
v -37.836285 536.253479 202.601715
v -36.724552 535.967224 202.971695
v -38.793053 536.253479 199.031021
v -39.000000 536.241760 198.803955
v -39.000000 536.253479 199.020172
v -36.261234 535.967224 199.749252
v -36.724552 535.967224 199.028305
v -36.618244 536.148804 199.912292
v -39.000000 536.206726 198.590271
v -36.099659 534.993958 198.486847
v -36.136066 534.788757 198.342651
v -36.342659 534.788757 198.136063
v -35.945492 534.788757 198.564117
v -36.351818 535.548401 203.294662
v -35.771996 534.788757 198.799179
v -36.408276 536.148804 200.627365
v -37.031017 536.253479 200.793045
v -37.020172 536.253479 201.000000
v -37.063435 536.253479 200.588364
v -37.117069 536.253479 200.388199
v -37.372211 535.967224 203.532883
v -35.812603 535.548401 199.544373
v -38.708038 534.788757 204.895935
v -38.417713 534.788757 204.863235
v -39.000000 535.190491 204.746765
v -36.099659 534.993958 203.513153
v -35.945492 534.788757 203.435883
v -36.136066 534.788757 203.657349
v -39.000000 534.993958 204.837708
v -36.342659 534.788757 203.863937
v -38.262318 536.148804 203.512314
v -38.588371 536.253479 202.936569
v -38.793053 536.253479 202.968979
v -39.000000 534.788757 204.906860
v -38.388199 536.253479 202.882935
v -38.262318 536.148804 198.487686
v -39.000000 536.206726 203.409729
v -39.000000 536.148804 203.618378
v -36.019794 535.967224 200.571518
v -39.000000 536.068665 203.819534
v -38.388199 536.253479 199.117065
v -38.194733 536.253479 199.191330
v -38.588371 536.253479 199.063431
v -37.105568 535.548401 203.947800
v -35.509106 534.993958 199.405762
v -35.616554 534.788757 199.046570
v -35.480038 534.788757 199.304871
v -39.000000 536.148804 198.381622
v -35.363201 534.788757 199.572662
v -39.000000 536.068665 198.180466
v -35.266708 534.788757 199.848434
v -36.408276 536.148804 201.372635
v -37.063435 536.253479 201.411636
v -37.117069 536.253479 201.611801
v -37.031017 536.253479 201.206955
v -38.151745 535.967224 203.888885
v -39.000000 535.967224 204.010849
v -39.000000 535.845764 204.190079
v -39.000000 535.705566 204.355133
v -38.151745 535.967224 198.111115
v -39.000000 535.967224 197.989151
v -35.531616 535.548401 200.501328
v -39.000000 535.845764 197.809921
v -36.925182 534.993958 204.228485
v -39.000000 535.705566 197.644867
v -36.564110 534.788757 204.054504
v -36.799187 534.788757 204.227997
v -37.584400 536.148804 198.797287
v -37.046566 534.788757 204.383438
v -37.304874 534.788757 204.519958
v -37.836285 536.253479 199.398285
v -37.675236 536.253479 199.528702
v -38.010086 536.253479 199.285416
v -38.012794 535.548401 204.362106
v -39.000000 535.548401 204.504044
v -39.000000 535.375977 204.635101
v -36.019794 535.967224 201.428482
v -38.708038 534.788757 197.104065
v -39.000000 534.993958 197.162292
v -39.000000 535.190491 197.253235
v -39.000000 534.788757 197.093140
v -37.918797 534.993958 204.682251
v -37.572662 534.788757 204.636795
v -37.848431 534.788757 204.733292
v -38.130642 534.788757 204.808914
v -35.201363 534.993958 200.453842
v -35.093136 534.788757 201.000000
v -38.012794 535.548401 197.637894
v -35.191090 534.788757 200.130646
v -35.136772 534.788757 200.417709
v -39.000000 535.548401 197.495956
v -35.104061 534.788757 200.708038
v -39.000000 535.375977 197.364899
v -38.417713 534.788757 197.136765
v -37.372211 535.967224 198.467117
v -36.618244 536.148804 202.087708
v -37.191338 536.253479 201.805267
v -37.285419 536.253479 201.989914
v -37.918797 534.993958 197.317749
v -35.531616 535.548401 201.498672
v -38.130642 534.788757 197.191086
v -37.848431 534.788757 197.266708
v -37.572662 534.788757 197.363205
v -37.304874 534.788757 197.480042
v -39.000000 536.241760 203.196045
v -39.000000 536.253479 202.979828
v -37.021164 536.148804 199.285324
v -37.398285 536.253479 199.836288
v -37.285419 536.253479 200.010086
v -37.528702 536.253479 199.675232
v -36.261234 535.967224 202.250748
v -35.104061 534.788757 201.291962
v -35.136772 534.788757 201.582291
v -35.191090 534.788757 201.869354
v -37.528702 536.253479 202.324768
v -37.398285 536.253479 202.163712
v -37.046566 534.788757 197.616562
v -36.799187 534.788757 197.772003
v -36.564110 534.788757 197.945496
v -37.191338 536.253479 200.194733
v -35.011185 534.453491 200.701080
v -35.044678 534.453491 200.403824
v -35.000000 534.453491 201.000000
v -38.701080 534.453491 197.011185
v -35.011185 534.453491 201.298920
v -39.000000 534.453491 197.000000
v -35.044678 534.453491 201.596176
v -38.403831 534.453491 197.044678
v -35.100288 534.453491 201.890091
v -38.109917 534.453491 197.100281
v -35.177708 534.453491 202.179016
v -37.820980 534.453491 197.177704
v -35.276505 534.453491 202.461365
v -37.538635 534.453491 197.276505
v -35.396126 534.453491 202.735535
v -37.264465 534.453491 197.396118
v -35.535900 534.453491 203.000000
v -35.695045 534.453491 203.253281
v -37.000000 534.453491 197.535904
v -35.872673 534.453491 203.493958
v -36.746719 534.453491 197.695038
v -36.067791 534.453491 203.720688
v -36.506042 534.453491 197.872681
v -36.279308 534.453491 203.932205
v -36.279308 534.453491 198.067795
v -36.506042 534.453491 204.127319
v -36.067791 534.453491 198.279312
v -36.746719 534.453491 204.304962
v -35.872673 534.453491 198.506042
v -37.000000 534.453491 204.464096
v -35.695045 534.453491 198.746719
v -37.264465 534.453491 204.603882
v -35.535900 534.453491 199.000000
v -37.538635 534.453491 204.723495
v -35.396126 534.453491 199.264465
v -37.820980 534.453491 204.822296
v -38.109917 534.453491 204.899719
v -35.276505 534.453491 199.538635
v -38.403831 534.453491 204.955322
v -35.177708 534.453491 199.820984
v -38.701080 534.453491 204.988815
v -35.100288 534.453491 200.109909
v -39.000000 534.453491 205.000000
v -40.714581 536.253479 200.010086
v -40.324764 536.253479 202.471298
v -40.471298 536.253479 199.675232
v -40.601715 536.253479 199.836288
v -40.471298 536.253479 202.324768
v -40.601715 536.253479 202.163712
v -40.714581 536.253479 201.989914
v -40.808662 536.253479 201.805267
v -40.324764 536.253479 199.528702
v -40.163715 536.253479 199.398285
v -40.163715 536.253479 202.601715
v -39.989914 536.253479 202.714584
v -39.805267 536.253479 202.808670
v -40.882931 536.253479 201.611801
v -40.936565 536.253479 201.411636
v -40.968983 536.253479 201.206955
v -40.979828 536.253479 201.000000
v -39.989914 536.253479 199.285416
v -39.805267 536.253479 199.191330
v -40.968983 536.253479 200.793045
v -39.611801 536.253479 199.117065
v -39.411629 536.253479 199.063431
v -40.936565 536.253479 200.588364
v -40.882931 536.253479 200.388199
v -39.206947 536.253479 199.031021
v -39.611801 536.253479 202.882935
v -39.411629 536.253479 202.936569
v -39.206947 536.253479 202.968979
v -40.808662 536.253479 200.194733
v -43.000000 534.453491 201.000000
v -42.988815 534.453491 201.298920
v -42.895939 534.788757 201.291962
v -42.988815 534.453491 200.701080
v -42.906864 534.788757 201.000000
v -42.895939 534.788757 200.708038
v -39.291962 534.788757 204.895935
v -42.955322 534.453491 200.403824
v -42.863228 534.788757 200.417709
v -39.298920 534.453491 204.988815
v -39.582287 534.788757 204.863235
v -42.899712 534.453491 200.109909
v -42.808910 534.788757 200.130646
v -42.733292 534.788757 199.848434
v -39.596169 534.453491 204.955322
v -39.869358 534.788757 204.808914
v -42.822292 534.453491 199.820984
v -39.890083 534.453491 204.899719
v -40.151569 534.788757 204.733292
v -42.723495 534.453491 199.538635
v -42.636799 534.788757 199.572662
v -40.179020 534.453491 204.822296
v -40.427338 534.788757 204.636795
v -42.603874 534.453491 199.264465
v -42.519962 534.788757 199.304871
v -40.461365 534.453491 204.723495
v -40.695126 534.788757 204.519958
v -42.464100 534.453491 199.000000
v -42.383446 534.788757 199.046570
v -40.735535 534.453491 204.603882
v -40.953434 534.788757 204.383438
v -42.304955 534.453491 198.746719
v -41.000000 534.453491 204.464096
v -41.200813 534.788757 204.227997
v -42.228004 534.788757 198.799179
v -42.127327 534.453491 198.506042
v -41.253281 534.453491 204.304962
v -41.435890 534.788757 204.054504
v -42.054508 534.788757 198.564117
v -41.493958 534.453491 204.127319
v -41.657341 534.788757 203.863937
v -41.932209 534.453491 198.279312
v -41.863934 534.788757 198.342651
v -41.657341 534.788757 198.136063
v -41.720692 534.453491 203.932205
v -41.863934 534.788757 203.657349
v -41.720692 534.453491 198.067795
v -41.435890 534.788757 197.945496
v -41.932209 534.453491 203.720688
v -42.054508 534.788757 203.435883
v -41.493958 534.453491 197.872681
v -41.200813 534.788757 197.772003
v -42.127327 534.453491 203.493958
v -42.228004 534.788757 203.200821
v -41.253281 534.453491 197.695038
v -40.953434 534.788757 197.616562
v -42.304955 534.453491 203.253281
v -42.383446 534.788757 202.953430
v -41.000000 534.453491 197.535904
v -42.464100 534.453491 203.000000
v -42.519962 534.788757 202.695129
v -40.735535 534.453491 197.396118
v -40.695126 534.788757 197.480042
v -42.603874 534.453491 202.735535
v -42.636799 534.788757 202.427338
v -40.461365 534.453491 197.276505
v -40.427338 534.788757 197.363205
v -42.723495 534.453491 202.461365
v -42.733292 534.788757 202.151566
v -40.179020 534.453491 197.177704
v -40.151569 534.788757 197.266708
v -42.822292 534.453491 202.179016
v -42.808910 534.788757 201.869354
v -39.890083 534.453491 197.100281
v -39.869358 534.788757 197.191086
v -42.899712 534.453491 201.890091
v -42.863228 534.788757 201.582291
v -39.596169 534.453491 197.044678
v -39.582287 534.788757 197.136765
v -42.955322 534.453491 201.596176
v -39.298920 534.453491 197.011185
v -39.291962 534.788757 197.104065
v -36.162548 534.453491 201.974106
v -38.025902 534.453491 203.837448
v -37.794914 534.453491 203.747314
v -36.361580 534.453491 202.427841
v -36.252682 534.453491 202.205093
v -37.572159 534.453491 203.638428
v -36.488499 534.453491 202.640839
v -37.359154 534.453491 203.511505
v -36.632580 534.453491 202.842636
v -37.157360 534.453491 203.367416
v -36.968155 534.453491 203.207169
v -36.792828 534.453491 203.031845
v -38.752262 534.453491 198.010254
v -38.506218 534.453491 198.040909
v -38.263542 534.453491 198.091797
v -38.025902 534.453491 198.162552
v -37.794914 534.453491 198.252686
v -37.572159 534.453491 198.361572
v -37.359154 534.453491 198.488495
v -37.157360 534.453491 198.632584
v -36.968155 534.453491 198.792831
v -36.792828 534.453491 198.968155
v -36.632580 534.453491 199.157364
v -36.488499 534.453491 199.359161
v -36.361580 534.453491 199.572159
v -36.252682 534.453491 199.794907
v -36.162548 534.453491 200.025894
v -36.091801 534.453491 200.263550
v -36.040916 534.453491 200.506210
v -36.010246 534.453491 200.752258
v -36.000000 534.453491 201.000000
v -36.010246 534.453491 201.247742
v -38.752262 534.453491 203.989746
v -36.040916 534.453491 201.493790
v -38.506218 534.453491 203.959091
v -36.091801 534.453491 201.736450
v -38.263542 534.453491 203.908203
v -41.275448 535.967224 199.028305
v -41.738766 535.967224 199.749252
v -40.978836 536.148804 199.285324
v -42.490894 534.993958 199.405762
v -42.468384 535.548401 200.501328
v -42.187397 535.548401 199.544373
v -42.798637 534.993958 200.453842
v -41.738766 535.967224 202.250748
v -41.275448 535.967224 202.971695
v -40.978836 536.148804 202.714676
v -41.381756 536.148804 202.087708
v -41.648182 535.548401 203.294662
v -40.415600 536.148804 198.797287
v -41.591724 536.148804 201.372635
v -41.648182 535.548401 198.705338
v -41.900341 534.993958 203.513153
v -41.074818 534.993958 204.228485
v -40.894432 535.548401 203.947800
v -42.187397 535.548401 202.455627
v -40.627789 535.967224 198.467117
v -41.900341 534.993958 198.486847
v -39.737682 536.148804 203.512314
v -41.980206 535.967224 201.428482
v -39.737682 536.148804 198.487686
v -42.490894 534.993958 202.594238
v -40.894432 535.548401 198.052200
v -39.848255 535.967224 203.888885
v -41.591724 536.148804 200.627365
v -39.848255 535.967224 198.111115
v -40.415600 536.148804 203.202713
v -41.074818 534.993958 197.771515
v -42.468384 535.548401 201.498672
v -39.987206 535.548401 204.362106
v -39.987206 535.548401 197.637894
v -41.980206 535.967224 200.571518
v -42.798637 534.993958 201.546158
v -40.081203 534.993958 197.317749
v -40.627789 535.967224 203.532883
v -41.381756 536.148804 199.912292
v -40.081203 534.993958 204.682251
v -36.468052 535.553467 200.078445
v -36.558002 535.553467 199.861282
v -37.861279 535.553467 203.442001
v -37.652779 535.553467 203.333450
v -36.397366 535.553467 200.302628
v -38.078445 535.553467 203.531952
v -36.346489 535.553467 200.532120
v -38.302628 535.553467 203.602631
v -36.315807 535.553467 200.765167
v -38.765163 535.553467 198.315811
v -38.532116 535.553467 203.653503
v -36.305557 535.553467 201.000000
v -38.765163 535.553467 203.684189
v -38.532116 535.553467 198.346497
v -38.302628 535.553467 198.397369
v -36.315807 535.553467 201.234833
v -38.078445 535.553467 198.468048
v -36.346489 535.553467 201.467880
v -36.397366 535.553467 201.697372
v -37.861279 535.553467 198.557999
v -36.468052 535.553467 201.921555
v -37.652779 535.553467 198.666550
v -36.558002 535.553467 202.138718
v -37.454529 535.553467 198.792847
v -36.666542 535.553467 202.347229
v -37.268044 535.553467 198.935928
v -36.792839 535.553467 202.545471
v -37.094742 535.553467 199.094742
v -36.935936 535.553467 202.731949
v -36.935936 535.553467 199.268051
v -37.094742 535.553467 202.905258
v -36.792839 535.553467 199.454529
v -37.268044 535.553467 203.064072
v -36.666542 535.553467 199.652771
v -37.454529 535.553467 203.207153
v -39.883884 535.553467 200.116119
v -39.760952 535.553467 200.008301
v -39.991692 535.553467 200.239044
v -39.625000 535.553467 199.917465
v -40.082531 535.553467 200.375000
v -39.478355 535.553467 199.845154
v -40.154850 535.553467 200.521652
v -39.323524 535.553467 199.792587
v -40.207409 535.553467 200.676483
v -39.163158 535.553467 199.760696
v -40.239307 535.553467 200.836838
v -40.250000 535.553467 201.000000
v -40.239307 535.553467 201.163162
v -40.207409 535.553467 201.323517
v -40.154850 535.553467 201.478348
v -40.082531 535.553467 201.625000
v -39.991692 535.553467 201.760956
v -39.883884 535.553467 201.883881
v -39.760952 535.553467 201.991699
v -39.625000 535.553467 202.082535
v -39.478355 535.553467 202.154846
v -39.323524 535.553467 202.207413
v -39.163158 535.553467 202.239304
v -38.680992 522.918335 200.681000
v -38.642082 522.918335 200.725357
v -38.759312 522.890076 200.759308
v -39.307850 522.935364 200.598801
v -39.470387 522.998108 200.529617
v -39.332611 522.998108 200.423904
v -38.792786 522.890076 200.729950
v -38.829807 522.890076 200.705215
v -39.252850 522.935364 200.562057
v -39.113945 522.869751 200.802643
v -39.357582 522.935364 200.642410
v -39.642559 522.998108 200.827820
v -39.576103 522.998108 200.667389
v -39.121037 522.862671 200.878967
v -38.869740 522.890076 200.685532
v -39.340385 522.890076 201.000000
v -39.642559 522.998108 201.172180
v -39.665226 522.998108 201.000000
v -38.548855 522.918335 201.000000
v -39.357582 522.935364 201.357590
v -39.470387 522.998108 201.470383
v -39.576103 522.998108 201.332611
v -38.911903 522.890076 200.671219
v -39.307850 522.935364 201.401199
v -39.332611 522.998108 201.576096
v -39.252850 522.935364 201.437943
v -39.172173 522.998108 201.642563
v -39.000000 522.890076 201.340378
v -38.955570 522.890076 200.662521
v -38.878963 522.862671 201.121033
v -38.869740 522.890076 201.314468
v -38.911903 522.890076 201.328781
v -38.829807 522.890076 201.294785
v -38.759312 522.890076 201.240692
v -38.792786 522.890076 201.270050
v -38.955570 522.890076 201.337479
v -38.871307 522.862671 201.112854
v -39.000000 522.853455 201.000000
v -39.000000 522.890076 200.659622
v -38.864201 522.862671 201.104202
v -38.772110 522.869751 201.000000
v -39.121037 522.862671 201.121033
v -39.098022 522.874084 201.236649
v -38.680992 522.918335 201.319000
v -38.642082 522.918335 201.274643
v -38.609299 522.918335 201.225571
v -38.864201 522.862671 200.895798
v -38.871307 522.862671 200.887146
v -38.609299 522.918335 200.774429
v -38.878963 522.862671 200.878967
v -39.172173 522.998108 200.357437
v -39.581558 523.151978 201.693069
v -39.783531 523.151978 201.452377
v -40.047440 523.626038 201.604736
v -40.082531 523.907837 201.625000
v -40.154850 523.907837 201.478348
v -39.991692 523.907837 201.760956
v -40.191105 523.626038 201.210022
v -39.945004 523.367126 201.545593
v -39.701408 523.367126 201.835907
v -39.309441 523.151978 201.850174
v -39.163158 523.907837 202.239304
v -39.777439 523.626038 201.926514
v -39.883884 523.907837 201.883881
v -39.163158 523.907837 199.760696
v -39.309441 523.151978 200.149826
v -39.760952 523.907837 201.991699
v -39.625000 523.907837 202.082535
v -39.373211 523.367126 202.025391
v -39.373211 523.367126 199.974609
v -39.413666 523.626038 202.136536
v -39.478355 523.907837 202.154846
v -39.581558 523.151978 200.306931
v -39.323524 523.907837 202.207413
v -39.413666 523.626038 199.863464
v -39.323524 523.907837 199.792587
v -39.478355 523.907837 199.845154
v -39.625000 523.907837 199.917465
v -39.701408 523.367126 200.164093
v -39.783531 523.151978 200.547623
v -39.777439 523.626038 200.073486
v -39.760952 523.907837 200.008301
v -39.883884 523.907837 200.116119
v -39.991692 523.907837 200.239044
v -39.945004 523.367126 200.454407
v -39.890999 523.151978 200.842896
v -40.047440 523.626038 200.395264
v -40.082531 523.907837 200.375000
v -40.154850 523.907837 200.521652
v -40.074619 523.367126 200.810516
v -39.890999 523.151978 201.157104
v -40.191105 523.626038 200.789978
v -40.207409 523.907837 200.676483
v -40.239307 523.907837 200.836838
v -40.250000 523.907837 201.000000
v -40.074619 523.367126 201.189484
v -40.239307 523.907837 201.163162
v -40.207409 523.907837 201.323517
f 1 2 3
f 4 3 5
f 4 1 3
f 6 5 7
f 8 9 10
f 6 4 5
f 8 10 11
f 8 12 9
f 13 7 14
f 13 14 15
f 13 6 7
f 16 8 11
f 17 13 15
f 17 15 18
f 19 11 20
f 19 16 11
f 21 17 18
f 22 18 23
f 22 21 18
f 24 20 25
f 24 25 26
f 27 23 28
f 27 22 23
f 24 19 20
f 29 26 30
f 29 24 26
f 31 29 30
f 32 30 33
f 32 33 34
f 32 31 30
f 35 34 36
f 35 32 34
f 37 36 38
f 37 35 36
f 39 38 40
f 39 37 38
f 41 39 40
f 41 40 42
f 43 41 42
f 43 42 44
f 45 43 44
f 45 44 46
f 47 45 46
f 47 46 48
f 49 47 48
f 49 48 50
f 2 50 3
f 2 49 50
f 51 52 53
f 54 55 56
f 54 56 57
f 58 59 60
f 61 62 63
f 61 57 62
f 64 50 48
f 64 3 50
f 64 55 54
f 64 48 65
f 64 65 55
f 66 54 57
f 66 57 61
f 28 23 67
f 68 52 51
f 68 63 52
f 69 58 70
f 68 61 63
f 71 3 64
f 10 9 72
f 71 54 66
f 69 59 58
f 71 5 3
f 71 7 5
f 71 14 7
f 71 64 54
f 73 68 51
f 73 51 74
f 75 76 59
f 73 74 67
f 75 59 69
f 73 66 61
f 77 69 70
f 73 61 68
f 78 73 67
f 77 70 79
f 78 71 66
f 78 66 73
f 78 67 23
f 78 15 14
f 78 18 15
f 78 23 18
f 78 14 71
f 80 11 10
f 80 20 11
f 80 25 20
f 80 72 76
f 80 10 72
f 80 76 75
f 81 75 69
f 81 69 77
f 82 83 84
f 82 79 83
f 82 77 79
f 85 80 75
f 85 26 25
f 85 30 26
f 85 33 30
f 85 25 80
f 85 75 81
f 86 77 82
f 86 81 77
f 87 84 88
f 87 82 84
f 89 81 86
f 89 34 33
f 89 36 34
f 89 85 81
f 89 33 85
f 90 86 82
f 90 82 87
f 56 88 91
f 56 87 88
f 92 38 36
f 92 40 38
f 92 42 40
f 92 36 89
f 92 86 90
f 92 89 86
f 55 90 87
f 55 87 56
f 57 93 62
f 57 91 93
f 57 56 91
f 65 90 55
f 65 92 90
f 65 44 42
f 65 46 44
f 65 48 46
f 65 42 92
f 94 95 96
f 97 98 99
f 100 97 99
f 95 101 96
f 94 96 102
f 103 94 102
f 100 99 104
f 105 100 104
f 103 102 106
f 107 103 106
f 105 104 108
f 109 105 108
f 110 111 112
f 113 110 112
f 107 106 114
f 115 107 114
f 109 108 116
f 117 109 116
f 115 114 118
f 119 115 118
f 120 113 121
f 119 118 122
f 123 119 122
f 113 112 121
f 117 116 124
f 123 122 125
f 126 120 127
f 128 117 129
f 120 121 127
f 117 124 129
f 130 126 131
f 132 128 133
f 126 127 131
f 128 129 133
f 130 131 134
f 135 132 136
f 137 130 134
f 132 133 136
f 138 135 139
f 137 134 140
f 141 137 140
f 135 136 139
f 142 138 143
f 141 140 144
f 145 141 144
f 138 139 143
f 146 142 147
f 145 144 148
f 149 145 148
f 142 143 147
f 150 146 151
f 149 148 152
f 146 147 151
f 153 149 152
f 154 150 155
f 150 151 155
f 153 152 156
f 157 153 156
f 158 154 159
f 154 155 159
f 157 156 160
f 161 157 160
f 161 160 162
f 163 158 164
f 165 161 162
f 158 159 164
f 166 165 167
f 168 163 169
f 165 162 167
f 163 164 169
f 168 169 101
f 166 167 98
f 95 168 101
f 97 166 98
f 170 171 172
f 170 173 174
f 170 175 173
f 170 176 175
f 170 177 176
f 170 174 171
f 178 179 180
f 178 181 182
f 183 184 185
f 178 186 181
f 178 180 186
f 178 187 179
f 188 189 190
f 191 183 192
f 191 192 193
f 194 189 188
f 195 196 197
f 195 198 196
f 199 172 187
f 195 200 198
f 195 184 183
f 195 197 184
f 199 170 172
f 201 202 203
f 201 204 202
f 201 205 204
f 201 193 205
f 206 199 187
f 201 191 193
f 207 195 183
f 206 187 178
f 208 209 210
f 211 177 170
f 211 170 199
f 211 212 177
f 211 213 212
f 214 208 210
f 211 215 213
f 207 183 191
f 216 217 218
f 219 208 214
f 216 220 217
f 216 182 220
f 221 194 188
f 216 222 223
f 224 191 201
f 216 223 225
f 224 207 191
f 221 226 227
f 221 228 226
f 221 188 228
f 216 218 222
f 216 206 178
f 216 178 182
f 229 199 206
f 230 231 200
f 230 200 195
f 230 232 231
f 221 233 194
f 229 211 199
f 230 234 232
f 221 235 233
f 230 236 234
f 230 195 207
f 237 238 239
f 237 240 238
f 237 203 240
f 241 225 242
f 241 242 243
f 237 201 203
f 241 243 244
f 237 224 201
f 241 216 225
f 241 206 216
f 241 229 206
f 245 235 221
f 245 246 235
f 247 230 207
f 245 248 246
f 249 215 211
f 245 250 248
f 249 211 229
f 247 207 224
f 249 251 215
f 249 252 251
f 253 221 227
f 249 254 252
f 249 255 254
f 253 256 257
f 253 258 256
f 259 244 260
f 253 227 258
f 259 260 261
f 259 261 210
f 259 229 241
f 259 249 229
f 262 224 237
f 262 247 224
f 263 264 265
f 263 266 264
f 259 241 244
f 267 255 249
f 267 249 259
f 267 268 255
f 267 269 268
f 267 270 269
f 271 236 230
f 267 209 270
f 271 247 272
f 267 210 209
f 271 230 247
f 273 250 245
f 267 259 210
f 271 274 236
f 271 275 274
f 273 276 250
f 271 277 275
f 273 278 276
f 271 272 277
f 273 265 278
f 279 263 265
f 280 245 221
f 281 282 283
f 281 239 282
f 281 262 237
f 280 221 253
f 281 237 239
f 284 279 265
f 285 272 247
f 284 286 279
f 284 287 286
f 284 288 287
f 284 289 288
f 284 265 273
f 290 218 291
f 292 293 294
f 285 247 262
f 292 295 293
f 292 257 295
f 292 253 257
f 296 285 262
f 292 280 253
f 296 262 281
f 185 245 280
f 171 272 285
f 222 218 290
f 171 297 272
f 171 298 297
f 171 299 298
f 171 174 299
f 185 273 245
f 179 300 180
f 179 301 300
f 179 283 301
f 192 280 292
f 179 296 281
f 179 281 283
f 172 285 296
f 192 185 280
f 184 284 273
f 172 171 285
f 184 302 289
f 184 303 302
f 184 304 303
f 184 197 304
f 184 273 185
f 184 289 284
f 193 292 294
f 193 305 205
f 187 172 296
f 193 294 305
f 193 192 292
f 187 296 179
f 183 185 192
f 306 277 272
f 306 307 277
f 308 272 297
f 308 306 272
f 309 266 263
f 310 297 298
f 310 308 297
f 309 311 266
f 312 298 299
f 312 310 298
f 313 263 279
f 313 309 263
f 314 299 174
f 314 312 299
f 315 279 286
f 315 313 279
f 316 174 173
f 316 314 174
f 317 315 286
f 317 286 287
f 318 173 175
f 318 316 173
f 319 287 288
f 320 175 176
f 319 317 287
f 320 318 175
f 321 288 289
f 322 176 177
f 321 319 288
f 322 320 176
f 323 322 177
f 324 289 302
f 323 177 212
f 324 321 289
f 325 323 212
f 326 302 303
f 325 212 213
f 326 324 302
f 327 325 213
f 327 213 215
f 328 303 304
f 328 326 303
f 329 327 215
f 329 215 251
f 330 304 197
f 330 328 304
f 331 329 251
f 331 251 252
f 332 197 196
f 332 330 197
f 333 331 252
f 333 252 254
f 334 196 198
f 334 332 196
f 335 333 254
f 335 254 255
f 336 198 200
f 336 334 198
f 337 335 255
f 337 255 268
f 338 200 231
f 338 231 232
f 339 337 268
f 338 336 200
f 339 268 269
f 340 232 234
f 341 269 270
f 340 338 232
f 341 339 269
f 342 270 209
f 343 234 236
f 343 340 234
f 342 341 270
f 344 209 208
f 345 236 274
f 344 342 209
f 345 343 236
f 346 208 219
f 347 274 275
f 346 344 208
f 347 345 274
f 348 346 219
f 307 275 277
f 307 347 275
f 282 202 204
f 349 350 351
f 352 349 351
f 353 350 354
f 180 282 205
f 282 204 205
f 217 182 227
f 181 180 227
f 182 181 227
f 190 217 227
f 226 228 227
f 228 188 227
f 188 190 227
f 181 186 180
f 355 354 356
f 354 350 356
f 180 205 294
f 205 305 294
f 258 227 294
f 227 180 294
f 351 350 357
f 357 350 358
f 256 258 257
f 350 359 358
f 258 294 257
f 359 360 358
f 360 361 358
f 294 293 295
f 257 294 295
f 362 356 363
f 364 363 365
f 300 301 283
f 366 358 367
f 358 361 367
f 300 283 282
f 180 300 282
f 365 363 368
f 369 367 370
f 363 356 371
f 368 363 371
f 282 239 238
f 356 350 372
f 367 361 373
f 371 356 372
f 370 367 373
f 361 374 373
f 374 375 373
f 375 376 190
f 376 291 190
f 291 218 190
f 373 375 190
f 218 217 190
f 217 220 182
f 372 350 349
f 238 240 203
f 377 372 349
f 282 238 202
f 238 203 202
f 378 379 380
f 381 382 383
f 381 378 382
f 348 219 384
f 385 383 386
f 385 381 383
f 387 384 388
f 387 348 384
f 389 386 390
f 389 390 391
f 389 385 386
f 392 388 393
f 392 387 388
f 394 389 391
f 395 392 393
f 395 393 396
f 397 391 398
f 397 394 391
f 399 396 400
f 399 395 396
f 401 398 402
f 401 397 398
f 403 400 404
f 403 399 400
f 405 402 406
f 407 404 408
f 407 403 404
f 405 401 402
f 409 405 406
f 410 408 411
f 409 406 412
f 410 407 408
f 413 409 412
f 414 411 415
f 414 410 411
f 413 412 416
f 417 415 418
f 419 413 416
f 417 414 415
f 419 416 420
f 419 420 421
f 422 418 423
f 424 419 421
f 422 417 418
f 424 421 425
f 426 423 427
f 426 422 423
f 428 424 425
f 428 425 429
f 430 427 431
f 430 426 427
f 432 428 429
f 432 429 433
f 434 431 435
f 434 430 431
f 436 432 433
f 437 435 438
f 437 434 435
f 439 436 433
f 439 433 440
f 441 438 442
f 441 437 438
f 443 440 444
f 443 439 440
f 445 442 446
f 445 441 442
f 447 443 444
f 447 444 448
f 449 446 450
f 449 445 446
f 451 448 452
f 451 447 448
f 453 450 454
f 453 449 450
f 455 452 456
f 455 451 452
f 457 454 380
f 457 453 454
f 458 456 459
f 458 455 456
f 379 457 380
f 311 459 266
f 311 458 459
f 378 380 382
f 460 316 318
f 461 462 339
f 341 461 339
f 463 464 320
f 464 318 320
f 462 465 337
f 339 462 337
f 466 463 322
f 463 320 322
f 337 465 335
f 465 467 335
f 468 466 323
f 466 322 323
f 467 469 333
f 335 467 333
f 469 470 331
f 333 469 331
f 471 468 325
f 468 323 325
f 331 470 329
f 470 471 327
f 471 325 327
f 329 470 327
f 424 428 164
f 419 424 164
f 413 419 159
f 419 164 159
f 428 432 169
f 164 428 169
f 413 159 155
f 409 413 155
f 169 432 101
f 432 436 101
f 409 155 151
f 405 409 151
f 101 436 96
f 436 439 96
f 405 151 147
f 401 405 147
f 96 439 102
f 439 443 102
f 401 147 143
f 397 401 143
f 102 443 106
f 443 447 106
f 397 143 139
f 394 397 139
f 106 447 114
f 447 451 114
f 394 139 136
f 389 394 136
f 114 451 118
f 451 455 118
f 385 389 133
f 389 136 133
f 118 455 122
f 455 458 122
f 385 133 129
f 381 385 129
f 122 458 125
f 311 309 125
f 458 311 125
f 381 129 124
f 378 381 124
f 379 378 124
f 125 309 472
f 309 313 472
f 379 124 116
f 457 379 116
f 313 315 473
f 472 313 473
f 457 116 108
f 453 457 108
f 473 315 474
f 315 317 474
f 449 453 104
f 453 108 104
f 474 317 475
f 317 319 475
f 445 449 99
f 449 104 99
f 319 321 476
f 475 319 476
f 441 445 98
f 445 99 98
f 321 324 477
f 476 321 477
f 437 441 167
f 441 98 167
f 324 326 478
f 477 324 478
f 434 437 162
f 437 167 162
f 478 326 479
f 326 328 479
f 434 162 160
f 430 434 160
f 479 328 480
f 328 330 480
f 426 430 156
f 430 160 156
f 480 330 481
f 426 156 422
f 156 152 422
f 481 330 332
f 422 152 417
f 152 148 417
f 482 481 334
f 481 332 334
f 417 148 414
f 148 144 414
f 483 482 336
f 482 334 336
f 414 144 410
f 144 140 410
f 484 483 338
f 483 336 338
f 140 134 407
f 410 140 407
f 485 484 340
f 484 338 340
f 134 131 403
f 407 134 403
f 486 485 343
f 485 340 343
f 131 127 399
f 403 131 399
f 487 486 345
f 486 343 345
f 127 121 395
f 399 127 395
f 488 487 347
f 487 345 347
f 121 112 392
f 395 121 392
f 489 488 307
f 488 347 307
f 112 111 387
f 392 112 387
f 490 489 306
f 489 307 306
f 490 306 308
f 387 111 348
f 490 308 310
f 491 490 310
f 348 111 346
f 111 492 346
f 493 491 312
f 491 310 312
f 492 494 344
f 346 492 344
f 495 493 314
f 493 312 314
f 494 496 342
f 344 494 342
f 495 314 316
f 460 495 316
f 342 496 341
f 496 461 341
f 464 460 318
f 497 498 499
f 500 501 502
f 500 391 503
f 500 398 391
f 504 505 506
f 500 402 398
f 500 406 402
f 376 290 291
f 500 412 406
f 500 503 501
f 504 506 507
f 504 508 505
f 222 290 376
f 509 366 367
f 509 358 366
f 509 357 358
f 509 499 357
f 509 497 499
f 510 364 365
f 510 363 364
f 510 362 363
f 510 507 362
f 511 500 502
f 511 502 497
f 512 418 513
f 512 514 508
f 512 423 418
f 512 427 423
f 512 431 427
f 512 513 514
f 515 508 504
f 459 456 265
f 516 497 509
f 264 459 265
f 266 459 264
f 517 412 500
f 518 222 376
f 517 500 511
f 518 223 222
f 517 416 412
f 518 225 223
f 517 420 416
f 519 507 510
f 517 421 420
f 519 504 507
f 520 509 367
f 520 370 373
f 520 369 370
f 518 374 361
f 520 367 369
f 518 375 374
f 518 376 375
f 520 373 194
f 520 194 233
f 520 233 235
f 521 435 431
f 521 438 435
f 521 442 438
f 520 516 509
f 521 446 442
f 522 497 516
f 521 431 512
f 523 242 225
f 521 512 508
f 523 243 242
f 521 508 515
f 523 244 243
f 523 225 518
f 522 511 497
f 522 517 511
f 524 371 372
f 524 368 371
f 524 365 368
f 525 522 516
f 524 510 365
f 525 516 520
f 524 519 510
f 525 235 246
f 526 518 361
f 525 246 248
f 525 248 250
f 526 359 350
f 526 360 359
f 525 520 235
f 526 361 360
f 384 214 210
f 527 421 517
f 384 219 214
f 527 517 522
f 527 425 421
f 527 429 425
f 528 515 504
f 527 433 429
f 528 504 519
f 527 440 433
f 526 523 518
f 529 260 244
f 530 522 525
f 531 528 519
f 529 261 260
f 530 250 276
f 530 276 278
f 530 278 265
f 531 519 524
f 530 527 522
f 388 384 210
f 530 525 250
f 532 515 528
f 533 440 527
f 532 446 521
f 529 244 523
f 533 530 265
f 532 521 515
f 533 265 456
f 532 528 382
f 534 523 526
f 533 444 440
f 532 450 446
f 533 448 444
f 532 454 450
f 533 452 448
f 532 380 454
f 533 456 452
f 532 382 380
f 534 529 523
f 533 527 530
f 535 377 349
f 535 372 377
f 535 524 372
f 536 210 261
f 536 388 210
f 536 393 388
f 536 396 393
f 536 400 396
f 536 404 400
f 536 261 529
f 501 528 531
f 189 373 190
f 506 354 355
f 501 382 528
f 506 353 354
f 506 350 353
f 506 526 350
f 498 524 535
f 498 531 524
f 514 536 529
f 194 373 189
f 503 382 501
f 514 529 534
f 503 383 382
f 503 386 383
f 503 390 386
f 503 391 390
f 499 351 357
f 499 352 351
f 499 349 352
f 499 535 349
f 505 526 506
f 499 498 535
f 505 534 526
f 513 404 536
f 513 408 404
f 513 411 408
f 513 415 411
f 513 418 415
f 502 531 498
f 513 536 514
f 502 501 531
f 507 356 362
f 507 355 356
f 507 506 355
f 497 502 498
f 508 534 505
f 508 514 534
f 537 538 485
f 539 540 465
f 537 485 486
f 541 537 486
f 540 467 465
f 539 465 462
f 542 539 462
f 541 486 487
f 543 541 487
f 542 462 461
f 544 542 461
f 543 487 488
f 545 543 488
f 123 125 472
f 546 123 472
f 544 461 496
f 547 544 496
f 545 488 489
f 548 545 489
f 547 496 494
f 549 547 494
f 550 546 473
f 549 494 492
f 110 549 492
f 546 472 473
f 548 489 490
f 110 492 111
f 551 550 474
f 552 548 491
f 550 473 474
f 548 490 491
f 553 551 475
f 554 552 493
f 551 474 475
f 552 491 493
f 553 475 476
f 555 554 495
f 556 553 476
f 554 493 495
f 557 555 460
f 556 476 477
f 558 556 477
f 555 495 460
f 559 557 464
f 558 477 478
f 560 558 478
f 557 460 464
f 561 559 463
f 560 478 479
f 562 560 479
f 559 464 463
f 563 561 466
f 562 479 480
f 561 463 466
f 564 562 480
f 565 563 468
f 563 466 468
f 564 480 481
f 566 564 481
f 567 565 471
f 565 468 471
f 566 481 482
f 568 566 482
f 568 482 483
f 569 567 470
f 570 568 483
f 567 471 470
f 538 570 484
f 571 569 469
f 570 483 484
f 569 470 469
f 571 469 467
f 538 484 485
f 540 571 467
f 154 158 572
f 158 163 572
f 163 168 573
f 572 163 573
f 150 154 574
f 154 572 574
f 168 95 575
f 95 94 575
f 573 168 575
f 142 146 576
f 146 150 576
f 150 574 576
f 94 103 577
f 575 94 577
f 138 142 578
f 142 576 578
f 103 107 579
f 107 115 579
f 577 103 579
f 132 135 580
f 135 138 580
f 138 578 580
f 115 119 581
f 579 115 581
f 128 132 582
f 132 580 582
f 119 123 27
f 123 546 27
f 581 119 27
f 109 117 583
f 117 128 583
f 128 582 583
f 27 546 22
f 546 550 22
f 105 109 584
f 109 583 584
f 550 551 21
f 551 553 21
f 22 550 21
f 105 584 585
f 97 100 585
f 100 105 585
f 21 553 17
f 553 556 17
f 97 585 586
f 166 97 586
f 17 556 13
f 556 558 13
f 558 560 13
f 166 586 587
f 161 165 587
f 165 166 587
f 560 562 6
f 13 560 6
f 161 587 588
f 157 161 588
f 6 562 4
f 562 564 4
f 157 588 589
f 157 589 153
f 1 4 566
f 4 564 566
f 589 590 149
f 153 589 149
f 2 1 568
f 1 566 568
f 590 591 145
f 149 590 145
f 2 568 570
f 145 591 141
f 49 2 538
f 2 570 538
f 591 592 137
f 141 591 137
f 47 49 537
f 49 538 537
f 592 593 130
f 137 592 130
f 47 537 541
f 130 593 126
f 47 541 543
f 45 47 543
f 593 594 120
f 126 593 120
f 43 45 545
f 45 543 545
f 594 12 113
f 120 594 113
f 43 545 548
f 113 12 110
f 41 43 552
f 43 548 552
f 110 12 549
f 12 8 549
f 39 41 554
f 41 552 554
f 549 8 547
f 8 16 547
f 39 554 555
f 547 16 544
f 39 555 557
f 37 39 557
f 544 16 542
f 16 19 542
f 35 37 559
f 37 557 559
f 542 19 539
f 19 24 539
f 35 559 561
f 539 24 540
f 32 35 563
f 35 561 563
f 24 29 571
f 540 24 571
f 31 32 565
f 32 563 565
f 29 31 569
f 571 29 569
f 569 31 567
f 31 565 567
f 595 596 597
f 598 599 600
f 595 601 602
f 598 600 603
f 595 597 601
f 598 603 604
f 605 606 607
f 605 607 599
f 605 604 608
f 605 598 604
f 605 599 598
f 609 595 602
f 610 611 612
f 610 612 606
f 610 606 605
f 610 605 608
f 91 88 613
f 614 615 616
f 614 616 611
f 614 611 610
f 617 595 609
f 617 52 595
f 618 619 615
f 618 615 614
f 620 60 621
f 620 621 619
f 620 622 60
f 623 53 52
f 620 619 618
f 624 625 626
f 624 627 625
f 623 52 617
f 624 628 629
f 624 629 627
f 624 626 630
f 631 624 632
f 633 53 623
f 631 628 624
f 634 635 628
f 634 632 635
f 634 631 632
f 634 628 631
f 636 632 624
f 636 608 632
f 636 610 608
f 636 614 610
f 637 636 624
f 637 614 636
f 637 618 614
f 637 620 618
f 637 622 620
f 637 624 630
f 637 630 622
f 630 58 60
f 630 60 622
f 626 58 630
f 638 626 625
f 638 625 627
f 638 629 628
f 638 79 70
f 638 70 58
f 638 627 629
f 638 58 626
f 639 638 628
f 639 79 638
f 639 83 79
f 640 628 635
f 640 83 639
f 640 635 613
f 640 84 83
f 640 639 628
f 640 613 84
f 641 635 632
f 88 84 613
f 641 597 635
f 642 597 641
f 642 641 632
f 643 93 91
f 644 642 632
f 643 613 635
f 643 91 613
f 644 609 602
f 643 635 597
f 644 597 642
f 644 617 609
f 644 602 601
f 644 623 617
f 644 601 597
f 604 623 644
f 596 62 93
f 604 633 623
f 596 93 643
f 596 643 597
f 608 644 632
f 608 604 644
f 603 600 645
f 603 645 53
f 603 633 604
f 603 53 633
f 595 52 63
f 595 63 62
f 595 62 596
f 646 615 619
f 645 51 53
f 646 647 615
f 648 649 650
f 648 651 649
f 648 650 652
f 648 652 653
f 654 647 646
f 654 653 647
f 655 619 621
f 655 646 619
f 655 621 59
f 9 656 72
f 657 658 651
f 659 28 67
f 657 651 648
f 660 645 600
f 657 661 658
f 657 662 661
f 657 653 654
f 660 51 645
f 657 648 653
f 663 59 76
f 664 74 51
f 663 654 646
f 664 67 74
f 663 646 655
f 663 655 59
f 665 76 72
f 664 51 660
f 665 663 76
f 665 657 654
f 665 72 656
f 665 666 662
f 667 600 599
f 665 668 666
f 665 656 668
f 665 654 663
f 665 662 657
f 667 660 600
f 669 670 659
f 669 671 670
f 669 672 671
f 669 67 664
f 669 659 67
f 673 664 660
f 673 660 667
f 674 607 606
f 674 599 607
f 674 667 599
f 675 672 669
f 675 669 664
f 675 676 672
f 675 677 676
f 675 678 677
f 675 664 673
f 679 673 667
f 679 667 674
f 680 606 612
f 680 674 606
f 681 675 673
f 681 682 678
f 681 683 682
f 681 673 679
f 681 678 675
f 684 679 674
f 684 674 680
f 685 612 611
f 685 684 680
f 685 680 612
f 686 683 681
f 686 687 683
f 686 688 687
f 686 689 688
f 686 679 684
f 686 681 679
f 690 684 685
f 647 685 611
f 647 690 685
f 647 616 615
f 647 611 616
f 652 686 684
f 652 684 690
f 652 689 686
f 652 691 689
f 652 692 691
f 652 650 692
f 653 690 647
f 653 652 690
f 59 621 60
f 588 649 651
f 588 587 649
f 589 651 658
f 589 658 661
f 27 28 659
f 589 588 651
f 590 589 661
f 581 659 670
f 590 661 662
f 581 27 659
f 591 662 666
f 579 670 671
f 591 590 662
f 579 581 670
f 592 666 668
f 577 671 672
f 592 591 666
f 577 579 671
f 593 668 656
f 593 592 668
f 594 593 656
f 575 672 676
f 575 577 672
f 12 656 9
f 12 594 656
f 573 676 677
f 573 575 676
f 572 677 678
f 572 573 677
f 574 572 678
f 576 678 682
f 576 574 678
f 578 682 683
f 578 683 687
f 578 576 682
f 580 687 688
f 580 578 687
f 582 580 688
f 583 582 688
f 583 688 689
f 584 583 689
f 584 689 691
f 585 584 691
f 585 691 692
f 585 692 650
f 586 585 650
f 587 650 649
f 587 586 650
