# Created by FreeCAD <http://www.freecadweb.org>
v 11.250000 532.865295 -3.901078
v 19.095644 532.865295 -3.901078
v 19.095644 532.750244 -3.998802
v 11.250000 532.967712 -3.790200
v 11.250000 532.750244 -3.998802
v 19.095644 532.624268 -4.081947
v 11.250000 532.536621 -1.870044
v 19.095644 532.536621 -1.870044
v 19.095644 532.668762 -1.942957
v 11.250000 532.624268 -4.081947
v 19.095644 532.489197 -4.149300
v 11.250000 532.668762 -1.942957
v 19.095644 532.791199 -2.031269
v 11.250000 532.489197 -4.149300
v 19.095644 532.346985 -4.199879
v 11.250000 532.791199 -2.031269
v 19.095644 532.902100 -2.133694
v 11.250000 532.346985 -4.199879
v 11.250000 532.902100 -2.133694
v 19.095644 532.999817 -2.248736
v 11.250000 532.199707 -4.232946
v 19.095644 532.199707 -4.232946
v 19.095644 532.049500 -4.248020
v 11.250000 532.999817 -2.248736
v 19.095644 533.082947 -2.374719
v 11.250000 532.049500 -4.248020
v 19.095644 531.898621 -4.244880
v 11.250000 533.082947 -2.374719
v 19.095644 533.150330 -2.509805
v 11.250000 531.898621 -4.244880
v 19.095644 531.749146 -4.223573
v 11.250000 531.749146 -4.223573
v 11.250000 533.150330 -2.509805
v 19.095644 533.200867 -2.652025
v 11.250000 531.603394 -4.184409
v 19.095644 531.603394 -4.184409
v 19.095644 531.463379 -4.127958
v 11.250000 531.463379 -4.127958
v 11.250000 533.200867 -2.652025
v 19.095644 533.233948 -2.799305
v 11.250000 533.233948 -2.799305
v 19.095644 533.249023 -2.949497
v 11.250000 533.249023 -2.949497
v 19.095644 533.245850 -3.100410
v 11.250000 533.245850 -3.100410
v 19.095644 533.224548 -3.249845
v 11.250000 533.224548 -3.249845
v 19.095644 533.185425 -3.395622
v 11.250000 533.185425 -3.395622
v 19.095644 533.128967 -3.535616
v 11.250000 533.128967 -3.535616
v 19.095644 533.056030 -3.667784
v 11.250000 533.056030 -3.667784
v 19.095644 532.967712 -3.790200
v 19.636372 533.051880 -3.289190
v 19.851496 532.901855 -2.926798
v 19.851496 532.872192 -3.239605
v 19.851496 532.737244 -3.523392
v 20.005362 532.600830 -3.284576
v 20.005362 532.506409 -3.430346
v 20.005362 532.431335 -2.492577
v 19.936996 532.339355 -2.285060
v 20.005362 532.285583 -2.398192
v 19.377426 533.165955 -3.320646
v 19.636372 533.087708 -2.911917
v 19.377426 533.205627 -2.902478
v 19.936996 531.660645 -3.712942
v 20.005362 531.879639 -3.653250
v 20.005362 531.714417 -3.599809
v 19.636372 532.889221 -3.631462
v 19.851496 532.513428 -3.743930
v 20.005362 532.377502 -3.546721
v 20.005362 532.222900 -3.625769
v 19.377426 532.985596 -3.700018
v 19.636372 532.619263 -3.897449
v 19.237984 532.532227 -1.879240
v 19.851496 532.227722 -3.874618
v 20.005362 532.053101 -3.662104
v 19.377426 532.686401 -3.994838
v 19.237984 531.467773 -4.118762
v 19.636372 532.274658 -4.055071
v 19.851496 532.644470 -2.363988
v 20.005362 532.547729 -2.621473
v 19.851496 532.388428 -2.181869
v 19.750603 532.431702 -2.090719
v 19.851496 531.914490 -3.899694
v 19.851496 531.611572 -3.816133
v 19.750603 531.568298 -3.907282
v 19.636372 532.777283 -2.233120
v 19.377426 532.304382 -4.169544
v 19.636372 532.468445 -2.013469
v 19.511129 532.497803 -1.951690
v 19.851496 532.822754 -2.622699
v 20.005362 532.626770 -2.776098
v 19.636372 531.896851 -4.085314
v 19.636372 531.531555 -3.984533
v 19.511129 531.502197 -4.046311
v 19.377426 532.861511 -2.150102
v 19.377426 532.519226 -1.906641
v 19.377426 531.885681 -4.203066
v 19.377426 531.480774 -4.091360
v 19.636372 532.992310 -2.545148
v 20.005362 532.663086 -2.945912
v 20.005362 532.654236 -3.119345
v 19.377426 533.099915 -2.495953
v 11.250000 530.410278 -0.823478
v 12.350000 530.362671 -0.485198
v 12.350000 530.170532 -0.621409
v 11.250000 530.236084 -0.962185
v 11.250000 529.592468 -4.208936
v 11.250000 529.500793 -4.005993
v 12.350000 529.260986 -4.222910
v 12.350000 529.173401 -4.004239
v 12.350000 529.365479 -4.434036
v 12.350000 529.989624 -0.772279
v 11.250000 530.073914 -1.114805
v 11.250000 529.700623 -4.403614
v 12.350000 529.821106 -0.936878
v 11.250000 529.924866 -1.280296
v 12.350000 529.486206 -4.636314
v 11.250000 529.824463 -4.588697
v 11.250000 533.156677 -0.565471
v 12.350000 533.287903 -0.289503
v 12.350000 533.071350 -0.196810
v 11.250000 532.951782 -0.478263
v 12.350000 529.666016 -1.114190
v 11.250000 529.790039 -1.457528
v 12.350000 529.622437 -4.828497
v 11.250000 529.963196 -4.762920
v 11.250000 532.740356 -0.408274
v 12.350000 532.848145 -0.121394
v 12.350000 529.525330 -1.303122
v 11.250000 529.670288 -1.645289
v 12.350000 529.773254 -5.009401
v 11.250000 530.115784 -4.925095
v 11.250000 529.566467 -1.842298
v 12.350000 529.399902 -1.502511
v 11.250000 532.523926 -0.355982
v 12.350000 532.619751 -0.063718
v 12.350000 529.937866 -5.177910
v 11.250000 530.281311 -5.074112
v 12.350000 529.290527 -1.711125
v 12.350000 530.115173 -5.332986
v 12.350000 532.387573 -0.024140
v 11.250000 530.458557 -5.208954
v 11.250000 532.303894 -0.321745
v 12.350000 530.304138 -5.473672
v 11.250000 529.479248 -2.047208
v 12.350000 529.197815 -1.927680
v 11.250000 530.646301 -5.328700
v 12.350000 530.503540 -5.599100
v 11.250000 530.843323 -5.432531
v 12.350000 532.152954 -0.002903
v 11.250000 532.081726 -0.305796
v 12.350000 530.712097 -5.708498
v 11.250000 529.409302 -2.258620
v 12.350000 529.122375 -2.150840
v 12.350000 531.917419 -0.000138
v 11.250000 531.859070 -0.308245
v 11.250000 529.356995 -2.475089
v 12.350000 529.064697 -2.379229
v 12.350000 531.682373 -0.015861
v 11.250000 531.637329 -0.329074
v 11.250000 529.322754 -2.695137
v 12.350000 529.025146 -2.611439
v 12.350000 531.449341 -0.049977
v 11.250000 531.418091 -0.368142
v 11.250000 529.306824 -2.917261
v 12.350000 529.003906 -2.846039
v 12.350000 531.219604 -0.102274
v 11.250000 529.309265 -3.139943
v 12.350000 529.001160 -3.081581
v 11.250000 531.202820 -0.425181
v 11.250000 529.330078 -3.361663
v 12.350000 529.016846 -3.316615
v 12.350000 530.994751 -0.172431
v 11.250000 530.992981 -0.499802
v 12.350000 530.776062 -0.260015
v 11.250000 530.790039 -0.591494
v 11.250000 529.369141 -3.580905
v 12.350000 529.050964 -3.549690
v 12.350000 530.564941 -0.364485
v 12.350000 529.103271 -3.779370
v 11.250000 530.595398 -0.699633
v 11.250000 529.426208 -3.796172
v 10.654675 534.618042 -3.039085
v 10.836234 534.875549 -3.891382
v 10.654675 534.500732 -3.775057
v 11.255106 535.346619 -4.037560
v 12.014712 535.528564 -4.676186
v 11.255106 534.918457 -4.938338
v 10.550000 531.329407 -4.861811
v 10.561722 531.057251 -4.982395
v 10.550000 531.150085 -4.787114
v 10.836234 535.010498 -3.045094
v 10.596750 530.965515 -5.175387
v 10.550000 531.515259 -4.918568
v 11.809520 535.665283 -4.136451
v 12.014712 535.634766 -4.431479
v 12.014712 535.724060 -4.180094
v 12.014712 535.795959 -3.923202
v 12.014712 535.850220 -3.662001
v 10.654675 534.523315 -2.299867
v 10.550000 533.865356 -2.335601
v 10.550000 533.791382 -2.155957
v 10.550000 533.921387 -2.521634
v 10.550000 533.958984 -2.712264
v 11.255106 535.503662 -3.052644
v 10.836234 534.901550 -2.195071
v 11.809520 535.837280 -3.057752
v 12.014712 535.886475 -3.397708
v 12.014712 535.904602 -3.131557
v 12.014712 535.904541 -2.864788
v 12.014712 535.886292 -2.598644
v 10.654675 534.224121 -1.617288
v 10.550000 533.592468 -1.822677
v 10.550000 533.469482 -1.672251
v 10.550000 533.700134 -1.984431
v 11.255106 535.376831 -2.063382
v 12.014712 530.567505 -6.633777
v 12.014712 530.322815 -6.527547
v 11.809520 530.352478 -6.465081
v 10.836234 534.557495 -1.410179
v 12.014712 530.818909 -6.723059
v 11.613007 530.391541 -6.382946
v 11.809520 535.698364 -1.974294
v 12.014712 535.849915 -2.334367
v 12.014712 535.795593 -2.073189
v 12.014712 535.723572 -1.816327
v 12.014712 535.634155 -1.564980
v 12.014712 535.527832 -1.320319
v 10.654675 533.744751 -1.046647
v 10.550000 533.332397 -1.534603
v 10.550000 533.182434 -1.411057
v 10.596750 533.034485 -0.822614
v 10.654675 533.124023 -0.634174
v 10.734816 533.210388 -0.452494
v 11.255106 534.976440 -1.149918
v 10.836234 534.006287 -0.754003
v 10.836234 533.292542 -0.279703
v 10.957742 533.369446 -0.117828
v 11.097913 533.440308 0.031234
v 11.809520 535.259888 -0.973851
v 12.014712 535.405029 -1.083484
v 12.014712 535.266418 -0.855581
v 12.014712 535.112488 -0.637671
v 12.014712 534.944092 -0.430770
v 11.255106 534.334961 -0.386256
v 11.255106 533.504272 0.165737
v 11.427477 533.560547 0.284103
v 11.613007 533.608459 0.384944
v 11.809520 534.557251 -0.137474
v 12.014712 534.142029 0.268304
v 12.014712 534.761963 -0.235844
v 12.014712 534.566956 -0.053801
v 12.014712 534.359985 0.114510
v 10.561722 532.942749 -1.015606
v 10.550000 533.021118 -1.302805
v 10.550000 532.849915 -1.210887
v 11.809520 533.647522 0.467079
v 12.014712 533.914063 0.406865
v 12.014712 533.677185 0.529546
v 10.654675 531.587708 -5.584716
v 10.550000 531.705750 -4.956839
v 10.550000 531.899048 -4.976254
v 10.654675 530.875977 -5.363828
v 10.734816 530.789612 -5.545508
v 10.836234 531.525940 -5.972296
v 10.836234 530.707458 -5.718298
v 10.957742 530.630554 -5.880174
v 11.097913 530.559692 -6.029236
v 10.654675 532.332886 -5.596125
v 10.550000 532.286743 -4.957955
v 10.550000 532.477356 -4.920418
v 10.550000 532.093323 -4.976628
v 11.255106 531.448303 -6.459343
v 11.255106 530.495728 -6.163738
v 11.427477 530.439453 -6.282104
v 10.836234 532.382813 -5.985416
v 11.809520 531.395752 -6.788833
v 12.014712 531.075806 -6.794978
v 12.014712 531.336975 -6.849198
v 12.014712 531.601318 -6.885468
v 12.014712 531.867432 -6.903616
v 10.654675 533.051147 -5.397131
v 10.550000 532.843018 -4.790369
v 10.550000 533.014587 -4.699110
v 10.550000 532.663391 -4.864375
v 11.255106 532.445496 -6.474612
v 10.836234 533.208679 -5.756594
v 11.809520 532.487915 -6.805555
v 12.014712 532.134216 -6.903559
v 12.014712 532.400330 -6.885298
v 12.014712 532.664612 -6.848917
v 12.014712 532.925781 -6.794585
v 10.654675 533.684204 -5.003854
v 10.550000 533.326721 -4.468510
v 10.550000 533.464417 -4.331389
v 10.550000 533.176331 -4.591478
v 11.255106 533.406677 -6.208307
v 10.836234 533.936646 -5.304368
v 11.809520 533.540588 -6.513893
v 12.014712 533.182678 -6.722558
v 12.014712 533.434021 -6.633169
v 12.014712 533.678711 -6.526835
v 12.014712 533.915527 -6.404054
v 12.014712 534.143433 -6.265397
v 10.654675 534.180786 -4.448156
v 10.550000 533.696167 -4.020098
v 10.550000 533.788086 -3.848925
v 10.550000 533.587952 -4.181437
v 11.255106 534.253845 -5.682003
v 10.836234 534.507690 -4.665375
v 11.809520 534.468445 -5.937476
v 12.014712 534.361328 -6.111509
v 12.014712 534.568237 -5.943110
v 12.014712 534.763184 -5.760985
v 12.014712 534.945190 -5.565982
v 10.550000 533.919556 -3.483750
v 10.550000 533.957825 -3.293266
v 10.550000 533.862793 -3.669567
v 11.809520 535.196350 -5.123000
v 12.014712 535.113525 -5.359010
v 12.014712 535.267334 -5.141035
v 12.014712 535.405884 -4.913073
v 10.550000 533.977600 -2.905656
v 10.550000 533.977234 -3.099947
v 12.350000 535.345215 -5.192099
v 12.350000 535.187744 -5.415270
v 12.350000 534.628174 0.016409
v 12.350000 534.827820 -0.169974
v 12.350000 535.487061 -4.958702
v 12.350000 530.282837 -6.611664
v 12.350000 534.416260 0.188732
v 12.350000 535.612671 -4.716168
v 12.350000 530.533386 -6.720426
v 12.350000 534.193115 0.346193
v 12.350000 535.721436 -4.465628
v 12.350000 530.790771 -6.811836
v 12.350000 533.959717 0.488057
v 12.350000 535.812805 -4.208250
v 12.350000 531.053772 -6.885470
v 12.350000 533.717163 0.613663
v 12.350000 531.321167 -6.940983
v 12.350000 535.886475 -3.945234
v 12.350000 535.941956 -3.677806
v 12.350000 531.591797 -6.978117
v 12.350000 531.864258 -6.996698
v 12.350000 535.979126 -3.407213
v 12.350000 532.137390 -6.996640
v 12.350000 535.997681 -3.134717
v 12.350000 532.409912 -6.977943
v 12.350000 535.997620 -2.861588
v 12.350000 532.680481 -6.940694
v 12.350000 535.978943 -2.589100
v 12.350000 532.947876 -6.885068
v 12.350000 535.941711 -2.318523
v 12.350000 533.210876 -6.811323
v 12.350000 535.886047 -2.051119
v 12.350000 533.468201 -6.719803
v 12.350000 535.812317 -1.788134
v 12.350000 533.718689 -6.610935
v 12.350000 535.720825 -1.530795
v 12.350000 533.961182 -6.485227
v 12.350000 535.611938 -1.280301
v 12.350000 534.194519 -6.343264
v 12.350000 534.417603 -6.185709
v 12.350000 535.486206 -1.037820
v 12.350000 534.629456 -6.013295
v 12.350000 535.344238 -0.804484
v 12.350000 534.829041 -5.826828
v 12.350000 535.186707 -0.581379
v 12.350000 535.015381 -5.627176
v 12.350000 535.014282 -0.369547
v 10.550000 530.303833 -1.977903
v 10.550000 531.906677 -1.021374
v 10.550000 531.336609 -1.133626
v 10.550000 531.522644 -1.077584
v 10.550000 531.713257 -1.040046
v 10.550000 530.080444 -2.514251
v 10.550000 530.137207 -2.328435
v 10.550000 530.211914 -2.149076
v 10.550000 531.156982 -1.207633
v 10.550000 530.985413 -1.298892
v 10.550000 530.978882 -4.695197
v 10.550000 530.022400 -3.092345
v 10.550000 530.022766 -2.898055
v 10.550000 530.042175 -2.704736
v 10.550000 530.078613 -3.476368
v 10.550000 530.041016 -3.285737
v 10.550000 530.134644 -3.662401
v 10.550000 532.100952 -1.021747
v 10.550000 532.484741 -1.079433
v 10.550000 532.294250 -1.041163
v 10.550000 530.299866 -4.013570
v 10.550000 530.208618 -3.842045
v 10.550000 532.670593 -1.136190
v 10.550000 530.673279 -1.529492
v 10.550000 530.823669 -1.406523
v 10.550000 530.407532 -4.175324
v 10.550000 530.530518 -4.325750
v 10.550000 530.667603 -4.463399
v 10.550000 530.412048 -1.816564
v 10.550000 530.535583 -1.666612
v 10.550000 530.817566 -4.586944
v 12.350000 528.984619 -0.370826
v 12.350000 529.170959 -0.171174
v 12.014712 529.236816 -0.237016
v 12.350000 529.172180 -5.828028
v 12.014712 529.238037 -5.762157
v 12.014712 529.433044 -5.944200
v 12.350000 528.985718 -5.628455
v 12.350000 528.812256 -0.582731
v 12.014712 529.054810 -0.432020
v 12.014712 528.886475 -0.638991
v 12.350000 529.371826 -6.014410
v 12.014712 529.640015 -6.112511
v 12.350000 528.654785 -0.805903
v 12.014712 528.732666 -0.856967
v 12.350000 533.466614 0.722424
v 12.014712 533.432495 0.635775
v 12.350000 529.583740 -6.186734
v 12.014712 529.857971 -6.266305
v 12.350000 528.512939 -1.039300
v 12.014712 528.594116 -1.084929
v 12.350000 533.209229 0.813835
v 12.014712 533.181091 0.725057
v 12.350000 529.806885 -6.344194
v 12.014712 530.085938 -6.404866
v 12.350000 528.387329 -1.281833
v 12.014712 528.471436 -1.321816
v 12.350000 532.946228 0.887468
v 12.014712 532.924194 0.796976
v 12.350000 530.040283 -6.486058
v 12.350000 528.278564 -1.532373
v 12.014712 528.365234 -1.566522
v 12.350000 532.678833 0.942981
v 12.014712 532.663025 0.851197
v 12.350000 528.187195 -1.789751
v 12.014712 528.275940 -1.817907
v 12.350000 532.408203 0.980115
v 12.014712 532.398682 0.887466
v 12.350000 528.113525 -2.052768
v 12.014712 528.204041 -2.074800
v 12.350000 532.135742 0.998696
v 12.014712 532.132568 0.905614
v 12.350000 528.058044 -2.320195
v 12.014712 528.149780 -2.336001
v 12.350000 531.862610 0.998638
v 12.014712 531.865784 0.905558
v 12.350000 528.020874 -2.590788
v 12.014712 528.113525 -2.600293
v 12.350000 531.590088 0.979941
v 12.014712 531.599670 0.887296
v 12.350000 528.002319 -2.863284
v 12.014712 528.095398 -2.866444
v 12.350000 531.319519 0.942693
v 12.014712 531.335388 0.850915
v 12.350000 528.002380 -3.136413
v 12.014712 528.095459 -3.133214
v 12.350000 531.052124 0.887067
v 12.014712 531.074219 0.796584
v 12.350000 528.021057 -3.408901
v 12.014712 528.113708 -3.399357
v 12.350000 530.789124 0.813322
v 12.014712 530.817322 0.724556
v 12.350000 528.058289 -3.679478
v 12.014712 528.150085 -3.663634
v 12.014712 528.204407 -3.924813
v 12.350000 530.531799 0.721802
v 12.014712 530.565979 0.635167
v 12.350000 528.113953 -3.946883
v 12.014712 528.276428 -4.181674
v 12.350000 530.281311 0.612934
v 12.014712 530.321289 0.528834
v 12.350000 528.187683 -4.209868
v 12.014712 528.365845 -4.433022
v 12.350000 530.038818 0.487225
v 12.014712 530.084473 0.406052
v 12.350000 528.279175 -4.467207
v 12.014712 528.472168 -4.677683
v 12.350000 529.805481 0.345262
v 12.014712 529.856567 0.267395
v 12.350000 528.388062 -4.717701
v 12.014712 528.594971 -4.914517
v 12.350000 529.582397 0.187707
v 12.014712 529.638672 0.113508
v 12.350000 528.513794 -4.960181
v 12.014712 528.733582 -5.142421
v 12.350000 528.655762 -5.193518
v 12.014712 528.887512 -5.360331
v 12.350000 529.370544 0.015294
v 12.014712 529.431763 -0.054891
v 12.350000 528.813293 -5.416623
v 12.014712 529.055908 -5.567231
v 12.350000 533.695862 -0.524330
v 12.350000 533.884827 -0.665016
v 12.350000 534.935303 -3.618773
v 12.350000 534.877625 -3.847162
v 12.350000 534.062134 -0.820091
v 12.350000 534.974854 -3.386562
v 12.350000 534.226746 -0.988600
v 12.350000 534.996094 -3.151963
v 12.350000 534.377563 -1.169504
v 12.350000 534.998840 -2.916420
v 12.350000 534.513794 -1.361688
v 12.350000 534.983154 -2.681387
v 12.350000 534.634521 -1.563966
v 12.350000 534.949036 -2.448311
v 12.350000 534.739014 -1.775091
v 12.350000 534.896729 -2.218631
v 12.350000 534.826599 -1.993762
v 12.350000 530.928650 -5.801191
v 12.350000 531.151855 -5.876608
v 12.350000 531.380249 -5.934283
v 12.350000 531.612427 -5.973861
v 12.350000 531.847046 -5.995099
v 12.350000 532.082581 -5.997864
v 12.350000 532.317627 -5.982140
v 12.350000 532.550659 -5.948025
v 12.350000 532.780396 -5.895727
v 12.350000 533.005249 -5.825570
v 12.350000 533.223938 -5.737987
v 12.350000 533.435059 -5.633517
v 12.350000 533.637329 -5.512804
v 12.350000 533.829468 -5.376592
v 12.350000 534.010376 -5.225722
v 12.350000 534.178894 -5.061124
v 12.350000 534.333984 -4.883812
v 12.350000 534.474670 -4.694879
v 12.350000 534.600098 -4.495491
v 12.350000 534.709473 -4.286876
v 12.350000 533.496460 -0.398901
v 12.350000 534.802185 -4.070322
v 10.654675 529.381958 -2.958916
v 10.654675 529.499268 -2.222945
v 11.255106 528.653381 -1.960441
v 11.255106 529.081543 -1.059663
v 10.836234 529.124451 -2.106620
v 10.836234 528.989502 -2.952908
v 11.809520 528.334717 -1.861551
v 10.654675 529.476685 -3.698135
v 11.255106 528.496338 -2.945357
v 10.836234 529.098450 -3.802930
v 11.809520 528.162720 -2.940249
v 10.654675 529.775879 -4.380714
v 11.255106 528.623169 -3.934619
v 10.836234 529.442505 -4.587823
v 11.809520 528.301636 -4.023708
v 10.654675 530.255249 -4.951355
v 11.255106 529.023560 -4.848083
v 10.836234 529.993713 -5.243999
v 11.809520 528.740112 -5.024151
v 11.255106 529.665039 -5.611745
v 11.809520 529.442749 -5.860528
v 10.654675 532.412292 -0.413285
v 10.836234 532.474060 -0.025705
v 10.654675 531.667114 -0.401876
v 11.255106 532.551697 0.461342
v 10.836234 531.617188 -0.012586
v 11.809520 532.604248 0.790831
v 10.654675 530.948853 -0.600870
v 11.255106 531.554504 0.476610
v 10.836234 530.791321 -0.241408
v 11.809520 531.512085 0.807554
v 10.654675 530.315796 -0.994147
v 11.255106 530.593323 0.210305
v 10.836234 530.063354 -0.693634
v 10.654675 529.819214 -1.549845
v 11.809520 530.459412 0.515892
v 11.255106 529.746155 -0.315998
v 10.836234 529.492310 -1.332627
v 11.809520 529.531555 -0.060526
v 11.809520 528.803650 -0.875002
v 11.250000 533.589722 -5.174523
v 11.250000 533.763916 -5.035817
v 11.250000 534.407532 -1.789065
v 11.250000 534.499207 -1.992008
v 11.250000 533.926086 -4.883196
v 11.250000 534.299377 -1.594388
v 11.250000 534.075134 -4.717705
v 11.250000 534.175537 -1.409305
v 11.250000 531.048218 -5.519739
v 11.250000 534.209961 -4.540474
v 11.250000 534.036804 -1.235081
v 11.250000 531.259644 -5.589728
v 11.250000 534.329712 -4.352713
v 11.250000 533.884216 -1.072907
v 11.250000 534.433533 -4.155704
v 11.250000 531.476074 -5.642019
v 11.250000 533.718689 -0.923890
v 11.250000 533.541443 -0.789048
v 11.250000 531.696106 -5.676256
v 11.250000 534.520752 -3.950794
v 11.250000 533.353699 -0.669302
v 11.250000 531.918274 -5.692205
v 11.250000 534.590698 -3.739382
v 11.250000 532.140930 -5.689756
v 11.250000 534.643005 -3.522913
v 11.250000 532.362671 -5.668927
v 11.250000 534.677246 -3.302865
v 11.250000 532.581909 -5.629860
v 11.250000 534.693176 -3.080741
v 11.250000 534.690735 -2.858058
v 11.250000 532.797180 -5.572821
v 11.250000 534.669922 -2.636339
v 11.250000 533.007019 -5.498200
v 11.250000 533.209961 -5.406507
v 11.250000 534.630859 -2.417097
v 11.250000 533.404602 -5.298368
v 11.250000 534.573792 -2.201830
v 11.250000 530.799133 -3.345976
v 11.250000 530.849670 -3.488196
v 11.250000 530.917053 -3.623282
v 11.250000 530.766052 -3.198696
v 11.250000 531.000183 -3.749265
v 11.250000 530.750977 -3.048505
v 11.250000 531.097900 -3.864308
v 11.250000 530.754150 -2.897591
v 11.250000 531.208801 -3.966732
v 11.250000 530.775452 -2.748156
v 11.250000 531.331238 -4.055045
v 11.250000 530.814575 -2.602379
v 11.250000 530.871033 -2.462386
v 11.250000 530.943970 -2.330218
v 11.250000 531.032288 -2.207802
v 11.250000 531.134705 -2.096923
v 11.250000 531.249756 -1.999199
v 11.250000 531.375732 -1.916055
v 11.250000 531.510803 -1.848702
v 11.250000 531.653015 -1.798123
v 11.250000 531.800293 -1.765055
v 11.250000 531.950500 -1.749981
v 11.250000 532.101379 -1.753121
v 11.250000 532.250854 -1.774429
v 11.250000 532.396606 -1.813593
v 20.085167 532.151184 -3.424065
v 20.085167 532.205383 -3.400697
v 20.113422 532.114075 -3.319707
v 20.068094 531.549744 -3.229192
v 20.005362 531.373230 -3.221904
v 20.005362 531.452271 -3.376528
v 20.113422 532.071228 -3.331851
v 20.113422 532.027161 -3.338299
v 20.068094 531.583618 -3.285994
v 20.133709 531.812378 -3.128332
v 20.068094 531.523560 -3.168450
v 20.005362 531.345764 -2.878657
v 20.005362 531.336914 -3.052089
v 20.140829 531.838745 -3.056357
v 20.113422 531.982666 -3.338942
v 20.113422 531.692566 -2.852877
v 20.005362 531.493591 -2.567655
v 20.005362 531.399170 -2.713425
v 20.085167 532.407471 -3.192673
v 20.068094 531.830566 -2.522536
v 20.005362 531.777100 -2.372233
v 20.005362 531.622498 -2.451281
v 20.113422 531.938416 -3.333768
v 20.068094 531.894165 -2.504495
v 20.005362 531.946899 -2.335898
v 20.068094 531.959656 -2.494915
v 20.005362 532.120361 -2.344752
v 20.113422 532.146118 -2.691578
v 20.113422 531.895264 -3.322867
v 20.140829 532.161255 -2.941645
v 20.113422 532.252625 -2.770898
v 20.113422 532.220703 -2.739873
v 20.113422 532.280273 -2.805827
v 20.113422 532.320679 -2.884945
v 20.113422 532.303101 -2.844060
v 20.113422 532.184998 -2.713281
v 20.140829 532.164673 -2.952315
v 20.150000 532.000000 -2.999001
v 20.113422 531.853882 -3.306424
v 20.140829 532.167358 -2.963186
v 20.133709 532.205811 -3.096833
v 20.140829 531.942627 -2.837724
v 20.129391 532.013062 -2.743189
v 20.085167 532.425049 -2.847831
v 20.085167 532.441162 -2.904607
v 20.085167 532.449707 -2.962997
v 20.140829 532.077942 -3.151411
v 20.140829 532.067810 -3.156180
v 20.085167 532.256042 -3.370456
v 20.140829 532.057373 -3.160277
v 20.005362 531.568665 -3.505425
v 19.851496 531.262756 -2.474609
v 19.636372 530.948120 -2.708811
v 19.851496 531.127808 -2.758396
v 19.377426 530.834045 -2.677356
v 19.636372 530.912292 -3.086084
v 19.095644 530.775452 -2.748156
v 19.095644 530.754150 -2.897591
v 19.095644 530.814575 -2.602379
v 19.095644 530.871033 -2.462386
v 19.377426 530.794373 -3.095524
v 19.636372 531.110779 -2.366540
v 19.851496 531.486572 -2.254072
v 19.377426 531.014404 -2.297983
v 19.095644 530.943970 -2.330218
v 19.095644 531.032288 -2.207802
v 19.095644 531.134705 -2.096923
v 19.636372 531.380737 -2.100552
v 19.095644 531.331238 -4.055045
v 19.851496 531.772278 -2.123383
v 19.377426 531.313599 -2.003164
v 19.095644 531.208801 -3.966732
v 19.095644 531.249756 -1.999199
v 19.095644 531.375732 -1.916055
v 19.095644 531.510803 -1.848702
v 19.636372 531.725342 -1.942931
v 19.095644 532.396606 -1.813593
v 19.095644 532.250854 -1.774429
v 19.851496 531.355530 -3.634014
v 19.851496 532.085510 -2.098307
v 19.636372 531.222717 -3.764881
v 19.377426 531.695618 -1.828457
v 19.095644 531.653015 -1.798123
v 19.095644 531.800293 -1.765055
v 19.095644 531.950500 -1.749981
v 19.636372 532.103149 -1.912687
v 19.851496 531.177246 -3.375303
v 19.377426 532.114319 -1.794935
v 19.377426 531.138489 -3.847899
v 19.095644 531.097900 -3.864308
v 19.095644 531.000183 -3.749265
v 19.095644 532.101379 -1.753121
v 19.636372 531.007690 -3.452853
v 19.851496 531.098145 -3.071204
v 19.377426 530.900085 -3.502049
v 19.095644 530.917053 -3.623282
v 19.095644 530.849670 -3.488196
v 19.095644 530.799133 -3.345976
v 19.095644 530.766052 -3.198696
v 19.095644 530.750977 -3.048505
f 1 2 3
f 1 4 2
f 5 3 6
f 5 1 3
f 7 8 9
f 10 6 11
f 10 5 6
f 12 9 13
f 12 7 9
f 14 11 15
f 14 10 11
f 16 13 17
f 16 12 13
f 18 14 15
f 19 17 20
f 19 16 17
f 21 15 22
f 21 22 23
f 21 18 15
f 24 20 25
f 24 19 20
f 26 23 27
f 26 21 23
f 28 25 29
f 30 27 31
f 28 24 25
f 30 26 27
f 32 30 31
f 33 29 34
f 35 31 36
f 33 28 29
f 35 36 37
f 35 32 31
f 38 35 37
f 39 34 40
f 39 33 34
f 41 40 42
f 41 39 40
f 43 42 44
f 43 41 42
f 45 44 46
f 45 43 44
f 47 46 48
f 47 45 46
f 49 47 48
f 49 48 50
f 51 49 50
f 51 50 52
f 53 52 54
f 53 51 52
f 4 53 54
f 4 54 2
f 55 56 57
f 58 59 60
f 61 62 63
f 58 57 59
f 64 65 55
f 64 66 65
f 64 46 44
f 64 48 46
f 64 50 48
f 67 68 69
f 64 44 66
f 70 57 58
f 70 55 57
f 71 72 73
f 71 60 72
f 71 58 60
f 74 64 55
f 74 55 70
f 74 50 64
f 74 52 50
f 74 54 52
f 74 2 54
f 75 70 58
f 75 58 71
f 9 8 76
f 77 73 78
f 77 71 73
f 13 9 76
f 79 2 74
f 79 3 2
f 79 70 75
f 36 31 80
f 79 6 3
f 79 11 6
f 37 36 80
f 79 74 70
f 81 75 71
f 82 61 83
f 82 84 62
f 82 85 84
f 81 71 77
f 82 62 61
f 86 78 68
f 86 67 87
f 86 87 88
f 86 68 67
f 86 77 78
f 89 85 82
f 90 75 81
f 89 91 85
f 90 15 11
f 89 92 91
f 90 22 15
f 90 23 22
f 93 83 94
f 90 79 75
f 93 82 83
f 90 11 79
f 95 88 96
f 95 96 97
f 95 81 77
f 95 86 88
f 98 17 13
f 98 20 17
f 95 77 86
f 98 99 92
f 98 76 99
f 100 97 101
f 98 13 76
f 100 101 80
f 100 27 23
f 98 92 89
f 100 31 27
f 100 90 81
f 100 80 31
f 102 82 93
f 100 81 95
f 100 95 97
f 100 23 90
f 102 89 82
f 56 103 104
f 56 94 103
f 56 93 94
f 105 25 20
f 105 29 25
f 105 34 29
f 105 20 98
f 105 98 89
f 105 89 102
f 65 102 93
f 65 93 56
f 57 104 59
f 57 56 104
f 66 102 65
f 66 40 34
f 66 42 40
f 66 44 42
f 66 34 105
f 66 105 102
f 55 65 56
f 106 107 108
f 109 106 108
f 110 111 112
f 111 113 112
f 110 112 114
f 109 108 115
f 116 109 115
f 117 110 114
f 116 115 118
f 119 116 118
f 117 114 120
f 121 117 120
f 122 123 124
f 125 122 124
f 119 118 126
f 127 119 126
f 121 120 128
f 129 121 128
f 130 125 131
f 127 126 132
f 133 127 132
f 125 124 131
f 129 128 134
f 135 129 134
f 136 133 137
f 138 130 139
f 135 134 140
f 133 132 137
f 130 131 139
f 141 135 140
f 136 137 142
f 141 140 143
f 138 139 144
f 145 141 143
f 146 138 144
f 145 143 147
f 148 136 149
f 150 145 147
f 136 142 149
f 150 147 151
f 152 150 151
f 146 144 153
f 154 146 153
f 152 151 155
f 156 148 157
f 148 149 157
f 154 153 158
f 159 154 158
f 160 156 161
f 156 157 161
f 159 158 162
f 163 159 162
f 164 160 165
f 160 161 165
f 163 162 166
f 167 163 166
f 168 164 169
f 164 165 169
f 167 166 170
f 171 168 172
f 173 167 170
f 168 169 172
f 174 171 175
f 173 170 176
f 177 173 176
f 171 172 175
f 177 176 178
f 179 177 178
f 180 174 181
f 174 175 181
f 179 178 182
f 180 181 183
f 184 179 182
f 185 180 183
f 185 183 113
f 184 182 107
f 106 184 107
f 111 185 113
f 186 187 188
f 189 190 191
f 189 191 187
f 192 193 194
f 195 187 186
f 195 189 187
f 196 193 192
f 197 196 192
f 198 190 189
f 198 199 190
f 198 200 199
f 198 201 200
f 198 202 201
f 203 204 205
f 203 206 204
f 203 207 206
f 203 186 207
f 203 195 186
f 208 198 189
f 208 189 195
f 209 208 195
f 209 195 203
f 210 202 198
f 210 198 208
f 210 211 202
f 210 212 211
f 210 213 212
f 210 214 213
f 215 216 217
f 215 218 216
f 215 205 218
f 215 203 205
f 215 209 203
f 219 208 209
f 220 221 222
f 219 210 208
f 223 219 209
f 223 209 215
f 224 222 225
f 226 214 210
f 226 210 219
f 226 227 214
f 224 220 222
f 226 228 227
f 226 229 228
f 226 230 229
f 226 231 230
f 232 233 234
f 232 217 233
f 232 215 217
f 232 235 236
f 232 236 237
f 232 234 235
f 232 223 215
f 238 226 219
f 238 219 223
f 239 223 232
f 239 232 237
f 239 237 240
f 239 240 241
f 239 241 242
f 239 238 223
f 243 226 238
f 243 231 226
f 243 244 231
f 243 245 244
f 243 246 245
f 243 247 246
f 248 238 239
f 248 242 249
f 248 249 250
f 248 250 251
f 248 239 242
f 248 243 238
f 252 251 253
f 252 248 251
f 252 247 243
f 252 254 247
f 252 255 254
f 252 256 255
f 252 253 256
f 252 243 248
f 257 258 259
f 235 234 258
f 235 258 257
f 260 253 251
f 261 253 260
f 262 261 260
f 263 196 197
f 263 264 265
f 263 197 264
f 263 266 196
f 263 267 266
f 268 267 263
f 268 269 267
f 268 270 269
f 268 271 270
f 272 273 274
f 272 275 273
f 272 265 275
f 272 263 265
f 276 271 268
f 276 277 271
f 276 278 277
f 276 225 278
f 279 263 272
f 279 268 263
f 280 224 225
f 280 281 224
f 280 282 281
f 280 283 282
f 280 284 283
f 280 225 276
f 285 279 272
f 285 286 287
f 285 288 286
f 285 274 288
f 285 272 274
f 289 276 268
f 289 268 279
f 290 279 285
f 290 289 279
f 291 276 289
f 291 292 284
f 291 293 292
f 291 294 293
f 291 295 294
f 291 284 280
f 291 280 276
f 296 285 287
f 296 297 298
f 296 299 297
f 296 287 299
f 296 290 285
f 300 291 289
f 300 289 290
f 301 300 290
f 301 290 296
f 302 291 300
f 302 303 295
f 302 304 303
f 302 305 304
f 302 306 305
f 302 307 306
f 302 295 291
f 308 309 310
f 308 311 309
f 308 298 311
f 308 301 296
f 308 296 298
f 312 302 300
f 312 300 301
f 313 312 301
f 313 301 308
f 314 302 312
f 314 315 307
f 314 316 315
f 314 317 316
f 314 318 317
f 314 307 302
f 188 319 320
f 188 321 319
f 188 310 321
f 188 313 308
f 188 308 310
f 191 314 312
f 191 312 313
f 187 191 313
f 187 313 188
f 322 318 314
f 322 191 190
f 322 314 191
f 322 323 318
f 322 324 323
f 322 325 324
f 322 190 325
f 186 326 207
f 186 327 326
f 186 320 327
f 186 188 320
f 328 323 324
f 328 329 323
f 330 254 255
f 330 331 254
f 332 324 325
f 333 221 220
f 332 328 324
f 334 255 256
f 334 330 255
f 335 325 190
f 336 220 224
f 335 332 325
f 336 333 220
f 337 256 253
f 337 334 256
f 338 190 199
f 339 336 224
f 339 224 281
f 338 335 190
f 340 253 261
f 340 337 253
f 341 199 200
f 342 281 282
f 342 339 281
f 341 338 199
f 343 261 262
f 343 340 261
f 344 282 283
f 344 342 282
f 345 200 201
f 345 341 200
f 346 345 201
f 347 283 284
f 347 344 283
f 346 201 202
f 348 284 292
f 349 346 202
f 348 347 284
f 349 202 211
f 350 292 293
f 350 348 292
f 351 349 211
f 351 211 212
f 352 293 294
f 352 350 293
f 353 351 212
f 353 212 213
f 354 294 295
f 354 352 294
f 355 353 213
f 355 213 214
f 356 295 303
f 356 354 295
f 357 355 214
f 357 214 227
f 358 303 304
f 358 356 303
f 359 357 227
f 359 227 228
f 360 304 305
f 360 358 304
f 361 228 229
f 361 359 228
f 362 305 306
f 362 360 305
f 363 361 229
f 363 229 230
f 364 306 307
f 364 362 306
f 365 230 231
f 366 307 315
f 366 364 307
f 365 363 230
f 367 315 316
f 368 231 244
f 367 366 315
f 368 365 231
f 369 316 317
f 369 367 316
f 370 244 245
f 370 368 244
f 371 317 318
f 371 369 317
f 372 245 246
f 372 370 245
f 373 371 318
f 374 246 247
f 374 372 246
f 329 318 323
f 329 373 318
f 331 247 254
f 331 374 247
f 258 216 218
f 375 321 309
f 376 258 205
f 377 378 379
f 380 381 309
f 381 382 309
f 382 375 309
f 383 377 384
f 321 310 309
f 258 218 205
f 377 379 376
f 376 205 204
f 194 385 197
f 192 194 197
f 386 387 298
f 387 388 298
f 388 380 298
f 309 311 298
f 380 309 298
f 384 377 204
f 377 376 204
f 389 390 391
f 390 386 391
f 376 392 393
f 392 394 393
f 265 264 275
f 298 297 299
f 386 298 287
f 298 299 287
f 395 386 273
f 385 395 273
f 275 264 273
f 264 197 273
f 204 206 207
f 197 385 273
f 386 287 273
f 391 386 395
f 396 391 395
f 393 397 258
f 287 286 288
f 397 259 258
f 274 273 288
f 273 287 288
f 376 393 258
f 398 399 326
f 399 384 326
f 384 204 326
f 204 207 326
f 400 395 401
f 258 234 233
f 326 327 320
f 401 395 402
f 326 320 319
f 403 404 319
f 258 233 217
f 404 398 319
f 398 326 319
f 403 319 321
f 375 403 321
f 258 217 216
f 405 402 385
f 402 395 385
f 406 407 408
f 409 410 411
f 409 412 410
f 413 414 415
f 413 406 414
f 416 411 417
f 416 409 411
f 418 415 419
f 420 343 262
f 418 413 415
f 420 262 421
f 422 417 423
f 422 416 417
f 424 419 425
f 426 421 427
f 424 418 419
f 428 423 429
f 426 420 421
f 428 422 423
f 430 425 431
f 432 427 433
f 430 424 425
f 434 428 429
f 432 426 427
f 333 429 221
f 333 434 429
f 435 431 436
f 435 430 431
f 437 433 438
f 437 432 433
f 439 436 440
f 439 435 436
f 441 438 442
f 441 437 438
f 443 440 444
f 443 439 440
f 445 442 446
f 445 441 442
f 447 443 444
f 447 444 448
f 449 446 450
f 449 445 446
f 451 447 448
f 451 448 452
f 453 450 454
f 453 449 450
f 455 451 452
f 455 452 456
f 457 454 458
f 457 453 454
f 459 455 456
f 459 456 460
f 461 458 462
f 461 457 458
f 463 459 460
f 463 460 464
f 465 462 466
f 465 461 462
f 467 463 464
f 467 464 468
f 467 468 469
f 470 466 471
f 470 465 466
f 472 467 469
f 472 469 473
f 474 471 475
f 474 470 471
f 476 472 473
f 476 473 477
f 478 475 479
f 478 474 475
f 480 477 481
f 480 476 477
f 482 479 483
f 484 481 485
f 482 478 479
f 484 480 481
f 486 483 487
f 488 485 489
f 488 484 485
f 486 482 483
f 490 489 491
f 492 487 493
f 490 488 489
f 492 486 487
f 494 491 495
f 494 490 491
f 407 493 408
f 407 492 493
f 412 495 410
f 412 494 495
f 406 408 414
f 337 496 334
f 496 497 334
f 498 499 345
f 499 341 345
f 334 497 330
f 497 500 330
f 501 498 346
f 498 345 346
f 500 502 331
f 330 500 331
f 503 501 349
f 501 346 349
f 502 504 374
f 331 502 374
f 505 503 351
f 503 349 351
f 504 506 372
f 374 504 372
f 507 505 353
f 505 351 353
f 372 506 370
f 507 353 355
f 506 508 368
f 370 506 368
f 509 507 357
f 507 355 357
f 476 480 113
f 368 508 365
f 508 510 365
f 511 509 359
f 509 357 359
f 365 510 363
f 510 512 363
f 472 476 183
f 476 113 183
f 363 512 361
f 511 359 361
f 512 511 361
f 480 484 112
f 113 480 112
f 112 484 114
f 484 488 114
f 472 183 181
f 467 472 181
f 467 181 175
f 463 467 175
f 459 463 175
f 114 488 120
f 490 494 120
f 488 490 120
f 459 175 172
f 455 459 172
f 120 494 128
f 494 412 128
f 455 172 169
f 451 455 169
f 128 412 134
f 412 409 134
f 134 409 140
f 409 416 140
f 451 169 165
f 447 451 165
f 447 165 161
f 443 447 161
f 140 416 143
f 416 422 143
f 439 443 157
f 443 161 157
f 143 422 147
f 422 428 147
f 435 439 149
f 439 157 149
f 147 428 151
f 428 434 151
f 430 435 142
f 424 430 142
f 435 149 142
f 151 434 155
f 333 336 155
f 434 333 155
f 418 424 137
f 424 142 137
f 155 336 513
f 336 339 513
f 413 418 132
f 418 137 132
f 513 339 514
f 339 342 514
f 406 413 126
f 413 132 126
f 342 344 515
f 514 342 515
f 407 406 118
f 406 126 118
f 344 347 516
f 515 344 516
f 492 407 115
f 407 118 115
f 516 347 517
f 347 348 517
f 492 115 108
f 486 492 108
f 517 348 518
f 348 350 518
f 482 486 107
f 486 108 107
f 518 350 519
f 350 352 519
f 519 352 354
f 482 107 478
f 478 107 182
f 519 354 520
f 520 354 356
f 478 182 474
f 474 182 178
f 520 356 521
f 521 356 358
f 474 178 470
f 470 178 176
f 521 358 522
f 522 358 360
f 470 176 465
f 465 176 170
f 522 360 523
f 523 360 362
f 465 170 461
f 461 170 166
f 523 362 524
f 524 362 364
f 461 166 457
f 457 166 162
f 524 364 525
f 525 364 366
f 457 162 453
f 526 525 367
f 525 366 367
f 162 158 449
f 453 162 449
f 527 526 369
f 526 367 369
f 158 153 445
f 449 158 445
f 528 527 371
f 527 369 371
f 153 144 441
f 445 153 441
f 529 528 373
f 528 371 373
f 144 139 437
f 441 144 437
f 529 373 329
f 530 529 329
f 437 139 432
f 139 131 432
f 530 329 328
f 531 530 328
f 432 131 426
f 131 124 426
f 532 531 332
f 531 328 332
f 426 124 420
f 124 123 420
f 420 123 343
f 532 332 335
f 123 533 340
f 343 123 340
f 534 532 338
f 532 335 338
f 533 496 337
f 340 533 337
f 499 534 341
f 534 338 341
f 535 536 388
f 537 431 538
f 397 257 259
f 537 538 539
f 235 257 397
f 540 536 535
f 393 235 397
f 540 539 536
f 541 431 537
f 541 436 431
f 541 440 436
f 541 444 440
f 541 448 444
f 542 535 390
f 542 391 396
f 542 389 391
f 542 390 389
f 542 540 535
f 543 539 540
f 543 537 539
f 544 540 542
f 544 543 540
f 545 537 543
f 545 452 448
f 545 456 452
f 545 460 456
f 545 464 460
f 545 541 537
f 545 448 541
f 546 542 396
f 546 400 401
f 546 544 542
f 546 395 400
f 546 396 395
f 421 262 260
f 547 545 543
f 547 543 544
f 427 260 251
f 427 421 260
f 548 544 546
f 549 464 545
f 549 545 547
f 549 468 464
f 549 469 468
f 549 473 469
f 549 477 473
f 549 481 477
f 550 402 405
f 550 401 402
f 550 405 196
f 550 196 266
f 550 266 267
f 550 548 546
f 550 546 401
f 551 547 544
f 551 549 547
f 551 544 548
f 552 548 550
f 552 550 267
f 552 267 269
f 552 269 270
f 552 270 271
f 552 551 548
f 553 549 551
f 553 481 549
f 553 485 481
f 553 489 485
f 553 491 489
f 553 495 491
f 554 551 552
f 554 271 277
f 554 277 278
f 554 278 225
f 554 552 271
f 554 553 551
f 555 225 423
f 555 554 225
f 555 495 553
f 555 553 554
f 555 410 495
f 555 411 410
f 555 417 411
f 555 423 417
f 193 385 194
f 196 405 385
f 196 385 193
f 222 423 225
f 429 423 222
f 221 429 222
f 556 236 235
f 556 237 236
f 556 235 393
f 556 394 392
f 556 393 394
f 557 240 237
f 557 241 240
f 557 242 241
f 557 237 556
f 558 557 556
f 558 379 378
f 558 376 379
f 558 392 376
f 558 556 392
f 559 249 242
f 559 250 249
f 559 242 557
f 560 557 558
f 560 559 557
f 561 251 250
f 561 427 251
f 561 433 427
f 561 438 433
f 561 442 438
f 561 446 442
f 561 250 559
f 562 558 378
f 562 383 384
f 562 377 383
f 562 378 377
f 563 561 559
f 563 559 560
f 564 558 562
f 564 560 558
f 565 561 563
f 565 446 561
f 565 450 446
f 565 454 450
f 565 458 454
f 565 462 458
f 566 398 404
f 566 399 398
f 566 384 399
f 566 562 384
f 567 563 560
f 567 560 564
f 568 567 564
f 568 564 562
f 568 562 566
f 569 375 382
f 569 403 375
f 569 404 403
f 569 566 404
f 570 565 563
f 570 462 565
f 570 466 462
f 570 563 567
f 570 471 466
f 570 475 471
f 570 479 475
f 570 483 479
f 571 567 568
f 572 566 569
f 572 568 566
f 573 483 570
f 573 487 483
f 573 493 487
f 573 408 493
f 573 570 567
f 573 414 408
f 573 567 571
f 536 380 388
f 536 381 380
f 536 382 381
f 536 569 382
f 536 572 569
f 538 571 568
f 538 568 572
f 539 538 572
f 539 572 536
f 574 573 571
f 574 414 573
f 574 538 431
f 574 571 538
f 574 415 414
f 574 419 415
f 574 425 419
f 574 431 425
f 535 386 390
f 535 387 386
f 535 388 387
f 575 525 526
f 576 575 526
f 577 578 510
f 578 512 510
f 577 510 508
f 576 526 527
f 579 576 527
f 580 577 508
f 579 527 528
f 581 579 528
f 580 508 506
f 582 580 506
f 152 155 513
f 583 152 513
f 581 528 529
f 584 581 529
f 582 506 504
f 585 582 504
f 586 583 514
f 584 529 530
f 587 584 530
f 583 513 514
f 585 504 502
f 588 585 502
f 589 587 531
f 590 586 515
f 588 502 500
f 587 530 531
f 586 514 515
f 591 588 500
f 589 531 532
f 591 500 497
f 590 515 516
f 592 591 497
f 593 590 516
f 592 497 496
f 594 589 534
f 595 592 496
f 589 532 534
f 595 496 533
f 122 595 533
f 593 516 517
f 596 593 517
f 122 533 123
f 597 594 499
f 594 534 499
f 596 517 518
f 598 596 518
f 599 597 498
f 597 499 498
f 598 518 519
f 600 598 519
f 601 599 501
f 599 498 501
f 600 519 520
f 602 600 520
f 603 601 503
f 601 501 503
f 602 520 521
f 604 603 505
f 605 602 521
f 603 503 505
f 606 604 507
f 605 521 522
f 607 605 522
f 604 505 507
f 607 522 523
f 608 607 523
f 609 606 509
f 606 507 509
f 608 523 524
f 609 509 511
f 610 608 524
f 611 609 511
f 611 511 512
f 610 524 525
f 575 610 525
f 578 611 512
f 180 185 612
f 185 111 612
f 111 110 613
f 612 111 613
f 110 117 614
f 613 110 614
f 174 180 615
f 180 612 615
f 117 121 616
f 121 129 616
f 614 117 616
f 168 171 617
f 171 174 617
f 174 615 617
f 129 135 618
f 616 129 618
f 164 168 619
f 168 617 619
f 135 141 620
f 141 145 620
f 618 135 620
f 164 619 621
f 156 160 621
f 160 164 621
f 145 150 622
f 620 145 622
f 156 621 623
f 148 156 623
f 150 152 38
f 152 583 38
f 622 150 38
f 133 136 624
f 136 148 624
f 148 623 624
f 127 133 625
f 133 624 625
f 38 583 35
f 583 586 35
f 116 119 626
f 119 127 626
f 127 625 626
f 35 586 32
f 586 590 32
f 590 593 32
f 109 116 627
f 116 626 627
f 32 593 30
f 593 596 30
f 184 106 628
f 106 109 628
f 109 627 628
f 30 596 26
f 596 598 26
f 598 600 26
f 26 600 21
f 600 602 21
f 179 184 629
f 184 628 629
f 177 179 630
f 179 629 630
f 21 602 18
f 602 605 18
f 18 605 14
f 630 631 173
f 177 630 173
f 14 605 607
f 631 632 167
f 173 631 167
f 10 14 608
f 14 607 608
f 632 633 163
f 167 632 163
f 5 10 610
f 10 608 610
f 163 633 159
f 5 610 575
f 633 634 154
f 159 633 154
f 1 5 576
f 5 575 576
f 634 635 146
f 154 634 146
f 4 1 579
f 1 576 579
f 146 635 138
f 4 579 581
f 635 636 130
f 138 635 130
f 4 581 584
f 53 4 584
f 636 7 125
f 130 636 125
f 53 584 587
f 51 53 587
f 125 7 122
f 51 587 589
f 7 12 595
f 122 7 595
f 51 589 594
f 49 51 594
f 595 12 592
f 12 16 592
f 49 594 597
f 47 49 597
f 592 16 591
f 47 597 599
f 16 19 588
f 591 16 588
f 47 599 601
f 45 47 601
f 19 24 585
f 588 19 585
f 43 45 603
f 45 601 603
f 43 603 604
f 585 24 582
f 41 43 606
f 43 604 606
f 24 28 580
f 582 24 580
f 39 41 609
f 41 606 609
f 580 28 577
f 28 33 577
f 39 609 611
f 33 39 578
f 577 33 578
f 39 611 578
f 637 73 638
f 637 638 639
f 640 641 642
f 637 643 644
f 640 642 645
f 637 639 643
f 640 645 646
f 647 648 649
f 647 649 641
f 647 646 650
f 647 640 646
f 647 641 640
f 651 637 644
f 652 653 654
f 652 654 648
f 652 648 647
f 652 647 650
f 60 59 655
f 656 657 658
f 656 658 653
f 656 653 652
f 659 637 651
f 659 68 637
f 660 661 657
f 660 657 656
f 662 63 663
f 662 663 661
f 662 664 63
f 665 69 68
f 662 661 660
f 666 667 668
f 666 669 667
f 665 68 659
f 666 670 671
f 666 671 669
f 666 668 672
f 673 666 674
f 675 69 665
f 673 670 666
f 676 677 670
f 676 674 677
f 676 673 674
f 676 670 673
f 678 674 666
f 678 650 674
f 678 652 650
f 678 656 652
f 679 678 666
f 679 660 656
f 679 656 678
f 679 662 660
f 679 664 662
f 679 666 672
f 679 672 664
f 672 61 63
f 672 63 664
f 668 61 672
f 680 668 667
f 680 667 669
f 680 671 670
f 680 94 83
f 680 83 61
f 680 669 671
f 680 61 668
f 681 680 670
f 681 94 680
f 681 103 94
f 682 670 677
f 682 103 681
f 682 677 655
f 682 104 103
f 682 681 670
f 682 655 104
f 683 677 674
f 59 104 655
f 683 639 677
f 684 639 683
f 684 683 674
f 685 72 60
f 686 684 674
f 685 655 677
f 685 60 655
f 686 651 644
f 685 677 639
f 686 639 684
f 686 659 651
f 686 644 643
f 686 665 659
f 686 643 639
f 646 665 686
f 638 73 72
f 646 675 665
f 638 72 685
f 638 685 639
f 650 686 674
f 650 646 686
f 645 642 687
f 645 687 69
f 645 675 646
f 645 69 675
f 637 68 78
f 637 78 73
f 688 654 653
f 688 689 690
f 688 690 654
f 691 692 689
f 691 693 694
f 691 695 693
f 691 696 695
f 687 67 69
f 691 697 692
f 691 694 697
f 698 691 689
f 62 663 63
f 698 689 688
f 699 658 657
f 699 653 658
f 699 688 653
f 700 701 696
f 700 702 701
f 700 703 702
f 700 691 698
f 700 696 691
f 704 698 688
f 704 688 699
f 705 37 80
f 706 657 661
f 706 699 657
f 707 700 698
f 708 705 80
f 707 703 700
f 707 709 703
f 707 710 709
f 707 711 710
f 707 698 704
f 712 699 706
f 713 714 76
f 8 713 76
f 715 87 67
f 715 88 87
f 712 704 699
f 716 661 663
f 715 687 642
f 716 62 84
f 716 84 85
f 716 663 62
f 715 67 687
f 716 706 661
f 717 96 88
f 718 704 712
f 717 97 96
f 718 711 707
f 718 707 704
f 718 719 711
f 718 720 719
f 718 721 720
f 717 88 715
f 722 85 91
f 722 91 92
f 723 642 641
f 723 715 642
f 722 716 85
f 722 706 716
f 722 712 706
f 724 722 92
f 723 717 715
f 724 718 712
f 725 101 97
f 724 92 99
f 725 80 101
f 724 99 76
f 725 726 708
f 724 712 722
f 725 727 726
f 724 728 721
f 724 714 728
f 724 76 714
f 724 721 718
f 725 97 717
f 725 708 80
f 729 717 723
f 729 725 717
f 730 649 648
f 730 641 649
f 730 729 723
f 730 723 641
f 731 727 725
f 731 732 727
f 731 733 732
f 731 734 733
f 731 725 729
f 692 731 729
f 692 729 730
f 690 648 654
f 690 730 648
f 697 735 734
f 697 736 735
f 697 694 736
f 697 734 731
f 697 731 692
f 689 730 690
f 689 692 730
f 627 703 709
f 627 626 703
f 628 709 710
f 628 627 709
f 38 37 705
f 629 710 711
f 629 628 710
f 622 705 708
f 622 38 705
f 630 711 719
f 630 629 711
f 620 708 726
f 620 622 708
f 631 719 720
f 631 630 719
f 618 726 727
f 618 620 726
f 632 720 721
f 632 631 720
f 616 727 732
f 616 618 727
f 633 721 728
f 633 632 721
f 614 732 733
f 634 728 714
f 614 616 732
f 634 633 728
f 635 714 713
f 635 634 714
f 613 733 734
f 636 635 713
f 636 713 8
f 613 614 733
f 7 636 8
f 612 734 735
f 612 613 734
f 615 735 736
f 615 612 735
f 617 736 694
f 617 615 736
f 619 694 693
f 619 617 694
f 621 693 695
f 621 619 693
f 623 621 695
f 623 695 696
f 624 623 696
f 624 696 701
f 625 701 702
f 625 624 701
f 626 702 703
f 626 625 702
