# Created by FreeCAD <http://www.freecadweb.org>
v 50.049999 32.000000 0.000000
v 50.049999 32.000000 -2.000000
v 49.980148 31.469421 -2.000000
v 49.775352 30.975000 0.000000
v 49.980148 31.469421 0.000000
v 49.449570 30.550430 0.000000
v 49.775352 30.975000 -2.000000
v 49.449570 30.550430 -2.000000
v 49.025002 30.224648 0.000000
v 49.025002 30.224648 -2.000000
v 48.530579 30.019852 0.000000
v 48.530579 30.019852 -2.000000
v 47.469421 30.019852 0.000000
v 48.000000 29.950001 0.000000
v 48.000000 29.950001 -2.000000
v 47.469421 30.019852 -2.000000
v 46.550430 30.550430 0.000000
v 46.974998 30.224648 0.000000
v 46.974998 30.224648 -2.000000
v 46.224648 30.975000 0.000000
v 46.550430 30.550430 -2.000000
v 46.019852 31.469421 0.000000
v 46.224648 30.975000 -2.000000
v 45.950001 32.000000 0.000000
v 46.019852 31.469421 -2.000000
v 45.950001 32.000000 -2.000000
v 42.049999 32.000000 0.000000
v 42.049999 32.000000 -2.000000
v 41.980148 31.469421 -2.000000
v 41.980148 31.469421 0.000000
v 41.449570 30.550430 0.000000
v 41.775352 30.975000 0.000000
v 41.775352 30.975000 -2.000000
v 41.025002 30.224648 0.000000
v 41.449570 30.550430 -2.000000
v 41.025002 30.224648 -2.000000
v 40.530579 30.019852 0.000000
v 40.530579 30.019852 -2.000000
v 39.469421 30.019852 0.000000
v 40.000000 29.950001 0.000000
v 40.000000 29.950001 -2.000000
v 39.469421 30.019852 -2.000000
v 38.550430 30.550430 0.000000
v 38.974998 30.224648 0.000000
v 38.974998 30.224648 -2.000000
v 38.224648 30.975000 0.000000
v 38.550430 30.550430 -2.000000
v 38.019852 31.469421 0.000000
v 38.224648 30.975000 -2.000000
v 37.950001 32.000000 0.000000
v 38.019852 31.469421 -2.000000
v 37.950001 32.000000 -2.000000
v 34.049999 32.000000 0.000000
v 34.049999 32.000000 -2.000000
v 33.980148 31.469421 -2.000000
v 33.775352 30.975000 0.000000
v 33.980148 31.469421 0.000000
v 33.449570 30.550430 0.000000
v 33.775352 30.975000 -2.000000
v 33.449570 30.550430 -2.000000
v 33.025002 30.224648 0.000000
v 33.025002 30.224648 -2.000000
v 32.530579 30.019852 0.000000
v 32.530579 30.019852 -2.000000
v 31.469421 30.019852 0.000000
v 32.000000 29.950001 0.000000
v 32.000000 29.950001 -2.000000
v 31.469421 30.019852 -2.000000
v 30.975000 30.224648 0.000000
v 30.975000 30.224648 -2.000000
v 30.550430 30.550430 0.000000
v 30.550430 30.550430 -2.000000
v 30.019852 31.469421 0.000000
v 30.224648 30.975000 0.000000
v 30.224648 30.975000 -2.000000
v 29.950001 32.000000 0.000000
v 30.019852 31.469421 -2.000000
v 29.950001 32.000000 -2.000000
v 26.049999 32.000000 0.000000
v 26.049999 32.000000 -2.000000
v 25.980148 31.469421 -2.000000
v 25.775352 30.975000 0.000000
v 25.980148 31.469421 0.000000
v 25.449570 30.550430 0.000000
v 25.775352 30.975000 -2.000000
v 25.449570 30.550430 -2.000000
v 25.025000 30.224648 0.000000
v 25.025000 30.224648 -2.000000
v 24.530579 30.019852 0.000000
v 24.530579 30.019852 -2.000000
v 23.469421 30.019852 0.000000
v 24.000000 29.950001 0.000000
v 24.000000 29.950001 -2.000000
v 23.469421 30.019852 -2.000000
v 22.550430 30.550430 0.000000
v 22.975000 30.224648 0.000000
v 22.975000 30.224648 -2.000000
v 22.224648 30.975000 0.000000
v 22.550430 30.550430 -2.000000
v 22.019852 31.469421 0.000000
v 22.224648 30.975000 -2.000000
v 21.950001 32.000000 0.000000
v 22.019852 31.469421 -2.000000
v 21.950001 32.000000 -2.000000
v 18.049999 32.000000 0.000000
v 18.049999 32.000000 -2.000000
v 17.980148 31.469421 -2.000000
v 17.775352 30.975000 0.000000
v 17.980148 31.469421 0.000000
v 17.449570 30.550430 0.000000
v 17.775352 30.975000 -2.000000
v 17.449570 30.550430 -2.000000
v 17.025000 30.224648 0.000000
v 17.025000 30.224648 -2.000000
v 16.530579 30.019852 0.000000
v 16.530579 30.019852 -2.000000
v 15.469421 30.019852 0.000000
v 16.000000 29.950001 0.000000
v 16.000000 29.950001 -2.000000
v 15.469421 30.019852 -2.000000
v 14.550431 30.550430 0.000000
v 14.975000 30.224648 0.000000
v 14.975000 30.224648 -2.000000
v 14.224648 30.975000 0.000000
v 14.550431 30.550430 -2.000000
v 14.019852 31.469421 0.000000
v 14.224648 30.975000 -2.000000
v 13.950000 32.000000 0.000000
v 14.019852 31.469421 -2.000000
v 13.950000 32.000000 -2.000000
v 10.050000 32.000000 0.000000
v 10.050000 32.000000 -2.000000
v 9.980148 31.469421 -2.000000
v 9.775352 30.975000 0.000000
v 9.980148 31.469421 0.000000
v 9.449569 30.550430 0.000000
v 9.775352 30.975000 -2.000000
v 9.449569 30.550430 -2.000000
v 9.025000 30.224648 0.000000
v 9.025000 30.224648 -2.000000
v 8.530579 30.019852 0.000000
v 8.530579 30.019852 -2.000000
v 7.469421 30.019852 0.000000
v 8.000000 29.950001 0.000000
v 8.000000 29.950001 -2.000000
v 7.469421 30.019852 -2.000000
v 6.550431 30.550430 0.000000
v 6.975000 30.224648 0.000000
v 6.975000 30.224648 -2.000000
v 6.224648 30.975000 0.000000
v 6.550431 30.550430 -2.000000
v 6.019852 31.469421 0.000000
v 6.224648 30.975000 -2.000000
v 5.950000 32.000000 0.000000
v 6.019852 31.469421 -2.000000
v 5.950000 32.000000 -2.000000
v 49.980148 23.469421 0.000000
v 50.049999 24.000000 0.000000
v 50.049999 24.000000 -2.000000
v 49.775352 22.975000 0.000000
v 49.980148 23.469421 -2.000000
v 49.449570 22.550430 0.000000
v 49.775352 22.975000 -2.000000
v 49.449570 22.550430 -2.000000
v 49.025002 22.224648 0.000000
v 49.025002 22.224648 -2.000000
v 48.530579 22.019852 0.000000
v 48.530579 22.019852 -2.000000
v 47.469421 22.019852 0.000000
v 48.000000 21.950001 0.000000
v 48.000000 21.950001 -2.000000
v 47.469421 22.019852 -2.000000
v 46.974998 22.224648 0.000000
v 46.974998 22.224648 -2.000000
v 46.224648 22.975000 0.000000
v 46.550430 22.550430 0.000000
v 46.550430 22.550430 -2.000000
v 46.019852 23.469421 0.000000
v 46.224648 22.975000 -2.000000
v 45.950001 24.000000 0.000000
v 46.019852 23.469421 -2.000000
v 45.950001 24.000000 -2.000000
v 41.980148 23.469421 0.000000
v 42.049999 24.000000 0.000000
v 42.049999 24.000000 -2.000000
v 41.980148 23.469421 -2.000000
v 41.449570 22.550430 0.000000
v 41.775352 22.975000 0.000000
v 41.775352 22.975000 -2.000000
v 41.025002 22.224648 0.000000
v 41.449570 22.550430 -2.000000
v 41.025002 22.224648 -2.000000
v 40.530579 22.019852 0.000000
v 40.530579 22.019852 -2.000000
v 39.469421 22.019852 0.000000
v 40.000000 21.950001 0.000000
v 40.000000 21.950001 -2.000000
v 39.469421 22.019852 -2.000000
v 38.550430 22.550430 0.000000
v 38.974998 22.224648 0.000000
v 38.974998 22.224648 -2.000000
v 38.224648 22.975000 0.000000
v 38.550430 22.550430 -2.000000
v 38.019852 23.469421 0.000000
v 38.224648 22.975000 -2.000000
v 37.950001 24.000000 0.000000
v 38.019852 23.469421 -2.000000
v 37.950001 24.000000 -2.000000
v 33.980148 23.469421 0.000000
v 34.049999 24.000000 0.000000
v 34.049999 24.000000 -2.000000
v 33.775352 22.975000 0.000000
v 33.980148 23.469421 -2.000000
v 33.449570 22.550430 0.000000
v 33.775352 22.975000 -2.000000
v 33.449570 22.550430 -2.000000
v 33.025002 22.224648 0.000000
v 33.025002 22.224648 -2.000000
v 32.530579 22.019852 0.000000
v 32.530579 22.019852 -2.000000
v 31.469421 22.019852 0.000000
v 32.000000 21.950001 0.000000
v 32.000000 21.950001 -2.000000
v 31.469421 22.019852 -2.000000
v 30.975000 22.224648 0.000000
v 30.975000 22.224648 -2.000000
v 30.224648 22.975000 0.000000
v 30.550430 22.550430 0.000000
v 30.550430 22.550430 -2.000000
v 30.019852 23.469421 0.000000
v 30.224648 22.975000 -2.000000
v 29.950001 24.000000 0.000000
v 30.019852 23.469421 -2.000000
v 29.950001 24.000000 -2.000000
v 25.980148 23.469421 0.000000
v 26.049999 24.000000 0.000000
v 26.049999 24.000000 -2.000000
v 25.775352 22.975000 0.000000
v 25.980148 23.469421 -2.000000
v 25.449570 22.550430 0.000000
v 25.775352 22.975000 -2.000000
v 25.449570 22.550430 -2.000000
v 25.025000 22.224648 0.000000
v 25.025000 22.224648 -2.000000
v 24.530579 22.019852 0.000000
v 24.530579 22.019852 -2.000000
v 23.469421 22.019852 0.000000
v 24.000000 21.950001 0.000000
v 24.000000 21.950001 -2.000000
v 23.469421 22.019852 -2.000000
v 22.550430 22.550430 0.000000
v 22.975000 22.224648 0.000000
v 22.975000 22.224648 -2.000000
v 22.550430 22.550430 -2.000000
v 22.019852 23.469421 0.000000
v 22.224648 22.975000 0.000000
v 22.224648 22.975000 -2.000000
v 21.950001 24.000000 0.000000
v 22.019852 23.469421 -2.000000
v 21.950001 24.000000 -2.000000
v 17.980148 23.469421 0.000000
v 18.049999 24.000000 0.000000
v 18.049999 24.000000 -2.000000
v 17.980148 23.469421 -2.000000
v 17.449570 22.550430 0.000000
v 17.775352 22.975000 0.000000
v 17.775352 22.975000 -2.000000
v 17.449570 22.550430 -2.000000
v 17.025000 22.224648 0.000000
v 17.025000 22.224648 -2.000000
v 16.530579 22.019852 0.000000
v 16.530579 22.019852 -2.000000
v 15.469421 22.019852 0.000000
v 16.000000 21.950001 0.000000
v 16.000000 21.950001 -2.000000
v 15.469421 22.019852 -2.000000
v 14.550431 22.550430 0.000000
v 14.975000 22.224648 0.000000
v 14.975000 22.224648 -2.000000
v 14.224648 22.975000 0.000000
v 14.550431 22.550430 -2.000000
v 14.019852 23.469421 0.000000
v 14.224648 22.975000 -2.000000
v 13.950000 24.000000 0.000000
v 14.019852 23.469421 -2.000000
v 13.950000 24.000000 -2.000000
v 9.980148 23.469421 0.000000
v 10.050000 24.000000 0.000000
v 10.050000 24.000000 -2.000000
v 9.775352 22.975000 0.000000
v 9.980148 23.469421 -2.000000
v 9.449569 22.550430 0.000000
v 9.775352 22.975000 -2.000000
v 9.449569 22.550430 -2.000000
v 9.025000 22.224648 0.000000
v 9.025000 22.224648 -2.000000
v 8.530579 22.019852 0.000000
v 8.530579 22.019852 -2.000000
v 7.469421 22.019852 0.000000
v 8.000000 21.950001 0.000000
v 8.000000 21.950001 -2.000000
v 7.469421 22.019852 -2.000000
v 6.550431 22.550430 0.000000
v 6.975000 22.224648 0.000000
v 6.975000 22.224648 -2.000000
v 6.224648 22.975000 0.000000
v 6.550431 22.550430 -2.000000
v 6.019852 23.469421 0.000000
v 6.224648 22.975000 -2.000000
v 5.950000 24.000000 0.000000
v 6.019852 23.469421 -2.000000
v 5.950000 24.000000 -2.000000
v 50.049999 16.000000 0.000000
v 50.049999 16.000000 -2.000000
v 49.980148 15.469421 -2.000000
v 49.980148 15.469421 0.000000
v 49.449570 14.550431 0.000000
v 49.775352 14.975000 0.000000
v 49.775352 14.975000 -2.000000
v 49.449570 14.550431 -2.000000
v 49.025002 14.224648 0.000000
v 49.025002 14.224648 -2.000000
v 48.530579 14.019852 0.000000
v 48.530579 14.019852 -2.000000
v 47.469421 14.019852 0.000000
v 48.000000 13.950000 0.000000
v 48.000000 13.950000 -2.000000
v 47.469421 14.019852 -2.000000
v 46.550430 14.550431 0.000000
v 46.974998 14.224648 0.000000
v 46.974998 14.224648 -2.000000
v 46.224648 14.975000 0.000000
v 46.550430 14.550431 -2.000000
v 46.019852 15.469421 0.000000
v 46.224648 14.975000 -2.000000
v 45.950001 16.000000 0.000000
v 46.019852 15.469421 -2.000000
v 45.950001 16.000000 -2.000000
v 42.049999 16.000000 0.000000
v 42.049999 16.000000 -2.000000
v 41.980148 15.469421 -2.000000
v 41.980148 15.469421 0.000000
v 41.449570 14.550431 0.000000
v 41.775352 14.975000 0.000000
v 41.775352 14.975000 -2.000000
v 41.449570 14.550431 -2.000000
v 41.025002 14.224648 0.000000
v 41.025002 14.224648 -2.000000
v 40.530579 14.019852 0.000000
v 40.530579 14.019852 -2.000000
v 39.469421 14.019852 0.000000
v 40.000000 13.950000 0.000000
v 40.000000 13.950000 -2.000000
v 39.469421 14.019852 -2.000000
v 38.974998 14.224648 0.000000
v 38.974998 14.224648 -2.000000
v 38.550430 14.550431 0.000000
v 38.550430 14.550431 -2.000000
v 38.019852 15.469421 0.000000
v 38.224648 14.975000 0.000000
v 38.224648 14.975000 -2.000000
v 37.950001 16.000000 0.000000
v 38.019852 15.469421 -2.000000
v 37.950001 16.000000 -2.000000
v 34.049999 16.000000 0.000000
v 34.049999 16.000000 -2.000000
v 33.980148 15.469421 -2.000000
v 33.775352 14.975000 0.000000
v 33.980148 15.469421 0.000000
v 33.449570 14.550431 0.000000
v 33.775352 14.975000 -2.000000
v 33.025002 14.224648 0.000000
v 33.449570 14.550431 -2.000000
v 33.025002 14.224648 -2.000000
v 32.530579 14.019852 0.000000
v 32.530579 14.019852 -2.000000
v 31.469421 14.019852 0.000000
v 32.000000 13.950000 0.000000
v 32.000000 13.950000 -2.000000
v 31.469421 14.019852 -2.000000
v 30.975000 14.224648 0.000000
v 30.975000 14.224648 -2.000000
v 30.224648 14.975000 0.000000
v 30.550430 14.550431 0.000000
v 30.550430 14.550431 -2.000000
v 30.019852 15.469421 0.000000
v 30.224648 14.975000 -2.000000
v 29.950001 16.000000 0.000000
v 30.019852 15.469421 -2.000000
v 29.950001 16.000000 -2.000000
v 26.049999 16.000000 0.000000
v 26.049999 16.000000 -2.000000
v 25.980148 15.469421 -2.000000
v 25.775352 14.975000 0.000000
v 25.980148 15.469421 0.000000
v 25.449570 14.550431 0.000000
v 25.775352 14.975000 -2.000000
v 25.025000 14.224648 0.000000
v 25.449570 14.550431 -2.000000
v 25.025000 14.224648 -2.000000
v 24.530579 14.019852 0.000000
v 24.530579 14.019852 -2.000000
v 23.469421 14.019852 0.000000
v 24.000000 13.950000 0.000000
v 24.000000 13.950000 -2.000000
v 23.469421 14.019852 -2.000000
v 22.975000 14.224648 0.000000
v 22.975000 14.224648 -2.000000
v 22.224648 14.975000 0.000000
v 22.550430 14.550431 0.000000
v 22.550430 14.550431 -2.000000
v 22.019852 15.469421 0.000000
v 22.224648 14.975000 -2.000000
v 21.950001 16.000000 0.000000
v 22.019852 15.469421 -2.000000
v 21.950001 16.000000 -2.000000
v 18.049999 16.000000 0.000000
v 18.049999 16.000000 -2.000000
v 17.980148 15.469421 -2.000000
v 17.980148 15.469421 0.000000
v 17.449570 14.550431 0.000000
v 17.775352 14.975000 0.000000
v 17.775352 14.975000 -2.000000
v 17.449570 14.550431 -2.000000
v 17.025000 14.224648 0.000000
v 17.025000 14.224648 -2.000000
v 16.530579 14.019852 0.000000
v 16.530579 14.019852 -2.000000
v 15.469421 14.019852 0.000000
v 16.000000 13.950000 0.000000
v 16.000000 13.950000 -2.000000
v 15.469421 14.019852 -2.000000
v 14.975000 14.224648 0.000000
v 14.975000 14.224648 -2.000000
v 14.224648 14.975000 0.000000
v 14.550431 14.550431 0.000000
v 14.550431 14.550431 -2.000000
v 14.019852 15.469421 0.000000
v 14.224648 14.975000 -2.000000
v 13.950000 16.000000 0.000000
v 14.019852 15.469421 -2.000000
v 13.950000 16.000000 -2.000000
v 10.050000 16.000000 0.000000
v 10.050000 16.000000 -2.000000
v 9.980148 15.469421 -2.000000
v 9.980148 15.469421 0.000000
v 9.449569 14.550431 0.000000
v 9.775352 14.975000 0.000000
v 9.775352 14.975000 -2.000000
v 9.449569 14.550431 -2.000000
v 9.025000 14.224648 0.000000
v 9.025000 14.224648 -2.000000
v 8.530579 14.019852 0.000000
v 8.530579 14.019852 -2.000000
v 7.469421 14.019852 0.000000
v 8.000000 13.950000 0.000000
v 8.000000 13.950000 -2.000000
v 7.469421 14.019852 -2.000000
v 6.975000 14.224648 0.000000
v 6.975000 14.224648 -2.000000
v 6.224648 14.975000 0.000000
v 6.550431 14.550431 0.000000
v 6.550431 14.550431 -2.000000
v 6.019852 15.469421 0.000000
v 6.224648 14.975000 -2.000000
v 5.950000 16.000000 0.000000
v 6.019852 15.469421 -2.000000
v 5.950000 16.000000 -2.000000
v 38.550430 33.449570 0.000000
v 33.449570 33.449570 0.000000
v 33.775352 33.025002 0.000000
v 33.025002 33.775352 0.000000
v 38.224648 33.025002 0.000000
v 23.469421 33.980148 0.000000
v 16.530579 33.980148 0.000000
v 17.025000 33.775352 0.000000
v 49.025002 17.775352 0.000000
v 49.449570 17.449570 0.000000
v 9.025000 33.775352 0.000000
v 6.000000 36.000000 0.000000
v 8.530579 33.980148 0.000000
v 22.975000 33.775352 0.000000
v 46.550430 25.449570 0.000000
v 41.775352 25.025000 0.000000
v 46.224648 25.025000 0.000000
v 41.449570 25.449570 0.000000
v 38.974998 33.775352 0.000000
v 49.775352 17.025000 0.000000
v 52.000000 14.000000 0.000000
v 4.000000 14.000000 0.000000
v 4.068148 13.482362 0.000000
v 4.267949 13.000000 0.000000
v 4.585786 12.585787 0.000000
v 5.000000 12.267949 0.000000
v 5.482362 12.068149 0.000000
v 6.000000 12.000000 0.000000
v 39.469421 33.980148 0.000000
v 32.530579 33.980148 0.000000
v 9.449569 25.449570 0.000000
v 14.550431 25.449570 0.000000
v 6.019852 16.530579 0.000000
v 17.449570 17.449570 0.000000
v 22.550430 17.449570 0.000000
v 6.224648 17.025000 0.000000
v 14.975000 25.775352 0.000000
v 22.975000 17.775352 0.000000
v 25.449570 25.449570 0.000000
v 30.550430 25.449570 0.000000
v 6.550431 17.449570 0.000000
v 15.469421 25.980148 0.000000
v 33.449570 17.449570 0.000000
v 38.550430 17.449570 0.000000
v 46.974998 25.775352 0.000000
v 23.469421 17.980148 0.000000
v 6.975000 17.775352 0.000000
v 47.469421 25.980148 0.000000
v 30.975000 25.775352 0.000000
v 31.469421 25.980148 0.000000
v 7.469421 17.980148 0.000000
v 48.000000 26.049999 0.000000
v 9.980148 32.530579 0.000000
v 46.019852 32.530579 0.000000
v 41.980148 32.530579 0.000000
v 38.974998 17.775352 0.000000
v 16.000000 26.049999 0.000000
v 48.530579 25.980148 0.000000
v 24.000000 18.049999 0.000000
v 8.000000 18.049999 0.000000
v 49.025002 25.775352 0.000000
v 46.224648 33.025002 0.000000
v 41.775352 33.025002 0.000000
v 49.449570 25.449570 0.000000
v 46.550430 33.449570 0.000000
v 41.449570 33.449570 0.000000
v 41.025002 33.775352 0.000000
v 16.530579 25.980148 0.000000
v 39.469421 17.980148 0.000000
v 14.019852 32.530579 0.000000
v 8.530579 17.980148 0.000000
v 49.775352 25.025000 0.000000
v 9.775352 33.025002 0.000000
v 46.974998 33.775352 0.000000
v 24.530579 17.980148 0.000000
v 14.019852 16.530579 0.000000
v 9.980148 16.530579 0.000000
v 9.775352 17.025000 0.000000
v 22.019852 24.530579 0.000000
v 17.980148 24.530579 0.000000
v 9.025000 17.775352 0.000000
v 32.000000 26.049999 0.000000
v 30.019852 16.530579 0.000000
v 25.980148 32.530579 0.000000
v 25.980148 16.530579 0.000000
v 14.224648 33.025002 0.000000
v 9.449569 33.449570 0.000000
v 14.224648 17.025000 0.000000
v 17.025000 25.775352 0.000000
v 9.449569 17.449570 0.000000
v 40.000000 18.049999 0.000000
v 50.000000 36.000000 0.000000
v 40.530579 33.980148 0.000000
v 40.000000 34.049999 0.000000
v 25.025000 17.775352 0.000000
v 49.025002 33.775352 0.000000
v 49.449570 33.449570 0.000000
v 22.224648 25.025000 0.000000
v 48.530579 33.980148 0.000000
v 48.000000 34.049999 0.000000
v 17.775352 25.025000 0.000000
v 47.469421 33.980148 0.000000
v 17.449570 25.449570 0.000000
v 14.550431 17.449570 0.000000
v 52.000000 34.000000 0.000000
v 49.980148 32.530579 0.000000
v 50.000000 12.000000 0.000000
v 49.775352 33.025002 0.000000
v 30.224648 17.025000 0.000000
v 25.775352 17.025000 0.000000
v 49.980148 24.530579 0.000000
v 51.931850 34.517639 0.000000
v 50.517639 35.931850 0.000000
v 32.530579 25.980148 0.000000
v 14.550431 33.449570 0.000000
v 51.732052 35.000000 0.000000
v 51.000000 35.732052 0.000000
v 30.019852 32.530579 0.000000
v 25.775352 33.025002 0.000000
v 51.414215 35.414215 0.000000
v 16.000000 34.049999 0.000000
v 25.449570 17.449570 0.000000
v 24.000000 34.049999 0.000000
v 24.530579 33.980148 0.000000
v 40.530579 17.980148 0.000000
v 22.550430 25.449570 0.000000
v 32.000000 34.049999 0.000000
v 31.469421 33.980148 0.000000
v 38.019852 24.530579 0.000000
v 33.980148 24.530579 0.000000
v 33.775352 25.025000 0.000000
v 30.550430 17.449570 0.000000
v 46.019852 16.530579 0.000000
v 41.980148 16.530579 0.000000
v 14.975000 33.775352 0.000000
v 33.025002 25.775352 0.000000
v 30.224648 33.025002 0.000000
v 25.449570 33.449570 0.000000
v 41.025002 17.775352 0.000000
v 15.469421 33.980148 0.000000
v 38.224648 25.025000 0.000000
v 46.224648 17.025000 0.000000
v 41.775352 17.025000 0.000000
v 6.224648 25.025000 0.000000
v 6.550431 25.449570 0.000000
v 33.449570 25.449570 0.000000
v 30.550430 33.449570 0.000000
v 25.025000 33.775352 0.000000
v 41.449570 17.449570 0.000000
v 38.550430 25.449570 0.000000
v 50.517639 12.068149 0.000000
v 51.000000 12.267949 0.000000
v 6.975000 25.775352 0.000000
v 46.550430 17.449570 0.000000
v 51.414215 12.585787 0.000000
v 51.732052 13.000000 0.000000
v 14.975000 17.775352 0.000000
v 30.975000 33.775352 0.000000
v 51.931850 13.482362 0.000000
v 7.469421 25.980148 0.000000
v 15.469421 17.980148 0.000000
v 8.000000 26.049999 0.000000
v 16.000000 18.049999 0.000000
v 22.975000 25.775352 0.000000
v 23.469421 25.980148 0.000000
v 9.980148 24.530579 0.000000
v 30.975000 17.775352 0.000000
v 4.000000 34.000000 0.000000
v 6.019852 24.530579 0.000000
v 49.980148 16.530579 0.000000
v 8.530579 25.980148 0.000000
v 6.019852 32.530579 0.000000
v 16.530579 17.980148 0.000000
v 14.019852 24.530579 0.000000
v 31.469421 17.980148 0.000000
v 22.019852 16.530579 0.000000
v 17.980148 16.530579 0.000000
v 9.025000 25.775352 0.000000
v 6.224648 33.025002 0.000000
v 17.025000 17.775352 0.000000
v 24.000000 26.049999 0.000000
v 14.224648 25.025000 0.000000
v 9.775352 25.025000 0.000000
v 22.224648 17.025000 0.000000
v 17.775352 17.025000 0.000000
v 32.000000 18.049999 0.000000
v 6.550431 33.449570 0.000000
v 4.267949 35.000000 0.000000
v 4.068148 34.517639 0.000000
v 38.974998 25.775352 0.000000
v 39.469421 25.980148 0.000000
v 24.530579 25.980148 0.000000
v 46.974998 17.775352 0.000000
v 22.019852 32.530579 0.000000
v 17.980148 32.530579 0.000000
v 32.530579 17.980148 0.000000
v 4.585786 35.414215 0.000000
v 30.019852 24.530579 0.000000
v 25.980148 24.530579 0.000000
v 5.000000 35.732052 0.000000
v 38.019852 16.530579 0.000000
v 47.469421 17.980148 0.000000
v 33.980148 16.530579 0.000000
v 33.775352 17.025000 0.000000
v 25.025000 25.775352 0.000000
v 40.000000 26.049999 0.000000
v 22.224648 33.025002 0.000000
v 17.775352 33.025002 0.000000
v 17.449570 33.449570 0.000000
v 5.482362 35.931850 0.000000
v 33.025002 17.775352 0.000000
v 30.224648 25.025000 0.000000
v 25.775352 25.025000 0.000000
v 48.000000 18.049999 0.000000
v 38.224648 17.025000 0.000000
v 40.530579 25.980148 0.000000
v 22.550430 33.449570 0.000000
v 38.019852 32.530579 0.000000
v 33.980148 32.530579 0.000000
v 6.975000 33.775352 0.000000
v 7.469421 33.980148 0.000000
v 48.530579 17.980148 0.000000
v 8.000000 34.049999 0.000000
v 46.019852 24.530579 0.000000
v 41.980148 24.530579 0.000000
v 41.025002 25.775352 0.000000
v 33.449570 33.449570 -2.000000
v 33.025002 33.775352 -2.000000
v 38.550430 33.449570 -2.000000
v 38.224648 33.025002 -2.000000
v 33.775352 33.025002 -2.000000
v 17.025000 33.775352 -2.000000
v 16.530579 33.980148 -2.000000
v 23.469421 33.980148 -2.000000
v 49.449570 17.449570 -2.000000
v 49.025002 17.775352 -2.000000
v 22.975000 33.775352 -2.000000
v 8.530579 33.980148 -2.000000
v 6.000000 36.000000 -2.000000
v 9.025000 33.775352 -2.000000
v 46.224648 25.025000 -2.000000
v 41.775352 25.025000 -2.000000
v 46.550430 25.449570 -2.000000
v 41.449570 25.449570 -2.000000
v 38.974998 33.775352 -2.000000
v 49.775352 17.025000 -2.000000
v 6.000000 12.000000 -2.000000
v 5.482362 12.068149 -2.000000
v 5.000000 12.267949 -2.000000
v 4.585786 12.585787 -2.000000
v 52.000000 14.000000 -2.000000
v 4.267949 13.000000 -2.000000
v 4.068148 13.482362 -2.000000
v 4.000000 14.000000 -2.000000
v 32.530579 33.980148 -2.000000
v 39.469421 33.980148 -2.000000
v 14.550431 25.449570 -2.000000
v 9.449569 25.449570 -2.000000
v 22.550430 17.449570 -2.000000
v 17.449570 17.449570 -2.000000
v 6.019852 16.530579 -2.000000
v 6.224648 17.025000 -2.000000
v 14.975000 25.775352 -2.000000
v 22.975000 17.775352 -2.000000
v 25.449570 25.449570 -2.000000
v 30.550430 25.449570 -2.000000
v 6.550431 17.449570 -2.000000
v 15.469421 25.980148 -2.000000
v 33.449570 17.449570 -2.000000
v 38.550430 17.449570 -2.000000
v 46.974998 25.775352 -2.000000
v 23.469421 17.980148 -2.000000
v 6.975000 17.775352 -2.000000
v 47.469421 25.980148 -2.000000
v 31.469421 25.980148 -2.000000
v 30.975000 25.775352 -2.000000
v 48.000000 26.049999 -2.000000
v 9.980148 32.530579 -2.000000
v 7.469421 17.980148 -2.000000
v 41.980148 32.530579 -2.000000
v 46.019852 32.530579 -2.000000
v 38.974998 17.775352 -2.000000
v 16.000000 26.049999 -2.000000
v 48.530579 25.980148 -2.000000
v 24.000000 18.049999 -2.000000
v 8.000000 18.049999 -2.000000
v 49.025002 25.775352 -2.000000
v 41.775352 33.025002 -2.000000
v 46.224648 33.025002 -2.000000
v 49.449570 25.449570 -2.000000
v 41.449570 33.449570 -2.000000
v 46.550430 33.449570 -2.000000
v 41.025002 33.775352 -2.000000
v 16.530579 25.980148 -2.000000
v 39.469421 17.980148 -2.000000
v 8.530579 17.980148 -2.000000
v 49.775352 25.025000 -2.000000
v 9.775352 33.025002 -2.000000
v 14.019852 32.530579 -2.000000
v 46.974998 33.775352 -2.000000
v 24.530579 17.980148 -2.000000
v 9.980148 16.530579 -2.000000
v 14.019852 16.530579 -2.000000
v 17.980148 24.530579 -2.000000
v 22.019852 24.530579 -2.000000
v 9.775352 17.025000 -2.000000
v 9.025000 17.775352 -2.000000
v 32.000000 26.049999 -2.000000
v 25.980148 32.530579 -2.000000
v 25.980148 16.530579 -2.000000
v 30.019852 16.530579 -2.000000
v 9.449569 33.449570 -2.000000
v 14.224648 33.025002 -2.000000
v 14.224648 17.025000 -2.000000
v 17.025000 25.775352 -2.000000
v 9.449569 17.449570 -2.000000
v 40.000000 18.049999 -2.000000
v 40.530579 33.980148 -2.000000
v 50.000000 36.000000 -2.000000
v 40.000000 34.049999 -2.000000
v 25.025000 17.775352 -2.000000
v 22.224648 25.025000 -2.000000
v 17.775352 25.025000 -2.000000
v 49.449570 33.449570 -2.000000
v 49.025002 33.775352 -2.000000
v 17.449570 25.449570 -2.000000
v 48.530579 33.980148 -2.000000
v 48.000000 34.049999 -2.000000
v 47.469421 33.980148 -2.000000
v 14.550431 17.449570 -2.000000
v 52.000000 34.000000 -2.000000
v 49.980148 32.530579 -2.000000
v 50.000000 12.000000 -2.000000
v 30.224648 17.025000 -2.000000
v 49.775352 33.025002 -2.000000
v 25.775352 17.025000 -2.000000
v 49.980148 24.530579 -2.000000
v 50.517639 35.931850 -2.000000
v 51.931850 34.517639 -2.000000
v 32.530579 25.980148 -2.000000
v 14.550431 33.449570 -2.000000
v 51.000000 35.732052 -2.000000
v 51.732052 35.000000 -2.000000
v 30.019852 32.530579 -2.000000
v 25.775352 33.025002 -2.000000
v 51.414215 35.414215 -2.000000
v 25.449570 17.449570 -2.000000
v 16.000000 34.049999 -2.000000
v 24.000000 34.049999 -2.000000
v 24.530579 33.980148 -2.000000
v 32.000000 34.049999 -2.000000
v 40.530579 17.980148 -2.000000
v 22.550430 25.449570 -2.000000
v 31.469421 33.980148 -2.000000
v 33.980148 24.530579 -2.000000
v 38.019852 24.530579 -2.000000
v 33.775352 25.025000 -2.000000
v 30.550430 17.449570 -2.000000
v 46.019852 16.530579 -2.000000
v 41.980148 16.530579 -2.000000
v 14.975000 33.775352 -2.000000
v 33.025002 25.775352 -2.000000
v 25.449570 33.449570 -2.000000
v 30.224648 33.025002 -2.000000
v 41.025002 17.775352 -2.000000
v 15.469421 33.980148 -2.000000
v 38.224648 25.025000 -2.000000
v 41.775352 17.025000 -2.000000
v 46.224648 17.025000 -2.000000
v 6.550431 25.449570 -2.000000
v 6.224648 25.025000 -2.000000
v 33.449570 25.449570 -2.000000
v 30.550430 33.449570 -2.000000
v 25.025000 33.775352 -2.000000
v 41.449570 17.449570 -2.000000
v 38.550430 25.449570 -2.000000
v 51.000000 12.267949 -2.000000
v 50.517639 12.068149 -2.000000
v 46.550430 17.449570 -2.000000
v 6.975000 25.775352 -2.000000
v 51.414215 12.585787 -2.000000
v 51.732052 13.000000 -2.000000
v 14.975000 17.775352 -2.000000
v 30.975000 33.775352 -2.000000
v 51.931850 13.482362 -2.000000
v 7.469421 25.980148 -2.000000
v 15.469421 17.980148 -2.000000
v 8.000000 26.049999 -2.000000
v 23.469421 25.980148 -2.000000
v 22.975000 25.775352 -2.000000
v 16.000000 18.049999 -2.000000
v 9.980148 24.530579 -2.000000
v 30.975000 17.775352 -2.000000
v 4.000000 34.000000 -2.000000
v 49.980148 16.530579 -2.000000
v 6.019852 24.530579 -2.000000
v 6.019852 32.530579 -2.000000
v 8.530579 25.980148 -2.000000
v 16.530579 17.980148 -2.000000
v 31.469421 17.980148 -2.000000
v 14.019852 24.530579 -2.000000
v 17.980148 16.530579 -2.000000
v 22.019852 16.530579 -2.000000
v 6.224648 33.025002 -2.000000
v 9.025000 25.775352 -2.000000
v 17.025000 17.775352 -2.000000
v 24.000000 26.049999 -2.000000
v 9.775352 25.025000 -2.000000
v 14.224648 25.025000 -2.000000
v 17.775352 17.025000 -2.000000
v 22.224648 17.025000 -2.000000
v 32.000000 18.049999 -2.000000
v 4.068148 34.517639 -2.000000
v 6.550431 33.449570 -2.000000
v 4.267949 35.000000 -2.000000
v 39.469421 25.980148 -2.000000
v 38.974998 25.775352 -2.000000
v 24.530579 25.980148 -2.000000
v 46.974998 17.775352 -2.000000
v 22.019852 32.530579 -2.000000
v 17.980148 32.530579 -2.000000
v 4.585786 35.414215 -2.000000
v 32.530579 17.980148 -2.000000
v 25.980148 24.530579 -2.000000
v 30.019852 24.530579 -2.000000
v 5.000000 35.732052 -2.000000
v 38.019852 16.530579 -2.000000
v 47.469421 17.980148 -2.000000
v 33.980148 16.530579 -2.000000
v 33.775352 17.025000 -2.000000
v 25.025000 25.775352 -2.000000
v 22.224648 33.025002 -2.000000
v 40.000000 26.049999 -2.000000
v 17.775352 33.025002 -2.000000
v 17.449570 33.449570 -2.000000
v 5.482362 35.931850 -2.000000
v 33.025002 17.775352 -2.000000
v 25.775352 25.025000 -2.000000
v 30.224648 25.025000 -2.000000
v 48.000000 18.049999 -2.000000
v 38.224648 17.025000 -2.000000
v 40.530579 25.980148 -2.000000
v 22.550430 33.449570 -2.000000
v 33.980148 32.530579 -2.000000
v 38.019852 32.530579 -2.000000
v 7.469421 33.980148 -2.000000
v 6.975000 33.775352 -2.000000
v 48.530579 17.980148 -2.000000
v 8.000000 34.049999 -2.000000
v 46.019852 24.530579 -2.000000
v 41.980148 24.530579 -2.000000
v 41.025002 25.775352 -2.000000
f 1 2 3
f 4 5 3
f 5 1 3
f 6 4 7
f 4 3 7
f 6 7 8
f 9 6 10
f 6 8 10
f 11 9 12
f 9 10 12
f 13 14 15
f 14 11 15
f 11 12 15
f 13 15 16
f 17 18 19
f 18 13 19
f 13 16 19
f 20 17 21
f 17 19 21
f 22 20 23
f 20 21 23
f 24 22 25
f 22 23 25
f 24 25 26
f 27 28 29
f 30 27 29
f 31 32 33
f 32 30 33
f 30 29 33
f 34 31 35
f 31 33 35
f 34 35 36
f 37 34 38
f 34 36 38
f 39 40 41
f 40 37 41
f 37 38 41
f 39 41 42
f 43 44 45
f 44 39 45
f 39 42 45
f 46 43 47
f 43 45 47
f 48 46 49
f 46 47 49
f 50 48 51
f 48 49 51
f 50 51 52
f 53 54 55
f 56 57 55
f 57 53 55
f 58 56 59
f 56 55 59
f 58 59 60
f 61 58 62
f 58 60 62
f 63 61 64
f 61 62 64
f 65 66 67
f 66 63 67
f 63 64 67
f 65 67 68
f 69 65 70
f 65 68 70
f 71 69 72
f 69 70 72
f 73 74 75
f 74 71 75
f 71 72 75
f 76 73 77
f 73 75 77
f 76 77 78
f 79 80 81
f 82 83 81
f 83 79 81
f 84 82 85
f 82 81 85
f 84 85 86
f 87 84 88
f 84 86 88
f 89 87 90
f 87 88 90
f 91 92 93
f 92 89 93
f 89 90 93
f 91 93 94
f 95 96 97
f 96 91 97
f 91 94 97
f 98 95 99
f 95 97 99
f 100 98 101
f 98 99 101
f 102 100 103
f 100 101 103
f 102 103 104
f 105 106 107
f 108 109 107
f 109 105 107
f 110 108 111
f 108 107 111
f 110 111 112
f 113 110 114
f 110 112 114
f 115 113 116
f 113 114 116
f 117 118 119
f 118 115 119
f 115 116 119
f 117 119 120
f 121 122 123
f 122 117 123
f 117 120 123
f 124 121 125
f 121 123 125
f 126 124 127
f 124 125 127
f 128 126 129
f 126 127 129
f 128 129 130
f 131 132 133
f 134 135 133
f 135 131 133
f 136 134 137
f 134 133 137
f 136 137 138
f 139 136 140
f 136 138 140
f 141 139 142
f 139 140 142
f 143 144 145
f 144 141 145
f 141 142 145
f 143 145 146
f 147 148 149
f 148 143 149
f 143 146 149
f 150 147 151
f 147 149 151
f 152 150 153
f 150 151 153
f 154 152 155
f 152 153 155
f 154 155 156
f 157 158 159
f 160 157 161
f 157 159 161
f 162 160 163
f 160 161 163
f 162 163 164
f 165 162 166
f 162 164 166
f 167 165 168
f 165 166 168
f 169 170 171
f 170 167 171
f 167 168 171
f 169 171 172
f 173 169 174
f 169 172 174
f 175 176 177
f 176 173 177
f 173 174 177
f 178 175 179
f 175 177 179
f 180 178 181
f 178 179 181
f 180 181 182
f 183 184 185
f 183 185 186
f 187 188 189
f 188 183 189
f 183 186 189
f 190 187 191
f 187 189 191
f 190 191 192
f 193 190 194
f 190 192 194
f 195 196 197
f 196 193 197
f 193 194 197
f 195 197 198
f 199 200 201
f 200 195 201
f 195 198 201
f 202 199 203
f 199 201 203
f 204 202 205
f 202 203 205
f 206 204 207
f 204 205 207
f 206 207 208
f 209 210 211
f 212 209 213
f 209 211 213
f 214 212 215
f 212 213 215
f 214 215 216
f 217 214 218
f 214 216 218
f 219 217 220
f 217 218 220
f 221 222 223
f 222 219 223
f 219 220 223
f 221 223 224
f 225 221 226
f 221 224 226
f 227 228 229
f 228 225 229
f 225 226 229
f 230 227 231
f 227 229 231
f 232 230 233
f 230 231 233
f 232 233 234
f 235 236 237
f 238 235 239
f 235 237 239
f 240 238 241
f 238 239 241
f 240 241 242
f 243 240 244
f 240 242 244
f 245 243 246
f 243 244 246
f 247 248 249
f 248 245 249
f 245 246 249
f 247 249 250
f 251 252 253
f 252 247 253
f 247 250 253
f 251 253 254
f 255 256 257
f 256 251 257
f 251 254 257
f 258 255 259
f 255 257 259
f 258 259 260
f 261 262 263
f 261 263 264
f 265 266 267
f 266 261 267
f 261 264 267
f 265 267 268
f 269 265 270
f 265 268 270
f 271 269 272
f 269 270 272
f 273 274 275
f 274 271 275
f 271 272 275
f 273 275 276
f 277 278 279
f 278 273 279
f 273 276 279
f 280 277 281
f 277 279 281
f 282 280 283
f 280 281 283
f 284 282 285
f 282 283 285
f 284 285 286
f 287 288 289
f 290 287 291
f 287 289 291
f 292 290 293
f 290 291 293
f 292 293 294
f 295 292 296
f 292 294 296
f 297 295 298
f 295 296 298
f 299 300 301
f 300 297 301
f 297 298 301
f 299 301 302
f 303 304 305
f 304 299 305
f 299 302 305
f 306 303 307
f 303 305 307
f 308 306 309
f 306 307 309
f 310 308 311
f 308 309 311
f 310 311 312
f 313 314 315
f 316 313 315
f 317 318 319
f 318 316 319
f 316 315 319
f 317 319 320
f 321 317 322
f 317 320 322
f 323 321 324
f 321 322 324
f 325 326 327
f 326 323 327
f 323 324 327
f 325 327 328
f 329 330 331
f 330 325 331
f 325 328 331
f 332 329 333
f 329 331 333
f 334 332 335
f 332 333 335
f 336 334 337
f 334 335 337
f 336 337 338
f 339 340 341
f 342 339 341
f 343 344 345
f 344 342 345
f 342 341 345
f 343 345 346
f 347 343 348
f 343 346 348
f 349 347 350
f 347 348 350
f 351 352 353
f 352 349 353
f 349 350 353
f 351 353 354
f 355 351 356
f 351 354 356
f 357 355 358
f 355 356 358
f 359 360 361
f 360 357 361
f 357 358 361
f 362 359 363
f 359 361 363
f 362 363 364
f 365 366 367
f 368 369 367
f 369 365 367
f 370 368 371
f 368 367 371
f 372 370 373
f 370 371 373
f 372 373 374
f 375 372 376
f 372 374 376
f 377 378 379
f 378 375 379
f 375 376 379
f 377 379 380
f 381 377 382
f 377 380 382
f 383 384 385
f 384 381 385
f 381 382 385
f 386 383 387
f 383 385 387
f 388 386 389
f 386 387 389
f 388 389 390
f 391 392 393
f 394 395 393
f 395 391 393
f 396 394 397
f 394 393 397
f 398 396 399
f 396 397 399
f 398 399 400
f 401 398 402
f 398 400 402
f 403 404 405
f 404 401 405
f 401 402 405
f 403 405 406
f 407 403 408
f 403 406 408
f 409 410 411
f 410 407 411
f 407 408 411
f 412 409 413
f 409 411 413
f 414 412 415
f 412 413 415
f 414 415 416
f 417 418 419
f 420 417 419
f 421 422 423
f 422 420 423
f 420 419 423
f 421 423 424
f 425 421 426
f 421 424 426
f 427 425 428
f 425 426 428
f 429 430 431
f 430 427 431
f 427 428 431
f 429 431 432
f 433 429 434
f 429 432 434
f 435 436 437
f 436 433 437
f 433 434 437
f 438 435 439
f 435 437 439
f 440 438 441
f 438 439 441
f 440 441 442
f 443 444 445
f 446 443 445
f 447 448 449
f 448 446 449
f 446 445 449
f 447 449 450
f 451 447 452
f 447 450 452
f 453 451 454
f 451 452 454
f 455 456 457
f 456 453 457
f 453 454 457
f 455 457 458
f 459 455 460
f 455 458 460
f 461 462 463
f 462 459 463
f 459 460 463
f 464 461 465
f 461 463 465
f 466 464 467
f 464 465 467
f 466 467 468
f 469 470 471
f 469 472 470
f 469 471 473
f 474 475 476
f 162 477 478
f 479 480 481
f 162 165 477
f 474 476 482
f 483 484 485
f 483 486 484
f 487 472 469
f 160 478 488
f 160 488 489
f 160 162 478
f 462 490 491
f 462 491 492
f 462 492 493
f 462 493 494
f 462 494 495
f 462 495 496
f 461 490 462
f 459 462 496
f 497 498 472
f 497 472 487
f 464 490 461
f 157 160 489
f 455 459 496
f 121 136 499
f 121 134 136
f 456 455 496
f 466 490 464
f 121 499 500
f 453 456 496
f 158 157 489
f 501 490 466
f 251 502 503
f 251 265 502
f 451 453 496
f 384 396 398
f 504 490 501
f 122 500 505
f 122 121 500
f 124 134 121
f 256 266 265
f 256 261 266
f 256 265 251
f 252 251 503
f 252 503 506
f 71 82 84
f 383 394 396
f 383 396 384
f 17 486 483
f 17 31 486
f 381 384 398
f 71 507 508
f 71 84 507
f 126 135 134
f 20 32 31
f 126 134 124
f 303 504 509
f 20 31 17
f 117 505 510
f 117 122 505
f 199 511 512
f 199 214 511
f 18 483 513
f 18 17 483
f 329 343 347
f 22 30 32
f 329 344 343
f 22 27 30
f 247 506 514
f 247 252 506
f 306 504 303
f 306 490 504
f 255 262 261
f 22 32 20
f 13 18 513
f 74 83 82
f 255 261 256
f 304 509 515
f 304 303 509
f 74 82 71
f 435 448 447
f 13 513 516
f 435 446 448
f 386 395 394
f 386 391 395
f 386 394 383
f 435 447 436
f 69 517 518
f 69 508 517
f 69 71 508
f 433 436 447
f 24 27 22
f 202 214 199
f 14 13 516
f 377 401 404
f 377 398 401
f 433 451 496
f 202 212 214
f 433 447 451
f 202 209 212
f 377 381 398
f 128 131 135
f 299 515 519
f 14 516 520
f 128 521 131
f 299 304 515
f 522 523 27
f 128 135 126
f 200 199 512
f 308 490 306
f 200 512 524
f 522 27 24
f 118 510 525
f 438 443 446
f 332 342 344
f 11 14 520
f 118 117 510
f 438 446 435
f 332 344 329
f 11 520 526
f 248 247 514
f 429 433 496
f 9 11 526
f 330 329 347
f 248 514 527
f 300 519 528
f 9 526 529
f 73 79 83
f 530 531 523
f 300 299 519
f 258 262 255
f 310 490 308
f 530 523 522
f 73 83 74
f 388 391 386
f 430 429 496
f 6 9 529
f 65 69 518
f 6 529 532
f 378 377 404
f 204 209 202
f 533 534 531
f 440 443 438
f 533 535 534
f 115 525 536
f 533 531 530
f 115 118 525
f 4 6 532
f 195 524 537
f 195 200 524
f 538 521 128
f 297 528 539
f 4 532 540
f 538 541 521
f 297 300 528
f 542 535 533
f 334 342 332
f 334 339 342
f 245 248 527
f 245 527 543
f 544 545 443
f 544 546 545
f 547 548 262
f 544 443 440
f 547 262 258
f 295 539 549
f 66 518 550
f 295 297 539
f 66 65 518
f 551 391 388
f 76 552 79
f 551 553 391
f 76 79 73
f 554 541 538
f 206 210 209
f 554 555 541
f 556 546 544
f 206 209 204
f 113 115 536
f 113 536 557
f 292 549 558
f 292 295 549
f 243 245 543
f 196 537 559
f 196 195 537
f 560 561 535
f 560 562 561
f 560 535 542
f 243 543 563
f 560 564 565
f 566 548 547
f 560 567 564
f 560 568 567
f 566 569 548
f 560 570 568
f 566 571 569
f 560 542 570
f 572 558 546
f 573 4 540
f 336 339 334
f 573 5 4
f 572 546 556
f 573 1 5
f 573 574 1
f 575 404 496
f 573 576 574
f 577 553 551
f 573 565 576
f 575 352 378
f 575 349 352
f 575 347 349
f 577 578 553
f 573 579 158
f 573 540 579
f 575 330 347
f 573 158 489
f 575 325 330
f 575 326 325
f 575 378 404
f 110 557 571
f 110 113 557
f 580 565 573
f 581 560 565
f 63 550 582
f 583 555 554
f 63 66 550
f 583 479 555
f 584 565 580
f 585 581 565
f 586 587 552
f 240 243 563
f 588 585 565
f 588 565 584
f 586 552 76
f 560 480 589
f 240 563 590
f 560 589 475
f 560 475 591
f 560 591 592
f 193 559 593
f 594 571 566
f 560 592 595
f 560 595 498
f 560 498 562
f 562 498 497
f 595 592 596
f 193 196 559
f 591 475 474
f 597 598 210
f 597 599 598
f 597 210 206
f 600 578 577
f 323 326 575
f 600 590 578
f 601 602 339
f 601 339 336
f 603 479 583
f 603 480 479
f 61 63 582
f 61 582 604
f 605 587 586
f 605 606 587
f 190 593 607
f 190 193 593
f 608 480 603
f 609 599 597
f 321 323 575
f 610 611 602
f 589 480 608
f 610 602 601
f 147 612 613
f 58 61 604
f 58 604 614
f 615 606 605
f 615 616 606
f 277 292 558
f 277 558 572
f 187 607 617
f 187 190 607
f 618 599 609
f 410 422 421
f 618 614 599
f 317 575 619
f 317 619 620
f 317 321 575
f 148 613 621
f 148 147 613
f 622 611 610
f 150 612 147
f 622 617 611
f 623 317 620
f 278 277 572
f 624 317 623
f 278 572 625
f 280 292 277
f 626 616 615
f 280 290 292
f 280 287 290
f 409 422 410
f 409 420 422
f 407 425 427
f 407 421 425
f 407 410 421
f 627 317 624
f 143 148 621
f 143 621 628
f 596 592 616
f 596 616 626
f 282 287 280
f 95 571 594
f 273 278 625
f 95 110 571
f 273 625 629
f 403 407 427
f 489 316 318
f 403 427 430
f 489 317 627
f 489 318 317
f 228 240 590
f 228 590 600
f 412 417 420
f 412 420 409
f 357 370 372
f 144 628 630
f 357 368 370
f 144 143 628
f 98 110 95
f 313 316 489
f 98 108 110
f 98 109 108
f 274 273 629
f 274 629 631
f 96 632 633
f 96 594 632
f 284 288 287
f 284 287 282
f 284 634 288
f 96 95 594
f 227 238 240
f 404 403 430
f 227 240 228
f 404 430 496
f 414 417 412
f 225 228 600
f 225 600 635
f 636 612 150
f 636 490 310
f 636 637 612
f 360 368 357
f 636 310 637
f 636 152 154
f 638 313 489
f 636 150 152
f 141 630 639
f 355 357 372
f 355 372 375
f 141 144 630
f 100 109 98
f 640 636 154
f 271 274 631
f 488 638 489
f 271 631 641
f 91 96 633
f 642 634 284
f 221 225 635
f 221 635 643
f 230 238 227
f 230 235 238
f 644 417 414
f 644 645 417
f 359 368 360
f 139 639 646
f 359 369 368
f 139 141 639
f 359 365 369
f 43 58 614
f 43 614 618
f 351 355 375
f 351 375 378
f 647 636 640
f 92 91 633
f 269 641 648
f 92 633 649
f 269 271 641
f 650 651 634
f 650 499 651
f 176 617 622
f 102 109 100
f 176 187 617
f 650 634 642
f 102 105 109
f 176 188 187
f 652 653 645
f 652 502 653
f 652 645 644
f 222 221 643
f 46 58 43
f 46 56 58
f 46 57 56
f 222 643 654
f 232 236 235
f 232 235 230
f 136 139 646
f 136 646 499
f 44 43 618
f 655 656 657
f 655 657 636
f 44 658 659
f 44 618 658
f 175 188 176
f 352 351 378
f 362 365 359
f 655 636 647
f 175 183 188
f 265 269 648
f 265 648 502
f 89 649 660
f 173 622 661
f 89 92 649
f 500 499 650
f 173 176 622
f 662 105 102
f 662 663 105
f 39 44 659
f 503 502 652
f 219 222 654
f 219 654 664
f 665 656 655
f 666 236 232
f 666 667 236
f 668 665 655
f 48 57 46
f 178 183 175
f 178 184 183
f 669 365 362
f 169 661 670
f 669 671 365
f 669 672 671
f 169 173 661
f 87 660 673
f 87 89 660
f 40 39 659
f 40 659 674
f 675 663 662
f 50 57 48
f 675 676 663
f 675 677 676
f 50 53 57
f 217 219 664
f 678 668 655
f 217 664 679
f 680 681 667
f 180 184 178
f 680 667 666
f 170 670 682
f 683 672 669
f 170 169 670
f 84 673 507
f 84 87 673
f 37 40 674
f 37 674 684
f 685 677 675
f 480 678 655
f 686 687 53
f 686 471 687
f 480 688 689
f 480 655 688
f 214 217 679
f 686 53 50
f 214 679 511
f 167 682 690
f 508 507 681
f 508 681 680
f 167 170 682
f 691 480 689
f 692 184 180
f 692 693 184
f 692 484 693
f 512 511 672
f 512 672 683
f 34 37 684
f 34 684 694
f 482 476 677
f 482 677 685
f 473 471 686
f 481 480 691
f 165 690 477
f 165 167 690
f 485 484 692
f 31 34 694
f 31 694 486
f 695 696 697
f 698 699 697
f 700 701 702
f 703 704 164
f 705 700 702
f 706 707 708
f 704 166 164
f 709 710 711
f 710 712 711
f 697 696 713
f 714 703 163
f 703 164 163
f 715 716 463
f 716 717 463
f 717 718 463
f 719 714 163
f 718 720 463
f 720 721 463
f 721 722 463
f 463 722 465
f 715 463 460
f 696 723 724
f 713 696 724
f 465 722 467
f 719 163 161
f 715 460 458
f 467 722 468
f 725 726 125
f 138 137 125
f 715 458 457
f 726 138 125
f 727 728 254
f 715 457 454
f 719 161 159
f 468 722 729
f 715 454 452
f 728 268 254
f 400 399 385
f 729 722 730
f 731 725 123
f 725 125 123
f 125 137 127
f 268 267 257
f 267 264 257
f 254 268 257
f 727 254 253
f 732 727 253
f 733 86 72
f 86 85 72
f 385 399 387
f 399 397 387
f 712 35 21
f 400 385 382
f 711 712 21
f 734 733 72
f 127 137 129
f 137 133 129
f 35 33 23
f 21 35 23
f 735 730 307
f 736 731 120
f 737 216 203
f 738 737 203
f 731 123 120
f 739 711 19
f 711 21 19
f 348 346 333
f 33 29 25
f 346 345 333
f 29 28 25
f 740 732 250
f 732 253 250
f 257 264 259
f 23 33 25
f 85 81 75
f 264 263 259
f 741 735 305
f 739 19 16
f 735 307 305
f 72 85 75
f 307 730 309
f 730 722 309
f 742 739 16
f 450 449 439
f 397 393 389
f 449 445 439
f 393 392 389
f 387 397 389
f 743 744 70
f 437 450 439
f 744 734 70
f 734 72 70
f 450 437 434
f 25 28 26
f 400 382 380
f 742 16 15
f 216 215 205
f 203 216 205
f 405 402 380
f 215 213 205
f 402 400 380
f 715 452 434
f 452 450 434
f 129 133 130
f 133 132 130
f 745 742 15
f 132 746 130
f 747 741 302
f 741 305 302
f 28 748 749
f 738 203 201
f 309 722 311
f 750 738 201
f 26 28 749
f 345 341 335
f 445 444 441
f 745 15 12
f 751 736 119
f 736 120 119
f 439 445 441
f 740 250 249
f 333 345 335
f 752 745 12
f 348 333 331
f 715 434 432
f 753 740 249
f 752 12 10
f 259 263 260
f 747 302 301
f 754 747 301
f 75 81 77
f 755 752 10
f 81 80 77
f 748 756 757
f 749 748 757
f 311 722 312
f 389 392 390
f 755 10 8
f 743 70 68
f 441 444 442
f 758 755 8
f 205 213 207
f 405 380 379
f 756 759 760
f 751 119 116
f 715 432 431
f 759 761 760
f 762 751 116
f 757 756 760
f 758 8 7
f 763 750 198
f 750 201 198
f 764 754 298
f 765 758 7
f 754 301 298
f 746 766 767
f 760 761 768
f 335 341 337
f 341 340 337
f 130 746 767
f 753 249 246
f 769 753 246
f 444 770 771
f 263 772 773
f 770 774 771
f 442 444 771
f 260 263 773
f 775 764 296
f 776 743 67
f 764 298 296
f 743 68 67
f 80 777 78
f 392 778 779
f 77 80 78
f 390 392 779
f 207 213 208
f 213 211 208
f 766 780 781
f 767 766 781
f 771 774 782
f 783 762 114
f 763 198 197
f 762 116 114
f 784 775 294
f 785 763 197
f 769 246 244
f 761 786 787
f 775 296 294
f 786 788 787
f 768 761 787
f 789 769 244
f 773 772 790
f 772 791 790
f 792 793 787
f 791 794 790
f 793 795 787
f 795 796 787
f 796 797 787
f 337 340 338
f 797 768 787
f 774 784 798
f 765 7 799
f 7 3 799
f 3 2 799
f 2 800 799
f 405 379 801
f 779 778 802
f 782 774 798
f 800 803 799
f 379 353 801
f 803 792 799
f 353 350 801
f 350 348 801
f 778 804 802
f 715 405 801
f 159 805 799
f 805 765 799
f 348 331 801
f 719 159 799
f 783 114 112
f 792 787 806
f 331 328 801
f 794 783 112
f 328 327 801
f 799 792 807
f 808 776 64
f 781 780 809
f 792 806 810
f 780 708 809
f 776 67 64
f 807 792 811
f 78 777 812
f 777 813 812
f 789 244 242
f 792 810 814
f 815 789 242
f 811 792 814
f 816 707 787
f 701 816 787
f 817 701 787
f 818 817 787
f 819 818 787
f 820 785 194
f 723 819 787
f 790 794 821
f 788 723 787
f 785 197 194
f 724 723 788
f 822 818 819
f 702 701 817
f 211 823 824
f 823 825 824
f 208 211 824
f 801 327 324
f 802 804 826
f 804 815 826
f 338 340 827
f 340 828 827
f 708 707 829
f 809 708 829
f 830 808 62
f 808 64 62
f 813 831 832
f 812 813 832
f 820 194 192
f 833 820 192
f 829 707 834
f 824 825 835
f 801 324 322
f 828 836 837
f 827 828 837
f 834 707 816
f 838 839 151
f 830 62 60
f 840 830 60
f 784 294 281
f 832 831 841
f 831 842 841
f 833 192 191
f 798 784 281
f 843 833 191
f 835 825 844
f 424 423 411
f 825 840 844
f 845 846 320
f 846 801 320
f 151 839 153
f 801 322 320
f 836 843 847
f 837 836 847
f 848 838 149
f 845 320 849
f 838 151 149
f 798 281 279
f 849 320 850
f 851 798 279
f 294 293 283
f 841 842 852
f 293 291 283
f 281 294 283
f 423 419 413
f 411 423 413
f 428 426 408
f 426 424 408
f 424 411 408
f 850 320 853
f 848 149 146
f 854 848 146
f 842 818 822
f 852 842 822
f 283 291 285
f 794 112 99
f 821 794 99
f 851 279 276
f 855 851 276
f 428 408 406
f 319 315 719
f 853 320 719
f 431 428 406
f 320 319 719
f 826 815 229
f 815 242 229
f 413 419 415
f 419 418 415
f 374 373 358
f 373 371 358
f 854 146 145
f 99 112 101
f 856 854 145
f 112 111 101
f 111 107 101
f 719 315 314
f 855 276 275
f 857 858 97
f 858 821 97
f 859 855 275
f 821 99 97
f 291 289 286
f 289 860 286
f 242 241 231
f 285 291 286
f 229 242 231
f 431 406 405
f 715 431 405
f 826 229 226
f 861 826 226
f 415 418 416
f 358 371 361
f 153 839 862
f 719 314 863
f 839 864 862
f 864 312 862
f 156 155 862
f 155 153 862
f 374 358 356
f 312 722 862
f 156 862 865
f 376 374 356
f 856 145 142
f 101 107 103
f 866 856 142
f 719 863 714
f 859 275 272
f 857 97 94
f 867 859 272
f 861 226 224
f 868 861 224
f 286 860 869
f 231 241 233
f 241 239 233
f 418 870 871
f 416 418 871
f 840 60 47
f 361 371 363
f 371 367 363
f 367 366 363
f 865 862 872
f 376 356 354
f 873 866 140
f 844 840 47
f 379 376 354
f 866 142 140
f 874 867 270
f 875 857 93
f 867 272 270
f 857 94 93
f 860 876 877
f 103 107 104
f 876 726 877
f 843 191 177
f 847 843 177
f 869 860 877
f 107 106 104
f 191 189 177
f 870 878 879
f 878 728 879
f 868 224 223
f 871 870 879
f 60 59 49
f 59 55 49
f 880 868 223
f 239 237 234
f 47 60 49
f 862 881 882
f 881 883 882
f 233 239 234
f 844 47 45
f 872 862 882
f 726 873 138
f 873 140 138
f 884 885 45
f 885 844 45
f 379 354 353
f 363 366 364
f 189 186 179
f 874 270 268
f 728 874 268
f 177 189 179
f 886 875 90
f 877 726 725
f 887 847 174
f 847 177 174
f 875 93 90
f 104 106 888
f 884 45 42
f 106 889 888
f 879 728 727
f 880 223 220
f 882 883 890
f 891 880 220
f 237 892 893
f 882 890 894
f 49 55 51
f 179 186 181
f 234 237 893
f 186 185 181
f 364 366 895
f 896 887 172
f 366 897 895
f 887 174 172
f 897 898 895
f 886 90 88
f 899 886 88
f 884 42 41
f 888 889 900
f 901 884 41
f 51 55 52
f 889 902 900
f 902 903 900
f 882 894 904
f 891 220 218
f 55 54 52
f 905 891 218
f 892 906 907
f 181 185 182
f 893 892 907
f 908 896 171
f 895 898 909
f 896 172 171
f 733 899 86
f 899 88 86
f 901 41 38
f 910 901 38
f 900 903 911
f 54 912 913
f 912 699 913
f 882 904 707
f 914 915 707
f 915 882 707
f 905 218 216
f 52 54 913
f 737 905 216
f 916 908 168
f 906 733 734
f 908 171 168
f 914 707 917
f 907 906 734
f 182 185 918
f 185 919 918
f 919 710 918
f 898 737 738
f 909 898 738
f 910 38 36
f 920 910 36
f 903 700 705
f 911 903 705
f 917 707 706
f 913 699 698
f 704 916 166
f 916 168 166
f 918 710 709
f 920 36 35
f 712 920 35
f 699 695 697
f 862 722 636
f 722 490 636
f 496 715 801
f 496 801 575
f 799 573 719
f 719 573 489
f 707 480 560
f 707 560 787
f 466 468 729
f 504 501 729
f 501 466 729
f 509 504 730
f 504 729 730
f 515 509 735
f 509 730 735
f 515 735 741
f 528 519 747
f 519 515 747
f 515 741 747
f 528 747 754
f 539 528 764
f 528 754 764
f 549 539 775
f 539 764 775
f 546 558 784
f 558 549 784
f 549 775 784
f 545 546 774
f 546 784 774
f 545 774 770
f 443 545 444
f 545 770 444
f 440 442 771
f 556 544 771
f 544 440 771
f 572 556 782
f 556 771 782
f 572 782 798
f 625 572 851
f 572 798 851
f 631 629 855
f 629 625 855
f 625 851 855
f 631 855 859
f 648 641 867
f 641 631 867
f 631 859 867
f 648 867 874
f 653 502 728
f 502 648 728
f 648 874 728
f 653 728 878
f 645 653 870
f 653 878 870
f 417 645 418
f 645 870 418
f 414 416 871
f 652 644 871
f 644 414 871
f 503 652 879
f 652 871 879
f 506 503 727
f 503 879 727
f 506 727 732
f 527 514 740
f 514 506 740
f 506 732 740
f 527 740 753
f 563 543 769
f 543 527 769
f 527 753 769
f 590 563 789
f 563 769 789
f 590 789 815
f 578 590 804
f 590 815 804
f 553 578 778
f 578 804 778
f 391 553 392
f 553 778 392
f 388 390 779
f 577 551 779
f 551 388 779
f 577 779 802
f 635 600 826
f 600 577 826
f 577 802 826
f 635 826 861
f 654 643 868
f 643 635 868
f 635 861 868
f 664 654 880
f 654 868 880
f 679 664 891
f 664 880 891
f 511 679 905
f 679 891 905
f 511 905 737
f 672 511 898
f 511 737 898
f 671 672 897
f 672 898 897
f 365 671 366
f 671 897 366
f 362 364 895
f 683 669 895
f 669 362 895
f 683 895 909
f 524 512 738
f 512 683 738
f 683 909 738
f 524 738 750
f 559 537 763
f 537 524 763
f 524 750 763
f 559 763 785
f 593 559 820
f 559 785 820
f 607 593 833
f 593 820 833
f 611 617 843
f 617 607 843
f 607 833 843
f 611 843 836
f 339 602 828
f 602 611 828
f 611 836 828
f 339 828 340
f 336 338 827
f 601 336 827
f 622 610 837
f 610 601 837
f 601 827 837
f 622 837 847
f 661 622 887
f 622 847 887
f 682 670 896
f 670 661 896
f 661 887 896
f 682 896 908
f 690 682 916
f 682 908 916
f 477 690 704
f 690 916 704
f 488 478 703
f 478 477 703
f 477 704 703
f 488 703 714
f 313 638 863
f 638 488 863
f 488 714 863
f 313 863 314
f 310 312 864
f 612 637 864
f 637 310 864
f 612 864 839
f 613 612 838
f 612 839 838
f 628 621 848
f 621 613 848
f 613 838 848
f 630 628 854
f 628 848 854
f 630 854 856
f 639 630 866
f 630 856 866
f 499 646 873
f 646 639 873
f 639 866 873
f 499 873 726
f 634 651 876
f 651 499 876
f 499 726 876
f 634 876 860
f 288 634 289
f 634 860 289
f 284 286 869
f 642 284 869
f 650 642 877
f 642 869 877
f 505 500 725
f 500 650 725
f 650 877 725
f 505 725 731
f 525 510 736
f 510 505 736
f 505 731 736
f 525 736 751
f 536 525 762
f 525 751 762
f 557 536 783
f 536 762 783
f 571 557 794
f 557 783 794
f 548 569 791
f 569 571 791
f 571 794 791
f 548 791 772
f 262 548 263
f 548 772 263
f 258 260 773
f 566 547 773
f 547 258 773
f 566 773 790
f 594 566 821
f 566 790 821
f 632 594 858
f 594 821 858
f 649 633 857
f 633 632 857
f 632 858 857
f 649 857 875
f 660 649 886
f 649 875 886
f 507 673 899
f 673 660 899
f 660 886 899
f 507 899 733
f 681 507 906
f 507 733 906
f 667 681 892
f 681 906 892
f 236 667 237
f 667 892 237
f 232 234 893
f 666 232 893
f 680 666 907
f 666 893 907
f 517 508 734
f 508 680 734
f 680 907 734
f 517 734 744
f 550 518 743
f 518 517 743
f 517 744 743
f 550 743 776
f 582 550 808
f 550 776 808
f 614 604 830
f 604 582 830
f 582 808 830
f 614 830 840
f 599 614 825
f 614 840 825
f 598 599 823
f 599 825 823
f 210 598 211
f 598 823 211
f 206 208 824
f 609 597 824
f 597 206 824
f 609 824 835
f 618 609 844
f 609 835 844
f 659 658 885
f 658 618 885
f 618 844 885
f 674 659 884
f 659 885 884
f 674 884 901
f 684 674 910
f 674 901 910
f 486 694 920
f 694 684 920
f 684 910 920
f 486 920 712
f 484 486 710
f 486 712 710
f 184 693 919
f 693 484 919
f 484 710 919
f 184 919 185
f 180 182 918
f 485 692 918
f 692 180 918
f 485 918 709
f 483 485 711
f 485 709 711
f 513 483 739
f 483 711 739
f 520 516 742
f 516 513 742
f 513 739 742
f 520 742 745
f 529 526 752
f 526 520 752
f 520 745 752
f 532 529 755
f 529 752 755
f 532 755 758
f 540 532 765
f 532 758 765
f 158 579 805
f 579 540 805
f 540 765 805
f 158 805 159
f 154 156 865
f 640 154 865
f 655 647 872
f 647 640 872
f 640 865 872
f 655 872 882
f 688 655 915
f 655 882 915
f 691 689 914
f 689 688 914
f 688 915 914
f 691 914 917
f 481 691 706
f 691 917 706
f 479 481 708
f 481 706 708
f 541 555 780
f 555 479 780
f 479 708 780
f 541 780 766
f 131 521 746
f 521 541 746
f 541 766 746
f 131 746 132
f 128 130 767
f 538 128 767
f 583 554 781
f 554 538 781
f 538 767 781
f 583 781 809
f 603 583 829
f 583 809 829
f 589 608 834
f 608 603 834
f 603 829 834
f 589 834 816
f 475 589 701
f 589 816 701
f 476 475 700
f 475 701 700
f 676 677 903
f 677 476 903
f 476 700 903
f 676 903 902
f 105 663 889
f 663 676 889
f 676 902 889
f 105 889 106
f 102 104 888
f 675 662 888
f 662 102 888
f 685 675 900
f 675 888 900
f 685 900 911
f 482 685 705
f 685 911 705
f 591 474 702
f 474 482 702
f 482 705 702
f 591 702 817
f 592 591 818
f 591 817 818
f 616 592 842
f 592 818 842
f 606 616 831
f 616 842 831
f 552 587 813
f 587 606 813
f 606 831 813
f 79 552 777
f 552 813 777
f 79 777 80
f 76 78 812
f 605 586 812
f 586 76 812
f 605 812 832
f 615 605 841
f 605 832 841
f 626 615 852
f 615 841 852
f 595 596 822
f 596 626 822
f 626 852 822
f 595 822 819
f 498 595 723
f 595 819 723
f 472 498 696
f 498 723 696
f 470 472 695
f 472 696 695
f 687 471 699
f 471 470 699
f 470 695 699
f 53 687 912
f 687 699 912
f 53 912 54
f 50 52 913
f 473 686 913
f 686 50 913
f 469 473 698
f 473 913 698
f 469 698 697
f 487 469 713
f 469 697 713
f 562 497 724
f 497 487 724
f 487 713 724
f 562 724 788
f 561 562 786
f 562 788 786
f 534 535 761
f 535 561 761
f 561 786 761
f 534 761 759
f 531 534 756
f 534 759 756
f 27 523 748
f 523 531 748
f 531 756 748
f 27 748 28
f 24 26 749
f 530 522 749
f 522 24 749
f 533 530 757
f 530 749 757
f 533 757 760
f 570 542 768
f 542 533 768
f 533 760 768
f 568 570 797
f 570 768 797
f 568 797 796
f 564 567 795
f 567 568 795
f 568 796 795
f 565 564 793
f 564 795 793
f 576 565 792
f 565 793 792
f 576 792 803
f 574 576 800
f 576 803 800
f 1 574 2
f 574 800 2
f 716 495 494
f 716 496 495
f 716 715 496
f 717 494 493
f 717 716 494
f 718 493 492
f 718 717 493
f 720 492 491
f 720 718 492
f 721 491 490
f 721 720 491
f 722 721 490
f 862 636 657
f 881 657 656
f 881 862 657
f 883 656 665
f 883 881 656
f 890 665 668
f 890 883 665
f 894 668 678
f 894 890 668
f 904 894 678
f 707 678 480
f 707 904 678
f 719 489 627
f 853 627 624
f 853 719 627
f 850 624 623
f 850 853 624
f 849 623 620
f 849 850 623
f 845 849 620
f 846 620 619
f 846 845 620
f 801 619 575
f 801 846 619
f 806 560 581
f 806 787 560
f 810 581 585
f 810 806 581
f 814 585 588
f 814 810 585
f 811 588 584
f 811 814 588
f 807 584 580
f 807 811 584
f 799 580 573
f 799 807 580
