# Created by FreeCAD <http://www.freecadweb.org>
v 16.200001 537.750000 195.173798
v 16.200001 537.750000 194.673798
v 23.600000 537.750000 195.173798
v 23.600000 537.750000 194.673798
v 16.200001 538.250000 194.673798
v 23.600000 538.250000 194.673798
v 23.700001 537.849976 194.773804
v 23.700001 537.849976 195.073792
v 16.200001 538.250000 195.173798
v 23.600000 538.250000 195.173798
v 23.700001 538.150024 194.773804
v 23.700001 538.150024 195.073792
f 1 2 3
f 2 4 3
f 2 5 4
f 5 6 4
f 7 8 3
f 4 7 3
f 9 1 10
f 1 3 10
f 1 9 5
f 2 1 5
f 5 9 6
f 9 10 6
f 11 7 4
f 6 11 4
f 7 12 8
f 11 12 7
f 10 3 8
f 12 10 8
f 11 10 12
f 11 6 10
