# Created by FreeCAD <http://www.freecadweb.org>
v 16.200001 537.750000 191.173798
v 16.200001 537.750000 190.673798
v 23.600000 537.750000 191.173798
v 23.600000 537.750000 190.673798
v 16.200001 538.250000 190.673798
v 23.600000 538.250000 190.673798
v 23.700001 537.849976 191.073807
v 23.700001 537.849976 190.773804
v 16.200001 538.250000 191.173798
v 23.600000 538.250000 191.173798
v 23.700001 538.150024 190.773804
v 23.700001 538.150024 191.073807
f 1 2 3
f 2 4 3
f 2 5 4
f 5 6 4
f 4 7 3
f 4 8 7
f 9 1 10
f 1 3 10
f 1 9 5
f 2 1 5
f 5 9 6
f 9 10 6
f 6 11 8
f 6 8 4
f 12 3 7
f 12 10 3
f 11 7 8
f 11 12 7
f 6 10 12
f 11 6 12
