# Created by FreeCAD <http://www.freecadweb.org>
v -23.659801 534.484741 203.522018
v -23.659801 534.484741 204.322021
v -25.259802 534.484741 203.522018
v -25.259802 534.484741 204.322021
v -23.659801 534.934753 203.522018
v -23.659801 534.934753 204.322021
v -23.859802 534.884766 204.322021
v -23.859802 534.934753 204.322021
v -25.059801 534.884766 204.322021
v -25.059801 534.934753 204.322021
v -25.259802 534.934753 204.322021
v -25.259802 534.934753 203.522018
v -23.859802 534.884766 203.522018
v -23.859802 534.934753 203.522018
v -25.059801 534.884766 203.522018
v -25.059801 534.934753 203.522018
f 1 2 3
f 3 2 4
f 1 5 6
f 2 1 6
f 2 6 7
f 7 6 8
f 4 2 9
f 2 7 9
f 9 10 11
f 4 9 11
f 4 11 12
f 3 4 12
f 5 1 13
f 5 13 14
f 13 1 3
f 13 3 15
f 16 15 12
f 15 3 12
f 8 6 5
f 8 5 14
f 9 7 13
f 9 13 15
f 9 15 10
f 15 16 10
f 10 16 12
f 11 10 12
f 13 7 14
f 7 8 14
