# Created by FreeCAD <http://www.freecadweb.org>
v -10.089823 534.884766 200.648209
v -10.089823 534.884766 201.848206
v -10.889822 534.884766 200.648209
v -10.889822 534.884766 201.848206
v -10.089823 534.934753 201.848206
v -10.889822 534.934753 201.848206
v -10.889822 534.934753 200.648209
v -10.089823 534.934753 200.648209
v -10.534911 534.934753 200.775330
v -10.600657 534.934753 200.865158
v -10.526863 534.934753 200.790314
v -10.311553 534.934753 201.752075
v -10.323648 534.934753 201.765213
v -10.342299 534.934753 201.780014
v -10.301816 534.934753 201.737091
v -10.368844 534.934753 201.794693
v -10.294749 534.934753 201.718567
v -10.398991 534.934753 201.805450
v -10.639774 534.934753 200.870361
v -10.632602 534.934753 200.868729
v -10.625118 534.934753 200.863480
v -10.292072 534.934753 201.696716
v -10.664529 534.934753 200.892990
v -10.653413 534.934753 201.014847
v -10.653584 534.934753 200.899673
v -10.671994 534.934753 201.029221
v -10.293728 534.934753 201.679565
v -10.526536 534.934753 200.747116
v -10.520079 534.934753 200.760452
v -10.502971 534.934753 200.746307
v -10.435452 534.934753 201.813080
v -10.298815 534.934753 201.663101
v -10.545176 534.934753 200.763947
v -10.607506 534.934753 200.862747
v -10.581322 534.934753 201.208939
v -10.635248 534.934753 201.303986
v -10.631403 534.934753 201.306641
v -10.629074 534.934753 201.309250
v -10.467072 534.934753 201.816345
v -10.535009 534.934753 201.320480
v -10.523521 534.934753 201.308594
v -10.542497 534.934753 201.215195
v -10.673943 534.934753 200.884277
v -10.683996 534.934753 201.042114
v -10.664878 534.934753 200.868210
v -10.659395 534.934753 200.870300
v -10.655706 534.934753 200.870926
v -10.614417 534.934753 201.199112
v -10.652837 534.934753 201.300629
v -10.640489 534.934753 201.302017
v -10.557849 534.934753 200.755341
v -10.536171 534.934753 200.732986
v -10.488030 534.934753 200.723206
v -10.325706 534.934753 200.893204
v -10.326202 534.934753 201.027252
v -10.309422 534.934753 201.044968
v -10.311398 534.934753 200.875946
v -10.298815 534.934753 201.063095
v -10.669360 534.934753 200.865234
v -10.339485 534.934753 200.903748
v -10.673037 534.934753 200.861542
v -10.651968 534.934753 200.871109
v -10.349445 534.934753 201.010788
v -10.293728 534.934753 201.079575
v -10.292072 534.934753 201.096710
v -10.294044 534.934753 201.369308
v -10.294749 534.934753 201.118576
v -10.684391 534.934753 200.870743
v -10.351353 534.934753 200.909088
v -10.693603 534.934753 201.056870
v -10.376127 534.934753 200.997849
v -10.300280 534.934753 200.854614
v -10.571990 534.934753 200.749435
v -10.327319 534.934753 201.474792
v -10.326202 534.934753 201.627258
v -10.309422 534.934753 201.644974
v -10.677599 534.934753 200.854263
v -10.359803 534.934753 200.911118
v -10.312055 534.934753 201.457901
v -10.549771 534.934753 200.719757
v -10.473247 534.934753 200.708359
v -10.347406 534.934753 201.489334
v -10.641634 534.934753 201.186661
v -10.666036 534.934753 201.304504
v -10.659678 534.934753 201.301758
v -10.349445 534.934753 201.610779
v -10.368462 534.934753 200.911728
v -10.693437 534.934753 200.853775
v -10.300739 534.934753 201.437439
v -10.700571 534.934753 201.075150
v -10.588037 534.934753 200.746094
v -10.372581 534.934753 201.501221
v -10.376127 534.934753 201.597855
v -10.684041 534.934753 200.836288
v -10.604399 534.934753 200.745071
v -10.617420 534.934753 200.861740
v -10.294331 534.934753 201.415253
v -10.294022 534.934753 200.831924
v -10.568699 534.934753 200.708725
v -10.456891 534.934753 200.697891
v -10.402725 534.934753 201.509903
v -10.411746 534.934753 201.587067
v -10.686517 534.934753 200.817383
v -10.621373 534.934753 200.862122
v -10.292072 534.934753 201.389679
v -10.624906 534.934753 200.746902
v -10.685782 534.934753 200.804871
v -10.335141 534.934753 200.870224
v -10.331540 534.934753 200.868759
v -10.327814 534.934753 200.866257
v -10.376307 534.934753 200.911026
v -10.411746 534.934753 200.987061
v -10.589692 534.934753 200.702515
v -10.432952 534.934753 200.688019
v -10.441160 534.934753 201.515701
v -10.455049 534.934753 201.580307
v -10.341031 534.934753 200.871109
v -10.683167 534.934753 200.792603
v -10.644586 534.934753 200.752899
v -10.678390 534.934753 200.781052
v -10.662489 534.934753 200.763046
v -10.480006 534.934753 201.517288
v -10.498843 534.934753 201.578400
v -10.383830 534.934753 200.908646
v -10.670227 534.934753 200.769836
v -10.349927 534.934753 200.869324
v -10.611517 534.934753 200.700623
v -10.418988 534.934753 200.685028
v -10.324556 534.934753 200.863190
v -10.320924 534.934753 200.858490
v -10.292072 534.934753 200.808441
v -10.390644 534.934753 200.904709
v -10.358123 534.934753 200.865295
v -10.315720 534.934753 200.848633
v -10.312001 534.934753 200.838135
v -10.529709 534.934753 201.514969
v -10.558857 534.934753 201.582245
v -10.528920 534.934753 201.579254
v -10.664981 534.934753 201.171097
v -10.673399 534.934753 201.309509
v -10.396602 534.934753 200.899536
v -10.699556 534.934753 200.835541
v -10.455049 534.934753 200.980316
v -10.702313 534.934753 200.820190
v -10.703184 534.934753 200.804611
v -10.700791 534.934753 200.779160
v -10.693813 534.934753 200.757233
v -10.682500 534.934753 200.738724
v -10.667367 534.934753 200.723160
v -10.649546 534.934753 200.710754
v -10.631488 534.934753 200.703308
v -10.364806 534.934753 200.862885
v -10.621596 534.934753 200.701279
v -10.309541 534.934753 200.826218
v -10.308740 534.934753 200.814072
v -10.703184 534.934753 201.096710
v -10.293243 534.934753 200.787598
v -10.515076 534.934753 200.774414
v -10.404746 534.934753 200.683960
v -10.703184 534.934753 201.372070
v -10.701993 534.934753 201.356323
v -10.700838 534.934753 201.117599
v -10.702600 534.934753 201.107239
v -10.400870 534.934753 200.893875
v -10.498843 534.934753 201.817291
v -10.402247 534.934753 200.890991
v -10.542497 534.934753 201.815201
v -10.581322 534.934753 201.808945
v -10.614417 534.934753 201.799118
v -10.641634 534.934753 201.786652
v -10.664981 534.934753 201.771103
v -10.681363 534.934753 201.755386
v -10.693688 534.934753 201.737244
v -10.700838 534.934753 201.717606
v -10.702600 534.934753 201.707230
v -10.703184 534.934753 201.696716
v -10.700571 534.934753 201.675156
v -10.693603 534.934753 201.656876
v -10.310767 534.934753 200.791443
v -10.375580 534.934753 200.861740
v -10.498843 534.934753 200.978394
v -10.402903 534.934753 200.888336
v -10.569535 534.934753 201.508835
v -10.596906 534.934753 201.589935
v -10.533381 534.934753 201.471954
v -10.491985 534.934753 201.472839
v -10.514173 534.934753 201.459976
v -10.681363 534.934753 201.155396
v -10.692131 534.934753 201.329681
v -10.684921 534.934753 201.320297
v -10.529471 534.934753 201.445923
v -10.602660 534.934753 201.499527
v -10.626638 534.934753 201.600281
v -10.297085 534.934753 200.767075
v -10.574631 534.934753 201.468445
v -10.540563 534.934753 201.430206
v -10.316040 534.934753 200.773819
v -10.548368 534.934753 201.412628
v -10.693688 534.934753 201.137253
v -10.697909 534.934753 201.341080
v -10.602434 534.934753 201.463821
v -10.631507 534.934753 201.486771
v -10.304227 534.934753 200.747467
v -10.653413 534.934753 201.614853
v -10.552004 534.934753 201.397797
v -10.324610 534.934753 200.759094
v -10.311553 534.934753 201.152069
v -10.323648 534.934753 201.165207
v -10.326723 534.934753 201.311569
v -10.311172 534.934753 201.329651
v -10.342299 534.934753 201.180008
v -10.314929 534.934753 200.729553
v -10.344890 534.934753 201.297714
v -10.335338 534.934753 200.748138
v -10.301816 534.934753 201.137100
v -10.299964 534.934753 201.349701
v -10.346940 534.934753 200.740646
v -10.629439 534.934753 201.455811
v -10.368844 534.934753 201.194702
v -10.328975 534.934753 200.714142
v -10.368428 534.934753 201.287140
v -10.359663 534.934753 200.735275
v -10.654104 534.934753 201.471954
v -10.671994 534.934753 201.629211
v -10.398991 534.934753 201.205444
v -10.397644 534.934753 201.280518
v -10.644200 534.934753 201.448624
v -10.345459 534.934753 200.701355
v -10.384267 534.934753 200.729843
v -10.386180 534.934753 200.864120
v -10.503183 534.934753 200.833954
v -10.403184 534.934753 200.885605
v -10.402419 534.934753 200.878906
v -10.400743 534.934753 200.874786
v -10.398405 534.934753 200.871399
v -10.363963 534.934753 200.691727
v -10.409433 534.934753 200.728394
v -10.519851 534.934753 200.833954
v -10.673520 534.934753 201.453796
v -10.683996 534.934753 201.642105
v -10.528920 534.934753 200.979248
v -10.501912 534.934753 200.809036
v -10.395873 534.934753 200.869110
v -10.383977 534.934753 200.685883
v -10.435452 534.934753 201.213074
v -10.451085 534.934753 201.279526
v -10.430875 534.934753 201.278397
v -10.601423 534.934753 200.900635
v -10.558857 534.934753 200.982254
v -10.597857 534.934753 200.897110
v -10.595074 534.934753 200.892944
v -10.467072 534.934753 201.216339
v -10.605749 534.934753 200.903152
v -10.470984 534.934753 201.283234
v -10.687229 534.934753 201.434708
v -10.596906 534.934753 200.989929
v -10.433737 534.934753 200.730484
v -10.592902 534.934753 200.887817
v -10.610518 534.934753 200.904724
v -10.498843 534.934753 201.217285
v -10.592072 534.934753 200.881699
v -10.510954 534.934753 201.299835
v -10.491590 534.934753 201.290039
v -10.696856 534.934753 201.413452
v -10.617447 534.934753 200.905807
v -10.497313 534.934753 200.784515
v -10.592265 534.934753 200.878403
v -10.592812 534.934753 200.875153
v -10.629298 534.934753 201.337799
v -10.553184 534.934753 201.382568
v -10.550588 534.934753 201.355469
v -10.631768 534.934753 201.340408
v -10.454796 534.934753 200.736649
v -10.624451 534.934753 200.906174
v -10.634540 534.934753 201.342270
v -10.627093 534.934753 201.333939
v -10.626638 534.934753 201.000275
v -10.637604 534.934753 201.343582
v -10.668454 534.934753 201.426605
v -10.657167 534.934753 201.438538
v -10.625902 534.934753 201.329788
v -10.545271 534.934753 201.338120
v -10.593841 534.934753 200.872162
v -10.642776 534.934753 201.344727
v -10.684074 534.934753 201.395905
v -10.677514 534.934753 201.412918
v -10.472626 534.934753 200.746872
v -10.491840 534.934753 200.770096
v -10.595542 534.934753 200.869202
v -10.625406 534.934753 201.323883
v -10.648062 534.934753 201.345062
v -10.483623 534.934753 200.757050
v -10.625576 534.934753 201.320343
v -10.597503 534.934753 200.867203
v -10.521544 534.934753 200.810654
v -10.701727 534.934753 201.393021
v -10.626044 534.934753 201.316833
v -10.686517 534.934753 201.375793
v -10.657099 534.934753 201.343933
v -10.627137 534.934753 201.313049
v -10.640182 534.934753 200.904465
v -10.686174 534.934753 201.367172
v -10.684847 534.934753 201.358658
v -10.666118 534.934753 201.342728
v -10.683307 534.934753 201.354095
v -10.681620 534.934753 201.350906
v -10.679075 534.934753 201.347824
v -10.671986 534.934753 201.343536
v -10.675549 534.934753 201.345108
v -10.703184 534.924744 200.804611
v -10.700791 534.924744 200.779160
v -10.693813 534.924744 200.757233
v -10.682500 534.924744 200.738724
v -10.667367 534.924744 200.723160
v -10.649546 534.924744 200.710754
v -10.631488 534.924744 200.703308
v -10.621596 534.924744 200.701279
v -10.611517 534.924744 200.700623
v -10.624451 534.924744 200.906174
v -10.640182 534.924744 200.904465
v -10.653584 534.924744 200.899673
v -10.664529 534.924744 200.892990
v -10.673943 534.924744 200.884277
v -10.684391 534.924744 200.870743
v -10.693437 534.924744 200.853775
v -10.699556 534.924744 200.835541
v -10.702313 534.924744 200.820190
v -10.592072 534.924744 200.881699
v -10.592902 534.924744 200.887817
v -10.595074 534.924744 200.892944
v -10.597857 534.924744 200.897110
v -10.601423 534.924744 200.900635
v -10.605749 534.924744 200.903152
v -10.610518 534.924744 200.904724
v -10.617447 534.924744 200.905807
v -10.617420 534.924744 200.861740
v -10.607506 534.924744 200.862747
v -10.600657 534.924744 200.865158
v -10.597503 534.924744 200.867203
v -10.595542 534.924744 200.869202
v -10.593841 534.924744 200.872162
v -10.592812 534.924744 200.875153
v -10.592265 534.924744 200.878403
v -10.639774 534.924744 200.870361
v -10.651968 534.924744 200.871109
v -10.632602 534.924744 200.868729
v -10.625118 534.924744 200.863480
v -10.621373 534.924744 200.862122
v -10.686517 534.924744 200.817383
v -10.684041 534.924744 200.836288
v -10.677599 534.924744 200.854263
v -10.673037 534.924744 200.861542
v -10.669360 534.924744 200.865234
v -10.664878 534.924744 200.868210
v -10.659395 534.924744 200.870300
v -10.655706 534.924744 200.870926
v -10.624906 534.924744 200.746902
v -10.604399 534.924744 200.745071
v -10.644586 534.924744 200.752899
v -10.662489 534.924744 200.763046
v -10.670227 534.924744 200.769836
v -10.678390 534.924744 200.781052
v -10.683167 534.924744 200.792603
v -10.685782 534.924744 200.804871
v -10.521544 534.924744 200.810654
v -10.519851 534.924744 200.833954
v -10.526863 534.924744 200.790314
v -10.534911 534.924744 200.775330
v -10.545176 534.924744 200.763947
v -10.557849 534.924744 200.755341
v -10.571990 534.924744 200.749435
v -10.588037 534.924744 200.746094
v -10.503183 534.924744 200.833954
v -10.409433 534.924744 200.728394
v -10.433737 534.924744 200.730484
v -10.454796 534.924744 200.736649
v -10.472626 534.924744 200.746872
v -10.483623 534.924744 200.757050
v -10.491840 534.924744 200.770096
v -10.497313 534.924744 200.784515
v -10.501912 534.924744 200.809036
v -10.310767 534.924744 200.791443
v -10.308740 534.924744 200.814072
v -10.316040 534.924744 200.773819
v -10.324610 534.924744 200.759094
v -10.335338 534.924744 200.748138
v -10.346940 534.924744 200.740646
v -10.359663 534.924744 200.735275
v -10.384267 534.924744 200.729843
v -10.341031 534.924744 200.871109
v -10.335141 534.924744 200.870224
v -10.331540 534.924744 200.868759
v -10.327814 534.924744 200.866257
v -10.324556 534.924744 200.863190
v -10.320924 534.924744 200.858490
v -10.315720 534.924744 200.848633
v -10.312001 534.924744 200.838135
v -10.309541 534.924744 200.826218
v -10.375580 534.924744 200.861740
v -10.364806 534.924744 200.862885
v -10.358123 534.924744 200.865295
v -10.349927 534.924744 200.869324
v -10.403184 534.924744 200.885605
v -10.402419 534.924744 200.878906
v -10.400743 534.924744 200.874786
v -10.398405 534.924744 200.871399
v -10.395873 534.924744 200.869110
v -10.386180 534.924744 200.864120
v -10.368462 534.924744 200.911728
v -10.376307 534.924744 200.911026
v -10.383830 534.924744 200.908646
v -10.390644 534.924744 200.904709
v -10.396602 534.924744 200.899536
v -10.400870 534.924744 200.893875
v -10.402247 534.924744 200.890991
v -10.402903 534.924744 200.888336
v -10.294022 534.924744 200.831924
v -10.292072 534.924744 200.808441
v -10.300280 534.924744 200.854614
v -10.311398 534.924744 200.875946
v -10.325706 534.924744 200.893204
v -10.339485 534.924744 200.903748
v -10.351353 534.924744 200.909088
v -10.359803 534.924744 200.911118
v -10.383977 534.924744 200.685883
v -10.404746 534.924744 200.683960
v -10.363963 534.924744 200.691727
v -10.345459 534.924744 200.701355
v -10.328975 534.924744 200.714142
v -10.314929 534.924744 200.729553
v -10.304227 534.924744 200.747467
v -10.297085 534.924744 200.767075
v -10.293243 534.924744 200.787598
v -10.502971 534.924744 200.746307
v -10.515076 534.924744 200.774414
v -10.488030 534.924744 200.723206
v -10.473247 534.924744 200.708359
v -10.456891 534.924744 200.697891
v -10.432952 534.924744 200.688019
v -10.418988 534.924744 200.685028
v -10.589692 534.924744 200.702515
v -10.568699 534.924744 200.708725
v -10.549771 534.924744 200.719757
v -10.536171 534.924744 200.732986
v -10.526536 534.924744 200.747116
v -10.520079 534.924744 200.760452
v -10.666118 534.924744 201.342728
v -10.671986 534.924744 201.343536
v -10.675549 534.924744 201.345108
v -10.679075 534.924744 201.347824
v -10.681620 534.924744 201.350906
v -10.683307 534.924744 201.354095
v -10.684847 534.924744 201.358658
v -10.686174 534.924744 201.367172
v -10.686517 534.924744 201.375793
v -10.648062 534.924744 201.345062
v -10.657099 534.924744 201.343933
v -10.625406 534.924744 201.323883
v -10.625902 534.924744 201.329788
v -10.627093 534.924744 201.333939
v -10.629298 534.924744 201.337799
v -10.631768 534.924744 201.340408
v -10.634540 534.924744 201.342270
v -10.637604 534.924744 201.343582
v -10.642776 534.924744 201.344727
v -10.652837 534.924744 201.300629
v -10.640489 534.924744 201.302017
v -10.635248 534.924744 201.303986
v -10.631403 534.924744 201.306641
v -10.629074 534.924744 201.309250
v -10.627137 534.924744 201.313049
v -10.626044 534.924744 201.316833
v -10.625576 534.924744 201.320343
v -10.703184 534.924744 201.372070
v -10.701993 534.924744 201.356323
v -10.697909 534.924744 201.341080
v -10.692131 534.924744 201.329681
v -10.684921 534.924744 201.320297
v -10.673399 534.924744 201.309509
v -10.666036 534.924744 201.304504
v -10.659678 534.924744 201.301758
v -10.529709 534.924744 201.514969
v -10.480006 534.924744 201.517288
v -10.569535 534.924744 201.508835
v -10.602660 534.924744 201.499527
v -10.631507 534.924744 201.486771
v -10.654104 534.924744 201.471954
v -10.673520 534.924744 201.453796
v -10.687229 534.924744 201.434708
v -10.696856 534.924744 201.413452
v -10.701727 534.924744 201.393021
v -10.292072 534.924744 201.389679
v -10.294331 534.924744 201.415253
v -10.300739 534.924744 201.437439
v -10.312055 534.924744 201.457901
v -10.327319 534.924744 201.474792
v -10.347406 534.924744 201.489334
v -10.372581 534.924744 201.501221
v -10.402725 534.924744 201.509903
v -10.441160 534.924744 201.515701
v -10.430875 534.924744 201.278397
v -10.397644 534.924744 201.280518
v -10.368428 534.924744 201.287140
v -10.344890 534.924744 201.297714
v -10.326723 534.924744 201.311569
v -10.311172 534.924744 201.329651
v -10.299964 534.924744 201.349701
v -10.294044 534.924744 201.369308
v -10.553184 534.924744 201.382568
v -10.550588 534.924744 201.355469
v -10.545271 534.924744 201.338120
v -10.535009 534.924744 201.320480
v -10.523521 534.924744 201.308594
v -10.510954 534.924744 201.299835
v -10.491590 534.924744 201.290039
v -10.470984 534.924744 201.283234
v -10.451085 534.924744 201.279526
v -10.491985 534.924744 201.472839
v -10.514173 534.924744 201.459976
v -10.529471 534.924744 201.445923
v -10.540563 534.924744 201.430206
v -10.548368 534.924744 201.412628
v -10.552004 534.924744 201.397797
v -10.684074 534.924744 201.395905
v -10.677514 534.924744 201.412918
v -10.668454 534.924744 201.426605
v -10.657167 534.924744 201.438538
v -10.644200 534.924744 201.448624
v -10.629439 534.924744 201.455811
v -10.602434 534.924744 201.463821
v -10.574631 534.924744 201.468445
v -10.533381 534.924744 201.471954
v -10.542497 534.924744 201.815201
v -10.498843 534.924744 201.817291
v -10.581322 534.924744 201.808945
v -10.614417 534.924744 201.799118
v -10.641634 534.924744 201.786652
v -10.664981 534.924744 201.771103
v -10.681363 534.924744 201.755386
v -10.693688 534.924744 201.737244
v -10.700838 534.924744 201.717606
v -10.702600 534.924744 201.707230
v -10.703184 534.924744 201.696716
v -10.292072 534.924744 201.696716
v -10.294749 534.924744 201.718567
v -10.301816 534.924744 201.737091
v -10.311553 534.924744 201.752075
v -10.323648 534.924744 201.765213
v -10.342299 534.924744 201.780014
v -10.368844 534.924744 201.794693
v -10.398991 534.924744 201.805450
v -10.435452 534.924744 201.813080
v -10.467072 534.924744 201.816345
v -10.498843 534.924744 201.578400
v -10.455049 534.924744 201.580307
v -10.411746 534.924744 201.587067
v -10.376127 534.924744 201.597855
v -10.349445 534.924744 201.610779
v -10.326202 534.924744 201.627258
v -10.309422 534.924744 201.644974
v -10.298815 534.924744 201.663101
v -10.293728 534.924744 201.679565
v -10.700571 534.924744 201.675156
v -10.693603 534.924744 201.656876
v -10.683996 534.924744 201.642105
v -10.671994 534.924744 201.629211
v -10.653413 534.924744 201.614853
v -10.626638 534.924744 201.600281
v -10.596906 534.924744 201.589935
v -10.558857 534.924744 201.582245
v -10.528920 534.924744 201.579254
v -10.542497 534.924744 201.215195
v -10.498843 534.924744 201.217285
v -10.581322 534.924744 201.208939
v -10.614417 534.924744 201.199112
v -10.641634 534.924744 201.186661
v -10.664981 534.924744 201.171097
v -10.681363 534.924744 201.155396
v -10.693688 534.924744 201.137253
v -10.700838 534.924744 201.117599
v -10.702600 534.924744 201.107239
v -10.703184 534.924744 201.096710
v -10.292072 534.924744 201.096710
v -10.294749 534.924744 201.118576
v -10.301816 534.924744 201.137100
v -10.311553 534.924744 201.152069
v -10.323648 534.924744 201.165207
v -10.342299 534.924744 201.180008
v -10.368844 534.924744 201.194702
v -10.398991 534.924744 201.205444
v -10.435452 534.924744 201.213074
v -10.467072 534.924744 201.216339
v -10.498843 534.924744 200.978394
v -10.455049 534.924744 200.980316
v -10.411746 534.924744 200.987061
v -10.376127 534.924744 200.997849
v -10.349445 534.924744 201.010788
v -10.326202 534.924744 201.027252
v -10.309422 534.924744 201.044968
v -10.298815 534.924744 201.063095
v -10.293728 534.924744 201.079575
v -10.700571 534.924744 201.075150
v -10.693603 534.924744 201.056870
v -10.683996 534.924744 201.042114
v -10.671994 534.924744 201.029221
v -10.653413 534.924744 201.014847
v -10.626638 534.924744 201.000275
v -10.596906 534.924744 200.989929
v -10.558857 534.924744 200.982254
v -10.528920 534.924744 200.979248
v -10.333115 534.924744 201.437943
v -10.323243 534.924744 201.427948
v -10.315406 534.924744 201.416290
v -10.348259 534.924744 201.448944
v -10.310390 534.924744 201.403183
v -10.367064 534.924744 201.458435
v -10.308740 534.924744 201.389252
v -10.393909 534.924744 201.466705
v -10.309479 534.924744 201.378143
v -10.311815 534.924744 201.367249
v -10.425160 534.924744 201.471451
v -10.317345 534.924744 201.354599
v -10.325668 534.924744 201.343597
v -10.456742 534.924744 201.472839
v -10.337220 534.924744 201.334198
v -10.348158 534.924744 201.328613
v -10.486280 534.924744 201.457733
v -10.363785 534.924744 201.323730
v -10.504086 534.924744 201.444626
v -10.395728 534.924744 201.318695
v -10.516470 534.924744 201.430603
v -10.524769 534.924744 201.415375
v -10.431656 534.924744 201.317291
v -10.529458 534.924744 201.400330
v -10.530961 534.924744 201.384644
v -10.529854 534.924744 201.373581
v -10.452032 534.924744 201.318298
v -10.472115 534.924744 201.321823
v -10.526532 534.924744 201.362976
v -10.521047 534.924744 201.353302
v -10.487917 534.924744 201.327179
v -10.513840 534.924744 201.344833
v -10.502468 534.924744 201.335327
v -10.498843 534.924744 201.772842
v -10.685799 534.924744 201.704269
v -10.686517 534.924744 201.696716
v -10.685062 534.924744 201.684647
v -10.343659 534.924744 201.649246
v -10.371831 534.924744 201.637848
v -10.611848 534.924744 201.634247
v -10.572083 534.924744 201.626968
v -10.547261 534.924744 201.770859
v -10.323915 534.924744 201.729172
v -10.680987 534.924744 201.674484
v -10.405950 534.924744 201.629715
v -10.640064 534.924744 201.643097
v -10.317792 534.924744 201.722290
v -10.675467 534.924744 201.666306
v -10.449798 534.924744 201.624496
v -10.333352 534.924744 201.737000
v -10.590428 534.924744 201.764725
v -10.312903 534.924744 201.714508
v -10.668500 534.924744 201.659332
v -10.657809 534.924744 201.651672
v -10.349119 534.924744 201.746475
v -10.625958 534.924744 201.754715
v -10.309773 534.924744 201.705856
v -10.498843 534.924744 201.622849
v -10.308740 534.924744 201.696716
v -10.652667 534.924744 201.742432
v -10.374593 534.924744 201.757050
v -10.309490 534.924744 201.688461
v -10.667725 534.924744 201.732117
v -10.311782 534.924744 201.680511
v -10.535530 534.924744 201.623749
v -10.406381 534.924744 201.765259
v -10.678031 534.924744 201.721283
v -10.317358 534.924744 201.670532
v -10.326767 534.924744 201.660553
v -10.444776 534.924744 201.770584
v -10.683612 534.924744 201.711533
v -10.471786 534.924744 201.772308
v -10.498843 534.924744 201.172852
v -10.685799 534.924744 201.104279
v -10.686517 534.924744 201.096710
v -10.685062 534.924744 201.084641
v -10.343659 534.924744 201.049255
v -10.371831 534.924744 201.037842
v -10.611848 534.924744 201.034256
v -10.572083 534.924744 201.026978
v -10.547261 534.924744 201.170868
v -10.323915 534.924744 201.129166
v -10.680987 534.924744 201.074478
v -10.405950 534.924744 201.029724
v -10.640064 534.924744 201.043106
v -10.317792 534.924744 201.122299
v -10.675467 534.924744 201.066299
v -10.449798 534.924744 201.024506
v -10.333352 534.924744 201.136993
v -10.590428 534.924744 201.164719
v -10.312903 534.924744 201.114502
v -10.668500 534.924744 201.059326
v -10.657809 534.924744 201.051682
v -10.349119 534.924744 201.146469
v -10.625958 534.924744 201.154724
v -10.309773 534.924744 201.105850
v -10.498843 534.924744 201.022842
v -10.308740 534.924744 201.096710
v -10.652667 534.924744 201.142426
v -10.374593 534.924744 201.157043
v -10.309490 534.924744 201.088470
v -10.667725 534.924744 201.132126
v -10.311782 534.924744 201.080505
v -10.535530 534.924744 201.023743
v -10.406381 534.924744 201.165268
v -10.678031 534.924744 201.121277
v -10.317358 534.924744 201.070526
v -10.326767 534.924744 201.060547
v -10.444776 534.924744 201.170593
v -10.683612 534.924744 201.111542
v -10.471786 534.924744 201.172318
v -10.530961 534.934753 201.384644
v -10.529458 534.934753 201.400330
v -10.524769 534.934753 201.415375
v -10.516470 534.934753 201.430603
v -10.504086 534.934753 201.444626
v -10.486280 534.934753 201.457733
v -10.456742 534.934753 201.472839
v -10.425160 534.934753 201.471451
v -10.393909 534.934753 201.466705
v -10.367064 534.934753 201.458435
v -10.348259 534.934753 201.448944
v -10.333115 534.934753 201.437943
v -10.323243 534.934753 201.427948
v -10.315406 534.934753 201.416290
v -10.310390 534.934753 201.403183
v -10.308740 534.934753 201.389252
v -10.309479 534.934753 201.378143
v -10.311815 534.934753 201.367249
v -10.317345 534.934753 201.354599
v -10.325668 534.934753 201.343597
v -10.337220 534.934753 201.334198
v -10.348158 534.934753 201.328613
v -10.363785 534.934753 201.323730
v -10.395728 534.934753 201.318695
v -10.431656 534.934753 201.317291
v -10.452032 534.934753 201.318298
v -10.472115 534.934753 201.321823
v -10.487917 534.934753 201.327179
v -10.502468 534.934753 201.335327
v -10.513840 534.934753 201.344833
v -10.521047 534.934753 201.353302
v -10.526532 534.934753 201.362976
v -10.529854 534.934753 201.373581
v -10.535530 534.934753 201.623749
v -10.498843 534.934753 201.622849
v -10.572083 534.934753 201.626968
v -10.611848 534.934753 201.634247
v -10.640064 534.934753 201.643097
v -10.657809 534.934753 201.651672
v -10.668500 534.934753 201.659332
v -10.675467 534.934753 201.666306
v -10.680987 534.934753 201.674484
v -10.685062 534.934753 201.684647
v -10.686517 534.934753 201.696716
v -10.685799 534.934753 201.704269
v -10.683612 534.934753 201.711533
v -10.678031 534.934753 201.721283
v -10.667725 534.934753 201.732117
v -10.652667 534.934753 201.742432
v -10.625958 534.934753 201.754715
v -10.590428 534.934753 201.764725
v -10.547261 534.934753 201.770859
v -10.498843 534.934753 201.772842
v -10.471786 534.934753 201.772308
v -10.444776 534.934753 201.770584
v -10.406381 534.934753 201.765259
v -10.374593 534.934753 201.757050
v -10.349119 534.934753 201.746475
v -10.333352 534.934753 201.737000
v -10.323915 534.934753 201.729172
v -10.317792 534.934753 201.722290
v -10.312903 534.934753 201.714508
v -10.309773 534.934753 201.705856
v -10.308740 534.934753 201.696716
v -10.309490 534.934753 201.688461
v -10.311782 534.934753 201.680511
v -10.317358 534.934753 201.670532
v -10.326767 534.934753 201.660553
v -10.343659 534.934753 201.649246
v -10.371831 534.934753 201.637848
v -10.405950 534.934753 201.629715
v -10.449798 534.934753 201.624496
v -10.498843 534.934753 201.022842
v -10.535530 534.934753 201.023743
v -10.572083 534.934753 201.026978
v -10.611848 534.934753 201.034256
v -10.640064 534.934753 201.043106
v -10.657809 534.934753 201.051682
v -10.668500 534.934753 201.059326
v -10.675467 534.934753 201.066299
v -10.680987 534.934753 201.074478
v -10.685062 534.934753 201.084641
v -10.686517 534.934753 201.096710
v -10.685799 534.934753 201.104279
v -10.683612 534.934753 201.111542
v -10.678031 534.934753 201.121277
v -10.667725 534.934753 201.132126
v -10.652667 534.934753 201.142426
v -10.625958 534.934753 201.154724
v -10.590428 534.934753 201.164719
v -10.547261 534.934753 201.170868
v -10.498843 534.934753 201.172852
v -10.471786 534.934753 201.172318
v -10.444776 534.934753 201.170593
v -10.406381 534.934753 201.165268
v -10.374593 534.934753 201.157043
v -10.349119 534.934753 201.146469
v -10.333352 534.934753 201.136993
v -10.323915 534.934753 201.129166
v -10.317792 534.934753 201.122299
v -10.312903 534.934753 201.114502
v -10.309773 534.934753 201.105850
v -10.308740 534.934753 201.096710
v -10.309490 534.934753 201.088470
v -10.311782 534.934753 201.080505
v -10.317358 534.934753 201.070526
v -10.326767 534.934753 201.060547
v -10.343659 534.934753 201.049255
v -10.371831 534.934753 201.037842
v -10.405950 534.934753 201.029724
v -10.449798 534.934753 201.024506
f 1 2 3
f 2 4 3
f 2 5 4
f 5 6 4
f 4 6 3
f 6 7 3
f 8 1 7
f 1 3 7
f 5 2 8
f 2 1 8
f 9 10 11
f 12 13 5
f 14 5 13
f 15 12 5
f 16 5 14
f 17 15 5
f 18 5 16
f 19 20 21
f 22 17 5
f 23 24 25
f 23 26 24
f 27 22 5
f 28 29 30
f 31 5 18
f 32 27 5
f 33 34 10
f 33 10 9
f 35 36 37
f 35 37 38
f 39 5 31
f 35 38 40
f 35 41 42
f 35 40 41
f 43 26 23
f 43 44 26
f 45 46 47
f 48 49 50
f 48 50 36
f 48 36 35
f 51 34 33
f 52 28 30
f 52 30 53
f 54 55 56
f 57 56 58
f 57 54 56
f 59 45 47
f 60 55 54
f 61 47 62
f 60 63 55
f 8 58 64
f 61 59 47
f 8 64 65
f 8 66 5
f 8 67 66
f 68 44 43
f 8 65 67
f 69 63 60
f 68 70 44
f 69 71 63
f 72 57 58
f 72 58 8
f 73 34 51
f 74 75 76
f 77 62 19
f 78 71 69
f 79 74 76
f 77 61 62
f 79 76 32
f 77 19 21
f 80 53 81
f 80 52 53
f 82 75 74
f 83 84 85
f 83 85 49
f 82 86 75
f 83 49 48
f 87 71 78
f 88 70 68
f 89 32 5
f 89 79 32
f 88 90 70
f 91 34 73
f 92 93 86
f 92 86 82
f 94 77 21
f 95 96 34
f 95 34 91
f 97 89 5
f 98 72 8
f 99 80 81
f 99 81 100
f 101 102 93
f 101 93 92
f 103 21 104
f 105 97 5
f 103 94 21
f 106 96 95
f 107 103 104
f 108 109 110
f 111 71 87
f 66 105 5
f 111 112 71
f 113 100 114
f 113 99 100
f 115 116 102
f 115 102 101
f 117 108 110
f 118 107 104
f 119 104 96
f 119 96 106
f 120 118 104
f 121 104 119
f 122 123 116
f 122 116 115
f 121 120 104
f 124 112 111
f 125 120 121
f 126 117 110
f 127 114 128
f 127 113 114
f 126 110 129
f 126 129 130
f 131 98 8
f 132 112 124
f 133 126 130
f 133 130 134
f 133 134 135
f 136 137 138
f 136 138 123
f 136 123 122
f 139 140 84
f 139 84 83
f 141 112 132
f 7 88 142
f 141 143 112
f 7 142 144
f 7 144 145
f 7 145 146
f 7 146 147
f 7 147 148
f 7 148 149
f 7 149 150
f 7 150 151
f 152 133 135
f 7 151 153
f 152 135 154
f 7 153 127
f 152 154 155
f 7 90 88
f 7 156 90
f 7 127 128
f 157 131 8
f 158 30 29
f 8 7 159
f 159 7 128
f 7 6 160
f 7 160 161
f 7 161 162
f 7 162 163
f 7 163 156
f 164 143 141
f 6 5 165
f 165 5 39
f 166 143 164
f 6 165 167
f 6 167 168
f 6 168 169
f 6 169 170
f 6 170 171
f 6 171 172
f 6 172 173
f 6 173 174
f 6 174 175
f 6 175 176
f 6 176 177
f 6 177 178
f 179 152 155
f 179 180 152
f 181 166 182
f 181 143 166
f 183 184 137
f 183 137 136
f 185 186 187
f 188 189 190
f 188 190 140
f 188 140 139
f 191 185 187
f 192 184 183
f 192 193 184
f 194 157 8
f 195 185 191
f 196 195 191
f 197 180 179
f 198 195 196
f 199 200 189
f 199 189 188
f 201 195 198
f 202 193 192
f 203 194 8
f 202 204 193
f 205 201 198
f 206 180 197
f 162 200 199
f 162 161 200
f 207 208 209
f 207 209 210
f 211 209 208
f 212 203 8
f 211 213 209
f 214 180 206
f 215 207 210
f 215 210 216
f 217 180 214
f 218 201 205
f 219 213 211
f 220 212 8
f 219 221 213
f 67 215 216
f 67 216 66
f 222 180 217
f 223 204 202
f 223 224 204
f 225 221 219
f 225 226 221
f 227 218 205
f 228 220 8
f 229 180 222
f 229 230 180
f 231 182 232
f 231 232 233
f 231 233 234
f 231 234 235
f 231 181 182
f 236 228 8
f 237 230 229
f 238 181 231
f 239 240 224
f 238 241 181
f 239 224 223
f 242 231 235
f 242 235 243
f 244 236 8
f 245 246 247
f 245 247 226
f 245 226 225
f 248 249 250
f 251 250 249
f 252 246 245
f 251 249 241
f 253 249 248
f 252 254 246
f 255 178 240
f 253 256 249
f 255 240 239
f 257 230 237
f 258 251 241
f 258 241 238
f 259 256 253
f 260 254 252
f 261 258 238
f 260 262 263
f 260 263 254
f 264 6 178
f 264 178 255
f 265 256 259
f 266 242 243
f 267 261 238
f 268 267 238
f 269 270 271
f 269 272 270
f 273 266 243
f 273 230 257
f 273 243 230
f 274 256 265
f 275 205 270
f 275 227 205
f 275 270 272
f 276 269 271
f 274 277 256
f 159 244 8
f 278 279 280
f 278 280 227
f 278 227 275
f 281 276 271
f 281 271 282
f 283 268 238
f 284 285 286
f 287 266 273
f 284 286 279
f 284 279 278
f 287 288 266
f 289 283 238
f 290 281 282
f 291 285 284
f 292 288 287
f 293 290 282
f 294 289 238
f 294 238 295
f 296 6 264
f 297 293 282
f 297 282 40
f 298 285 291
f 299 298 291
f 300 297 40
f 10 294 295
f 301 277 274
f 302 298 299
f 38 300 40
f 11 10 295
f 303 299 304
f 303 302 299
f 42 262 260
f 42 41 262
f 25 277 301
f 305 303 304
f 25 24 277
f 306 305 304
f 160 6 296
f 307 304 308
f 307 308 309
f 307 306 304
f 146 310 311
f 146 145 310
f 312 146 311
f 147 146 312
f 313 147 312
f 148 147 313
f 149 313 314
f 149 148 313
f 150 314 315
f 150 149 314
f 151 315 316
f 151 150 315
f 153 316 317
f 153 151 316
f 127 317 318
f 127 153 317
f 301 319 320
f 301 274 319
f 321 301 320
f 25 301 321
f 23 321 322
f 23 25 321
f 43 322 323
f 43 23 322
f 68 323 324
f 68 43 323
f 88 324 325
f 88 68 324
f 142 325 326
f 142 88 325
f 144 326 327
f 144 142 326
f 145 327 310
f 145 144 327
f 261 328 329
f 258 329 330
f 258 261 329
f 251 258 330
f 250 330 331
f 250 331 332
f 250 251 330
f 248 332 333
f 248 250 332
f 253 248 333
f 259 333 334
f 259 253 333
f 265 334 335
f 265 259 334
f 274 335 319
f 274 265 335
f 34 336 337
f 34 337 338
f 34 96 336
f 10 338 339
f 10 34 338
f 294 339 340
f 294 10 339
f 289 294 340
f 283 340 341
f 283 289 340
f 268 341 342
f 268 342 343
f 268 283 341
f 267 343 328
f 267 268 343
f 261 267 328
f 344 62 345
f 19 344 346
f 19 62 344
f 20 346 347
f 20 19 346
f 21 347 348
f 21 20 347
f 104 348 336
f 104 21 348
f 96 104 336
f 94 349 350
f 94 103 349
f 77 350 351
f 77 94 350
f 61 351 352
f 61 77 351
f 59 352 353
f 59 353 354
f 59 61 352
f 45 59 354
f 46 354 355
f 46 45 354
f 47 355 356
f 47 46 355
f 62 356 345
f 62 47 356
f 357 95 358
f 106 95 357
f 359 106 357
f 119 106 359
f 360 119 359
f 121 119 360
f 361 121 360
f 125 121 361
f 120 361 362
f 120 125 361
f 118 362 363
f 118 120 362
f 107 363 364
f 107 118 363
f 103 364 349
f 103 107 364
f 365 238 366
f 295 238 365
f 367 295 365
f 11 295 367
f 368 11 367
f 9 11 368
f 33 368 369
f 33 9 368
f 370 33 369
f 51 33 370
f 371 51 370
f 73 51 371
f 372 73 371
f 91 73 372
f 358 91 372
f 95 91 358
f 238 231 373
f 366 238 373
f 257 374 375
f 257 237 374
f 273 375 376
f 273 257 375
f 377 273 376
f 287 273 377
f 378 287 377
f 292 287 378
f 379 292 378
f 288 292 379
f 380 288 379
f 266 288 380
f 381 266 380
f 242 266 381
f 373 242 381
f 231 242 373
f 382 155 383
f 179 155 382
f 384 179 382
f 197 179 384
f 206 384 385
f 206 197 384
f 214 385 386
f 214 206 385
f 217 386 387
f 217 214 386
f 222 387 388
f 222 217 387
f 229 388 389
f 229 222 388
f 374 229 389
f 237 229 374
f 117 390 391
f 108 117 391
f 109 391 392
f 109 392 393
f 109 108 391
f 110 393 394
f 110 109 393
f 129 394 395
f 129 110 394
f 130 129 395
f 396 130 395
f 134 130 396
f 135 396 397
f 135 134 396
f 154 397 398
f 154 135 397
f 155 398 383
f 155 154 398
f 152 399 400
f 152 400 401
f 152 180 399
f 133 401 402
f 133 152 401
f 126 402 390
f 126 133 402
f 117 126 390
f 233 403 404
f 233 232 403
f 234 404 405
f 234 405 406
f 234 233 404
f 235 406 407
f 235 234 406
f 243 235 407
f 408 243 407
f 230 243 408
f 399 230 408
f 180 230 399
f 111 409 410
f 111 410 411
f 111 87 409
f 124 411 412
f 124 111 411
f 132 412 413
f 132 124 412
f 141 413 414
f 141 132 413
f 164 141 414
f 166 414 415
f 166 164 414
f 182 415 416
f 182 166 415
f 232 416 403
f 232 182 416
f 417 131 418
f 98 131 417
f 419 98 417
f 72 98 419
f 420 72 419
f 57 72 420
f 421 57 420
f 54 57 421
f 422 54 421
f 60 54 422
f 423 60 422
f 69 423 424
f 69 60 423
f 78 424 409
f 78 69 424
f 87 78 409
f 425 159 426
f 244 159 425
f 236 425 427
f 236 244 425
f 228 427 428
f 228 236 427
f 429 228 428
f 220 228 429
f 212 429 430
f 212 220 429
f 203 430 431
f 203 212 430
f 432 203 431
f 194 203 432
f 157 432 433
f 157 194 432
f 131 433 418
f 131 157 433
f 434 158 435
f 30 158 434
f 53 434 436
f 53 30 434
f 81 436 437
f 81 53 436
f 100 437 438
f 100 81 437
f 114 438 439
f 114 100 438
f 128 439 440
f 128 114 439
f 426 128 440
f 159 128 426
f 113 318 441
f 113 127 318
f 99 441 442
f 99 113 441
f 443 99 442
f 80 99 443
f 444 80 443
f 52 80 444
f 445 52 444
f 28 52 445
f 446 28 445
f 29 28 446
f 435 29 446
f 158 29 435
f 304 447 448
f 308 448 449
f 308 304 448
f 309 449 450
f 309 308 449
f 307 450 451
f 307 309 450
f 306 451 452
f 306 307 451
f 305 452 453
f 305 306 452
f 303 453 454
f 303 305 453
f 302 454 455
f 302 303 454
f 298 302 455
f 299 456 457
f 299 291 456
f 304 457 447
f 304 299 457
f 281 458 459
f 281 290 458
f 276 459 460
f 276 460 461
f 276 281 459
f 269 461 462
f 269 276 461
f 272 462 463
f 272 269 462
f 275 272 463
f 278 463 464
f 278 464 465
f 278 275 463
f 284 465 456
f 284 278 465
f 291 284 456
f 50 466 467
f 50 467 468
f 50 49 466
f 36 468 469
f 36 50 468
f 37 469 470
f 37 36 469
f 38 37 470
f 300 470 471
f 300 38 470
f 297 471 472
f 297 300 471
f 293 472 473
f 293 297 472
f 290 473 458
f 290 293 473
f 161 474 475
f 161 160 474
f 476 161 475
f 200 161 476
f 477 200 476
f 189 200 477
f 478 189 477
f 190 189 478
f 140 478 479
f 140 190 478
f 84 479 480
f 84 140 479
f 85 480 481
f 85 481 466
f 85 84 480
f 49 85 466
f 482 122 483
f 136 122 482
f 484 136 482
f 183 136 484
f 485 183 484
f 192 183 485
f 486 192 485
f 202 192 486
f 487 202 486
f 223 202 487
f 488 223 487
f 239 223 488
f 489 239 488
f 255 239 489
f 490 255 489
f 264 255 490
f 296 490 491
f 296 264 490
f 160 491 474
f 160 296 491
f 97 492 493
f 97 105 492
f 89 493 494
f 89 97 493
f 495 89 494
f 79 89 495
f 74 495 496
f 74 79 495
f 82 496 497
f 82 74 496
f 92 497 498
f 92 82 497
f 101 498 499
f 101 92 498
f 115 499 500
f 115 101 499
f 122 500 483
f 122 115 500
f 226 501 502
f 226 247 501
f 221 502 503
f 221 226 502
f 213 503 504
f 213 221 503
f 209 504 505
f 209 213 504
f 210 505 506
f 210 209 505
f 216 506 507
f 216 210 506
f 66 507 508
f 66 216 507
f 105 508 492
f 105 66 508
f 271 509 510
f 271 270 509
f 511 271 510
f 282 271 511
f 512 282 511
f 40 282 512
f 513 40 512
f 41 40 513
f 262 513 514
f 262 41 513
f 263 514 515
f 263 262 514
f 254 515 516
f 254 263 515
f 517 254 516
f 246 254 517
f 247 517 501
f 247 246 517
f 187 518 519
f 187 186 518
f 191 519 520
f 191 187 519
f 521 191 520
f 196 191 521
f 522 196 521
f 198 196 522
f 523 198 522
f 205 198 523
f 509 205 523
f 270 205 509
f 285 455 524
f 285 298 455
f 286 524 525
f 286 285 524
f 526 286 525
f 279 286 526
f 527 279 526
f 280 279 527
f 528 280 527
f 227 280 528
f 529 227 528
f 218 227 529
f 530 218 529
f 201 218 530
f 531 201 530
f 195 201 531
f 185 531 532
f 185 195 531
f 186 532 518
f 186 185 532
f 533 165 534
f 167 165 533
f 168 533 535
f 168 167 533
f 536 168 535
f 169 168 536
f 537 169 536
f 170 169 537
f 171 537 538
f 171 170 537
f 172 538 539
f 172 171 538
f 173 539 540
f 173 172 539
f 174 540 541
f 174 173 540
f 542 174 541
f 175 174 542
f 543 175 542
f 176 175 543
f 17 544 545
f 17 22 544
f 15 545 546
f 15 17 545
f 12 546 547
f 12 15 546
f 13 547 548
f 13 12 547
f 14 548 549
f 14 13 548
f 550 14 549
f 16 14 550
f 551 16 550
f 18 16 551
f 552 18 551
f 31 18 552
f 553 31 552
f 39 31 553
f 534 39 553
f 165 39 534
f 116 554 555
f 116 123 554
f 102 555 556
f 102 116 555
f 93 556 557
f 93 102 556
f 86 557 558
f 86 93 557
f 75 558 559
f 75 86 558
f 76 559 560
f 76 75 559
f 32 560 561
f 32 76 560
f 27 561 562
f 27 32 561
f 22 562 544
f 22 27 562
f 563 176 543
f 177 176 563
f 564 177 563
f 178 177 564
f 240 564 565
f 240 178 564
f 566 240 565
f 224 240 566
f 567 224 566
f 204 224 567
f 193 567 568
f 193 204 567
f 184 568 569
f 184 193 568
f 570 184 569
f 137 184 570
f 571 137 570
f 138 137 571
f 554 138 571
f 123 138 554
f 572 260 573
f 42 260 572
f 574 42 572
f 35 42 574
f 575 35 574
f 48 35 575
f 576 48 575
f 83 48 576
f 577 83 576
f 139 83 577
f 578 139 577
f 188 139 578
f 579 188 578
f 199 188 579
f 580 199 579
f 162 199 580
f 581 162 580
f 163 162 581
f 582 163 581
f 156 163 582
f 67 583 584
f 67 65 583
f 585 67 584
f 215 67 585
f 586 215 585
f 207 215 586
f 587 207 586
f 208 207 587
f 588 208 587
f 211 208 588
f 589 211 588
f 219 211 589
f 590 219 589
f 225 219 590
f 591 225 590
f 245 225 591
f 592 245 591
f 252 245 592
f 573 252 592
f 260 252 573
f 143 593 594
f 143 181 593
f 595 143 594
f 112 143 595
f 596 112 595
f 71 112 596
f 63 596 597
f 63 71 596
f 55 597 598
f 55 63 597
f 56 598 599
f 56 55 598
f 58 599 600
f 58 56 599
f 64 600 601
f 64 58 600
f 65 601 583
f 65 64 601
f 602 156 582
f 90 156 602
f 603 90 602
f 70 90 603
f 604 70 603
f 44 70 604
f 605 44 604
f 26 44 605
f 606 26 605
f 24 26 606
f 607 24 606
f 277 24 607
f 608 277 607
f 256 277 608
f 609 256 608
f 249 256 609
f 610 249 609
f 241 249 610
f 593 241 610
f 181 241 593
f 353 324 323
f 352 324 353
f 354 353 323
f 351 325 324
f 351 324 352
f 355 323 322
f 355 354 323
f 356 355 322
f 345 322 321
f 345 356 322
f 350 326 325
f 350 325 351
f 344 321 320
f 344 345 321
f 349 327 326
f 349 310 327
f 349 326 350
f 346 320 319
f 346 335 334
f 346 319 335
f 346 344 320
f 331 333 332
f 364 310 349
f 347 346 334
f 336 334 333
f 336 348 347
f 336 333 331
f 336 347 334
f 363 311 310
f 363 310 364
f 337 329 328
f 337 330 329
f 337 331 330
f 337 328 343
f 337 336 331
f 338 337 343
f 338 342 341
f 338 343 342
f 339 338 341
f 339 341 340
f 362 311 363
f 312 311 362
f 361 312 362
f 313 312 361
f 313 361 360
f 314 313 360
f 314 360 359
f 315 314 359
f 315 359 357
f 316 315 357
f 365 366 373
f 317 316 357
f 317 357 358
f 318 317 358
f 381 365 373
f 381 367 365
f 441 318 358
f 441 358 372
f 416 415 414
f 435 368 367
f 403 416 414
f 380 367 381
f 380 435 367
f 446 368 435
f 446 369 368
f 442 441 372
f 442 372 371
f 445 369 446
f 443 442 371
f 443 371 370
f 444 369 445
f 444 443 370
f 444 370 369
f 407 404 403
f 407 405 404
f 407 406 405
f 407 414 413
f 407 403 414
f 379 435 380
f 408 413 412
f 408 407 413
f 378 434 379
f 399 412 411
f 399 408 412
f 400 399 411
f 400 410 409
f 400 411 410
f 401 409 424
f 401 400 409
f 377 434 378
f 402 423 422
f 402 424 423
f 402 401 424
f 390 422 421
f 390 402 422
f 436 434 377
f 391 390 421
f 392 391 421
f 376 436 377
f 420 393 392
f 420 394 393
f 420 392 421
f 437 436 376
f 395 394 420
f 419 396 395
f 419 395 420
f 438 437 376
f 438 376 375
f 397 396 419
f 417 398 397
f 417 397 419
f 383 398 417
f 439 438 375
f 439 375 374
f 440 439 374
f 418 382 383
f 418 383 417
f 426 440 374
f 433 384 382
f 433 382 418
f 425 374 389
f 425 426 374
f 432 384 433
f 427 389 388
f 427 425 389
f 431 385 384
f 431 384 432
f 428 427 388
f 430 386 385
f 430 385 431
f 429 387 386
f 429 388 387
f 429 386 430
f 429 428 388
f 434 435 379
f 611 496 495
f 612 611 495
f 612 495 494
f 613 612 494
f 613 494 493
f 614 496 611
f 614 497 496
f 615 613 493
f 615 493 492
f 616 497 614
f 616 498 497
f 617 615 492
f 618 498 616
f 618 499 498
f 619 492 508
f 619 617 492
f 620 619 508
f 507 620 508
f 621 499 618
f 621 500 499
f 622 620 507
f 506 622 507
f 623 622 506
f 624 500 621
f 624 483 500
f 625 623 506
f 505 625 506
f 518 482 483
f 518 483 624
f 626 625 505
f 627 518 624
f 504 628 626
f 504 626 505
f 519 518 627
f 629 519 627
f 532 484 482
f 532 482 518
f 503 630 628
f 503 628 504
f 520 519 629
f 631 520 629
f 531 484 532
f 531 485 484
f 521 520 631
f 521 631 632
f 502 633 630
f 502 630 503
f 522 521 632
f 522 632 634
f 530 485 531
f 486 485 530
f 501 633 502
f 523 634 635
f 523 522 634
f 509 635 636
f 509 523 635
f 517 633 501
f 517 637 633
f 529 486 530
f 487 486 529
f 516 638 637
f 516 637 517
f 510 636 639
f 510 639 640
f 510 509 636
f 528 487 529
f 515 641 638
f 515 638 516
f 511 640 642
f 511 510 640
f 514 643 641
f 514 641 515
f 512 642 643
f 512 511 642
f 513 512 643
f 513 643 514
f 488 528 527
f 488 487 528
f 526 488 527
f 489 488 526
f 525 489 526
f 490 489 525
f 524 490 525
f 463 462 461
f 460 463 461
f 464 463 460
f 459 464 460
f 465 464 459
f 458 465 459
f 456 465 458
f 473 456 458
f 491 490 524
f 455 491 524
f 469 471 470
f 474 491 455
f 474 455 454
f 468 471 469
f 468 472 471
f 467 456 473
f 467 472 468
f 467 473 472
f 475 474 454
f 475 453 452
f 475 454 453
f 466 456 467
f 466 457 456
f 476 451 450
f 476 452 451
f 476 475 452
f 481 457 466
f 480 457 481
f 477 449 448
f 477 450 449
f 477 476 450
f 479 447 457
f 479 457 480
f 478 447 479
f 478 448 447
f 478 477 448
f 533 534 644
f 543 542 645
f 543 645 646
f 543 646 647
f 558 648 559
f 558 649 648
f 569 650 651
f 569 651 570
f 652 535 533
f 652 533 644
f 653 547 546
f 563 647 654
f 557 649 558
f 563 543 647
f 557 655 649
f 568 656 650
f 568 650 569
f 657 546 545
f 564 563 654
f 556 655 557
f 657 653 546
f 564 654 658
f 659 655 556
f 660 548 547
f 660 547 653
f 567 656 568
f 661 536 535
f 662 657 545
f 661 535 652
f 565 564 658
f 565 658 663
f 565 663 664
f 566 565 664
f 665 549 548
f 566 656 567
f 666 537 536
f 566 664 656
f 666 536 661
f 665 548 660
f 667 662 545
f 667 545 544
f 555 659 556
f 668 659 555
f 538 537 666
f 669 667 544
f 670 538 666
f 671 549 665
f 671 550 549
f 672 669 544
f 554 668 555
f 672 544 562
f 539 538 670
f 673 539 670
f 674 672 562
f 561 674 562
f 571 675 668
f 571 668 554
f 676 550 671
f 676 551 550
f 676 552 551
f 540 539 673
f 677 540 673
f 678 674 561
f 570 651 675
f 570 675 571
f 560 678 561
f 679 678 560
f 680 552 676
f 680 553 552
f 541 677 681
f 541 540 677
f 542 681 645
f 542 541 681
f 559 679 560
f 559 648 679
f 682 553 680
f 682 534 553
f 644 534 682
f 572 573 683
f 582 581 684
f 582 684 685
f 582 685 686
f 597 687 598
f 597 688 687
f 608 689 690
f 608 690 609
f 691 574 572
f 691 572 683
f 692 586 585
f 602 686 693
f 596 688 597
f 602 582 686
f 596 694 688
f 607 695 689
f 607 689 608
f 696 585 584
f 603 602 693
f 595 694 596
f 696 692 585
f 603 693 697
f 698 694 595
f 699 587 586
f 699 586 692
f 606 695 607
f 700 575 574
f 701 696 584
f 700 574 691
f 604 603 697
f 604 697 702
f 604 702 703
f 605 604 703
f 704 588 587
f 605 695 606
f 705 576 575
f 605 703 695
f 705 575 700
f 704 587 699
f 706 701 584
f 706 584 583
f 594 698 595
f 707 698 594
f 577 576 705
f 708 706 583
f 709 577 705
f 710 588 704
f 710 589 588
f 711 708 583
f 593 707 594
f 711 583 601
f 578 577 709
f 712 578 709
f 713 711 601
f 600 713 601
f 610 714 707
f 610 707 593
f 715 589 710
f 715 590 589
f 715 591 590
f 579 578 712
f 716 579 712
f 717 713 600
f 609 690 714
f 609 714 610
f 599 717 600
f 718 717 599
f 719 591 715
f 719 592 591
f 580 716 720
f 580 579 716
f 581 720 684
f 581 580 720
f 598 718 599
f 598 687 718
f 721 592 719
f 721 573 592
f 683 573 721
f 634 722 635
f 723 722 634
f 724 634 632
f 724 723 634
f 631 724 632
f 725 724 631
f 629 725 631
f 726 725 629
f 727 629 627
f 727 726 629
f 624 727 627
f 728 727 624
f 729 624 621
f 729 728 624
f 730 621 618
f 730 729 621
f 731 618 616
f 731 730 618
f 732 616 614
f 732 731 616
f 733 614 611
f 733 732 614
f 734 611 612
f 734 733 611
f 613 734 612
f 735 734 613
f 615 735 613
f 736 735 615
f 737 615 617
f 737 736 615
f 619 737 617
f 738 737 619
f 620 738 619
f 739 738 620
f 622 739 620
f 740 739 622
f 623 740 622
f 741 740 623
f 625 741 623
f 742 741 625
f 626 742 625
f 743 742 626
f 628 743 626
f 744 743 628
f 630 744 628
f 745 744 630
f 633 745 630
f 746 745 633
f 637 746 633
f 747 746 637
f 748 637 638
f 748 747 637
f 749 638 641
f 749 748 638
f 643 749 641
f 750 749 643
f 642 750 643
f 751 750 642
f 640 751 642
f 752 751 640
f 639 752 640
f 753 752 639
f 636 753 639
f 754 753 636
f 635 754 636
f 722 754 635
f 755 668 675
f 755 756 668
f 757 675 651
f 757 755 675
f 758 651 650
f 758 757 651
f 759 650 656
f 759 758 650
f 760 656 664
f 760 759 656
f 761 664 663
f 761 760 664
f 762 658 654
f 762 663 658
f 762 761 663
f 763 762 654
f 647 763 654
f 764 763 647
f 646 764 647
f 765 764 646
f 765 646 645
f 766 645 681
f 766 765 645
f 767 766 681
f 677 767 681
f 768 767 677
f 673 768 677
f 769 768 673
f 670 769 673
f 770 769 670
f 666 770 670
f 771 770 666
f 661 771 666
f 772 771 661
f 773 661 652
f 773 772 661
f 774 652 644
f 774 773 652
f 775 644 682
f 775 774 644
f 776 682 680
f 776 775 682
f 777 680 676
f 777 776 680
f 778 676 671
f 778 777 676
f 665 778 671
f 779 778 665
f 660 779 665
f 780 779 660
f 653 780 660
f 781 653 657
f 781 780 653
f 782 657 662
f 782 781 657
f 783 782 662
f 784 662 667
f 784 783 662
f 785 667 669
f 785 784 667
f 786 669 672
f 786 785 669
f 787 672 674
f 787 786 672
f 788 674 678
f 788 787 674
f 789 678 679
f 789 788 678
f 790 679 648
f 790 789 679
f 791 648 649
f 791 790 648
f 792 649 655
f 792 791 649
f 793 655 659
f 793 792 655
f 756 659 668
f 756 793 659
f 714 794 707
f 795 794 714
f 690 795 714
f 796 795 690
f 689 796 690
f 797 796 689
f 798 689 695
f 798 797 689
f 703 798 695
f 799 798 703
f 702 799 703
f 800 799 702
f 801 702 697
f 801 800 702
f 802 697 693
f 802 801 697
f 803 693 686
f 803 802 693
f 804 686 685
f 804 803 686
f 805 685 684
f 805 804 685
f 806 684 720
f 806 805 684
f 807 720 716
f 807 806 720
f 808 716 712
f 808 807 716
f 809 712 709
f 809 808 712
f 810 709 705
f 810 809 709
f 811 705 700
f 811 810 705
f 812 700 691
f 812 811 700
f 813 691 683
f 813 812 691
f 721 813 683
f 814 813 721
f 719 814 721
f 815 814 719
f 715 815 719
f 816 815 715
f 710 816 715
f 817 816 710
f 704 817 710
f 818 817 704
f 699 818 704
f 819 818 699
f 692 819 699
f 820 819 692
f 821 692 696
f 821 820 692
f 822 701 706
f 822 696 701
f 822 821 696
f 823 706 708
f 823 822 706
f 824 823 708
f 825 708 711
f 825 824 708
f 826 711 713
f 826 825 711
f 827 713 717
f 827 826 713
f 828 717 718
f 828 827 717
f 829 718 687
f 829 828 718
f 688 829 687
f 830 829 688
f 694 830 688
f 831 830 694
f 832 694 698
f 832 831 694
f 707 832 698
f 794 832 707
f 751 722 723
f 751 752 722
f 751 723 750
f 737 735 736
f 737 734 735
f 738 734 737
f 741 739 740
f 742 738 739
f 742 739 741
f 743 733 734
f 743 738 742
f 743 734 738
f 727 728 729
f 744 732 733
f 744 731 732
f 744 733 743
f 745 730 731
f 745 731 744
f 746 729 730
f 746 730 745
f 747 727 729
f 747 729 746
f 748 726 727
f 748 727 747
f 749 725 726
f 749 724 725
f 749 726 748
f 750 723 724
f 750 724 749
f 752 754 722
f 752 753 754
f 764 765 768
f 760 770 759
f 760 769 770
f 763 764 768
f 762 768 769
f 762 763 768
f 761 762 769
f 761 769 760
f 785 783 784
f 786 782 783
f 786 783 785
f 787 782 786
f 788 781 782
f 788 782 787
f 789 780 781
f 789 781 788
f 790 779 780
f 790 780 789
f 791 778 779
f 791 779 790
f 792 777 778
f 792 776 777
f 792 778 791
f 793 775 776
f 793 776 792
f 756 774 775
f 756 775 793
f 755 773 774
f 755 774 756
f 757 772 773
f 757 773 755
f 758 771 772
f 758 772 757
f 765 767 768
f 765 766 767
f 759 771 758
f 759 770 771
f 803 804 807
f 799 809 798
f 799 808 809
f 802 803 807
f 801 807 808
f 801 802 807
f 800 801 808
f 800 808 799
f 824 822 823
f 825 821 822
f 825 822 824
f 826 821 825
f 827 820 821
f 827 821 826
f 828 819 820
f 828 820 827
f 829 818 819
f 829 819 828
f 830 817 818
f 830 818 829
f 831 816 817
f 831 815 816
f 831 817 830
f 832 814 815
f 832 815 831
f 794 813 814
f 794 814 832
f 795 812 813
f 795 813 794
f 796 811 812
f 796 812 795
f 797 810 811
f 797 811 796
f 804 806 807
f 804 805 806
f 798 810 797
f 798 809 810
