# Created by FreeCAD <http://www.freecadweb.org>
v 12.400001 515.886902 -20.791885
v 12.400001 515.887024 -19.191885
v 12.400001 515.086914 -20.791813
v 12.400001 515.087036 -19.191813
v 11.950000 515.887024 -19.191885
v 11.950000 515.087036 -19.191813
v 12.000000 515.087036 -19.391813
v 11.950000 515.087036 -19.391813
v 12.000000 515.086914 -20.591814
v 11.950000 515.086914 -20.591814
v 11.950000 515.086914 -20.791813
v 11.950000 515.886902 -20.791885
v 12.000000 515.887024 -19.391886
v 11.950000 515.887024 -19.391886
v 12.000000 515.886902 -20.591887
v 11.950000 515.886902 -20.591887
f 1 2 3
f 2 4 3
f 2 5 6
f 4 2 6
f 4 6 7
f 7 6 8
f 3 4 9
f 4 7 9
f 9 10 11
f 3 9 11
f 3 11 12
f 1 3 12
f 5 2 13
f 5 13 14
f 13 2 1
f 13 1 15
f 16 15 12
f 15 1 12
f 8 6 5
f 8 5 14
f 9 7 13
f 9 13 15
f 9 15 10
f 15 16 10
f 11 10 16
f 11 16 12
f 13 7 14
f 7 8 14
