# Created by FreeCAD <http://www.freecadweb.org>
v -20.814802 534.484741 189.970978
v -20.814802 534.484741 189.170975
v -19.214802 534.484741 189.970978
v -19.214802 534.484741 189.170975
v -20.814802 534.934753 189.970978
v -20.814802 534.934753 189.170975
v -20.614801 534.884766 189.170975
v -20.614801 534.934753 189.170975
v -19.414803 534.884766 189.170975
v -19.414803 534.934753 189.170975
v -19.214802 534.934753 189.170975
v -19.214802 534.934753 189.970978
v -20.614801 534.884766 189.970978
v -20.614801 534.934753 189.970978
v -19.414803 534.884766 189.970978
v -19.414803 534.934753 189.970978
f 1 2 3
f 3 2 4
f 1 5 6
f 2 1 6
f 2 6 7
f 7 6 8
f 4 2 9
f 2 7 9
f 9 10 11
f 4 9 11
f 4 11 12
f 3 4 12
f 5 1 13
f 5 13 14
f 13 1 3
f 13 3 15
f 16 15 12
f 15 3 12
f 8 6 5
f 8 5 14
f 9 7 13
f 9 13 15
f 9 15 10
f 15 16 10
f 11 10 16
f 11 16 12
f 13 7 14
f 7 8 14
