# Created by FreeCAD <http://www.freecadweb.org>
v -13.978868 530.000000 84.188644
v -13.978761 530.000000 85.388641
v -14.778869 530.000000 84.188713
v -14.778760 530.000000 85.388718
v -13.978761 530.049988 85.388641
v -14.778760 530.049988 85.388718
v -14.778869 530.049988 84.188713
v -13.978868 530.049988 84.188644
v -14.200500 530.049988 85.292534
v -14.212594 530.049988 85.305672
v -14.231244 530.049988 85.320473
v -14.190763 530.049988 85.277557
v -14.257787 530.049988 85.335167
v -14.183700 530.049988 85.259033
v -14.287932 530.049988 85.345917
v -14.528801 530.049988 84.410858
v -14.521628 530.049988 84.409218
v -14.514146 530.049988 84.403969
v -14.181025 530.049988 85.237175
v -14.553554 530.049988 84.433487
v -14.542426 530.049988 84.555336
v -14.542607 530.049988 84.440163
v -14.561006 530.049988 84.569710
v -14.182681 530.049988 85.220032
v -14.415574 530.049988 84.287598
v -14.409115 530.049988 84.300934
v -14.392008 530.049988 84.286789
v -14.324393 530.049988 85.353554
v -14.434212 530.049988 84.304436
v -14.489684 530.049988 84.405655
v -14.423946 530.049988 84.315804
v -14.187770 530.049988 85.203552
v -14.496533 530.049988 84.403229
v -14.470318 530.049988 84.749435
v -14.524235 530.049988 84.844482
v -14.520390 530.049988 84.847130
v -14.518061 530.049988 84.849747
v -14.423995 530.049988 84.860962
v -14.356012 530.049988 85.356819
v -14.412508 530.049988 84.849083
v -14.431492 530.049988 84.755684
v -14.562967 530.049988 84.424774
v -14.573007 530.049988 84.582611
v -14.553905 530.049988 84.408699
v -14.548422 530.049988 84.410797
v -14.544733 530.049988 84.411415
v -14.503414 530.049988 84.739609
v -14.541824 530.049988 84.841118
v -14.529476 530.049988 84.842514
v -14.446885 530.049988 84.295830
v -14.425210 530.049988 84.273468
v -14.377070 530.049988 84.263680
v -14.214729 530.049988 84.433662
v -14.215215 530.049988 84.567719
v -14.198433 530.049988 84.585434
v -14.200423 530.049988 84.416412
v -14.187824 530.049988 84.603554
v -14.558388 530.049988 84.405731
v -14.228509 530.049988 84.444214
v -14.562063 530.049988 84.402031
v -14.540995 530.049988 84.411598
v -14.238460 530.049988 84.551254
v -14.182735 530.049988 84.620033
v -14.181079 530.049988 84.637177
v -14.183025 530.049988 84.909760
v -14.573417 530.049988 84.411240
v -14.183754 530.049988 84.659035
v -14.240376 530.049988 84.449562
v -14.582612 530.049988 84.597374
v -14.265141 530.049988 84.538315
v -14.461027 530.049988 84.289925
v -14.189308 530.049988 84.395081
v -14.216291 530.049988 85.015251
v -14.215160 530.049988 85.167717
v -14.198379 530.049988 85.185432
v -14.566627 530.049988 84.394760
v -14.248826 530.049988 84.451584
v -14.201028 530.049988 84.998360
v -14.438811 530.049988 84.260231
v -14.362288 530.049988 84.248833
v -14.236377 530.049988 85.029800
v -14.530631 530.049988 84.727150
v -14.555022 530.049988 84.845001
v -14.548664 530.049988 84.842255
v -14.238405 530.049988 85.151253
v -14.582464 530.049988 84.394272
v -14.257484 530.049988 84.452202
v -14.189714 530.049988 84.977890
v -14.589579 530.049988 84.615646
v -14.477076 530.049988 84.286591
v -14.261550 530.049988 85.041687
v -14.265088 530.049988 85.138321
v -14.573071 530.049988 84.376785
v -14.493437 530.049988 84.285553
v -14.506447 530.049988 84.402222
v -14.183308 530.049988 84.955711
v -14.183052 530.049988 84.372375
v -14.457740 530.049988 84.249214
v -14.345934 530.049988 84.238365
v -14.291695 530.049988 85.050369
v -14.300708 530.049988 85.127533
v -14.575548 530.049988 84.357872
v -14.510401 530.049988 84.402611
v -14.181052 530.049988 84.930145
v -14.513944 530.049988 84.287399
v -14.574815 530.049988 84.345360
v -14.224168 530.049988 84.410683
v -14.220566 530.049988 84.409225
v -14.216841 530.049988 84.406715
v -14.265329 530.049988 84.451492
v -14.300762 530.049988 84.527534
v -14.478733 530.049988 84.243011
v -14.321995 530.049988 84.228485
v -14.330128 530.049988 85.056168
v -14.344011 530.049988 85.120789
v -14.230057 530.049988 84.411575
v -14.572200 530.049988 84.333107
v -14.533623 530.049988 84.293396
v -14.567425 530.049988 84.321556
v -14.368975 530.049988 85.057770
v -14.387806 530.049988 85.118881
v -14.551525 530.049988 84.303551
v -14.272853 530.049988 84.449112
v -14.559262 530.049988 84.310326
v -14.238954 530.049988 84.409782
v -14.500559 530.049988 84.241112
v -14.308031 530.049988 84.225502
v -14.213583 530.049988 84.403656
v -14.209951 530.049988 84.398964
v -14.181105 530.049988 84.348892
v -14.279668 530.049988 84.445183
v -14.247149 530.049988 84.405762
v -14.204748 530.049988 84.389091
v -14.201031 530.049988 84.378593
v -14.418677 530.049988 85.055458
v -14.447819 530.049988 85.122734
v -14.417883 530.049988 85.119736
v -14.553980 530.049988 84.711594
v -14.562386 530.049988 84.850006
v -14.285625 530.049988 84.440010
v -14.588586 530.049988 84.376045
v -14.591345 530.049988 84.360687
v -14.344066 530.049988 84.520782
v -14.592216 530.049988 84.345116
v -14.589827 530.049988 84.319656
v -14.582850 530.049988 84.297729
v -14.571538 530.049988 84.279213
v -14.556407 530.049988 84.263649
v -14.538587 530.049988 84.251244
v -14.520529 530.049988 84.243805
v -14.253833 530.049988 84.403351
v -14.510638 530.049988 84.241760
v -14.198571 530.049988 84.366676
v -14.197771 530.049988 84.354538
v -14.592190 530.049988 84.637215
v -14.182277 530.049988 84.328056
v -14.404111 530.049988 84.314888
v -14.293790 530.049988 84.224426
v -14.592165 530.049988 84.912560
v -14.590976 530.049988 84.896820
v -14.589843 530.049988 84.658104
v -14.591606 530.049988 84.647736
v -14.289895 530.049988 84.434349
v -14.387784 530.049988 85.357765
v -14.291272 530.049988 84.431458
v -14.431437 530.049988 85.355682
v -14.470263 530.049988 85.349434
v -14.503360 530.049988 85.339607
v -14.530578 530.049988 85.327148
v -14.553926 530.049988 85.311592
v -14.570310 530.049988 85.295883
v -14.582637 530.049988 85.277740
v -14.589788 530.049988 85.258102
v -14.591552 530.049988 85.247734
v -14.592135 530.049988 85.237213
v -14.589524 530.049988 85.215645
v -14.582558 530.049988 85.197372
v -14.199800 530.049988 84.331909
v -14.264606 530.049988 84.402199
v -14.387860 530.049988 84.518883
v -14.291927 530.049988 84.428810
v -14.458504 530.049988 85.049316
v -14.485867 530.049988 85.130424
v -14.422353 530.049988 85.012436
v -14.380958 530.049988 85.013321
v -14.403145 530.049988 85.000458
v -14.570364 530.049988 84.695885
v -14.581117 530.049988 84.870186
v -14.573907 530.049988 84.860794
v -14.418446 530.049988 84.986412
v -14.491631 530.049988 85.040016
v -14.515598 530.049988 85.140770
v -14.186121 530.049988 84.307541
v -14.463603 530.049988 85.008926
v -14.429539 530.049988 84.970695
v -14.205075 530.049988 84.314278
v -14.437346 530.049988 84.953110
v -14.582691 530.049988 84.677742
v -14.586893 530.049988 84.881577
v -14.491407 530.049988 85.004311
v -14.520477 530.049988 85.027260
v -14.193264 530.049988 84.287933
v -14.542372 530.049988 85.155342
v -14.440983 530.049988 84.938278
v -14.213646 530.049988 84.299561
v -14.200554 530.049988 84.692535
v -14.212648 530.049988 84.705673
v -14.215710 530.049988 84.852028
v -14.200156 530.049988 84.870110
v -14.231297 530.049988 84.720474
v -14.203968 530.049988 84.270020
v -14.233877 530.049988 84.838173
v -14.224375 530.049988 84.288605
v -14.190818 530.049988 84.677551
v -14.188947 530.049988 84.890160
v -14.235978 530.049988 84.281113
v -14.518413 530.049988 84.996300
v -14.257841 530.049988 84.735168
v -14.218016 530.049988 84.254608
v -14.257417 530.049988 84.827614
v -14.248701 530.049988 84.275734
v -14.543077 530.049988 85.012444
v -14.560951 530.049988 85.169708
v -14.287987 530.049988 84.745918
v -14.286633 530.049988 84.820992
v -14.234501 530.049988 84.241814
v -14.533175 530.049988 84.989105
v -14.273306 530.049988 84.270309
v -14.275207 530.049988 84.404587
v -14.392214 530.049988 84.374435
v -14.292209 530.049988 84.426079
v -14.291445 530.049988 84.419373
v -14.289769 530.049988 84.415260
v -14.287432 530.049988 84.411865
v -14.253006 530.049988 84.232193
v -14.298473 530.049988 84.268875
v -14.408880 530.049988 84.374435
v -14.417937 530.049988 84.519737
v -14.562493 530.049988 84.994293
v -14.572953 530.049988 85.182610
v -14.390944 530.049988 84.349510
v -14.284900 530.049988 84.409584
v -14.324447 530.049988 84.753555
v -14.340075 530.049988 84.820000
v -14.319864 530.049988 84.818871
v -14.273020 530.049988 84.226349
v -14.490447 530.049988 84.441124
v -14.447873 530.049988 84.522736
v -14.486880 530.049988 84.437599
v -14.356067 530.049988 84.756821
v -14.484097 530.049988 84.433434
v -14.494773 530.049988 84.443649
v -14.359973 530.049988 84.823708
v -14.576205 530.049988 84.975204
v -14.485921 530.049988 84.530418
v -14.322776 530.049988 84.270958
v -14.481927 530.049988 84.428307
v -14.499541 530.049988 84.445213
v -14.387838 530.049988 84.757767
v -14.399941 530.049988 84.840317
v -14.380578 530.049988 84.830521
v -14.481098 530.049988 84.422188
v -14.585833 530.049988 84.953957
v -14.506470 530.049988 84.446297
v -14.386348 530.049988 84.324997
v -14.481291 530.049988 84.418892
v -14.518283 530.049988 84.878288
v -14.520752 530.049988 84.880905
v -14.442163 530.049988 84.923050
v -14.439570 530.049988 84.895958
v -14.481837 530.049988 84.415649
v -14.343834 530.049988 84.277130
v -14.523523 530.049988 84.882759
v -14.513474 530.049988 84.446671
v -14.516078 530.049988 84.874428
v -14.515653 530.049988 84.540771
v -14.526587 530.049988 84.884079
v -14.557430 530.049988 84.967110
v -14.546143 530.049988 84.979042
v -14.514887 530.049988 84.870277
v -14.482866 530.049988 84.412651
v -14.434256 530.049988 84.878601
v -14.531759 530.049988 84.885216
v -14.573053 530.049988 84.936401
v -14.566491 530.049988 84.953407
v -14.361664 530.049988 84.287346
v -14.380876 530.049988 84.310570
v -14.484569 530.049988 84.409691
v -14.514391 530.049988 84.864380
v -14.372660 530.049988 84.297523
v -14.537045 530.049988 84.885559
v -14.514562 530.049988 84.860832
v -14.486529 530.049988 84.407684
v -14.590707 530.049988 84.933517
v -14.410575 530.049988 84.351128
v -14.515031 530.049988 84.857330
v -14.575498 530.049988 84.916290
v -14.546082 530.049988 84.884430
v -14.516124 530.049988 84.853539
v -14.529205 530.049988 84.444962
v -14.575156 530.049988 84.907669
v -14.415897 530.049988 84.330795
v -14.573830 530.049988 84.899147
v -14.555101 530.049988 84.883217
v -14.572289 530.049988 84.894592
v -14.570602 530.049988 84.891403
v -14.568058 530.049988 84.888313
v -14.560969 530.049988 84.884026
v -14.564532 530.049988 84.885597
v -14.592216 530.039978 84.345116
v -14.589827 530.039978 84.319656
v -14.582850 530.039978 84.297729
v -14.571538 530.039978 84.279213
v -14.556407 530.039978 84.263649
v -14.538587 530.039978 84.251244
v -14.520529 530.039978 84.243805
v -14.510638 530.039978 84.241760
v -14.500559 530.039978 84.241112
v -14.513474 530.039978 84.446671
v -14.529205 530.039978 84.444962
v -14.542607 530.039978 84.440163
v -14.553554 530.039978 84.433487
v -14.562967 530.039978 84.424774
v -14.573417 530.039978 84.411240
v -14.582464 530.039978 84.394272
v -14.588586 530.039978 84.376045
v -14.591345 530.039978 84.360687
v -14.481098 530.039978 84.422188
v -14.481927 530.039978 84.428307
v -14.484097 530.039978 84.433434
v -14.486880 530.039978 84.437599
v -14.490447 530.039978 84.441124
v -14.494773 530.039978 84.443649
v -14.499541 530.039978 84.445213
v -14.506470 530.039978 84.446297
v -14.506447 530.039978 84.402222
v -14.496533 530.039978 84.403229
v -14.489684 530.039978 84.405655
v -14.486529 530.039978 84.407684
v -14.484569 530.039978 84.409691
v -14.482866 530.039978 84.412651
v -14.481837 530.039978 84.415649
v -14.481291 530.039978 84.418892
v -14.528801 530.039978 84.410858
v -14.540995 530.039978 84.411598
v -14.521628 530.039978 84.409218
v -14.514146 530.039978 84.403969
v -14.510401 530.039978 84.402611
v -14.575548 530.039978 84.357872
v -14.573071 530.039978 84.376785
v -14.566627 530.039978 84.394760
v -14.562063 530.039978 84.402031
v -14.558388 530.039978 84.405731
v -14.553905 530.039978 84.408699
v -14.548422 530.039978 84.410797
v -14.544733 530.039978 84.411415
v -14.513944 530.039978 84.287399
v -14.493437 530.039978 84.285553
v -14.533623 530.039978 84.293396
v -14.551525 530.039978 84.303551
v -14.559262 530.039978 84.310326
v -14.567425 530.039978 84.321556
v -14.572200 530.039978 84.333107
v -14.574815 530.039978 84.345360
v -14.410575 530.039978 84.351128
v -14.408880 530.039978 84.374435
v -14.415897 530.039978 84.330795
v -14.423946 530.039978 84.315804
v -14.434212 530.039978 84.304436
v -14.446885 530.039978 84.295830
v -14.461027 530.039978 84.289925
v -14.477076 530.039978 84.286591
v -14.392214 530.039978 84.374435
v -14.298473 530.039978 84.268875
v -14.322776 530.039978 84.270958
v -14.343834 530.039978 84.277130
v -14.361664 530.039978 84.287346
v -14.372660 530.039978 84.297523
v -14.380876 530.039978 84.310570
v -14.386348 530.039978 84.324997
v -14.390944 530.039978 84.349510
v -14.199800 530.039978 84.331909
v -14.197771 530.039978 84.354538
v -14.205075 530.039978 84.314278
v -14.213646 530.039978 84.299561
v -14.224375 530.039978 84.288605
v -14.235978 530.039978 84.281113
v -14.248701 530.039978 84.275734
v -14.273306 530.039978 84.270309
v -14.230057 530.039978 84.411575
v -14.224168 530.039978 84.410683
v -14.220566 530.039978 84.409225
v -14.216841 530.039978 84.406715
v -14.213583 530.039978 84.403656
v -14.209951 530.039978 84.398964
v -14.204748 530.039978 84.389091
v -14.201031 530.039978 84.378593
v -14.198571 530.039978 84.366676
v -14.264606 530.039978 84.402199
v -14.253833 530.039978 84.403351
v -14.247149 530.039978 84.405762
v -14.238954 530.039978 84.409782
v -14.292209 530.039978 84.426079
v -14.291445 530.039978 84.419373
v -14.289769 530.039978 84.415260
v -14.287432 530.039978 84.411865
v -14.284900 530.039978 84.409584
v -14.275207 530.039978 84.404587
v -14.257484 530.039978 84.452202
v -14.265329 530.039978 84.451492
v -14.272853 530.039978 84.449112
v -14.279668 530.039978 84.445183
v -14.285625 530.039978 84.440010
v -14.289895 530.039978 84.434349
v -14.291272 530.039978 84.431458
v -14.291927 530.039978 84.428810
v -14.183052 530.039978 84.372375
v -14.181105 530.039978 84.348892
v -14.189308 530.039978 84.395081
v -14.200423 530.039978 84.416412
v -14.214729 530.039978 84.433662
v -14.228509 530.039978 84.444214
v -14.240376 530.039978 84.449562
v -14.248826 530.039978 84.451584
v -14.273020 530.039978 84.226349
v -14.293790 530.039978 84.224426
v -14.253006 530.039978 84.232193
v -14.234501 530.039978 84.241814
v -14.218016 530.039978 84.254608
v -14.203968 530.039978 84.270020
v -14.193264 530.039978 84.287933
v -14.186121 530.039978 84.307541
v -14.182277 530.039978 84.328056
v -14.392008 530.039978 84.286789
v -14.404111 530.039978 84.314888
v -14.377070 530.039978 84.263680
v -14.362288 530.039978 84.248833
v -14.345934 530.039978 84.238365
v -14.321995 530.039978 84.228485
v -14.308031 530.039978 84.225502
v -14.478733 530.039978 84.243011
v -14.457740 530.039978 84.249214
v -14.438811 530.039978 84.260231
v -14.425210 530.039978 84.273468
v -14.415574 530.039978 84.287598
v -14.409115 530.039978 84.300934
v -14.555101 530.039978 84.883217
v -14.560969 530.039978 84.884026
v -14.564532 530.039978 84.885597
v -14.568058 530.039978 84.888313
v -14.570602 530.039978 84.891403
v -14.572289 530.039978 84.894592
v -14.573830 530.039978 84.899147
v -14.575156 530.039978 84.907669
v -14.575498 530.039978 84.916290
v -14.537045 530.039978 84.885559
v -14.546082 530.039978 84.884430
v -14.514391 530.039978 84.864380
v -14.514887 530.039978 84.870277
v -14.516078 530.039978 84.874428
v -14.518283 530.039978 84.878288
v -14.520752 530.039978 84.880905
v -14.523523 530.039978 84.882759
v -14.526587 530.039978 84.884079
v -14.531759 530.039978 84.885216
v -14.541824 530.039978 84.841118
v -14.529476 530.039978 84.842514
v -14.524235 530.039978 84.844482
v -14.520390 530.039978 84.847130
v -14.518061 530.039978 84.849747
v -14.516124 530.039978 84.853539
v -14.515031 530.039978 84.857330
v -14.514562 530.039978 84.860832
v -14.592165 530.039978 84.912560
v -14.590976 530.039978 84.896820
v -14.586893 530.039978 84.881577
v -14.581117 530.039978 84.870186
v -14.573907 530.039978 84.860794
v -14.562386 530.039978 84.850006
v -14.555022 530.039978 84.845001
v -14.548664 530.039978 84.842255
v -14.418677 530.039978 85.055458
v -14.368975 530.039978 85.057770
v -14.458504 530.039978 85.049316
v -14.491631 530.039978 85.040016
v -14.520477 530.039978 85.027260
v -14.543077 530.039978 85.012444
v -14.562493 530.039978 84.994293
v -14.576205 530.039978 84.975204
v -14.585833 530.039978 84.953957
v -14.590707 530.039978 84.933517
v -14.181052 530.039978 84.930145
v -14.183308 530.039978 84.955711
v -14.189714 530.039978 84.977890
v -14.201028 530.039978 84.998360
v -14.216291 530.039978 85.015251
v -14.236377 530.039978 85.029800
v -14.261550 530.039978 85.041687
v -14.291695 530.039978 85.050369
v -14.330128 530.039978 85.056168
v -14.319864 530.039978 84.818871
v -14.286633 530.039978 84.820992
v -14.257417 530.039978 84.827614
v -14.233877 530.039978 84.838173
v -14.215710 530.039978 84.852028
v -14.200156 530.039978 84.870110
v -14.188947 530.039978 84.890160
v -14.183025 530.039978 84.909760
v -14.442163 530.039978 84.923050
v -14.439570 530.039978 84.895958
v -14.434256 530.039978 84.878601
v -14.423995 530.039978 84.860962
v -14.412508 530.039978 84.849083
v -14.399941 530.039978 84.840317
v -14.380578 530.039978 84.830521
v -14.359973 530.039978 84.823708
v -14.340075 530.039978 84.820000
v -14.380958 530.039978 85.013321
v -14.403145 530.039978 85.000458
v -14.418446 530.039978 84.986412
v -14.429539 530.039978 84.970695
v -14.437346 530.039978 84.953110
v -14.440983 530.039978 84.938278
v -14.573053 530.039978 84.936401
v -14.566491 530.039978 84.953407
v -14.557430 530.039978 84.967110
v -14.546143 530.039978 84.979042
v -14.533175 530.039978 84.989105
v -14.518413 530.039978 84.996300
v -14.491407 530.039978 85.004311
v -14.463603 530.039978 85.008926
v -14.422353 530.039978 85.012436
v -14.431437 530.039978 85.355682
v -14.387784 530.039978 85.357765
v -14.470263 530.039978 85.349434
v -14.503360 530.039978 85.339607
v -14.530578 530.039978 85.327148
v -14.553926 530.039978 85.311592
v -14.570310 530.039978 85.295883
v -14.582637 530.039978 85.277740
v -14.589788 530.039978 85.258102
v -14.591552 530.039978 85.247734
v -14.592135 530.039978 85.237213
v -14.181025 530.039978 85.237175
v -14.183700 530.039978 85.259033
v -14.190763 530.039978 85.277557
v -14.200500 530.039978 85.292534
v -14.212594 530.039978 85.305672
v -14.231244 530.039978 85.320473
v -14.257787 530.039978 85.335167
v -14.287932 530.039978 85.345917
v -14.324393 530.039978 85.353554
v -14.356012 530.039978 85.356819
v -14.387806 530.039978 85.118881
v -14.344011 530.039978 85.120789
v -14.300708 530.039978 85.127533
v -14.265088 530.039978 85.138321
v -14.238405 530.039978 85.151253
v -14.215160 530.039978 85.167717
v -14.198379 530.039978 85.185432
v -14.187770 530.039978 85.203552
v -14.182681 530.039978 85.220032
v -14.589524 530.039978 85.215645
v -14.582558 530.039978 85.197372
v -14.572953 530.039978 85.182610
v -14.560951 530.039978 85.169708
v -14.542372 530.039978 85.155342
v -14.515598 530.039978 85.140770
v -14.485867 530.039978 85.130424
v -14.447819 530.039978 85.122734
v -14.417883 530.039978 85.119736
v -14.431492 530.039978 84.755684
v -14.387838 530.039978 84.757767
v -14.470318 530.039978 84.749435
v -14.503414 530.039978 84.739609
v -14.530631 530.039978 84.727150
v -14.553980 530.039978 84.711594
v -14.570364 530.039978 84.695885
v -14.582691 530.039978 84.677742
v -14.589843 530.039978 84.658104
v -14.591606 530.039978 84.647736
v -14.592190 530.039978 84.637215
v -14.181079 530.039978 84.637177
v -14.183754 530.039978 84.659035
v -14.190818 530.039978 84.677551
v -14.200554 530.039978 84.692535
v -14.212648 530.039978 84.705673
v -14.231297 530.039978 84.720474
v -14.257841 530.039978 84.735168
v -14.287987 530.039978 84.745918
v -14.324447 530.039978 84.753555
v -14.356067 530.039978 84.756821
v -14.387860 530.039978 84.518883
v -14.344066 530.039978 84.520782
v -14.300762 530.039978 84.527534
v -14.265141 530.039978 84.538315
v -14.238460 530.039978 84.551254
v -14.215215 530.039978 84.567719
v -14.198433 530.039978 84.585434
v -14.187824 530.039978 84.603554
v -14.182735 530.039978 84.620033
v -14.589579 530.039978 84.615646
v -14.582612 530.039978 84.597374
v -14.573007 530.039978 84.582611
v -14.561006 530.039978 84.569710
v -14.542426 530.039978 84.555336
v -14.515653 530.039978 84.540771
v -14.485921 530.039978 84.530418
v -14.447873 530.039978 84.522736
v -14.417937 530.039978 84.519737
v -14.222090 530.039978 84.978401
v -14.212219 530.039978 84.968407
v -14.204383 530.039978 84.956757
v -14.237233 530.039978 84.989418
v -14.199368 530.039978 84.943649
v -14.256038 530.039978 84.998909
v -14.197719 530.039978 84.929710
v -14.282881 530.039978 85.007179
v -14.198460 530.039978 84.918602
v -14.200796 530.039978 84.907707
v -14.314133 530.039978 85.011925
v -14.206327 530.039978 84.895065
v -14.214652 530.039978 84.884064
v -14.345715 530.039978 85.013321
v -14.226204 530.039978 84.874664
v -14.237143 530.039978 84.869080
v -14.375254 530.039978 84.998215
v -14.252770 530.039978 84.864204
v -14.393062 530.039978 84.985115
v -14.284715 530.039978 84.859169
v -14.405446 530.039978 84.971092
v -14.413746 530.039978 84.955856
v -14.320642 530.039978 84.857765
v -14.418436 530.039978 84.940811
v -14.419941 530.039978 84.925133
v -14.418835 530.039978 84.914070
v -14.341018 530.039978 84.858772
v -14.361100 530.039978 84.862305
v -14.415515 530.039978 84.903458
v -14.410029 530.039978 84.893784
v -14.376903 530.039978 84.867661
v -14.402823 530.039978 84.885315
v -14.391453 530.039978 84.875809
v -14.387788 530.039978 85.313324
v -14.574750 530.039978 85.244766
v -14.575469 530.039978 85.237213
v -14.574016 530.039978 85.225143
v -14.232615 530.039978 85.189720
v -14.260788 530.039978 85.178307
v -14.500805 530.039978 85.174744
v -14.461041 530.039978 85.167458
v -14.436207 530.039978 85.311348
v -14.212864 530.039978 85.269630
v -14.569942 530.039978 85.214973
v -14.294907 530.039978 85.170189
v -14.529020 530.039978 85.183594
v -14.206741 530.039978 85.262756
v -14.564422 530.039978 85.206802
v -14.338757 530.039978 85.164970
v -14.222300 530.039978 85.277458
v -14.479374 530.039978 85.305206
v -14.201854 530.039978 85.254967
v -14.557455 530.039978 85.199829
v -14.546764 530.039978 85.192169
v -14.238067 530.039978 85.286934
v -14.514905 530.039978 85.295212
v -14.198725 530.039978 85.246315
v -14.387802 530.039978 85.163322
v -14.197691 530.039978 85.237175
v -14.541615 530.039978 85.282928
v -14.263539 530.039978 85.297516
v -14.198443 530.039978 85.228928
v -14.556673 530.039978 85.272614
v -14.200735 530.039978 85.220978
v -14.424488 530.039978 85.164223
v -14.295326 530.039978 85.305733
v -14.566980 530.039978 85.261772
v -14.206312 530.039978 85.210991
v -14.215722 530.039978 85.201012
v -14.333720 530.039978 85.311058
v -14.572562 530.039978 85.252037
v -14.360731 530.039978 85.312790
v -14.387842 530.039978 84.713326
v -14.574804 530.039978 84.644768
v -14.575523 530.039978 84.637215
v -14.574070 530.039978 84.625145
v -14.232669 530.039978 84.589722
v -14.260842 530.039978 84.578308
v -14.500859 530.039978 84.574745
v -14.461096 530.039978 84.567459
v -14.436260 530.039978 84.711349
v -14.212918 530.039978 84.669632
v -14.569996 530.039978 84.614975
v -14.294961 530.039978 84.570190
v -14.529075 530.039978 84.583595
v -14.206796 530.039978 84.662758
v -14.564476 530.039978 84.606804
v -14.338810 530.039978 84.564972
v -14.222354 530.039978 84.677460
v -14.479428 530.039978 84.705208
v -14.201908 530.039978 84.654968
v -14.557509 530.039978 84.599823
v -14.546819 530.039978 84.592171
v -14.238120 530.039978 84.686935
v -14.514959 530.039978 84.695213
v -14.198779 530.039978 84.646317
v -14.387856 530.039978 84.563324
v -14.197745 530.039978 84.637177
v -14.541669 530.039978 84.682922
v -14.263593 530.039978 84.697517
v -14.198498 530.039978 84.628929
v -14.556727 530.039978 84.672615
v -14.200789 530.039978 84.620972
v -14.424542 530.039978 84.564224
v -14.295380 530.039978 84.705734
v -14.567035 530.039978 84.661774
v -14.206367 530.039978 84.610992
v -14.215776 530.039978 84.601013
v -14.333775 530.039978 84.711060
v -14.572617 530.039978 84.652039
v -14.360785 530.039978 84.712791
v -14.419941 530.049988 84.925133
v -14.418436 530.049988 84.940811
v -14.413746 530.049988 84.955856
v -14.405446 530.049988 84.971092
v -14.393062 530.049988 84.985115
v -14.375254 530.049988 84.998215
v -14.345715 530.049988 85.013321
v -14.314133 530.049988 85.011925
v -14.282881 530.049988 85.007179
v -14.256038 530.049988 84.998909
v -14.237233 530.049988 84.989418
v -14.222090 530.049988 84.978401
v -14.212219 530.049988 84.968407
v -14.204383 530.049988 84.956757
v -14.199368 530.049988 84.943649
v -14.197719 530.049988 84.929710
v -14.198460 530.049988 84.918602
v -14.200796 530.049988 84.907707
v -14.206327 530.049988 84.895065
v -14.214652 530.049988 84.884064
v -14.226204 530.049988 84.874664
v -14.237143 530.049988 84.869080
v -14.252770 530.049988 84.864204
v -14.284715 530.049988 84.859169
v -14.320642 530.049988 84.857765
v -14.341018 530.049988 84.858772
v -14.361100 530.049988 84.862305
v -14.376903 530.049988 84.867661
v -14.391453 530.049988 84.875809
v -14.402823 530.049988 84.885315
v -14.410029 530.049988 84.893784
v -14.415515 530.049988 84.903458
v -14.418835 530.049988 84.914070
v -14.424488 530.049988 85.164223
v -14.387802 530.049988 85.163322
v -14.461041 530.049988 85.167458
v -14.500805 530.049988 85.174744
v -14.529020 530.049988 85.183594
v -14.546764 530.049988 85.192169
v -14.557455 530.049988 85.199829
v -14.564422 530.049988 85.206802
v -14.569942 530.049988 85.214973
v -14.574016 530.049988 85.225143
v -14.575469 530.049988 85.237213
v -14.574750 530.049988 85.244766
v -14.572562 530.049988 85.252037
v -14.566980 530.049988 85.261772
v -14.556673 530.049988 85.272614
v -14.541615 530.049988 85.282928
v -14.514905 530.049988 85.295212
v -14.479374 530.049988 85.305206
v -14.436207 530.049988 85.311348
v -14.387788 530.049988 85.313324
v -14.360731 530.049988 85.312790
v -14.333720 530.049988 85.311058
v -14.295326 530.049988 85.305733
v -14.263539 530.049988 85.297516
v -14.238067 530.049988 85.286934
v -14.222300 530.049988 85.277458
v -14.212864 530.049988 85.269630
v -14.206741 530.049988 85.262756
v -14.201854 530.049988 85.254967
v -14.198725 530.049988 85.246315
v -14.197691 530.049988 85.237175
v -14.198443 530.049988 85.228928
v -14.200735 530.049988 85.220978
v -14.206312 530.049988 85.210991
v -14.215722 530.049988 85.201012
v -14.232615 530.049988 85.189720
v -14.260788 530.049988 85.178307
v -14.294907 530.049988 85.170189
v -14.338757 530.049988 85.164970
v -14.387856 530.049988 84.563324
v -14.424542 530.049988 84.564224
v -14.461096 530.049988 84.567459
v -14.500859 530.049988 84.574745
v -14.529075 530.049988 84.583595
v -14.546819 530.049988 84.592171
v -14.557509 530.049988 84.599823
v -14.564476 530.049988 84.606804
v -14.569996 530.049988 84.614975
v -14.574070 530.049988 84.625145
v -14.575523 530.049988 84.637215
v -14.574804 530.049988 84.644768
v -14.572617 530.049988 84.652039
v -14.567035 530.049988 84.661774
v -14.556727 530.049988 84.672615
v -14.541669 530.049988 84.682922
v -14.514959 530.049988 84.695213
v -14.479428 530.049988 84.705208
v -14.436260 530.049988 84.711349
v -14.387842 530.049988 84.713326
v -14.360785 530.049988 84.712791
v -14.333775 530.049988 84.711060
v -14.295380 530.049988 84.705734
v -14.263593 530.049988 84.697517
v -14.238120 530.049988 84.686935
v -14.222354 530.049988 84.677460
v -14.212918 530.049988 84.669632
v -14.206796 530.049988 84.662758
v -14.201908 530.049988 84.654968
v -14.198779 530.049988 84.646317
v -14.197745 530.049988 84.637177
v -14.198498 530.049988 84.628929
v -14.200789 530.049988 84.620972
v -14.206367 530.049988 84.610992
v -14.215776 530.049988 84.601013
v -14.232669 530.049988 84.589722
v -14.260842 530.049988 84.578308
v -14.294961 530.049988 84.570190
v -14.338810 530.049988 84.564972
f 1 2 3
f 2 4 3
f 2 5 4
f 5 6 4
f 4 6 3
f 6 7 3
f 8 1 7
f 1 3 7
f 5 2 8
f 2 1 8
f 9 10 5
f 11 5 10
f 12 9 5
f 13 5 11
f 14 12 5
f 15 5 13
f 16 17 18
f 19 14 5
f 20 21 22
f 20 23 21
f 24 19 5
f 25 26 27
f 28 5 15
f 29 30 31
f 32 24 5
f 29 33 30
f 34 35 36
f 34 36 37
f 34 37 38
f 39 5 28
f 34 40 41
f 34 38 40
f 42 23 20
f 42 43 23
f 44 45 46
f 47 48 49
f 47 49 35
f 47 35 34
f 50 33 29
f 51 27 52
f 51 25 27
f 53 54 55
f 56 55 57
f 58 44 46
f 56 53 55
f 59 54 53
f 60 46 61
f 59 62 54
f 60 58 46
f 8 57 63
f 8 63 64
f 8 65 5
f 66 43 42
f 8 67 65
f 8 64 67
f 68 62 59
f 66 69 43
f 68 70 62
f 71 33 50
f 72 56 57
f 72 57 8
f 73 74 75
f 76 61 16
f 77 70 68
f 76 60 61
f 78 73 75
f 76 16 18
f 78 75 32
f 79 52 80
f 79 51 52
f 81 74 73
f 82 83 84
f 82 84 48
f 81 85 74
f 82 48 47
f 86 69 66
f 87 70 77
f 88 32 5
f 88 78 32
f 86 89 69
f 90 33 71
f 91 92 85
f 91 85 81
f 93 76 18
f 94 95 33
f 94 33 90
f 96 88 5
f 97 72 8
f 98 79 80
f 98 80 99
f 100 101 92
f 100 92 91
f 102 18 103
f 104 96 5
f 102 93 18
f 105 95 94
f 106 102 103
f 107 108 109
f 110 70 87
f 65 104 5
f 110 111 70
f 112 99 113
f 114 115 101
f 112 98 99
f 114 101 100
f 116 107 109
f 117 106 103
f 118 103 95
f 118 95 105
f 119 117 103
f 120 121 115
f 122 103 118
f 120 115 114
f 122 119 103
f 123 111 110
f 124 119 122
f 125 116 109
f 126 113 127
f 126 112 113
f 125 109 128
f 125 128 129
f 130 97 8
f 131 111 123
f 132 125 129
f 132 129 133
f 132 133 134
f 135 136 137
f 135 137 121
f 135 121 120
f 138 139 83
f 138 83 82
f 140 111 131
f 7 86 141
f 7 141 142
f 140 143 111
f 7 142 144
f 7 144 145
f 7 145 146
f 7 146 147
f 7 147 148
f 7 148 149
f 7 149 150
f 151 132 134
f 7 150 152
f 151 134 153
f 7 152 126
f 151 153 154
f 7 89 86
f 7 155 89
f 7 126 127
f 156 130 8
f 157 27 26
f 8 7 158
f 158 7 127
f 7 6 159
f 7 159 160
f 7 160 161
f 7 161 162
f 7 162 155
f 163 143 140
f 6 5 164
f 164 5 39
f 165 143 163
f 6 164 166
f 6 166 167
f 6 167 168
f 6 168 169
f 6 169 170
f 6 170 171
f 6 171 172
f 6 172 173
f 6 173 174
f 6 174 175
f 6 175 176
f 6 176 177
f 178 151 154
f 178 179 151
f 180 165 181
f 180 143 165
f 182 183 136
f 182 136 135
f 184 185 186
f 187 188 189
f 187 189 139
f 187 139 138
f 190 184 186
f 191 183 182
f 191 192 183
f 193 156 8
f 194 184 190
f 195 194 190
f 196 179 178
f 197 194 195
f 198 199 188
f 198 188 187
f 200 194 197
f 201 192 191
f 202 193 8
f 201 203 192
f 204 200 197
f 205 179 196
f 161 199 198
f 161 160 199
f 206 207 208
f 206 208 209
f 210 208 207
f 211 202 8
f 210 212 208
f 213 179 205
f 214 206 209
f 214 209 215
f 216 179 213
f 217 200 204
f 218 212 210
f 219 211 8
f 218 220 212
f 67 214 215
f 221 179 216
f 67 215 65
f 222 203 201
f 222 223 203
f 224 220 218
f 224 225 220
f 226 219 8
f 227 217 204
f 228 179 221
f 228 229 179
f 230 181 231
f 230 231 232
f 230 232 233
f 230 233 234
f 230 180 181
f 235 226 8
f 236 229 228
f 237 180 230
f 237 238 180
f 239 240 223
f 241 230 234
f 239 223 222
f 241 234 242
f 243 244 245
f 246 235 8
f 243 245 225
f 243 225 224
f 247 248 249
f 250 244 243
f 251 249 248
f 251 248 238
f 252 248 247
f 250 253 244
f 254 177 240
f 252 255 248
f 254 240 239
f 256 229 236
f 257 251 238
f 257 238 237
f 258 255 252
f 259 253 250
f 259 260 261
f 262 257 237
f 259 261 253
f 263 6 177
f 263 177 254
f 264 255 258
f 265 241 242
f 266 262 237
f 267 268 269
f 267 269 270
f 271 266 237
f 272 229 256
f 272 242 229
f 273 269 268
f 272 265 242
f 273 204 269
f 274 255 264
f 273 227 204
f 275 267 270
f 274 276 255
f 158 246 8
f 277 227 273
f 277 278 279
f 277 279 227
f 280 275 270
f 281 271 237
f 280 270 282
f 283 278 277
f 283 284 285
f 283 285 278
f 286 265 272
f 286 287 265
f 288 281 237
f 289 280 282
f 290 287 286
f 291 284 283
f 292 289 282
f 293 288 237
f 294 6 263
f 293 237 295
f 296 292 282
f 296 282 38
f 297 284 291
f 298 297 291
f 299 296 38
f 30 293 295
f 300 276 274
f 301 297 298
f 37 299 38
f 302 30 295
f 303 298 304
f 303 301 298
f 41 260 259
f 41 40 260
f 22 276 300
f 305 303 304
f 22 21 276
f 306 305 304
f 159 6 294
f 307 304 308
f 307 308 309
f 307 306 304
f 31 30 302
f 145 310 311
f 145 144 310
f 312 145 311
f 146 145 312
f 313 146 312
f 147 146 313
f 148 313 314
f 148 147 313
f 149 314 315
f 149 148 314
f 150 315 316
f 150 149 315
f 152 316 317
f 152 150 316
f 126 317 318
f 126 152 317
f 300 319 320
f 300 274 319
f 321 300 320
f 22 300 321
f 20 321 322
f 20 22 321
f 42 322 323
f 42 20 322
f 66 323 324
f 66 42 323
f 86 324 325
f 86 66 324
f 141 325 326
f 141 86 325
f 142 326 327
f 142 141 326
f 144 327 310
f 144 142 327
f 262 328 329
f 257 329 330
f 257 262 329
f 251 257 330
f 249 330 331
f 249 331 332
f 249 251 330
f 247 332 333
f 247 249 332
f 252 247 333
f 258 333 334
f 258 252 333
f 264 334 335
f 264 258 334
f 274 335 319
f 274 264 335
f 33 336 337
f 33 337 338
f 33 95 336
f 30 338 339
f 30 33 338
f 293 339 340
f 293 30 339
f 288 293 340
f 281 340 341
f 281 288 340
f 271 341 342
f 271 342 343
f 271 281 341
f 266 343 328
f 266 271 343
f 262 266 328
f 344 61 345
f 16 344 346
f 16 61 344
f 17 346 347
f 17 16 346
f 18 347 348
f 18 17 347
f 103 348 336
f 103 18 348
f 95 103 336
f 93 349 350
f 93 102 349
f 76 350 351
f 76 93 350
f 60 351 352
f 60 76 351
f 58 352 353
f 58 353 354
f 58 60 352
f 44 58 354
f 45 354 355
f 45 44 354
f 46 355 356
f 46 45 355
f 61 356 345
f 61 46 356
f 357 94 358
f 105 94 357
f 359 105 357
f 118 105 359
f 360 118 359
f 122 118 360
f 361 122 360
f 124 122 361
f 119 361 362
f 119 124 361
f 117 362 363
f 117 119 362
f 106 363 364
f 106 117 363
f 102 364 349
f 102 106 364
f 365 237 366
f 295 237 365
f 367 295 365
f 302 295 367
f 31 367 368
f 31 302 367
f 29 368 369
f 29 31 368
f 370 29 369
f 50 29 370
f 371 50 370
f 71 50 371
f 372 71 371
f 90 71 372
f 358 90 372
f 94 90 358
f 237 230 373
f 366 237 373
f 256 374 375
f 256 236 374
f 376 256 375
f 272 256 376
f 377 272 376
f 286 272 377
f 378 286 377
f 290 286 378
f 379 290 378
f 287 290 379
f 380 287 379
f 265 287 380
f 381 265 380
f 241 265 381
f 230 381 373
f 230 241 381
f 382 154 383
f 178 154 382
f 384 178 382
f 196 178 384
f 205 384 385
f 205 196 384
f 213 385 386
f 213 205 385
f 216 386 387
f 216 213 386
f 221 387 388
f 221 216 387
f 228 388 389
f 228 221 388
f 236 389 374
f 236 228 389
f 116 390 391
f 107 116 391
f 108 391 392
f 108 392 393
f 108 107 391
f 109 393 394
f 109 108 393
f 128 394 395
f 128 109 394
f 129 128 395
f 396 129 395
f 133 129 396
f 134 396 397
f 134 133 396
f 153 397 398
f 153 134 397
f 154 398 383
f 154 153 398
f 151 399 400
f 151 400 401
f 151 179 399
f 132 401 402
f 132 151 401
f 125 402 390
f 125 132 402
f 116 125 390
f 232 403 404
f 232 404 405
f 232 231 403
f 233 405 406
f 233 232 405
f 234 406 407
f 234 233 406
f 242 234 407
f 408 242 407
f 229 242 408
f 399 229 408
f 179 229 399
f 110 409 410
f 110 410 411
f 110 87 409
f 123 411 412
f 123 110 411
f 131 412 413
f 131 123 412
f 140 413 414
f 140 131 413
f 163 140 414
f 165 414 415
f 165 163 414
f 181 415 416
f 181 165 415
f 231 416 403
f 231 181 416
f 417 130 418
f 97 130 417
f 419 97 417
f 72 97 419
f 420 72 419
f 56 72 420
f 421 56 420
f 53 56 421
f 422 53 421
f 59 53 422
f 423 59 422
f 68 423 424
f 68 59 423
f 77 424 409
f 77 68 424
f 87 77 409
f 425 158 426
f 246 158 425
f 235 425 427
f 235 246 425
f 226 427 428
f 226 235 427
f 429 226 428
f 219 226 429
f 211 429 430
f 211 219 429
f 202 430 431
f 202 211 430
f 432 202 431
f 193 202 432
f 156 432 433
f 156 193 432
f 130 433 418
f 130 156 433
f 434 157 435
f 27 157 434
f 52 434 436
f 52 27 434
f 80 436 437
f 80 52 436
f 99 437 438
f 99 80 437
f 113 438 439
f 113 99 438
f 127 439 440
f 127 113 439
f 426 127 440
f 158 127 426
f 112 318 441
f 112 126 318
f 98 441 442
f 98 112 441
f 443 98 442
f 79 98 443
f 444 79 443
f 51 79 444
f 445 51 444
f 25 51 445
f 446 25 445
f 26 25 446
f 435 26 446
f 157 26 435
f 304 447 448
f 308 448 449
f 308 304 448
f 309 449 450
f 309 308 449
f 307 450 451
f 307 309 450
f 306 451 452
f 306 307 451
f 305 452 453
f 305 306 452
f 303 453 454
f 303 305 453
f 301 454 455
f 301 303 454
f 297 301 455
f 298 456 457
f 298 291 456
f 304 457 447
f 304 298 457
f 280 458 459
f 280 289 458
f 275 459 460
f 275 460 461
f 275 280 459
f 267 461 462
f 267 275 461
f 268 462 463
f 268 267 462
f 273 268 463
f 277 463 464
f 277 464 465
f 277 273 463
f 283 465 456
f 283 277 465
f 291 283 456
f 49 466 467
f 49 467 468
f 49 48 466
f 35 468 469
f 35 49 468
f 36 469 470
f 36 35 469
f 37 36 470
f 299 470 471
f 299 37 470
f 296 471 472
f 296 299 471
f 292 472 473
f 292 296 472
f 289 473 458
f 289 292 473
f 160 474 475
f 160 159 474
f 476 160 475
f 199 160 476
f 477 199 476
f 188 199 477
f 478 188 477
f 189 188 478
f 139 478 479
f 139 189 478
f 83 479 480
f 83 139 479
f 84 480 481
f 84 481 466
f 84 83 480
f 48 84 466
f 482 120 483
f 135 120 482
f 484 135 482
f 182 135 484
f 485 182 484
f 191 182 485
f 201 485 486
f 201 191 485
f 487 201 486
f 222 201 487
f 488 222 487
f 239 222 488
f 489 239 488
f 254 239 489
f 490 254 489
f 263 254 490
f 294 490 491
f 294 263 490
f 159 491 474
f 159 294 491
f 96 492 493
f 96 104 492
f 88 493 494
f 88 96 493
f 495 88 494
f 78 88 495
f 73 495 496
f 73 78 495
f 81 496 497
f 81 73 496
f 91 497 498
f 91 81 497
f 100 498 499
f 100 91 498
f 114 499 500
f 114 100 499
f 120 500 483
f 120 114 500
f 225 501 502
f 225 245 501
f 220 502 503
f 220 225 502
f 212 503 504
f 212 220 503
f 208 504 505
f 208 212 504
f 209 505 506
f 209 208 505
f 215 506 507
f 215 209 506
f 65 507 508
f 65 215 507
f 104 508 492
f 104 65 508
f 270 509 510
f 270 269 509
f 511 270 510
f 282 270 511
f 512 282 511
f 38 282 512
f 513 38 512
f 40 38 513
f 260 513 514
f 260 40 513
f 261 514 515
f 261 260 514
f 253 515 516
f 253 261 515
f 517 253 516
f 244 253 517
f 245 517 501
f 245 244 517
f 186 518 519
f 186 185 518
f 190 519 520
f 190 186 519
f 521 190 520
f 195 190 521
f 522 195 521
f 197 195 522
f 523 197 522
f 204 197 523
f 509 204 523
f 269 204 509
f 284 455 524
f 284 297 455
f 285 524 525
f 285 284 524
f 526 285 525
f 278 285 526
f 527 278 526
f 279 278 527
f 528 279 527
f 227 279 528
f 529 227 528
f 217 227 529
f 530 217 529
f 200 217 530
f 531 200 530
f 194 200 531
f 184 531 532
f 184 194 531
f 185 532 518
f 185 184 532
f 533 164 534
f 166 164 533
f 167 533 535
f 167 166 533
f 168 535 536
f 168 167 535
f 537 168 536
f 169 168 537
f 170 537 538
f 170 169 537
f 171 538 539
f 171 170 538
f 172 539 540
f 172 171 539
f 173 540 541
f 173 172 540
f 542 173 541
f 174 173 542
f 543 174 542
f 175 174 543
f 14 544 545
f 14 19 544
f 12 545 546
f 12 14 545
f 9 546 547
f 9 12 546
f 10 547 548
f 10 9 547
f 11 548 549
f 11 10 548
f 550 11 549
f 13 11 550
f 551 13 550
f 15 13 551
f 552 15 551
f 28 15 552
f 553 28 552
f 39 28 553
f 534 39 553
f 164 39 534
f 115 554 555
f 115 121 554
f 101 555 556
f 101 115 555
f 92 556 557
f 92 101 556
f 85 557 558
f 85 92 557
f 74 558 559
f 74 85 558
f 75 559 560
f 75 74 559
f 32 560 561
f 32 75 560
f 24 561 562
f 24 32 561
f 19 562 544
f 19 24 562
f 563 175 543
f 176 175 563
f 564 176 563
f 177 176 564
f 240 564 565
f 240 177 564
f 566 240 565
f 223 240 566
f 567 223 566
f 203 223 567
f 192 567 568
f 192 203 567
f 183 568 569
f 183 192 568
f 570 183 569
f 136 183 570
f 571 136 570
f 137 136 571
f 554 137 571
f 121 137 554
f 572 259 573
f 41 259 572
f 574 41 572
f 34 41 574
f 575 34 574
f 47 34 575
f 576 47 575
f 82 47 576
f 577 82 576
f 138 82 577
f 578 138 577
f 187 138 578
f 579 187 578
f 198 187 579
f 580 198 579
f 161 198 580
f 581 161 580
f 162 161 581
f 582 162 581
f 155 162 582
f 67 583 584
f 67 64 583
f 585 67 584
f 214 67 585
f 586 214 585
f 206 214 586
f 587 206 586
f 207 206 587
f 588 207 587
f 210 207 588
f 589 210 588
f 218 210 589
f 590 218 589
f 224 218 590
f 591 224 590
f 243 224 591
f 592 243 591
f 250 243 592
f 573 250 592
f 259 250 573
f 143 593 594
f 143 180 593
f 595 143 594
f 111 143 595
f 596 111 595
f 70 111 596
f 62 596 597
f 62 70 596
f 54 597 598
f 54 62 597
f 55 598 599
f 55 54 598
f 57 599 600
f 57 55 599
f 63 600 601
f 63 57 600
f 64 601 583
f 64 63 601
f 602 155 582
f 89 155 602
f 603 89 602
f 69 89 603
f 604 69 603
f 43 69 604
f 605 43 604
f 23 43 605
f 606 23 605
f 21 23 606
f 607 21 606
f 276 21 607
f 608 276 607
f 255 276 608
f 609 255 608
f 248 255 609
f 610 248 609
f 238 248 610
f 593 238 610
f 180 238 593
f 353 324 323
f 352 324 353
f 354 353 323
f 351 325 324
f 351 324 352
f 355 323 322
f 355 354 323
f 356 355 322
f 345 322 321
f 345 356 322
f 350 326 325
f 350 325 351
f 344 321 320
f 344 345 321
f 349 327 326
f 349 310 327
f 349 326 350
f 346 320 319
f 346 335 334
f 346 319 335
f 346 344 320
f 331 333 332
f 364 310 349
f 347 346 334
f 336 334 333
f 336 348 347
f 336 333 331
f 336 347 334
f 363 311 310
f 363 310 364
f 337 329 328
f 337 330 329
f 337 331 330
f 337 328 343
f 337 336 331
f 338 337 343
f 338 342 341
f 338 343 342
f 339 338 341
f 339 341 340
f 362 311 363
f 312 311 362
f 361 312 362
f 313 312 361
f 313 361 360
f 314 313 360
f 314 360 359
f 315 314 359
f 315 359 357
f 316 315 357
f 365 366 373
f 317 316 357
f 317 357 358
f 318 317 358
f 381 365 373
f 381 367 365
f 441 318 358
f 441 358 372
f 416 415 414
f 435 368 367
f 403 416 414
f 380 367 381
f 380 435 367
f 446 368 435
f 446 369 368
f 442 441 372
f 442 372 371
f 445 369 446
f 443 442 371
f 443 371 370
f 444 369 445
f 444 443 370
f 444 370 369
f 407 404 403
f 407 405 404
f 407 406 405
f 407 414 413
f 407 403 414
f 379 435 380
f 408 413 412
f 408 407 413
f 378 434 379
f 399 412 411
f 399 408 412
f 400 399 411
f 400 410 409
f 400 411 410
f 401 409 424
f 401 400 409
f 377 434 378
f 402 423 422
f 402 424 423
f 402 401 424
f 390 422 421
f 390 402 422
f 436 434 377
f 391 390 421
f 392 391 421
f 376 436 377
f 420 393 392
f 420 394 393
f 420 392 421
f 437 436 376
f 395 394 420
f 419 396 395
f 419 395 420
f 438 437 376
f 438 376 375
f 397 396 419
f 417 398 397
f 417 397 419
f 383 398 417
f 439 438 375
f 439 375 374
f 440 439 374
f 418 382 383
f 418 383 417
f 426 440 374
f 433 384 382
f 433 382 418
f 425 374 389
f 425 426 374
f 432 384 433
f 427 389 388
f 427 425 389
f 431 385 384
f 431 384 432
f 428 427 388
f 430 386 385
f 430 385 431
f 429 387 386
f 429 388 387
f 429 386 430
f 429 428 388
f 434 435 379
f 611 496 495
f 612 611 495
f 612 495 494
f 613 612 494
f 613 494 493
f 614 496 611
f 614 497 496
f 615 613 493
f 615 493 492
f 616 497 614
f 616 498 497
f 617 615 492
f 618 498 616
f 618 499 498
f 619 492 508
f 619 617 492
f 620 619 508
f 507 620 508
f 621 499 618
f 621 500 499
f 622 620 507
f 506 622 507
f 623 622 506
f 624 500 621
f 624 483 500
f 625 623 506
f 505 625 506
f 518 482 483
f 518 483 624
f 626 625 505
f 627 518 624
f 504 628 626
f 504 626 505
f 519 518 627
f 629 519 627
f 532 484 482
f 532 482 518
f 503 630 628
f 503 628 504
f 520 519 629
f 631 520 629
f 531 484 532
f 531 485 484
f 521 520 631
f 521 631 632
f 502 633 630
f 502 630 503
f 522 521 632
f 522 632 634
f 530 485 531
f 486 485 530
f 501 633 502
f 523 634 635
f 523 522 634
f 509 635 636
f 509 523 635
f 517 633 501
f 517 637 633
f 529 486 530
f 487 486 529
f 516 638 637
f 516 637 517
f 510 636 639
f 510 639 640
f 510 509 636
f 528 487 529
f 515 641 638
f 515 638 516
f 511 640 642
f 511 510 640
f 514 643 641
f 514 641 515
f 512 642 643
f 512 511 642
f 513 512 643
f 513 643 514
f 488 528 527
f 488 487 528
f 526 488 527
f 489 488 526
f 525 489 526
f 490 489 525
f 524 490 525
f 463 462 461
f 460 463 461
f 464 463 460
f 459 464 460
f 465 464 459
f 458 465 459
f 456 465 458
f 473 456 458
f 491 490 524
f 455 491 524
f 469 471 470
f 474 491 455
f 474 455 454
f 468 471 469
f 468 472 471
f 467 456 473
f 467 472 468
f 467 473 472
f 475 474 454
f 475 453 452
f 475 454 453
f 466 456 467
f 466 457 456
f 476 451 450
f 476 452 451
f 476 475 452
f 481 457 466
f 480 457 481
f 477 449 448
f 477 450 449
f 477 476 450
f 479 447 457
f 479 457 480
f 478 447 479
f 478 448 447
f 478 477 448
f 533 534 644
f 543 542 645
f 543 645 646
f 543 646 647
f 558 648 559
f 558 649 648
f 569 650 651
f 569 651 570
f 652 535 533
f 652 533 644
f 653 547 546
f 563 647 654
f 557 649 558
f 563 543 647
f 557 655 649
f 568 656 650
f 568 650 569
f 657 546 545
f 564 563 654
f 556 655 557
f 657 653 546
f 564 654 658
f 659 655 556
f 660 548 547
f 660 547 653
f 567 656 568
f 661 536 535
f 662 657 545
f 661 535 652
f 565 564 658
f 565 658 663
f 565 663 664
f 566 565 664
f 665 549 548
f 566 656 567
f 666 537 536
f 566 664 656
f 666 536 661
f 665 548 660
f 667 662 545
f 667 545 544
f 555 659 556
f 668 659 555
f 538 537 666
f 669 667 544
f 670 538 666
f 671 549 665
f 671 550 549
f 672 669 544
f 554 668 555
f 672 544 562
f 539 538 670
f 673 539 670
f 674 672 562
f 561 674 562
f 571 675 668
f 571 668 554
f 676 550 671
f 676 551 550
f 676 552 551
f 540 539 673
f 677 540 673
f 678 674 561
f 570 651 675
f 570 675 571
f 560 678 561
f 679 678 560
f 680 552 676
f 680 553 552
f 541 677 681
f 541 540 677
f 542 681 645
f 542 541 681
f 559 679 560
f 559 648 679
f 682 553 680
f 682 534 553
f 644 534 682
f 572 573 683
f 582 581 684
f 582 684 685
f 582 685 686
f 597 687 598
f 597 688 687
f 608 689 690
f 608 690 609
f 691 574 572
f 691 572 683
f 692 586 585
f 602 686 693
f 596 688 597
f 602 582 686
f 596 694 688
f 607 695 689
f 607 689 608
f 696 585 584
f 603 602 693
f 595 694 596
f 696 692 585
f 603 693 697
f 698 694 595
f 699 587 586
f 699 586 692
f 606 695 607
f 700 575 574
f 701 696 584
f 700 574 691
f 604 603 697
f 604 697 702
f 604 702 703
f 605 604 703
f 704 588 587
f 605 695 606
f 705 576 575
f 605 703 695
f 705 575 700
f 704 587 699
f 706 701 584
f 706 584 583
f 594 698 595
f 707 698 594
f 577 576 705
f 708 706 583
f 709 577 705
f 710 588 704
f 710 589 588
f 711 708 583
f 593 707 594
f 711 583 601
f 578 577 709
f 712 578 709
f 713 711 601
f 600 713 601
f 610 714 707
f 610 707 593
f 715 589 710
f 715 590 589
f 715 591 590
f 579 578 712
f 716 579 712
f 717 713 600
f 609 690 714
f 609 714 610
f 599 717 600
f 718 717 599
f 719 591 715
f 719 592 591
f 580 716 720
f 580 579 716
f 581 720 684
f 581 580 720
f 598 718 599
f 598 687 718
f 721 592 719
f 721 573 592
f 683 573 721
f 634 722 635
f 723 722 634
f 724 634 632
f 724 723 634
f 631 724 632
f 725 724 631
f 726 631 629
f 726 725 631
f 727 629 627
f 727 726 629
f 728 627 624
f 728 727 627
f 729 624 621
f 729 728 624
f 730 621 618
f 730 729 621
f 731 618 616
f 731 730 618
f 732 616 614
f 732 731 616
f 733 614 611
f 733 732 614
f 612 733 611
f 734 733 612
f 613 734 612
f 735 734 613
f 615 735 613
f 736 735 615
f 737 615 617
f 737 736 615
f 619 737 617
f 738 737 619
f 620 738 619
f 739 738 620
f 622 739 620
f 740 739 622
f 623 740 622
f 741 740 623
f 625 741 623
f 742 741 625
f 626 742 625
f 743 742 626
f 628 743 626
f 744 743 628
f 630 744 628
f 745 744 630
f 746 630 633
f 746 745 630
f 637 746 633
f 747 746 637
f 638 747 637
f 748 747 638
f 749 638 641
f 749 748 638
f 643 749 641
f 750 749 643
f 642 750 643
f 751 750 642
f 640 751 642
f 752 751 640
f 639 752 640
f 753 752 639
f 636 753 639
f 754 753 636
f 635 754 636
f 722 754 635
f 755 668 675
f 755 756 668
f 757 675 651
f 757 755 675
f 758 651 650
f 758 757 651
f 759 650 656
f 759 758 650
f 760 656 664
f 760 759 656
f 761 664 663
f 761 760 664
f 762 658 654
f 762 663 658
f 762 761 663
f 763 762 654
f 764 654 647
f 764 763 654
f 646 764 647
f 765 764 646
f 765 646 645
f 766 645 681
f 766 765 645
f 767 766 681
f 677 767 681
f 768 767 677
f 673 768 677
f 769 768 673
f 670 769 673
f 770 769 670
f 666 770 670
f 771 770 666
f 661 771 666
f 772 771 661
f 773 661 652
f 773 772 661
f 774 652 644
f 774 773 652
f 775 644 682
f 775 774 644
f 776 682 680
f 776 775 682
f 777 680 676
f 777 776 680
f 778 676 671
f 778 777 676
f 665 778 671
f 779 778 665
f 660 779 665
f 780 779 660
f 653 780 660
f 781 653 657
f 781 780 653
f 782 657 662
f 782 781 657
f 783 782 662
f 784 662 667
f 784 783 662
f 785 667 669
f 785 784 667
f 786 669 672
f 786 785 669
f 787 672 674
f 787 786 672
f 788 674 678
f 788 787 674
f 789 678 679
f 789 788 678
f 790 679 648
f 790 789 679
f 791 648 649
f 791 790 648
f 792 649 655
f 792 791 649
f 793 655 659
f 793 792 655
f 668 793 659
f 756 793 668
f 714 794 707
f 795 794 714
f 690 795 714
f 796 795 690
f 689 796 690
f 797 796 689
f 798 689 695
f 798 797 689
f 703 798 695
f 799 798 703
f 702 799 703
f 800 799 702
f 801 702 697
f 801 800 702
f 802 697 693
f 802 801 697
f 686 802 693
f 803 802 686
f 685 803 686
f 804 803 685
f 805 685 684
f 805 804 685
f 806 684 720
f 806 805 684
f 807 720 716
f 807 806 720
f 808 716 712
f 808 807 716
f 809 712 709
f 809 808 712
f 810 709 705
f 810 809 709
f 811 705 700
f 811 810 705
f 691 811 700
f 812 811 691
f 813 691 683
f 813 812 691
f 721 813 683
f 814 813 721
f 719 814 721
f 815 814 719
f 715 815 719
f 816 815 715
f 710 816 715
f 817 816 710
f 704 817 710
f 818 817 704
f 699 818 704
f 819 818 699
f 692 819 699
f 820 819 692
f 821 692 696
f 821 820 692
f 822 701 706
f 822 696 701
f 822 821 696
f 823 706 708
f 823 822 706
f 824 823 708
f 825 708 711
f 825 824 708
f 826 711 713
f 826 825 711
f 827 713 717
f 827 826 713
f 828 717 718
f 828 827 717
f 829 718 687
f 829 828 718
f 688 829 687
f 830 829 688
f 694 830 688
f 831 830 694
f 698 831 694
f 832 831 698
f 794 698 707
f 794 832 698
f 751 722 723
f 751 752 722
f 751 723 750
f 737 735 736
f 737 734 735
f 738 734 737
f 741 739 740
f 742 738 739
f 742 739 741
f 743 733 734
f 743 738 742
f 743 734 738
f 727 728 729
f 744 732 733
f 744 731 732
f 744 733 743
f 745 730 731
f 745 731 744
f 746 729 730
f 746 730 745
f 747 727 729
f 747 729 746
f 748 726 727
f 748 727 747
f 749 725 726
f 749 724 725
f 749 726 748
f 750 723 724
f 750 724 749
f 752 754 722
f 752 753 754
f 764 765 768
f 760 770 759
f 760 769 770
f 763 764 768
f 762 768 769
f 762 763 768
f 761 762 769
f 761 769 760
f 785 783 784
f 786 782 783
f 786 783 785
f 787 782 786
f 788 781 782
f 788 782 787
f 789 780 781
f 789 781 788
f 790 779 780
f 790 780 789
f 791 778 779
f 791 779 790
f 792 777 778
f 792 776 777
f 792 778 791
f 793 775 776
f 793 776 792
f 756 774 775
f 756 775 793
f 755 773 774
f 755 774 756
f 757 772 773
f 757 773 755
f 758 771 772
f 758 772 757
f 765 767 768
f 765 766 767
f 759 771 758
f 759 770 771
f 803 804 807
f 799 809 798
f 799 808 809
f 802 803 807
f 801 807 808
f 801 802 807
f 800 801 808
f 800 808 799
f 824 822 823
f 825 821 822
f 825 822 824
f 826 821 825
f 827 820 821
f 827 821 826
f 828 819 820
f 828 820 827
f 829 818 819
f 829 819 828
f 830 817 818
f 830 818 829
f 831 816 817
f 831 815 816
f 831 817 830
f 832 814 815
f 832 815 831
f 794 813 814
f 794 814 832
f 795 812 813
f 795 813 794
f 796 811 812
f 796 812 795
f 797 810 811
f 797 811 796
f 804 806 807
f 804 805 806
f 798 810 797
f 798 809 810
