# Created by FreeCAD <http://www.freecadweb.org>
v 22.622543 530.000000 84.312340
v 22.622650 530.000000 85.512337
v 21.822542 530.000000 84.312408
v 21.822651 530.000000 85.512413
v 22.622650 530.049988 85.512337
v 21.822651 530.049988 85.512413
v 21.822542 530.049988 84.312408
v 22.622543 530.049988 84.312340
v 22.400911 530.049988 85.416229
v 22.388817 530.049988 85.429367
v 22.370167 530.049988 85.444168
v 22.410648 530.049988 85.401245
v 22.343624 530.049988 85.458862
v 22.417711 530.049988 85.382729
v 22.313478 530.049988 85.469612
v 22.072611 530.049988 84.534554
v 22.079782 530.049988 84.532913
v 22.087265 530.049988 84.527664
v 22.420387 530.049988 85.360870
v 22.047857 530.049988 84.557182
v 22.058985 530.049988 84.679031
v 22.058804 530.049988 84.563858
v 22.040405 530.049988 84.693405
v 22.418730 530.049988 85.343727
v 22.185837 530.049988 84.411293
v 22.192297 530.049988 84.424629
v 22.209404 530.049988 84.410484
v 22.277018 530.049988 85.477249
v 22.167200 530.049988 84.428131
v 22.111727 530.049988 84.529350
v 22.177465 530.049988 84.439499
v 22.413641 530.049988 85.327248
v 22.104877 530.049988 84.526924
v 22.131094 530.049988 84.873123
v 22.077177 530.049988 84.968170
v 22.081022 530.049988 84.970825
v 22.083349 530.049988 84.973442
v 22.177416 530.049988 84.984657
v 22.245399 530.049988 85.480515
v 22.188904 530.049988 84.972778
v 22.169920 530.049988 84.879372
v 22.038445 530.049988 84.548470
v 22.028404 530.049988 84.706299
v 22.047506 530.049988 84.532394
v 22.052990 530.049988 84.534485
v 22.056679 530.049988 84.535110
v 22.097998 530.049988 84.863297
v 22.059587 530.049988 84.964813
v 22.071936 530.049988 84.966202
v 22.154526 530.049988 84.419525
v 22.176201 530.049988 84.397163
v 22.224340 530.049988 84.387375
v 22.386683 530.049988 84.557358
v 22.386196 530.049988 84.691414
v 22.402979 530.049988 84.709129
v 22.400988 530.049988 84.540108
v 22.413588 530.049988 84.727249
v 22.043024 530.049988 84.529427
v 22.372902 530.049988 84.567909
v 22.039349 530.049988 84.525726
v 22.060417 530.049988 84.535294
v 22.362951 530.049988 84.674942
v 22.418676 530.049988 84.743721
v 22.420332 530.049988 84.760872
v 22.418386 530.049988 85.033455
v 22.027994 530.049988 84.534935
v 22.417658 530.049988 84.782730
v 22.361036 530.049988 84.573250
v 22.018799 530.049988 84.721062
v 22.336269 530.049988 84.662010
v 22.140385 530.049988 84.413620
v 22.412104 530.049988 84.518776
v 22.385120 530.049988 85.138947
v 22.386251 530.049988 85.291412
v 22.403032 530.049988 85.309128
v 22.034784 530.049988 84.518448
v 22.352585 530.049988 84.575279
v 22.400383 530.049988 85.122055
v 22.162600 530.049988 84.383926
v 22.239124 530.049988 84.372528
v 22.365034 530.049988 85.153496
v 22.070780 530.049988 84.850845
v 22.046389 530.049988 84.968689
v 22.052748 530.049988 84.965950
v 22.363007 530.049988 85.274948
v 22.018948 530.049988 84.517967
v 22.343927 530.049988 84.575897
v 22.411695 530.049988 85.101585
v 22.011833 530.049988 84.739342
v 22.124336 530.049988 84.410278
v 22.339861 530.049988 85.165382
v 22.336323 530.049988 85.262009
v 22.028341 530.049988 84.500481
v 22.107975 530.049988 84.409248
v 22.094965 530.049988 84.525917
v 22.418104 530.049988 85.079399
v 22.418360 530.049988 84.496071
v 22.143671 530.049988 84.372902
v 22.255478 530.049988 84.362053
v 22.309717 530.049988 85.174065
v 22.300703 530.049988 85.251228
v 22.025864 530.049988 84.481567
v 22.091011 530.049988 84.526306
v 22.420359 530.049988 85.053841
v 22.087467 530.049988 84.411095
v 22.026596 530.049988 84.469055
v 22.377243 530.049988 84.534378
v 22.380844 530.049988 84.532921
v 22.384571 530.049988 84.530411
v 22.336082 530.049988 84.575180
v 22.300650 530.049988 84.651230
v 22.122679 530.049988 84.366699
v 22.279417 530.049988 84.352180
v 22.271284 530.049988 85.179863
v 22.257401 530.049988 85.244476
v 22.371353 530.049988 84.535271
v 22.029211 530.049988 84.456795
v 22.067789 530.049988 84.417091
v 22.033987 530.049988 84.445244
v 22.232437 530.049988 85.181458
v 22.213606 530.049988 85.242577
v 22.049887 530.049988 84.427238
v 22.328558 530.049988 84.572807
v 22.042149 530.049988 84.434021
v 22.362457 530.049988 84.533478
v 22.100853 530.049988 84.364807
v 22.293381 530.049988 84.349197
v 22.387829 530.049988 84.527351
v 22.391460 530.049988 84.522652
v 22.420307 530.049988 84.472588
v 22.321743 530.049988 84.568878
v 22.354261 530.049988 84.529457
v 22.396664 530.049988 84.512787
v 22.400381 530.049988 84.502289
v 22.182734 530.049988 85.179153
v 22.153591 530.049988 85.246429
v 22.183529 530.049988 85.243431
v 22.047432 530.049988 84.835281
v 22.039026 530.049988 84.973701
v 22.315786 530.049988 84.563705
v 22.012825 530.049988 84.499741
v 22.010067 530.049988 84.484383
v 22.257345 530.049988 84.644478
v 22.009195 530.049988 84.468811
v 22.011585 530.049988 84.443352
v 22.018562 530.049988 84.421417
v 22.029873 530.049988 84.402908
v 22.045004 530.049988 84.387344
v 22.062824 530.049988 84.374939
v 22.080883 530.049988 84.367500
v 22.347578 530.049988 84.527046
v 22.090773 530.049988 84.365456
v 22.402840 530.049988 84.490372
v 22.403641 530.049988 84.478233
v 22.009222 530.049988 84.760910
v 22.419134 530.049988 84.451752
v 22.197300 530.049988 84.438583
v 22.307621 530.049988 84.348122
v 22.009247 530.049988 85.036255
v 22.010435 530.049988 85.020515
v 22.011568 530.049988 84.781799
v 22.009806 530.049988 84.771423
v 22.311516 530.049988 84.558044
v 22.213627 530.049988 85.481461
v 22.310139 530.049988 84.555153
v 22.169973 530.049988 85.479378
v 22.131147 530.049988 85.473129
v 22.098051 530.049988 85.463303
v 22.070833 530.049988 85.450844
v 22.047485 530.049988 85.435287
v 22.031101 530.049988 85.419579
v 22.018774 530.049988 85.401436
v 22.011623 530.049988 85.381798
v 22.009859 530.049988 85.371429
v 22.009275 530.049988 85.360909
v 22.011887 530.049988 85.339340
v 22.018854 530.049988 85.321068
v 22.401611 530.049988 84.455605
v 22.336805 530.049988 84.525894
v 22.213551 530.049988 84.642570
v 22.309484 530.049988 84.552505
v 22.142908 530.049988 85.173012
v 22.115545 530.049988 85.254112
v 22.179058 530.049988 85.136131
v 22.220453 530.049988 85.137016
v 22.198267 530.049988 85.124153
v 22.031048 530.049988 84.819580
v 22.020294 530.049988 84.993881
v 22.027504 530.049988 84.984489
v 22.182966 530.049988 85.110100
v 22.109781 530.049988 85.163712
v 22.085814 530.049988 85.264465
v 22.415291 530.049988 84.431229
v 22.137808 530.049988 85.132622
v 22.171873 530.049988 85.094391
v 22.396336 530.049988 84.437973
v 22.164066 530.049988 85.076805
v 22.018721 530.049988 84.801437
v 22.014519 530.049988 85.005272
v 22.110004 530.049988 85.128006
v 22.080935 530.049988 85.150955
v 22.408148 530.049988 84.411629
v 22.059040 530.049988 85.279030
v 22.160429 530.049988 85.061966
v 22.387766 530.049988 84.423256
v 22.400858 530.049988 84.816223
v 22.388763 530.049988 84.829369
v 22.385702 530.049988 84.975723
v 22.401255 530.049988 84.993805
v 22.370113 530.049988 84.844170
v 22.397444 530.049988 84.393715
v 22.367535 530.049988 84.961868
v 22.377037 530.049988 84.412292
v 22.410593 530.049988 84.801247
v 22.412464 530.049988 85.013847
v 22.365433 530.049988 84.404800
v 22.082998 530.049988 85.119995
v 22.343571 530.049988 84.858856
v 22.383396 530.049988 84.378304
v 22.343994 530.049988 84.951309
v 22.352711 530.049988 84.399429
v 22.058334 530.049988 85.136139
v 22.040461 530.049988 85.293404
v 22.313425 530.049988 84.869614
v 22.314777 530.049988 84.944679
v 22.366911 530.049988 84.365509
v 22.068237 530.049988 85.112801
v 22.328106 530.049988 84.394005
v 22.326204 530.049988 84.528282
v 22.209198 530.049988 84.498131
v 22.309202 530.049988 84.549767
v 22.309967 530.049988 84.543068
v 22.311642 530.049988 84.538956
v 22.313980 530.049988 84.535561
v 22.348406 530.049988 84.355888
v 22.302938 530.049988 84.392563
v 22.192532 530.049988 84.498131
v 22.183474 530.049988 84.643433
v 22.038918 530.049988 85.117989
v 22.028458 530.049988 85.306305
v 22.210466 530.049988 84.473206
v 22.316511 530.049988 84.533279
v 22.276964 530.049988 84.877251
v 22.261337 530.049988 84.943695
v 22.281548 530.049988 84.942566
v 22.328392 530.049988 84.350037
v 22.110964 530.049988 84.564812
v 22.153538 530.049988 84.646423
v 22.114531 530.049988 84.561295
v 22.245344 530.049988 84.880516
v 22.117313 530.049988 84.557121
v 22.106638 530.049988 84.567337
v 22.241438 530.049988 84.947395
v 22.025206 530.049988 85.098900
v 22.115490 530.049988 84.654114
v 22.278635 530.049988 84.394653
v 22.119484 530.049988 84.552002
v 22.101870 530.049988 84.568909
v 22.213573 530.049988 84.881462
v 22.201469 530.049988 84.964012
v 22.220833 530.049988 84.954216
v 22.120314 530.049988 84.545883
v 22.015579 530.049988 85.077652
v 22.094942 530.049988 84.569992
v 22.215063 530.049988 84.448685
v 22.120121 530.049988 84.542587
v 22.083128 530.049988 85.001984
v 22.080660 530.049988 85.004601
v 22.159248 530.049988 85.046745
v 22.161840 530.049988 85.019653
v 22.119574 530.049988 84.539337
v 22.257578 530.049988 84.400818
v 22.077888 530.049988 85.006454
v 22.087936 530.049988 84.570366
v 22.085333 530.049988 84.998123
v 22.085758 530.049988 84.664459
v 22.074823 530.049988 85.007767
v 22.043982 530.049988 85.090797
v 22.055269 530.049988 85.102730
v 22.086525 530.049988 84.993973
v 22.118546 530.049988 84.536346
v 22.167156 530.049988 85.002289
v 22.069653 530.049988 85.008904
v 22.028358 530.049988 85.060097
v 22.034920 530.049988 85.077103
v 22.239748 530.049988 84.411041
v 22.220535 530.049988 84.434265
v 22.116842 530.049988 84.533386
v 22.087021 530.049988 84.988068
v 22.228752 530.049988 84.421219
v 22.064365 530.049988 85.009254
v 22.086849 530.049988 84.984528
v 22.114882 530.049988 84.531380
v 22.010704 530.049988 85.057213
v 22.190836 530.049988 84.474823
v 22.086380 530.049988 84.981026
v 22.025913 530.049988 85.039986
v 22.055330 530.049988 85.008125
v 22.085287 530.049988 84.977234
v 22.072206 530.049988 84.568657
v 22.026255 530.049988 85.031364
v 22.185514 530.049988 84.454491
v 22.027582 530.049988 85.022842
v 22.046310 530.049988 85.006912
v 22.029121 530.049988 85.018288
v 22.030809 530.049988 85.015099
v 22.033354 530.049988 85.012009
v 22.040442 530.049988 85.007721
v 22.036879 530.049988 85.009293
v 22.011585 530.039978 84.443352
v 22.009195 530.039978 84.468811
v 22.018562 530.039978 84.421417
v 22.029873 530.039978 84.402908
v 22.045004 530.039978 84.387344
v 22.062824 530.039978 84.374939
v 22.080883 530.039978 84.367500
v 22.090773 530.039978 84.365456
v 22.100853 530.039978 84.364807
v 22.087936 530.039978 84.570366
v 22.072206 530.039978 84.568657
v 22.058804 530.039978 84.563858
v 22.047857 530.039978 84.557182
v 22.038445 530.039978 84.548470
v 22.027994 530.039978 84.534935
v 22.018948 530.039978 84.517967
v 22.012825 530.039978 84.499741
v 22.010067 530.039978 84.484383
v 22.120314 530.039978 84.545883
v 22.119484 530.039978 84.552002
v 22.117313 530.039978 84.557121
v 22.114531 530.039978 84.561295
v 22.110964 530.039978 84.564812
v 22.106638 530.039978 84.567337
v 22.101870 530.039978 84.568909
v 22.094942 530.039978 84.569992
v 22.094965 530.039978 84.525917
v 22.104877 530.039978 84.526924
v 22.111727 530.039978 84.529350
v 22.114882 530.039978 84.531380
v 22.116842 530.039978 84.533386
v 22.118546 530.039978 84.536346
v 22.119574 530.039978 84.539337
v 22.120121 530.039978 84.542587
v 22.072611 530.039978 84.534554
v 22.060417 530.039978 84.535294
v 22.079782 530.039978 84.532913
v 22.087265 530.039978 84.527664
v 22.091011 530.039978 84.526306
v 22.025864 530.039978 84.481567
v 22.028341 530.039978 84.500481
v 22.034784 530.039978 84.518448
v 22.039349 530.039978 84.525726
v 22.043024 530.039978 84.529427
v 22.047506 530.039978 84.532394
v 22.052990 530.039978 84.534485
v 22.056679 530.039978 84.535110
v 22.087467 530.039978 84.411095
v 22.107975 530.039978 84.409248
v 22.067789 530.039978 84.417091
v 22.049887 530.039978 84.427238
v 22.042149 530.039978 84.434021
v 22.033987 530.039978 84.445244
v 22.029211 530.039978 84.456795
v 22.026596 530.039978 84.469055
v 22.190836 530.039978 84.474823
v 22.192532 530.039978 84.498131
v 22.185514 530.039978 84.454491
v 22.177465 530.039978 84.439499
v 22.167200 530.039978 84.428131
v 22.154526 530.039978 84.419525
v 22.140385 530.039978 84.413620
v 22.124336 530.039978 84.410278
v 22.209198 530.039978 84.498131
v 22.302938 530.039978 84.392563
v 22.278635 530.039978 84.394653
v 22.257578 530.039978 84.400818
v 22.239748 530.039978 84.411041
v 22.228752 530.039978 84.421219
v 22.220535 530.039978 84.434265
v 22.215063 530.039978 84.448685
v 22.210466 530.039978 84.473206
v 22.401611 530.039978 84.455605
v 22.403641 530.039978 84.478233
v 22.396336 530.039978 84.437973
v 22.387766 530.039978 84.423256
v 22.377037 530.039978 84.412292
v 22.365433 530.039978 84.404800
v 22.352711 530.039978 84.399429
v 22.328106 530.039978 84.394005
v 22.371353 530.039978 84.535271
v 22.377243 530.039978 84.534378
v 22.380844 530.039978 84.532921
v 22.384571 530.039978 84.530411
v 22.387829 530.039978 84.527351
v 22.391460 530.039978 84.522652
v 22.396664 530.039978 84.512787
v 22.400381 530.039978 84.502289
v 22.402840 530.039978 84.490372
v 22.336805 530.039978 84.525894
v 22.347578 530.039978 84.527046
v 22.354261 530.039978 84.529457
v 22.362457 530.039978 84.533478
v 22.309202 530.039978 84.549767
v 22.309967 530.039978 84.543068
v 22.311642 530.039978 84.538956
v 22.313980 530.039978 84.535561
v 22.316511 530.039978 84.533279
v 22.326204 530.039978 84.528282
v 22.343927 530.039978 84.575897
v 22.336082 530.039978 84.575180
v 22.328558 530.039978 84.572807
v 22.321743 530.039978 84.568878
v 22.315786 530.039978 84.563705
v 22.311516 530.039978 84.558044
v 22.310139 530.039978 84.555153
v 22.309484 530.039978 84.552505
v 22.418360 530.039978 84.496071
v 22.420307 530.039978 84.472588
v 22.412104 530.039978 84.518776
v 22.400988 530.039978 84.540108
v 22.386683 530.039978 84.557358
v 22.372902 530.039978 84.567909
v 22.361036 530.039978 84.573250
v 22.352585 530.039978 84.575279
v 22.328392 530.039978 84.350037
v 22.307621 530.039978 84.348122
v 22.348406 530.039978 84.355888
v 22.366911 530.039978 84.365509
v 22.383396 530.039978 84.378304
v 22.397444 530.039978 84.393715
v 22.408148 530.039978 84.411629
v 22.415291 530.039978 84.431229
v 22.419134 530.039978 84.451752
v 22.209404 530.039978 84.410484
v 22.197300 530.039978 84.438583
v 22.224340 530.039978 84.387375
v 22.239124 530.039978 84.372528
v 22.255478 530.039978 84.362053
v 22.279417 530.039978 84.352180
v 22.293381 530.039978 84.349197
v 22.122679 530.039978 84.366699
v 22.143671 530.039978 84.372902
v 22.162600 530.039978 84.383926
v 22.176201 530.039978 84.397163
v 22.185837 530.039978 84.411293
v 22.192297 530.039978 84.424629
v 22.046310 530.039978 85.006912
v 22.040442 530.039978 85.007721
v 22.036879 530.039978 85.009293
v 22.033354 530.039978 85.012009
v 22.030809 530.039978 85.015099
v 22.029121 530.039978 85.018288
v 22.027582 530.039978 85.022842
v 22.026255 530.039978 85.031364
v 22.025913 530.039978 85.039986
v 22.064365 530.039978 85.009254
v 22.055330 530.039978 85.008125
v 22.087021 530.039978 84.988068
v 22.086525 530.039978 84.993973
v 22.085333 530.039978 84.998123
v 22.083128 530.039978 85.001984
v 22.080660 530.039978 85.004601
v 22.077888 530.039978 85.006454
v 22.074823 530.039978 85.007767
v 22.069653 530.039978 85.008904
v 22.059587 530.039978 84.964813
v 22.071936 530.039978 84.966202
v 22.077177 530.039978 84.968170
v 22.081022 530.039978 84.970825
v 22.083349 530.039978 84.973442
v 22.085287 530.039978 84.977234
v 22.086380 530.039978 84.981026
v 22.086849 530.039978 84.984528
v 22.009247 530.039978 85.036255
v 22.010435 530.039978 85.020515
v 22.014519 530.039978 85.005272
v 22.020294 530.039978 84.993881
v 22.027504 530.039978 84.984489
v 22.039026 530.039978 84.973701
v 22.046389 530.039978 84.968689
v 22.052748 530.039978 84.965950
v 22.182734 530.039978 85.179153
v 22.232437 530.039978 85.181458
v 22.142908 530.039978 85.173012
v 22.109781 530.039978 85.163712
v 22.080935 530.039978 85.150955
v 22.058334 530.039978 85.136139
v 22.038918 530.039978 85.117989
v 22.025206 530.039978 85.098900
v 22.015579 530.039978 85.077652
v 22.010704 530.039978 85.057213
v 22.420359 530.039978 85.053841
v 22.418104 530.039978 85.079399
v 22.411695 530.039978 85.101585
v 22.400383 530.039978 85.122055
v 22.385120 530.039978 85.138947
v 22.365034 530.039978 85.153496
v 22.339861 530.039978 85.165382
v 22.309717 530.039978 85.174065
v 22.271284 530.039978 85.179863
v 22.281548 530.039978 84.942566
v 22.314777 530.039978 84.944679
v 22.343994 530.039978 84.951309
v 22.367535 530.039978 84.961868
v 22.385702 530.039978 84.975723
v 22.401255 530.039978 84.993805
v 22.412464 530.039978 85.013847
v 22.418386 530.039978 85.033455
v 22.159248 530.039978 85.046745
v 22.161840 530.039978 85.019653
v 22.167156 530.039978 85.002289
v 22.177416 530.039978 84.984657
v 22.188904 530.039978 84.972778
v 22.201469 530.039978 84.964012
v 22.220833 530.039978 84.954216
v 22.241438 530.039978 84.947395
v 22.261337 530.039978 84.943695
v 22.220453 530.039978 85.137016
v 22.198267 530.039978 85.124153
v 22.182966 530.039978 85.110100
v 22.171873 530.039978 85.094391
v 22.164066 530.039978 85.076805
v 22.160429 530.039978 85.061966
v 22.028358 530.039978 85.060097
v 22.034920 530.039978 85.077103
v 22.043982 530.039978 85.090797
v 22.055269 530.039978 85.102730
v 22.068237 530.039978 85.112801
v 22.082998 530.039978 85.119995
v 22.110004 530.039978 85.128006
v 22.137808 530.039978 85.132622
v 22.179058 530.039978 85.136131
v 22.169973 530.039978 85.479378
v 22.213627 530.039978 85.481461
v 22.131147 530.039978 85.473129
v 22.098051 530.039978 85.463303
v 22.070833 530.039978 85.450844
v 22.047485 530.039978 85.435287
v 22.031101 530.039978 85.419579
v 22.018774 530.039978 85.401436
v 22.011623 530.039978 85.381798
v 22.009859 530.039978 85.371429
v 22.009275 530.039978 85.360909
v 22.420387 530.039978 85.360870
v 22.417711 530.039978 85.382729
v 22.410648 530.039978 85.401245
v 22.400911 530.039978 85.416229
v 22.388817 530.039978 85.429367
v 22.370167 530.039978 85.444168
v 22.343624 530.039978 85.458862
v 22.313478 530.039978 85.469612
v 22.277018 530.039978 85.477249
v 22.245399 530.039978 85.480515
v 22.213606 530.039978 85.242577
v 22.257401 530.039978 85.244476
v 22.300703 530.039978 85.251228
v 22.336323 530.039978 85.262009
v 22.363007 530.039978 85.274948
v 22.386251 530.039978 85.291412
v 22.403032 530.039978 85.309128
v 22.413641 530.039978 85.327248
v 22.418730 530.039978 85.343727
v 22.011887 530.039978 85.339340
v 22.018854 530.039978 85.321068
v 22.028458 530.039978 85.306305
v 22.040461 530.039978 85.293404
v 22.059040 530.039978 85.279030
v 22.085814 530.039978 85.264465
v 22.115545 530.039978 85.254112
v 22.153591 530.039978 85.246429
v 22.183529 530.039978 85.243431
v 22.169920 530.039978 84.879372
v 22.213573 530.039978 84.881462
v 22.131094 530.039978 84.873123
v 22.097998 530.039978 84.863297
v 22.070780 530.039978 84.850845
v 22.047432 530.039978 84.835281
v 22.031048 530.039978 84.819580
v 22.018721 530.039978 84.801437
v 22.011568 530.039978 84.781799
v 22.009806 530.039978 84.771423
v 22.009222 530.039978 84.760910
v 22.420332 530.039978 84.760872
v 22.417658 530.039978 84.782730
v 22.410593 530.039978 84.801247
v 22.400858 530.039978 84.816223
v 22.388763 530.039978 84.829369
v 22.370113 530.039978 84.844170
v 22.343571 530.039978 84.858856
v 22.313425 530.039978 84.869614
v 22.276964 530.039978 84.877251
v 22.245344 530.039978 84.880516
v 22.213551 530.039978 84.642570
v 22.257345 530.039978 84.644478
v 22.300650 530.039978 84.651230
v 22.336269 530.039978 84.662010
v 22.362951 530.039978 84.674942
v 22.386196 530.039978 84.691414
v 22.402979 530.039978 84.709129
v 22.413588 530.039978 84.727249
v 22.418676 530.039978 84.743721
v 22.011833 530.039978 84.739342
v 22.018799 530.039978 84.721062
v 22.028404 530.039978 84.706299
v 22.040405 530.039978 84.693405
v 22.058985 530.039978 84.679031
v 22.085758 530.039978 84.664459
v 22.115490 530.039978 84.654114
v 22.153538 530.039978 84.646423
v 22.183474 530.039978 84.643433
v 22.379322 530.039978 85.102097
v 22.389193 530.039978 85.092102
v 22.397028 530.039978 85.080452
v 22.364178 530.039978 85.113113
v 22.402042 530.039978 85.067345
v 22.345373 530.039978 85.122604
v 22.403692 530.039978 85.053406
v 22.318531 530.039978 85.130875
v 22.402952 530.039978 85.042290
v 22.400616 530.039978 85.031403
v 22.287279 530.039978 85.135612
v 22.395084 530.039978 85.018761
v 22.386759 530.039978 85.007759
v 22.255697 530.039978 85.137016
v 22.375208 530.039978 84.998360
v 22.364269 530.039978 84.992775
v 22.226158 530.039978 85.121910
v 22.348640 530.039978 84.987900
v 22.208349 530.039978 85.108803
v 22.316696 530.039978 84.982864
v 22.195965 530.039978 85.094780
v 22.187666 530.039978 85.079552
v 22.280769 530.039978 84.981453
v 22.182976 530.039978 85.064507
v 22.181471 530.039978 85.048828
v 22.182575 530.039978 85.037766
v 22.260393 530.039978 84.982460
v 22.240311 530.039978 84.986000
v 22.185896 530.039978 85.027153
v 22.191381 530.039978 85.017479
v 22.224508 530.039978 84.991356
v 22.198587 530.039978 85.009010
v 22.209959 530.039978 84.999496
v 22.213623 530.039978 85.437019
v 22.026661 530.039978 85.368462
v 22.025942 530.039978 85.360909
v 22.027395 530.039978 85.348839
v 22.368795 530.039978 85.313416
v 22.340624 530.039978 85.302002
v 22.100607 530.039978 85.298439
v 22.140369 530.039978 85.291153
v 22.165205 530.039978 85.435043
v 22.388548 530.039978 85.393326
v 22.031469 530.039978 85.338669
v 22.306505 530.039978 85.293884
v 22.072392 530.039978 85.307289
v 22.394670 530.039978 85.386452
v 22.036989 530.039978 85.330498
v 22.262655 530.039978 85.288666
v 22.379112 530.039978 85.401154
v 22.122038 530.039978 85.428902
v 22.399557 530.039978 85.378662
v 22.043957 530.039978 85.323517
v 22.054647 530.039978 85.315865
v 22.363344 530.039978 85.410629
v 22.086506 530.039978 85.418907
v 22.402687 530.039978 85.370010
v 22.213610 530.039978 85.287018
v 22.403721 530.039978 85.360870
v 22.059797 530.039978 85.406616
v 22.337872 530.039978 85.421211
v 22.402967 530.039978 85.352623
v 22.044739 530.039978 85.396309
v 22.400677 530.039978 85.344666
v 22.176924 530.039978 85.287918
v 22.306086 530.039978 85.429428
v 22.034431 530.039978 85.385468
v 22.395100 530.039978 85.334686
v 22.385689 530.039978 85.324707
v 22.267691 530.039978 85.434753
v 22.028849 530.039978 85.375732
v 22.240681 530.039978 85.436485
v 22.213570 530.039978 84.837021
v 22.026608 530.039978 84.768463
v 22.025888 530.039978 84.760910
v 22.027342 530.039978 84.748833
v 22.368742 530.039978 84.713409
v 22.340569 530.039978 84.702003
v 22.100552 530.039978 84.698433
v 22.140316 530.039978 84.691154
v 22.165152 530.039978 84.835037
v 22.388493 530.039978 84.793320
v 22.031416 530.039978 84.738670
v 22.306450 530.039978 84.693878
v 22.072336 530.039978 84.707283
v 22.394615 530.039978 84.786453
v 22.036936 530.039978 84.730492
v 22.262602 530.039978 84.688667
v 22.379057 530.039978 84.801155
v 22.121983 530.039978 84.828903
v 22.399504 530.039978 84.778664
v 22.043901 530.039978 84.723518
v 22.054592 530.039978 84.715866
v 22.363291 530.039978 84.810631
v 22.086452 530.039978 84.818901
v 22.402632 530.039978 84.770012
v 22.213554 530.039978 84.687019
v 22.403666 530.039978 84.760872
v 22.059742 530.039978 84.806618
v 22.337818 530.039978 84.821213
v 22.402914 530.039978 84.752625
v 22.044683 530.039978 84.796310
v 22.400621 530.039978 84.744667
v 22.176868 530.039978 84.687920
v 22.306032 530.039978 84.829430
v 22.034376 530.039978 84.785469
v 22.395044 530.039978 84.734688
v 22.385635 530.039978 84.724709
v 22.267637 530.039978 84.834755
v 22.028795 530.039978 84.775726
v 22.240627 530.039978 84.836479
v 22.182976 530.049988 85.064507
v 22.181471 530.049988 85.048828
v 22.187666 530.049988 85.079552
v 22.195965 530.049988 85.094780
v 22.208349 530.049988 85.108803
v 22.226158 530.049988 85.121910
v 22.255697 530.049988 85.137016
v 22.287279 530.049988 85.135612
v 22.318531 530.049988 85.130875
v 22.345373 530.049988 85.122604
v 22.364178 530.049988 85.113113
v 22.379322 530.049988 85.102097
v 22.389193 530.049988 85.092102
v 22.397028 530.049988 85.080452
v 22.402042 530.049988 85.067345
v 22.403692 530.049988 85.053406
v 22.402952 530.049988 85.042290
v 22.400616 530.049988 85.031403
v 22.395084 530.049988 85.018761
v 22.386759 530.049988 85.007759
v 22.375208 530.049988 84.998360
v 22.364269 530.049988 84.992775
v 22.348640 530.049988 84.987900
v 22.316696 530.049988 84.982864
v 22.280769 530.049988 84.981453
v 22.260393 530.049988 84.982460
v 22.240311 530.049988 84.986000
v 22.224508 530.049988 84.991356
v 22.209959 530.049988 84.999496
v 22.198587 530.049988 85.009010
v 22.191381 530.049988 85.017479
v 22.185896 530.049988 85.027153
v 22.182575 530.049988 85.037766
v 22.176924 530.049988 85.287918
v 22.213610 530.049988 85.287018
v 22.140369 530.049988 85.291153
v 22.100607 530.049988 85.298439
v 22.072392 530.049988 85.307289
v 22.054647 530.049988 85.315865
v 22.043957 530.049988 85.323517
v 22.036989 530.049988 85.330498
v 22.031469 530.049988 85.338669
v 22.027395 530.049988 85.348839
v 22.025942 530.049988 85.360909
v 22.026661 530.049988 85.368462
v 22.028849 530.049988 85.375732
v 22.034431 530.049988 85.385468
v 22.044739 530.049988 85.396309
v 22.059797 530.049988 85.406616
v 22.086506 530.049988 85.418907
v 22.122038 530.049988 85.428902
v 22.165205 530.049988 85.435043
v 22.213623 530.049988 85.437019
v 22.240681 530.049988 85.436485
v 22.267691 530.049988 85.434753
v 22.306086 530.049988 85.429428
v 22.337872 530.049988 85.421211
v 22.363344 530.049988 85.410629
v 22.379112 530.049988 85.401154
v 22.388548 530.049988 85.393326
v 22.394670 530.049988 85.386452
v 22.399557 530.049988 85.378662
v 22.402687 530.049988 85.370010
v 22.403721 530.049988 85.360870
v 22.402967 530.049988 85.352623
v 22.400677 530.049988 85.344666
v 22.395100 530.049988 85.334686
v 22.385689 530.049988 85.324707
v 22.368795 530.049988 85.313416
v 22.340624 530.049988 85.302002
v 22.306505 530.049988 85.293884
v 22.262655 530.049988 85.288666
v 22.213554 530.049988 84.687019
v 22.176868 530.049988 84.687920
v 22.140316 530.049988 84.691154
v 22.100552 530.049988 84.698433
v 22.072336 530.049988 84.707283
v 22.054592 530.049988 84.715866
v 22.043901 530.049988 84.723518
v 22.036936 530.049988 84.730492
v 22.031416 530.049988 84.738670
v 22.027342 530.049988 84.748833
v 22.025888 530.049988 84.760910
v 22.026608 530.049988 84.768463
v 22.028795 530.049988 84.775726
v 22.034376 530.049988 84.785469
v 22.044683 530.049988 84.796310
v 22.059742 530.049988 84.806618
v 22.086452 530.049988 84.818901
v 22.121983 530.049988 84.828903
v 22.165152 530.049988 84.835037
v 22.213570 530.049988 84.837021
v 22.240627 530.049988 84.836479
v 22.267637 530.049988 84.834755
v 22.306032 530.049988 84.829430
v 22.337818 530.049988 84.821213
v 22.363291 530.049988 84.810631
v 22.379057 530.049988 84.801155
v 22.388493 530.049988 84.793320
v 22.394615 530.049988 84.786453
v 22.399504 530.049988 84.778664
v 22.402632 530.049988 84.770012
v 22.403666 530.049988 84.760872
v 22.402914 530.049988 84.752625
v 22.400621 530.049988 84.744667
v 22.395044 530.049988 84.734688
v 22.385635 530.049988 84.724709
v 22.368742 530.049988 84.713409
v 22.340569 530.049988 84.702003
v 22.306450 530.049988 84.693878
v 22.262602 530.049988 84.688667
f 1 2 3
f 2 4 3
f 2 5 4
f 5 6 4
f 4 6 3
f 6 7 3
f 8 1 7
f 1 3 7
f 5 2 8
f 2 1 8
f 9 10 5
f 11 5 10
f 12 9 5
f 13 5 11
f 14 12 5
f 15 5 13
f 16 17 18
f 19 14 5
f 20 21 22
f 20 23 21
f 24 19 5
f 25 26 27
f 28 5 15
f 29 30 31
f 32 24 5
f 29 33 30
f 34 35 36
f 34 36 37
f 34 37 38
f 39 5 28
f 34 40 41
f 34 38 40
f 42 23 20
f 42 43 23
f 44 45 46
f 47 48 49
f 47 49 35
f 47 35 34
f 50 33 29
f 51 27 52
f 51 25 27
f 53 54 55
f 56 55 57
f 58 44 46
f 56 53 55
f 59 54 53
f 60 46 61
f 59 62 54
f 60 58 46
f 8 57 63
f 8 63 64
f 8 65 5
f 66 43 42
f 8 67 65
f 8 64 67
f 68 62 59
f 66 69 43
f 68 70 62
f 71 33 50
f 72 56 57
f 72 57 8
f 73 74 75
f 76 61 16
f 77 70 68
f 76 60 61
f 78 73 75
f 76 16 18
f 78 75 32
f 79 52 80
f 79 51 52
f 81 74 73
f 82 83 84
f 82 84 48
f 81 85 74
f 82 48 47
f 86 69 66
f 87 70 77
f 88 32 5
f 88 78 32
f 86 89 69
f 90 33 71
f 91 92 85
f 91 85 81
f 93 76 18
f 94 95 33
f 94 33 90
f 96 88 5
f 97 72 8
f 98 79 80
f 98 80 99
f 100 101 92
f 100 92 91
f 102 18 103
f 104 96 5
f 102 93 18
f 105 95 94
f 106 102 103
f 107 108 109
f 110 70 87
f 65 104 5
f 110 111 70
f 112 99 113
f 114 115 101
f 112 98 99
f 114 101 100
f 116 107 109
f 117 106 103
f 118 103 95
f 118 95 105
f 119 117 103
f 120 121 115
f 122 103 118
f 120 115 114
f 122 119 103
f 123 111 110
f 124 119 122
f 125 116 109
f 126 113 127
f 126 112 113
f 125 109 128
f 125 128 129
f 130 97 8
f 131 111 123
f 132 125 129
f 132 129 133
f 132 133 134
f 135 136 137
f 135 137 121
f 135 121 120
f 138 139 83
f 138 83 82
f 140 111 131
f 7 86 141
f 7 141 142
f 140 143 111
f 7 142 144
f 7 144 145
f 7 145 146
f 7 146 147
f 7 147 148
f 7 148 149
f 7 149 150
f 151 132 134
f 7 150 152
f 151 134 153
f 7 152 126
f 151 153 154
f 7 89 86
f 7 155 89
f 7 126 127
f 156 130 8
f 157 27 26
f 8 7 158
f 158 7 127
f 7 6 159
f 7 159 160
f 7 160 161
f 7 161 162
f 7 162 155
f 163 143 140
f 6 5 164
f 164 5 39
f 165 143 163
f 6 164 166
f 6 166 167
f 6 167 168
f 6 168 169
f 6 169 170
f 6 170 171
f 6 171 172
f 6 172 173
f 6 173 174
f 6 174 175
f 6 175 176
f 6 176 177
f 178 151 154
f 178 179 151
f 180 165 181
f 180 143 165
f 182 183 136
f 182 136 135
f 184 185 186
f 187 188 189
f 187 189 139
f 187 139 138
f 190 184 186
f 191 183 182
f 191 192 183
f 193 156 8
f 194 184 190
f 195 194 190
f 196 179 178
f 197 194 195
f 198 199 188
f 198 188 187
f 200 194 197
f 201 192 191
f 202 193 8
f 201 203 192
f 204 200 197
f 205 179 196
f 161 199 198
f 161 160 199
f 206 207 208
f 206 208 209
f 210 208 207
f 211 202 8
f 210 212 208
f 213 179 205
f 214 206 209
f 214 209 215
f 216 179 213
f 217 200 204
f 218 212 210
f 219 211 8
f 218 220 212
f 67 214 215
f 221 179 216
f 67 215 65
f 222 203 201
f 222 223 203
f 224 220 218
f 224 225 220
f 226 219 8
f 227 217 204
f 228 179 221
f 228 229 179
f 230 181 231
f 230 231 232
f 230 232 233
f 230 233 234
f 230 180 181
f 235 226 8
f 236 229 228
f 237 180 230
f 237 238 180
f 239 240 223
f 241 230 234
f 239 223 222
f 241 234 242
f 243 244 245
f 246 235 8
f 243 245 225
f 243 225 224
f 247 248 249
f 250 244 243
f 251 249 248
f 251 248 238
f 252 248 247
f 250 253 244
f 254 177 240
f 252 255 248
f 254 240 239
f 256 229 236
f 257 251 238
f 257 238 237
f 258 255 252
f 259 253 250
f 259 260 261
f 262 257 237
f 259 261 253
f 263 6 177
f 263 177 254
f 264 255 258
f 265 241 242
f 266 262 237
f 267 268 269
f 267 269 270
f 271 266 237
f 272 229 256
f 272 242 229
f 273 269 268
f 272 265 242
f 273 204 269
f 274 255 264
f 273 227 204
f 275 267 270
f 274 276 255
f 158 246 8
f 277 227 273
f 277 278 279
f 277 279 227
f 280 275 270
f 281 271 237
f 280 270 282
f 283 278 277
f 283 284 285
f 283 285 278
f 286 265 272
f 286 287 265
f 288 281 237
f 289 280 282
f 290 287 286
f 291 284 283
f 292 289 282
f 293 288 237
f 294 6 263
f 293 237 295
f 296 292 282
f 296 282 38
f 297 284 291
f 298 297 291
f 299 296 38
f 30 293 295
f 300 276 274
f 301 297 298
f 37 299 38
f 302 30 295
f 303 298 304
f 303 301 298
f 41 260 259
f 41 40 260
f 22 276 300
f 305 303 304
f 22 21 276
f 306 305 304
f 159 6 294
f 307 304 308
f 307 308 309
f 307 306 304
f 31 30 302
f 310 144 311
f 145 144 310
f 312 145 310
f 146 145 312
f 313 146 312
f 147 146 313
f 148 313 314
f 148 147 313
f 149 314 315
f 149 148 314
f 150 315 316
f 150 149 315
f 152 316 317
f 152 150 316
f 126 317 318
f 126 152 317
f 300 319 320
f 300 274 319
f 321 300 320
f 22 300 321
f 20 321 322
f 20 22 321
f 42 322 323
f 42 20 322
f 66 323 324
f 66 42 323
f 86 324 325
f 86 66 324
f 141 325 326
f 141 86 325
f 142 326 327
f 142 141 326
f 144 327 311
f 144 142 327
f 262 328 329
f 257 329 330
f 257 262 329
f 251 257 330
f 249 330 331
f 249 331 332
f 249 251 330
f 247 332 333
f 247 249 332
f 252 247 333
f 258 333 334
f 258 252 333
f 264 334 335
f 264 258 334
f 274 335 319
f 274 264 335
f 33 336 337
f 33 337 338
f 33 95 336
f 30 338 339
f 30 33 338
f 293 30 339
f 288 339 340
f 288 340 341
f 288 293 339
f 281 288 341
f 271 341 342
f 271 342 343
f 271 281 341
f 266 343 328
f 266 271 343
f 262 266 328
f 344 61 345
f 16 344 346
f 16 61 344
f 17 346 347
f 17 16 346
f 18 347 348
f 18 17 347
f 103 348 336
f 103 18 348
f 95 103 336
f 93 349 350
f 93 102 349
f 76 350 351
f 76 93 350
f 60 351 352
f 60 76 351
f 58 352 353
f 58 353 354
f 58 60 352
f 44 354 355
f 44 58 354
f 45 44 355
f 46 355 356
f 46 45 355
f 61 356 345
f 61 46 356
f 357 94 358
f 105 94 357
f 359 105 357
f 118 105 359
f 360 118 359
f 122 118 360
f 361 122 360
f 124 122 361
f 362 124 361
f 119 124 362
f 117 362 363
f 117 119 362
f 106 363 364
f 106 117 363
f 102 364 349
f 102 106 364
f 365 237 366
f 295 237 365
f 367 295 365
f 302 295 367
f 31 367 368
f 31 302 367
f 29 368 369
f 29 31 368
f 370 29 369
f 50 29 370
f 371 50 370
f 71 50 371
f 372 71 371
f 90 71 372
f 358 90 372
f 94 90 358
f 237 230 373
f 366 237 373
f 256 374 375
f 256 236 374
f 376 256 375
f 272 256 376
f 377 272 376
f 286 272 377
f 378 286 377
f 290 286 378
f 379 290 378
f 287 290 379
f 380 287 379
f 265 287 380
f 381 265 380
f 241 265 381
f 230 381 373
f 230 241 381
f 382 154 383
f 178 154 382
f 384 178 382
f 196 178 384
f 205 384 385
f 205 196 384
f 213 385 386
f 213 205 385
f 216 386 387
f 216 213 386
f 221 387 388
f 221 216 387
f 228 388 389
f 228 221 388
f 236 389 374
f 236 228 389
f 107 390 391
f 107 116 390
f 108 391 392
f 108 392 393
f 108 107 391
f 109 393 394
f 109 108 393
f 128 394 395
f 128 109 394
f 129 128 395
f 396 129 395
f 133 129 396
f 134 396 397
f 134 133 396
f 153 397 398
f 153 134 397
f 383 153 398
f 154 153 383
f 151 399 400
f 151 400 401
f 151 179 399
f 132 401 402
f 132 151 401
f 125 402 390
f 125 132 402
f 116 125 390
f 232 403 404
f 232 404 405
f 232 231 403
f 233 405 406
f 233 232 405
f 234 406 407
f 234 233 406
f 242 234 407
f 408 242 407
f 229 242 408
f 399 229 408
f 179 229 399
f 110 409 410
f 110 410 411
f 110 87 409
f 123 411 412
f 123 110 411
f 131 412 413
f 131 123 412
f 140 413 414
f 140 131 413
f 163 140 414
f 165 414 415
f 165 163 414
f 181 415 416
f 181 165 415
f 231 416 403
f 231 181 416
f 417 130 418
f 97 130 417
f 419 97 417
f 72 97 419
f 420 72 419
f 56 72 420
f 421 56 420
f 53 56 421
f 422 53 421
f 59 53 422
f 423 59 422
f 68 423 424
f 68 59 423
f 77 424 409
f 77 68 424
f 87 77 409
f 425 158 426
f 246 158 425
f 235 425 427
f 235 246 425
f 226 427 428
f 226 235 427
f 429 226 428
f 219 226 429
f 211 429 430
f 211 219 429
f 202 430 431
f 202 211 430
f 432 202 431
f 193 202 432
f 156 432 433
f 156 193 432
f 130 433 418
f 130 156 433
f 434 157 435
f 27 157 434
f 52 434 436
f 52 27 434
f 80 436 437
f 80 52 436
f 99 437 438
f 99 80 437
f 113 438 439
f 113 99 438
f 127 439 440
f 127 113 439
f 426 127 440
f 158 127 426
f 112 318 441
f 112 126 318
f 98 441 442
f 98 112 441
f 443 98 442
f 79 98 443
f 444 79 443
f 51 79 444
f 445 51 444
f 25 51 445
f 446 25 445
f 26 25 446
f 435 26 446
f 157 26 435
f 304 447 448
f 308 448 449
f 308 304 448
f 309 449 450
f 309 308 449
f 307 450 451
f 307 309 450
f 306 451 452
f 306 307 451
f 305 452 453
f 305 306 452
f 303 453 454
f 303 305 453
f 301 454 455
f 301 303 454
f 297 301 455
f 298 456 457
f 298 291 456
f 304 457 447
f 304 298 457
f 280 458 459
f 280 289 458
f 275 459 460
f 275 460 461
f 275 280 459
f 267 461 462
f 267 275 461
f 268 462 463
f 268 267 462
f 273 268 463
f 277 463 464
f 277 464 465
f 277 273 463
f 283 465 456
f 283 277 465
f 291 283 456
f 49 466 467
f 49 467 468
f 49 48 466
f 35 468 469
f 35 49 468
f 36 469 470
f 36 35 469
f 37 36 470
f 299 470 471
f 299 37 470
f 296 471 472
f 296 299 471
f 292 472 473
f 292 296 472
f 289 473 458
f 289 292 473
f 160 474 475
f 160 159 474
f 476 160 475
f 199 160 476
f 477 199 476
f 188 199 477
f 478 188 477
f 189 188 478
f 479 189 478
f 139 189 479
f 83 479 480
f 83 139 479
f 84 480 481
f 84 83 480
f 48 481 466
f 48 84 481
f 482 120 483
f 135 120 482
f 484 135 482
f 182 135 484
f 485 182 484
f 191 182 485
f 201 485 486
f 201 191 485
f 487 201 486
f 222 201 487
f 488 222 487
f 239 222 488
f 489 239 488
f 254 239 489
f 490 254 489
f 263 254 490
f 294 490 491
f 294 263 490
f 159 491 474
f 159 294 491
f 96 492 493
f 96 104 492
f 88 493 494
f 88 96 493
f 495 88 494
f 78 88 495
f 73 495 496
f 73 78 495
f 81 496 497
f 81 73 496
f 91 497 498
f 91 81 497
f 100 498 499
f 100 91 498
f 114 499 500
f 114 100 499
f 120 500 483
f 120 114 500
f 225 501 502
f 225 245 501
f 220 502 503
f 220 225 502
f 212 503 504
f 212 220 503
f 208 504 505
f 208 212 504
f 209 505 506
f 209 208 505
f 215 506 507
f 215 209 506
f 65 507 508
f 65 215 507
f 104 508 492
f 104 65 508
f 270 509 510
f 270 269 509
f 511 270 510
f 282 270 511
f 512 282 511
f 38 282 512
f 513 38 512
f 40 38 513
f 260 513 514
f 260 40 513
f 261 514 515
f 261 260 514
f 253 515 516
f 253 261 515
f 517 253 516
f 244 253 517
f 501 244 517
f 245 244 501
f 186 518 519
f 186 185 518
f 190 519 520
f 190 186 519
f 521 190 520
f 195 190 521
f 522 195 521
f 197 195 522
f 523 197 522
f 204 197 523
f 509 204 523
f 269 204 509
f 284 455 524
f 284 297 455
f 285 524 525
f 285 284 524
f 526 285 525
f 278 285 526
f 527 278 526
f 279 278 527
f 528 279 527
f 227 279 528
f 529 227 528
f 217 227 529
f 530 217 529
f 200 217 530
f 531 200 530
f 194 200 531
f 184 531 532
f 184 194 531
f 185 532 518
f 185 184 532
f 533 164 534
f 166 164 533
f 167 533 535
f 167 166 533
f 536 167 535
f 168 167 536
f 537 168 536
f 169 168 537
f 170 537 538
f 170 169 537
f 171 538 539
f 171 170 538
f 172 539 540
f 172 171 539
f 173 540 541
f 173 172 540
f 542 173 541
f 174 173 542
f 543 174 542
f 175 174 543
f 14 544 545
f 14 19 544
f 12 545 546
f 12 14 545
f 9 546 547
f 9 12 546
f 10 547 548
f 10 9 547
f 11 548 549
f 11 10 548
f 550 11 549
f 13 11 550
f 551 13 550
f 15 13 551
f 552 15 551
f 28 15 552
f 553 28 552
f 39 28 553
f 534 39 553
f 164 39 534
f 115 554 555
f 115 121 554
f 101 555 556
f 101 115 555
f 92 556 557
f 92 101 556
f 85 557 558
f 85 92 557
f 74 558 559
f 74 85 558
f 75 559 560
f 75 74 559
f 32 560 561
f 32 75 560
f 24 561 562
f 24 32 561
f 19 562 544
f 19 24 562
f 563 175 543
f 176 175 563
f 564 176 563
f 177 176 564
f 565 177 564
f 240 177 565
f 566 240 565
f 223 240 566
f 567 223 566
f 203 223 567
f 192 567 568
f 192 203 567
f 183 568 569
f 183 192 568
f 570 183 569
f 136 183 570
f 571 136 570
f 137 136 571
f 554 137 571
f 121 137 554
f 572 259 573
f 41 259 572
f 574 41 572
f 34 41 574
f 575 34 574
f 47 34 575
f 576 47 575
f 82 47 576
f 577 82 576
f 138 82 577
f 578 138 577
f 187 138 578
f 579 187 578
f 198 187 579
f 580 198 579
f 161 198 580
f 581 161 580
f 162 161 581
f 582 162 581
f 155 162 582
f 67 583 584
f 67 64 583
f 585 67 584
f 214 67 585
f 586 214 585
f 206 214 586
f 587 206 586
f 207 206 587
f 588 207 587
f 210 207 588
f 589 210 588
f 218 210 589
f 590 218 589
f 224 218 590
f 591 224 590
f 243 224 591
f 592 243 591
f 250 243 592
f 573 250 592
f 259 250 573
f 143 593 594
f 143 180 593
f 111 594 595
f 111 143 594
f 596 111 595
f 70 111 596
f 62 596 597
f 62 70 596
f 54 597 598
f 54 62 597
f 55 598 599
f 55 54 598
f 57 599 600
f 57 55 599
f 63 600 601
f 63 57 600
f 64 601 583
f 64 63 601
f 602 155 582
f 89 155 602
f 603 89 602
f 69 89 603
f 604 69 603
f 43 69 604
f 605 43 604
f 23 43 605
f 606 23 605
f 21 23 606
f 607 21 606
f 276 21 607
f 608 276 607
f 255 276 608
f 609 255 608
f 248 255 609
f 610 248 609
f 238 248 610
f 593 238 610
f 180 238 593
f 353 324 323
f 352 324 353
f 354 353 323
f 351 325 324
f 351 324 352
f 355 323 322
f 355 354 323
f 356 355 322
f 345 322 321
f 345 356 322
f 350 326 325
f 350 325 351
f 344 321 320
f 344 345 321
f 349 327 326
f 349 311 327
f 349 326 350
f 346 320 319
f 346 335 334
f 346 319 335
f 346 344 320
f 331 333 332
f 364 311 349
f 347 346 334
f 336 334 333
f 336 348 347
f 336 333 331
f 336 347 334
f 363 310 311
f 363 311 364
f 337 329 328
f 337 330 329
f 337 331 330
f 337 328 343
f 337 336 331
f 338 337 343
f 338 342 341
f 338 343 342
f 339 338 341
f 339 341 340
f 362 310 363
f 312 310 362
f 361 312 362
f 313 312 361
f 313 361 360
f 314 313 360
f 314 360 359
f 315 314 359
f 315 359 357
f 316 315 357
f 365 366 373
f 317 316 357
f 317 357 358
f 318 317 358
f 381 367 365
f 381 365 373
f 441 318 358
f 441 358 372
f 416 415 414
f 435 368 367
f 403 416 414
f 380 367 381
f 380 435 367
f 446 368 435
f 446 369 368
f 442 441 372
f 442 372 371
f 445 369 446
f 443 442 371
f 443 371 370
f 444 369 445
f 444 443 370
f 444 370 369
f 407 404 403
f 407 405 404
f 407 406 405
f 407 414 413
f 407 403 414
f 379 435 380
f 408 413 412
f 408 407 413
f 378 434 379
f 399 408 412
f 399 412 411
f 400 399 411
f 400 410 409
f 400 411 410
f 401 409 424
f 401 400 409
f 377 434 378
f 402 401 424
f 402 423 422
f 402 424 423
f 390 422 421
f 390 402 422
f 436 434 377
f 391 390 421
f 392 391 421
f 376 436 377
f 420 393 392
f 420 394 393
f 420 392 421
f 437 436 376
f 395 394 420
f 419 396 395
f 419 395 420
f 438 437 376
f 438 376 375
f 397 396 419
f 417 398 397
f 417 397 419
f 383 398 417
f 439 438 375
f 439 375 374
f 440 439 374
f 418 382 383
f 418 383 417
f 426 440 374
f 433 384 382
f 433 382 418
f 425 374 389
f 425 426 374
f 432 384 433
f 427 389 388
f 427 425 389
f 431 385 384
f 431 384 432
f 428 427 388
f 430 386 385
f 430 385 431
f 429 387 386
f 429 388 387
f 429 386 430
f 429 428 388
f 434 435 379
f 611 496 495
f 612 611 495
f 612 495 494
f 613 612 494
f 613 494 493
f 614 496 611
f 614 497 496
f 615 613 493
f 615 493 492
f 616 497 614
f 616 498 497
f 617 615 492
f 618 498 616
f 618 499 498
f 619 492 508
f 619 617 492
f 620 619 508
f 507 620 508
f 621 499 618
f 621 500 499
f 622 620 507
f 506 622 507
f 623 622 506
f 624 500 621
f 624 483 500
f 625 623 506
f 505 625 506
f 518 482 483
f 518 483 624
f 626 625 505
f 627 518 624
f 504 628 626
f 504 626 505
f 519 518 627
f 629 519 627
f 532 484 482
f 532 482 518
f 503 630 628
f 503 628 504
f 520 519 629
f 631 520 629
f 531 484 532
f 531 485 484
f 521 520 631
f 521 631 632
f 502 633 630
f 502 630 503
f 522 521 632
f 522 632 634
f 530 485 531
f 486 485 530
f 501 633 502
f 523 634 635
f 523 522 634
f 509 635 636
f 509 523 635
f 517 633 501
f 517 637 633
f 529 486 530
f 487 486 529
f 516 638 637
f 516 637 517
f 510 636 639
f 510 639 640
f 510 509 636
f 528 487 529
f 515 641 638
f 515 638 516
f 511 640 642
f 511 510 640
f 514 643 641
f 514 641 515
f 512 642 643
f 512 511 642
f 513 512 643
f 513 643 514
f 488 528 527
f 488 487 528
f 526 488 527
f 489 488 526
f 525 489 526
f 490 489 525
f 524 490 525
f 463 462 461
f 460 463 461
f 464 463 460
f 459 464 460
f 465 464 459
f 458 465 459
f 456 465 458
f 473 456 458
f 491 490 524
f 455 491 524
f 469 471 470
f 474 491 455
f 474 455 454
f 468 471 469
f 468 472 471
f 467 456 473
f 467 472 468
f 467 473 472
f 475 474 454
f 475 453 452
f 475 454 453
f 466 456 467
f 466 457 456
f 476 451 450
f 476 452 451
f 476 475 452
f 481 457 466
f 480 457 481
f 477 449 448
f 477 450 449
f 477 476 450
f 479 447 457
f 479 457 480
f 478 447 479
f 478 448 447
f 478 477 448
f 533 534 644
f 543 542 645
f 543 645 646
f 543 646 647
f 558 648 559
f 558 649 648
f 569 650 651
f 569 651 570
f 652 535 533
f 652 533 644
f 653 547 546
f 563 647 654
f 557 649 558
f 563 543 647
f 557 655 649
f 568 656 650
f 568 650 569
f 657 546 545
f 564 563 654
f 556 655 557
f 657 653 546
f 564 654 658
f 659 655 556
f 660 548 547
f 660 547 653
f 567 656 568
f 661 536 535
f 662 657 545
f 661 535 652
f 565 564 658
f 565 658 663
f 565 663 664
f 566 565 664
f 665 549 548
f 566 656 567
f 666 537 536
f 566 664 656
f 666 536 661
f 665 548 660
f 667 662 545
f 667 545 544
f 555 659 556
f 668 659 555
f 538 537 666
f 669 667 544
f 670 538 666
f 671 549 665
f 671 550 549
f 672 669 544
f 554 668 555
f 672 544 562
f 539 538 670
f 673 539 670
f 674 672 562
f 561 674 562
f 571 675 668
f 571 668 554
f 676 550 671
f 676 551 550
f 676 552 551
f 540 539 673
f 677 540 673
f 678 674 561
f 570 651 675
f 570 675 571
f 560 678 561
f 679 678 560
f 680 552 676
f 680 553 552
f 541 677 681
f 541 540 677
f 542 681 645
f 542 541 681
f 559 679 560
f 559 648 679
f 682 553 680
f 682 534 553
f 644 534 682
f 572 573 683
f 582 581 684
f 582 684 685
f 582 685 686
f 597 687 598
f 597 688 687
f 608 689 690
f 608 690 609
f 691 574 572
f 691 572 683
f 692 586 585
f 602 686 693
f 596 688 597
f 602 582 686
f 596 694 688
f 607 695 689
f 607 689 608
f 696 585 584
f 603 602 693
f 595 694 596
f 696 692 585
f 603 693 697
f 698 694 595
f 699 587 586
f 699 586 692
f 606 695 607
f 700 575 574
f 701 696 584
f 700 574 691
f 604 603 697
f 604 697 702
f 604 702 703
f 605 604 703
f 704 588 587
f 605 695 606
f 705 576 575
f 605 703 695
f 705 575 700
f 704 587 699
f 706 701 584
f 706 584 583
f 594 698 595
f 707 698 594
f 577 576 705
f 708 706 583
f 709 577 705
f 710 588 704
f 710 589 588
f 711 708 583
f 593 707 594
f 711 583 601
f 578 577 709
f 712 578 709
f 713 711 601
f 600 713 601
f 610 714 707
f 610 707 593
f 715 589 710
f 715 590 589
f 715 591 590
f 579 578 712
f 716 579 712
f 717 713 600
f 609 690 714
f 609 714 610
f 599 717 600
f 718 717 599
f 719 591 715
f 719 592 591
f 580 716 720
f 580 579 716
f 581 720 684
f 581 580 720
f 598 718 599
f 598 687 718
f 721 592 719
f 721 573 592
f 683 573 721
f 722 635 634
f 722 723 635
f 724 634 632
f 724 722 634
f 725 632 631
f 725 724 632
f 726 631 629
f 726 725 631
f 727 629 627
f 727 726 629
f 624 727 627
f 728 727 624
f 729 624 621
f 729 728 624
f 730 621 618
f 730 729 621
f 731 618 616
f 731 730 618
f 732 616 614
f 732 731 616
f 733 614 611
f 733 732 614
f 612 733 611
f 734 733 612
f 613 734 612
f 735 734 613
f 615 735 613
f 736 735 615
f 737 615 617
f 737 736 615
f 619 737 617
f 738 737 619
f 620 738 619
f 739 738 620
f 622 739 620
f 740 739 622
f 623 740 622
f 741 740 623
f 625 741 623
f 742 741 625
f 626 742 625
f 743 742 626
f 628 743 626
f 744 743 628
f 630 744 628
f 745 744 630
f 746 630 633
f 746 745 630
f 637 746 633
f 747 746 637
f 748 637 638
f 748 747 637
f 749 638 641
f 749 748 638
f 643 749 641
f 750 749 643
f 642 750 643
f 751 750 642
f 640 751 642
f 752 751 640
f 639 752 640
f 753 752 639
f 636 753 639
f 754 753 636
f 635 754 636
f 723 754 635
f 755 668 675
f 755 756 668
f 757 675 651
f 757 755 675
f 758 651 650
f 758 757 651
f 759 650 656
f 759 758 650
f 760 656 664
f 760 759 656
f 761 664 663
f 761 760 664
f 762 658 654
f 762 663 658
f 762 761 663
f 763 762 654
f 647 763 654
f 764 763 647
f 646 764 647
f 765 764 646
f 765 646 645
f 766 645 681
f 766 765 645
f 767 766 681
f 677 767 681
f 768 767 677
f 673 768 677
f 769 768 673
f 670 769 673
f 770 769 670
f 666 770 670
f 771 770 666
f 661 771 666
f 772 771 661
f 773 661 652
f 773 772 661
f 644 773 652
f 774 773 644
f 775 644 682
f 775 774 644
f 776 682 680
f 776 775 682
f 777 680 676
f 777 776 680
f 778 676 671
f 778 777 676
f 665 778 671
f 779 778 665
f 660 779 665
f 780 779 660
f 653 780 660
f 781 653 657
f 781 780 653
f 782 657 662
f 782 781 657
f 783 782 662
f 784 662 667
f 784 783 662
f 785 667 669
f 785 784 667
f 786 669 672
f 786 785 669
f 787 672 674
f 787 786 672
f 788 674 678
f 788 787 674
f 789 678 679
f 789 788 678
f 790 679 648
f 790 789 679
f 791 648 649
f 791 790 648
f 792 649 655
f 792 791 649
f 793 655 659
f 793 792 655
f 756 659 668
f 756 793 659
f 714 794 707
f 795 794 714
f 690 795 714
f 796 795 690
f 689 796 690
f 797 796 689
f 798 689 695
f 798 797 689
f 799 695 703
f 799 798 695
f 702 799 703
f 800 702 697
f 800 799 702
f 801 800 697
f 802 697 693
f 802 801 697
f 686 802 693
f 803 802 686
f 685 803 686
f 804 803 685
f 805 685 684
f 805 804 685
f 806 684 720
f 806 805 684
f 807 720 716
f 807 806 720
f 808 716 712
f 808 807 716
f 809 712 709
f 809 808 712
f 810 709 705
f 810 809 709
f 811 705 700
f 811 810 705
f 691 811 700
f 812 811 691
f 813 691 683
f 813 812 691
f 721 813 683
f 814 813 721
f 719 814 721
f 815 814 719
f 715 815 719
f 816 815 715
f 710 816 715
f 817 816 710
f 704 817 710
f 818 817 704
f 699 818 704
f 819 818 699
f 692 819 699
f 820 692 696
f 820 819 692
f 821 820 696
f 822 701 706
f 822 696 701
f 822 821 696
f 823 706 708
f 823 822 706
f 824 823 708
f 825 708 711
f 825 824 708
f 826 711 713
f 826 825 711
f 827 713 717
f 827 826 713
f 828 717 718
f 828 827 717
f 829 718 687
f 829 828 718
f 688 829 687
f 830 829 688
f 694 830 688
f 831 830 694
f 698 831 694
f 832 831 698
f 794 698 707
f 794 832 698
f 751 723 722
f 751 752 723
f 751 722 750
f 737 735 736
f 737 734 735
f 738 734 737
f 741 739 740
f 742 738 739
f 742 739 741
f 743 733 734
f 743 738 742
f 743 734 738
f 727 728 729
f 744 732 733
f 744 731 732
f 744 733 743
f 745 730 731
f 745 731 744
f 746 729 730
f 746 730 745
f 747 727 729
f 747 729 746
f 748 726 727
f 748 727 747
f 749 725 726
f 749 724 725
f 749 726 748
f 750 722 724
f 750 724 749
f 752 754 723
f 752 753 754
f 764 765 768
f 760 770 759
f 760 769 770
f 763 764 768
f 762 768 769
f 762 763 768
f 761 762 769
f 761 769 760
f 785 783 784
f 786 782 783
f 786 783 785
f 787 782 786
f 788 781 782
f 788 782 787
f 789 780 781
f 789 781 788
f 790 779 780
f 790 780 789
f 791 778 779
f 791 779 790
f 792 777 778
f 792 776 777
f 792 778 791
f 793 775 776
f 793 776 792
f 756 774 775
f 756 775 793
f 755 773 774
f 755 774 756
f 757 772 773
f 757 773 755
f 758 771 772
f 758 772 757
f 765 767 768
f 765 766 767
f 759 771 758
f 759 770 771
f 803 804 807
f 799 809 798
f 799 808 809
f 802 803 807
f 801 807 808
f 801 802 807
f 800 801 808
f 800 808 799
f 824 822 823
f 825 821 822
f 825 822 824
f 826 821 825
f 827 820 821
f 827 821 826
f 828 819 820
f 828 820 827
f 829 818 819
f 829 819 828
f 830 817 818
f 830 818 829
f 831 816 817
f 831 815 816
f 831 817 830
f 832 814 815
f 832 815 831
f 794 813 814
f 794 814 832
f 795 812 813
f 795 813 794
f 796 811 812
f 796 812 795
f 797 810 811
f 797 811 796
f 804 806 807
f 804 805 806
f 798 810 797
f 798 809 810
