# Created by FreeCAD <http://www.freecadweb.org>
v -13.978887 529.599976 83.988647
v -13.978743 529.599976 85.588646
v -14.778887 529.599976 83.988716
v -14.778743 529.599976 85.588715
v -13.978743 530.049988 85.588646
v -14.778743 530.049988 85.588715
v -14.778760 530.000000 85.388718
v -14.778760 530.049988 85.388718
v -14.778869 530.000000 84.188713
v -14.778869 530.049988 84.188713
v -14.778887 530.049988 83.988716
v -13.978887 530.049988 83.988647
v -13.978761 530.000000 85.388641
v -13.978761 530.049988 85.388641
v -13.978868 530.000000 84.188644
v -13.978868 530.049988 84.188644
f 1 2 3
f 2 4 3
f 2 5 6
f 4 2 6
f 4 6 7
f 7 6 8
f 3 4 9
f 4 7 9
f 9 10 11
f 3 9 11
f 3 11 12
f 1 3 12
f 5 2 13
f 5 13 14
f 13 2 1
f 13 1 15
f 16 15 12
f 15 1 12
f 8 6 5
f 8 5 14
f 9 7 13
f 9 13 15
f 9 15 10
f 15 16 10
f 11 10 16
f 11 16 12
f 7 8 13
f 13 8 14
