# Created by FreeCAD <http://www.freecadweb.org>
v -28.997372 516.125549 472.399994
v -28.978279 516.360352 472.399994
v -28.978279 516.360352 472.100006
v -28.997984 515.890015 472.399994
v -28.997372 516.125549 472.100006
v -28.997984 515.890015 472.100006
v -28.980112 515.655151 472.100006
v -27.248894 518.727661 472.399994
v -27.031033 518.817261 472.399994
v -27.248894 518.727661 472.100006
v -27.459057 518.621277 472.399994
v -27.459057 518.621277 472.100006
v -28.980112 515.655151 472.399994
v -27.660223 518.498718 472.399994
v -27.660223 518.498718 472.100006
v -28.943867 515.422363 472.399994
v -28.943867 515.422363 472.100006
v -24.736944 518.721130 472.399994
v -24.527338 518.613647 472.100006
v -24.736944 518.721130 472.100006
v -27.851152 518.360779 472.399994
v -27.851152 518.360779 472.100006
v -28.030670 518.208252 472.100006
v -24.527338 518.613647 472.399994
v -28.889473 515.193176 472.399994
v -28.889473 515.193176 472.100006
v -28.817263 514.968994 472.100006
v -24.954338 518.811890 472.399994
v -24.954338 518.811890 472.100006
v -28.030670 518.208252 472.399994
v -28.197668 518.042114 472.100006
v -28.817263 514.968994 472.399994
v -28.727684 514.751099 472.100006
v -25.178177 518.885254 472.399994
v -25.178177 518.885254 472.100006
v -28.197668 518.042114 472.399994
v -28.351116 517.863403 472.100006
v -28.727684 514.751099 472.399994
v -25.407084 518.940796 472.399994
v -25.407084 518.940796 472.100006
v -25.639647 518.978271 472.100006
v -28.621288 514.540955 472.399994
v -28.351116 517.863403 472.399994
v -28.621288 514.540955 472.100006
v -28.490068 517.673218 472.399994
v -28.490068 517.673218 472.100006
v -28.613670 517.472656 472.100006
v -28.498732 514.339783 472.399994
v -25.639647 518.978271 472.399994
v -28.498732 514.339783 472.100006
v -25.874430 518.997375 472.399994
v -25.874430 518.997375 472.100006
v -26.109989 518.997986 472.100006
v -28.360769 514.148865 472.399994
v -28.613670 517.472656 472.399994
v -28.360769 514.148865 472.100006
v -28.721157 517.263062 472.399994
v -28.721157 517.263062 472.100006
v -28.208252 513.969360 472.399994
v -28.208252 513.969360 472.100006
v -28.042120 513.802307 472.100006
v -26.109989 518.997986 472.399994
v -26.344868 518.980103 472.100006
v -28.042120 513.802307 472.399994
v -27.863398 513.648865 472.100006
v -28.811867 517.045654 472.399994
v -28.811867 517.045654 472.100006
v -28.885241 516.821838 472.100006
v -27.863398 513.648865 472.399994
v -27.673187 513.509949 472.399994
v -27.673187 513.509949 472.100006
v -26.344868 518.980103 472.399994
v -27.472662 513.386353 472.399994
v -27.472662 513.386353 472.100006
v -26.577621 518.943848 472.399994
v -26.577621 518.943848 472.100006
v -28.885241 516.821838 472.399994
v -28.940825 516.592896 472.399994
v -28.940825 516.592896 472.100006
v -26.806814 518.889465 472.399994
v -26.806814 518.889465 472.100006
v -27.031033 518.817261 472.100006
v -27.696508 517.150696 470.988434
v -27.786007 517.006348 471.000000
v -30.356115 518.454407 471.000000
v -27.597683 517.284363 470.954346
v -30.265730 518.608215 470.987091
v -27.443132 517.455994 470.867554
v -30.171753 518.756104 470.948944
v -27.285702 517.596741 470.742615
v -30.043125 518.941589 470.858276
v -27.133852 517.707886 470.583740
v -29.919699 519.104187 470.726563
v -26.997673 517.790833 470.395508
v -29.808153 519.240051 470.558350
v -26.889027 517.847229 470.182068
v -29.715551 519.345886 470.359985
v -26.820454 517.878784 469.947937
v -29.648012 519.419373 470.138031
v -26.803074 517.886169 469.702057
v -29.610790 519.458618 469.901428
v -26.841681 517.869385 469.459076
v -29.606661 519.462952 469.658173
v -26.927124 517.828369 469.232422
v -29.636095 519.432068 469.418823
v -27.047455 517.762146 469.028900
v -29.696257 519.367126 469.193237
v -27.190435 517.668945 468.852112
v -29.783201 519.269165 468.988403
v -27.345655 517.546387 468.705566
v -29.903225 519.124817 468.794952
v -27.503227 517.393860 468.594360
v -30.053543 518.927246 468.632721
v -30.207073 518.701843 468.533783
v -27.653597 517.211670 468.524017
v -27.786007 517.006348 468.500000
v -30.356115 518.454407 468.500000
v -24.518562 517.416992 467.399994
v -24.386806 517.264954 472.399994
v -24.518562 517.416992 472.399994
v -24.664585 517.555359 467.399994
v -24.664585 517.555359 472.399994
v -24.735046 514.386780 467.399994
v -24.735046 514.386780 472.399994
v -24.583015 514.518555 472.399994
v -24.444633 514.664612 467.399994
v -24.583015 514.518555 467.399994
v -24.823467 517.678772 467.399994
v -24.823467 517.678772 472.399994
v -24.993681 517.786011 467.399994
v -24.993681 517.786011 472.399994
v -24.444633 514.664612 472.399994
v -24.321230 514.823486 472.399994
v -24.213993 514.993652 467.399994
v -24.321230 514.823486 467.399994
v -27.006319 514.213989 467.399994
v -27.006319 514.213989 472.399994
v -26.826414 514.123962 472.399994
v -24.213993 514.993652 472.399994
v -26.826414 514.123962 467.399994
v -24.123957 515.173584 467.399994
v -24.123957 515.173584 472.399994
v -26.638550 514.052002 467.399994
v -26.638550 514.052002 472.399994
v -24.051987 515.361450 467.399994
v -23.998779 515.555481 467.399994
v -24.051987 515.361450 472.399994
v -26.246243 513.964844 467.399994
v -26.444536 513.998779 467.399994
v -26.444536 513.998779 472.399994
v -23.998779 515.555481 472.399994
v -26.246243 513.964844 472.399994
v -23.950506 515.954407 467.399994
v -23.964842 515.753784 467.399994
v -23.964842 515.753784 472.399994
v -26.045576 513.950500 467.399994
v -26.045576 513.950500 472.399994
v -23.950506 515.954407 472.399994
v -25.844471 513.955933 472.399994
v -25.644863 513.981018 467.399994
v -25.844471 513.955933 467.399994
v -23.980995 516.355164 467.399994
v -23.955908 516.155518 467.399994
v -23.955908 516.155518 472.399994
v -25.644863 513.981018 472.399994
v -23.980995 516.355164 472.399994
v -24.025528 516.551331 467.399994
v -25.448677 514.025513 472.399994
v -24.089073 516.742188 467.399994
v -24.025528 516.551331 472.399994
v -25.448677 514.025513 467.399994
v -25.257799 514.089050 472.399994
v -24.089073 516.742188 472.399994
v -24.171024 516.925903 467.399994
v -25.257799 514.089050 467.399994
v -25.074070 514.171021 472.399994
v -24.171024 516.925903 472.399994
v -24.899258 514.270569 467.399994
v -25.074070 514.171021 467.399994
v -24.899258 514.270569 472.399994
v -24.386806 517.264954 467.399994
v -24.270588 517.100769 467.399994
v -24.270588 517.100769 472.399994
v -23.813059 520.496338 472.100006
v -23.545565 520.356140 472.100006
v -23.545565 520.356140 467.399994
v -23.813059 520.496338 467.399994
v -24.088531 520.620178 472.100006
v -24.088531 520.620178 467.399994
v -24.370979 520.727173 472.100006
v -24.370979 520.727173 467.399994
v -24.659372 520.816895 472.100006
v -24.659372 520.816895 467.399994
v -24.952658 520.889099 472.100006
v -24.952658 520.889099 467.399994
v -25.249763 520.943420 472.100006
v -25.249763 520.943420 467.399994
v -25.549606 520.979675 472.100006
v -25.549606 520.979675 467.399994
v -25.851093 520.997803 472.100006
v -25.851093 520.997803 467.399994
v -26.153124 520.997681 472.100006
v -26.153124 520.997681 467.399994
v -26.454596 520.979309 472.100006
v -26.454596 520.979309 467.399994
v -26.754408 520.942749 472.100006
v -26.754408 520.942749 467.399994
v -27.051468 520.888184 472.100006
v -27.051468 520.888184 467.399994
v -27.344690 520.815796 472.100006
v -27.344690 520.815796 467.399994
v -27.633007 520.725830 472.100006
v -27.633007 520.725830 467.399994
v -27.915365 520.618591 472.100006
v -27.915365 520.618591 467.399994
v -28.190735 520.494507 472.100006
v -28.190735 520.494507 467.399994
v -28.458111 520.354065 472.100006
v -28.458111 520.354065 467.399994
v -28.716516 520.197693 472.100006
v -28.716516 520.197693 467.399994
v -29.428673 519.639282 467.399994
v -29.642151 519.425598 467.399994
v -29.202684 519.839661 467.399994
v -29.842339 519.199463 467.399994
v -28.965010 520.026001 467.399994
v -28.965010 520.026001 472.100006
v -30.028505 518.961609 467.399994
v -29.202684 519.839661 472.100006
v -30.199974 518.712952 467.399994
v -30.356115 518.454407 467.399994
v -29.428673 519.639282 472.100006
v -30.429199 518.319824 468.509460
v -30.496363 518.186951 467.399994
v -30.496878 518.185730 468.537415
v -30.620205 517.911438 467.399994
v -29.642151 519.425598 472.100006
v -30.592051 517.978149 468.618317
v -29.842339 519.199463 472.100006
v -30.670750 517.784302 468.741486
v -30.727186 517.629028 467.399994
v -30.028505 518.961609 472.100006
v -30.732647 517.613098 468.901459
v -30.816919 517.340637 467.399994
v -30.199974 518.712952 472.100006
v -30.778509 517.471680 469.093414
v -30.889076 517.047363 467.399994
v -30.809528 517.366882 469.310181
v -30.943394 516.750244 467.399994
v -30.356115 518.454407 472.100006
v -30.826859 517.304382 469.544678
v -30.979673 516.450378 467.399994
v -30.831263 517.288025 469.786407
v -30.496363 518.186951 472.100006
v -30.489944 518.199890 470.966339
v -30.997782 516.148926 467.399994
v -30.620205 517.911438 472.100006
v -30.603075 517.952332 470.868164
v -30.727186 517.629028 472.100006
v -30.694599 517.720642 470.705811
v -30.761520 517.525818 470.489166
v -30.816919 517.340637 472.100006
v -30.801712 517.394104 470.257141
v -30.889076 517.047363 472.100006
v -30.823103 517.318420 470.026917
v -30.943394 516.750244 472.100006
v -30.979673 516.450378 472.100006
v -30.997782 516.148926 472.100006
v -30.997654 515.846863 472.100006
v -30.997654 515.846863 467.399994
v -30.979292 515.545410 472.100006
v -30.979292 515.545410 467.399994
v -30.942759 515.245605 472.100006
v -30.942759 515.245605 467.399994
v -30.888191 514.948547 472.100006
v -30.888191 514.948547 467.399994
v -30.815786 514.655334 472.100006
v -30.815786 514.655334 467.399994
v -30.725811 514.367004 472.100006
v -30.725811 514.367004 467.399994
v -30.618589 514.084656 472.100006
v -30.618589 514.084656 467.399994
v -30.494516 513.809265 472.100006
v -30.494516 513.809265 467.399994
v -30.354044 513.541870 472.100006
v -30.354044 513.541870 467.399994
v -30.197683 513.283508 472.100006
v -30.197683 513.283508 467.399994
v -30.026005 513.034973 472.100006
v -30.026005 513.034973 467.399994
v -29.839638 512.797302 472.100006
v -29.839638 512.797302 467.399994
v -29.639259 512.571350 472.100006
v -29.639259 512.571350 467.399994
v -29.425600 512.357849 472.100006
v -29.425600 512.357849 467.399994
v -29.199444 512.157654 472.100006
v -29.199444 512.157654 467.399994
v -28.961611 511.971497 472.100006
v -28.961611 511.971497 467.399994
v -28.712973 511.800018 472.100006
v -28.712973 511.800018 467.399994
v -28.454435 511.643890 472.100006
v -28.454435 511.643890 467.399994
v -27.176533 514.321228 472.399994
v -27.948013 516.638550 472.399994
v -27.876043 516.826416 472.399994
v -27.335415 514.444641 472.399994
v -27.481438 514.583008 472.399994
v -28.001221 516.444519 472.399994
v -27.613194 514.735046 472.399994
v -28.035158 516.246216 472.399994
v -27.729412 514.899231 472.399994
v -28.049494 516.045593 472.399994
v -27.828976 515.074097 472.399994
v -28.044092 515.844482 472.399994
v -27.910927 515.257813 472.399994
v -28.019005 515.644836 472.399994
v -27.974472 515.448669 472.399994
v -23.056133 516.577637 472.399994
v -23.110527 516.806824 472.399994
v -23.182737 517.031006 472.399994
v -23.019888 516.344849 472.399994
v -23.272316 517.248901 472.399994
v -23.002016 516.109985 472.399994
v -23.378712 517.459045 472.399994
v -23.002628 515.874451 472.399994
v -23.501268 517.660217 472.399994
v -23.059175 515.407104 472.399994
v -23.021721 515.639648 472.399994
v -23.639231 517.851135 472.399994
v -23.791748 518.030640 472.399994
v -23.114759 515.178162 472.399994
v -23.957880 518.197693 472.399994
v -23.188133 514.954346 472.399994
v -24.136602 518.351135 472.399994
v -23.278843 514.736938 472.399994
v -24.326813 518.490051 472.399994
v -23.509932 514.326782 472.399994
v -23.386330 514.527344 472.399994
v -23.648884 514.136597 472.399994
v -25.173586 517.876038 472.399994
v -23.802332 513.957886 472.399994
v -25.361450 517.947998 472.399994
v -23.969330 513.791748 472.399994
v -25.555464 518.001221 472.399994
v -24.339777 513.501282 472.399994
v -24.148848 513.639221 472.399994
v -25.753757 518.035156 472.399994
v -24.540943 513.378723 472.399994
v -25.954424 518.049500 472.399994
v -24.751106 513.272339 472.399994
v -26.155529 518.044067 472.399994
v -24.968967 513.182739 472.399994
v -26.355137 518.018982 472.399994
v -25.193186 513.110535 472.399994
v -26.551323 517.974487 472.399994
v -25.422379 513.056152 472.399994
v -26.742201 517.910950 472.399994
v -25.655132 513.019897 472.399994
v -26.925930 517.828979 472.399994
v -25.890011 513.002014 472.399994
v -27.100742 517.729431 472.399994
v -26.125570 513.002625 472.399994
v -27.264954 517.613220 472.399994
v -26.360353 513.021729 472.399994
v -26.592916 513.059204 472.399994
v -27.416985 517.481445 472.399994
v -26.821823 513.114746 472.399994
v -27.555367 517.335388 472.399994
v -27.045662 513.188110 472.399994
v -27.678770 517.176514 472.399994
v -27.263056 513.278870 472.399994
v -27.786007 517.006348 472.399994
v -28.186941 511.503632 467.399994
v -28.186941 511.503632 472.100006
v -27.911469 511.379791 467.399994
v -27.911469 511.379791 472.100006
v -27.629021 511.272827 467.399994
v -27.629021 511.272827 472.100006
v -27.340628 511.183075 467.399994
v -27.340628 511.183075 472.100006
v -27.047342 511.110931 467.399994
v -27.047342 511.110931 472.100006
v -26.750237 511.056610 467.399994
v -26.750237 511.056610 472.100006
v -26.450394 511.020325 467.399994
v -26.450394 511.020325 472.100006
v -26.148907 511.002228 467.399994
v -26.148907 511.002228 472.100006
v -25.846876 511.002350 467.399994
v -25.846876 511.002350 472.100006
v -25.545404 511.020721 467.399994
v -25.545404 511.020721 472.100006
v -25.245592 511.057251 467.399994
v -25.245592 511.057251 472.100006
v -24.948532 511.111816 467.399994
v -24.948532 511.111816 472.100006
v -24.655310 511.184204 467.399994
v -24.655310 511.184204 472.100006
v -24.366993 511.274200 467.399994
v -24.366993 511.274200 472.100006
v -24.084635 511.381409 467.399994
v -24.084635 511.381409 472.100006
v -23.809265 511.505493 467.399994
v -23.809265 511.505493 472.100006
v -23.541889 511.645966 467.399994
v -23.541889 511.645966 472.100006
v -23.283484 511.802307 467.399994
v -23.283484 511.802307 472.100006
v -23.034990 511.973999 467.399994
v -23.034990 511.973999 472.100006
v -22.797316 512.160339 467.399994
v -22.797316 512.160339 472.100006
v -22.571327 512.360718 467.399994
v -22.571327 512.360718 472.100006
v -22.357849 512.574402 467.399994
v -22.357849 512.574402 472.100006
v -22.157661 512.800537 467.399994
v -22.157661 512.800537 472.100006
v -21.971495 513.038391 467.399994
v -21.971495 513.038391 472.100006
v -21.800026 513.287048 467.399994
v -21.800026 513.287048 472.100006
v -21.643885 513.545593 467.399994
v -21.643885 513.545593 472.100006
v -21.503637 513.813049 467.399994
v -21.503637 513.813049 472.100006
v -21.379795 514.088562 467.399994
v -21.379795 514.088562 472.100006
v -21.272814 514.370972 467.399994
v -21.272814 514.370972 472.100006
v -21.183081 514.659363 467.399994
v -21.183081 514.659363 472.100006
v -21.110924 514.952637 467.399994
v -21.110924 514.952637 472.100006
v -21.056606 515.249756 467.399994
v -21.056606 515.249756 472.100006
v -21.020327 515.549622 467.399994
v -21.020327 515.549622 472.100006
v -21.002218 515.851074 467.399994
v -21.002218 515.851074 472.100006
v -21.002346 516.153137 467.399994
v -21.002346 516.153137 472.100006
v -21.020708 516.454590 467.399994
v -21.020708 516.454590 472.100006
v -21.057241 516.754395 467.399994
v -21.057241 516.754395 472.100006
v -21.111809 517.051453 467.399994
v -21.111809 517.051453 472.100006
v -21.184214 517.344666 467.399994
v -21.184214 517.344666 472.100006
v -21.274189 517.632996 467.399994
v -21.274189 517.632996 472.100006
v -21.381411 517.915344 467.399994
v -21.381411 517.915344 472.100006
v -21.505484 518.190735 467.399994
v -21.505484 518.190735 472.100006
v -21.645956 518.458130 467.399994
v -21.645956 518.458130 472.100006
v -21.802317 518.716492 467.399994
v -21.802317 518.716492 472.100006
v -21.973995 518.965027 467.399994
v -21.973995 518.965027 472.100006
v -22.160362 519.202698 467.399994
v -22.160362 519.202698 472.100006
v -22.360741 519.428650 467.399994
v -22.360741 519.428650 472.100006
v -22.574400 519.642151 467.399994
v -22.574400 519.642151 472.100006
v -22.800556 519.842346 467.399994
v -22.800556 519.842346 472.100006
v -23.038389 520.028503 467.399994
v -23.038389 520.028503 472.100006
v -23.287027 520.199951 467.399994
v -23.287027 520.199951 472.100006
v -27.264954 517.613220 467.399994
v -27.416985 517.481445 467.399994
v -27.555367 517.335388 467.399994
v -27.678770 517.176514 467.399994
v -27.786007 517.006348 467.399994
v -27.876043 516.826416 467.399994
v -27.176533 514.321228 467.399994
v -27.948013 516.638550 467.399994
v -27.335415 514.444641 467.399994
v -28.001221 516.444519 467.399994
v -27.481438 514.583008 467.399994
v -28.035158 516.246216 467.399994
v -27.613194 514.735046 467.399994
v -28.049494 516.045593 467.399994
v -27.729412 514.899231 467.399994
v -28.044092 515.844482 467.399994
v -27.828976 515.074097 467.399994
v -28.019005 515.644836 467.399994
v -27.910927 515.257813 467.399994
v -27.974472 515.448669 467.399994
v -25.173586 517.876038 467.399994
v -25.361450 517.947998 467.399994
v -25.555464 518.001221 467.399994
v -25.753757 518.035156 467.399994
v -25.954424 518.049500 467.399994
v -26.155529 518.044067 467.399994
v -26.355137 518.018982 467.399994
v -26.551323 517.974487 467.399994
v -26.742201 517.910950 467.399994
v -26.925930 517.828979 467.399994
v -27.100742 517.729431 467.399994
v -27.902039 516.764221 470.970795
v -27.982668 516.521057 470.887024
v -28.048037 516.089539 468.911804
v -28.049244 515.945190 469.077423
v -28.042891 515.829407 469.263519
v -28.029278 516.290222 470.754944
v -28.034729 515.749084 469.467407
v -28.029552 515.710938 469.682587
v -28.048306 516.083191 470.581909
v -28.048059 515.911011 470.374573
v -27.879005 516.819641 468.517487
v -28.038591 515.783997 470.135925
v -28.030815 515.720093 469.901428
v -27.949966 516.632568 468.567780
v -28.002562 516.438354 468.654053
v -28.033983 516.255798 468.769714
v -23.957880 518.197693 472.100006
v -24.136602 518.351135 472.100006
v -24.326813 518.490051 472.100006
v -25.193186 513.110535 472.100006
v -24.968967 513.182739 472.100006
v -25.422379 513.056152 472.100006
v -25.655132 513.019897 472.100006
v -24.751106 513.272339 472.100006
v -25.890011 513.002014 472.100006
v -24.540943 513.378723 472.100006
v -26.125570 513.002625 472.100006
v -24.339777 513.501282 472.100006
v -26.360353 513.021729 472.100006
v -24.148848 513.639221 472.100006
v -26.592916 513.059204 472.100006
v -23.969330 513.791748 472.100006
v -26.821823 513.114746 472.100006
v -23.802332 513.957886 472.100006
v -27.045662 513.188110 472.100006
v -23.648884 514.136597 472.100006
v -27.263056 513.278870 472.100006
v -23.509932 514.326782 472.100006
v -23.386330 514.527344 472.100006
v -23.278843 514.736938 472.100006
v -23.188133 514.954346 472.100006
v -23.114759 515.178162 472.100006
v -23.059175 515.407104 472.100006
v -23.021721 515.639648 472.100006
v -23.002628 515.874451 472.100006
v -23.002016 516.109985 472.100006
v -23.019888 516.344849 472.100006
v -23.056133 516.577637 472.100006
v -23.110527 516.806824 472.100006
v -23.182737 517.031006 472.100006
v -23.272316 517.248901 472.100006
v -23.378712 517.459045 472.100006
v -23.501268 517.660217 472.100006
v -23.639231 517.851135 472.100006
v -23.791748 518.030640 472.100006
f 1 2 3
f 4 5 6
f 4 6 7
f 8 9 10
f 4 1 5
f 11 10 12
f 11 8 10
f 13 4 7
f 14 12 15
f 16 13 7
f 16 7 17
f 14 11 12
f 18 19 20
f 21 15 22
f 21 22 23
f 18 24 19
f 25 17 26
f 25 26 27
f 21 14 15
f 28 20 29
f 25 16 17
f 30 23 31
f 28 18 20
f 32 25 27
f 32 27 33
f 30 21 23
f 34 29 35
f 34 28 29
f 36 31 37
f 38 32 33
f 36 30 31
f 39 35 40
f 39 40 41
f 39 34 35
f 42 38 33
f 43 36 37
f 42 33 44
f 45 37 46
f 45 46 47
f 48 42 44
f 45 43 37
f 49 39 41
f 48 44 50
f 51 41 52
f 51 52 53
f 54 48 50
f 55 45 47
f 54 50 56
f 51 49 41
f 57 47 58
f 59 56 60
f 59 60 61
f 62 53 63
f 59 54 56
f 57 55 47
f 62 51 53
f 64 61 65
f 66 58 67
f 64 59 61
f 66 67 68
f 69 64 65
f 66 57 58
f 70 65 71
f 72 62 63
f 70 69 65
f 73 71 74
f 73 70 71
f 75 63 76
f 77 66 68
f 78 68 79
f 75 72 63
f 78 79 3
f 80 76 81
f 78 77 68
f 80 75 76
f 2 78 3
f 9 81 82
f 9 82 10
f 1 3 5
f 9 80 81
f 83 84 85
f 86 83 87
f 83 85 87
f 88 86 89
f 86 87 89
f 90 88 91
f 88 89 91
f 92 90 93
f 90 91 93
f 94 92 95
f 92 93 95
f 96 94 97
f 94 95 97
f 98 96 99
f 96 97 99
f 100 98 101
f 98 99 101
f 102 100 103
f 100 101 103
f 104 102 105
f 102 103 105
f 106 104 107
f 104 105 107
f 108 106 109
f 106 107 109
f 110 108 111
f 108 109 111
f 112 110 113
f 110 111 113
f 112 113 114
f 115 112 114
f 116 115 117
f 115 114 117
f 118 119 120
f 121 118 122
f 123 124 125
f 118 120 122
f 126 127 125
f 128 121 129
f 127 123 125
f 121 122 129
f 130 128 131
f 126 125 132
f 128 129 131
f 126 132 133
f 134 135 133
f 135 126 133
f 136 137 138
f 134 133 139
f 140 136 138
f 141 134 139
f 141 139 142
f 143 140 144
f 145 141 142
f 140 138 144
f 146 145 147
f 145 142 147
f 148 149 150
f 149 143 150
f 143 144 150
f 146 147 151
f 148 150 152
f 153 154 155
f 154 146 155
f 146 151 155
f 156 148 157
f 153 155 158
f 148 152 157
f 156 157 159
f 160 161 159
f 161 156 159
f 162 163 164
f 163 153 164
f 153 158 164
f 160 159 165
f 162 164 166
f 167 162 166
f 160 165 168
f 169 167 170
f 171 160 168
f 167 166 170
f 171 168 172
f 169 170 173
f 174 169 173
f 175 171 172
f 175 172 176
f 174 173 177
f 178 179 176
f 179 175 176
f 178 176 180
f 181 182 183
f 182 174 183
f 174 177 183
f 178 180 124
f 118 181 119
f 181 183 119
f 123 178 124
f 184 185 186
f 184 186 187
f 188 184 187
f 188 187 189
f 190 188 189
f 190 189 191
f 192 190 191
f 192 191 193
f 194 192 193
f 194 193 195
f 196 194 195
f 196 195 197
f 198 197 199
f 198 196 197
f 200 199 201
f 200 198 199
f 202 201 203
f 202 200 201
f 204 202 203
f 204 203 205
f 206 205 207
f 206 204 205
f 208 206 207
f 208 207 209
f 210 208 209
f 210 209 211
f 212 210 211
f 212 211 213
f 214 212 213
f 214 213 215
f 216 214 215
f 216 215 217
f 218 216 217
f 218 217 219
f 220 218 219
f 220 219 221
f 107 222 223
f 105 222 107
f 105 224 222
f 109 107 223
f 109 223 225
f 103 220 221
f 103 224 105
f 103 226 224
f 103 221 226
f 111 109 225
f 227 103 101
f 227 220 103
f 113 111 225
f 113 225 228
f 229 101 99
f 229 227 101
f 114 113 228
f 114 228 230
f 117 114 230
f 117 230 231
f 232 99 97
f 232 229 99
f 233 231 234
f 233 117 231
f 235 234 236
f 235 233 234
f 237 97 95
f 237 232 97
f 238 235 236
f 239 95 93
f 239 93 91
f 239 237 95
f 240 236 241
f 240 238 236
f 242 91 89
f 242 239 91
f 243 241 244
f 243 240 241
f 245 89 87
f 245 242 89
f 246 244 247
f 246 243 244
f 248 247 249
f 248 246 247
f 250 87 85
f 250 245 87
f 251 248 249
f 251 249 252
f 253 251 252
f 254 250 85
f 254 85 255
f 256 253 252
f 257 255 258
f 257 254 255
f 259 258 260
f 259 260 261
f 259 257 258
f 262 261 263
f 262 259 261
f 264 263 265
f 264 262 263
f 266 265 253
f 266 264 265
f 267 266 253
f 268 253 256
f 268 267 253
f 269 268 256
f 269 256 270
f 271 270 272
f 271 269 270
f 273 272 274
f 273 271 272
f 275 274 276
f 275 273 274
f 277 276 278
f 277 275 276
f 279 278 280
f 279 277 278
f 281 280 282
f 281 279 280
f 283 282 284
f 283 281 282
f 285 284 286
f 285 283 284
f 287 286 288
f 287 285 286
f 289 288 290
f 289 287 288
f 291 290 292
f 291 289 290
f 293 292 294
f 293 291 292
f 295 294 296
f 295 293 294
f 297 296 298
f 297 295 296
f 299 298 300
f 299 297 298
f 301 300 302
f 301 299 300
f 303 301 302
f 303 302 304
f 70 305 69
f 306 307 66
f 307 57 66
f 308 309 64
f 69 308 64
f 310 306 77
f 306 66 77
f 64 309 59
f 309 311 59
f 310 77 78
f 312 310 78
f 59 311 54
f 312 78 2
f 54 311 48
f 311 313 48
f 314 312 1
f 312 2 1
f 313 315 42
f 48 313 42
f 314 1 4
f 316 314 4
f 42 315 38
f 315 317 38
f 316 4 13
f 318 316 13
f 38 317 32
f 317 319 32
f 318 13 16
f 319 318 16
f 32 319 25
f 319 16 25
f 320 321 170
f 321 322 170
f 323 320 166
f 320 170 166
f 322 324 173
f 170 322 173
f 325 323 164
f 323 166 164
f 324 326 177
f 173 324 177
f 327 325 158
f 325 164 158
f 326 328 183
f 177 326 183
f 329 330 155
f 330 327 155
f 327 158 155
f 328 331 119
f 331 332 119
f 183 328 119
f 333 329 151
f 329 155 151
f 332 334 120
f 119 332 120
f 335 333 147
f 333 151 147
f 120 334 122
f 334 336 122
f 335 147 142
f 337 335 142
f 122 336 129
f 336 338 129
f 339 340 139
f 340 337 139
f 337 142 139
f 338 24 131
f 129 338 131
f 24 18 131
f 341 339 133
f 339 139 133
f 131 18 342
f 18 28 342
f 343 341 132
f 341 133 132
f 342 28 344
f 28 34 344
f 345 343 125
f 343 132 125
f 344 34 346
f 34 39 346
f 347 348 124
f 348 345 124
f 345 125 124
f 346 39 349
f 39 49 349
f 49 51 349
f 350 347 180
f 347 124 180
f 349 51 351
f 51 62 351
f 352 350 176
f 350 180 176
f 351 62 353
f 62 72 353
f 354 352 172
f 352 176 172
f 72 75 355
f 353 72 355
f 356 354 168
f 354 172 168
f 355 75 357
f 357 75 80
f 168 165 358
f 356 168 358
f 359 357 9
f 357 80 9
f 165 159 360
f 358 165 360
f 359 9 8
f 361 359 8
f 360 159 362
f 159 157 362
f 361 8 11
f 363 361 11
f 362 157 364
f 157 152 364
f 363 11 14
f 365 363 14
f 364 152 366
f 365 14 21
f 152 150 367
f 366 152 367
f 365 21 30
f 368 365 30
f 150 144 369
f 367 150 369
f 368 30 36
f 370 368 36
f 369 144 371
f 144 138 371
f 372 370 43
f 370 36 43
f 371 138 373
f 138 137 373
f 372 43 45
f 374 372 45
f 373 137 73
f 374 45 55
f 137 305 70
f 73 137 70
f 307 374 57
f 374 55 57
f 305 308 69
f 303 304 375
f 376 303 375
f 376 375 377
f 378 376 377
f 378 377 379
f 380 378 379
f 380 379 381
f 382 380 381
f 382 381 383
f 384 382 383
f 384 383 385
f 386 384 385
f 386 385 387
f 388 387 389
f 388 386 387
f 390 389 391
f 390 388 389
f 392 391 393
f 392 390 391
f 394 392 393
f 394 393 395
f 396 395 397
f 396 394 395
f 398 396 397
f 398 397 399
f 400 399 401
f 400 398 399
f 402 400 401
f 402 401 403
f 404 403 405
f 404 402 403
f 406 405 407
f 406 404 405
f 408 407 409
f 408 406 407
f 410 409 411
f 410 408 409
f 412 411 413
f 412 410 411
f 414 413 415
f 414 412 413
f 416 414 415
f 416 415 417
f 418 416 417
f 418 417 419
f 420 418 419
f 420 419 421
f 422 420 421
f 422 421 423
f 424 422 423
f 424 423 425
f 426 424 425
f 426 425 427
f 428 427 429
f 428 426 427
f 430 429 431
f 430 428 429
f 432 430 431
f 432 431 433
f 434 433 435
f 434 432 433
f 436 434 435
f 436 435 437
f 438 437 439
f 438 436 437
f 440 439 441
f 440 438 439
f 442 441 443
f 442 440 441
f 444 443 445
f 444 442 443
f 446 445 447
f 446 444 445
f 448 447 449
f 448 446 447
f 450 449 451
f 450 448 449
f 452 451 453
f 452 450 451
f 454 453 455
f 454 452 453
f 456 455 457
f 456 454 455
f 458 457 459
f 458 456 457
f 460 459 461
f 460 458 459
f 462 461 463
f 462 460 461
f 464 463 465
f 464 462 463
f 466 465 467
f 466 464 465
f 468 467 469
f 468 466 467
f 470 469 471
f 470 468 469
f 472 470 471
f 472 471 473
f 474 473 475
f 474 472 473
f 476 475 186
f 476 474 475
f 185 476 186
f 224 477 478
f 224 226 477
f 385 149 148
f 385 148 387
f 222 224 478
f 383 149 385
f 223 222 478
f 223 478 479
f 381 149 383
f 381 143 149
f 225 223 479
f 379 143 381
f 228 479 480
f 228 225 479
f 377 143 379
f 377 140 143
f 230 228 480
f 230 480 481
f 375 136 140
f 375 140 377
f 231 230 481
f 304 136 375
f 234 231 481
f 234 481 482
f 302 483 136
f 302 136 304
f 236 482 484
f 236 234 482
f 300 485 483
f 300 483 302
f 241 236 484
f 167 453 451
f 167 451 449
f 298 485 300
f 244 484 486
f 244 241 484
f 296 487 485
f 296 485 298
f 162 167 449
f 162 449 447
f 247 244 486
f 294 487 296
f 249 247 486
f 249 486 488
f 292 489 487
f 169 453 167
f 292 487 294
f 169 455 453
f 252 488 490
f 252 249 488
f 290 491 489
f 290 489 292
f 174 459 457
f 174 457 455
f 256 252 490
f 174 455 169
f 163 447 445
f 163 445 443
f 288 491 290
f 270 490 492
f 270 256 490
f 286 493 491
f 286 491 288
f 163 162 447
f 272 270 492
f 284 493 286
f 182 463 461
f 182 461 459
f 182 459 174
f 274 492 494
f 274 272 492
f 153 163 443
f 282 495 493
f 153 443 441
f 153 441 439
f 282 493 284
f 280 496 495
f 280 495 282
f 276 494 496
f 276 274 494
f 278 276 496
f 278 496 280
f 181 465 463
f 181 463 182
f 154 439 437
f 154 153 439
f 118 469 467
f 118 467 465
f 118 465 181
f 146 437 435
f 146 435 433
f 146 154 437
f 121 473 471
f 121 471 469
f 121 469 118
f 145 433 431
f 145 431 429
f 145 146 433
f 128 475 473
f 128 473 121
f 141 429 427
f 141 145 429
f 130 186 475
f 130 187 186
f 130 475 128
f 134 427 425
f 134 425 423
f 134 141 427
f 497 189 187
f 497 187 130
f 135 134 423
f 135 423 421
f 498 193 191
f 498 191 189
f 498 189 497
f 126 421 419
f 126 419 417
f 126 135 421
f 499 193 498
f 499 197 195
f 499 195 193
f 127 417 415
f 127 415 413
f 127 126 417
f 500 197 499
f 500 199 197
f 123 413 411
f 123 127 413
f 501 199 500
f 501 203 201
f 501 201 199
f 178 411 409
f 178 409 407
f 178 123 411
f 502 203 501
f 502 207 205
f 502 205 203
f 179 178 407
f 179 407 405
f 179 405 403
f 503 207 502
f 503 209 207
f 175 403 401
f 175 179 403
f 504 209 503
f 211 209 504
f 171 175 401
f 399 171 401
f 213 211 504
f 213 504 505
f 397 160 171
f 397 171 399
f 215 213 505
f 215 505 506
f 395 161 160
f 395 160 397
f 217 215 506
f 393 161 395
f 219 506 507
f 219 217 506
f 391 156 161
f 391 161 393
f 221 219 507
f 389 156 391
f 226 507 477
f 226 221 507
f 387 148 156
f 387 156 389
f 508 307 306
f 136 305 137
f 98 357 359
f 509 508 306
f 96 98 359
f 490 510 511
f 478 110 112
f 479 478 112
f 492 490 511
f 494 492 512
f 492 511 512
f 96 359 361
f 94 96 361
f 497 130 131
f 509 306 310
f 513 509 310
f 480 479 115
f 479 112 115
f 497 131 342
f 494 512 514
f 496 494 514
f 498 497 342
f 94 361 363
f 92 94 363
f 498 342 344
f 496 514 515
f 496 515 495
f 92 363 365
f 498 344 346
f 90 92 365
f 513 310 312
f 482 481 116
f 516 513 312
f 481 480 116
f 480 115 116
f 499 498 346
f 499 346 349
f 516 312 314
f 500 499 349
f 517 516 314
f 90 365 368
f 88 90 368
f 484 482 518
f 500 349 351
f 482 116 518
f 517 314 316
f 502 501 351
f 519 517 316
f 501 500 351
f 502 351 353
f 88 368 370
f 519 316 318
f 520 519 318
f 86 88 370
f 503 502 353
f 486 484 521
f 484 518 521
f 505 504 102
f 520 318 319
f 102 504 100
f 504 503 100
f 505 102 104
f 506 505 104
f 86 370 372
f 83 86 372
f 493 495 317
f 495 515 317
f 515 520 317
f 486 521 522
f 520 319 317
f 488 486 522
f 503 353 355
f 100 503 355
f 506 104 106
f 491 493 315
f 493 317 315
f 507 506 106
f 83 372 374
f 84 83 374
f 488 522 523
f 491 315 313
f 477 507 108
f 84 374 307
f 507 106 108
f 489 491 311
f 100 355 357
f 491 313 311
f 508 84 307
f 98 100 357
f 485 487 309
f 487 489 309
f 489 311 309
f 488 523 510
f 483 485 308
f 478 477 110
f 490 488 510
f 485 309 308
f 477 108 110
f 136 483 305
f 483 308 305
f 116 117 233
f 518 116 233
f 521 518 235
f 518 233 235
f 522 521 238
f 521 235 238
f 523 522 240
f 522 238 240
f 510 523 243
f 523 240 243
f 512 511 246
f 511 510 246
f 510 243 246
f 514 512 248
f 512 246 248
f 515 514 251
f 514 248 251
f 520 515 253
f 515 251 253
f 519 520 265
f 520 253 265
f 517 519 263
f 519 265 263
f 516 517 261
f 517 263 261
f 513 516 260
f 516 261 260
f 509 513 258
f 513 260 258
f 509 258 255
f 508 509 255
f 84 508 85
f 508 255 85
f 262 264 68
f 470 524 468
f 259 68 67
f 259 262 68
f 472 524 470
f 472 525 524
f 257 259 67
f 257 67 58
f 474 525 472
f 474 526 525
f 254 58 47
f 254 257 58
f 476 19 526
f 476 526 474
f 250 254 47
f 527 398 400
f 185 19 476
f 527 400 402
f 245 47 46
f 528 527 402
f 245 250 47
f 528 402 404
f 184 20 19
f 184 19 185
f 529 398 527
f 242 245 46
f 242 46 37
f 188 29 20
f 529 396 398
f 530 396 529
f 188 20 184
f 239 242 37
f 530 394 396
f 531 404 406
f 239 37 31
f 531 528 404
f 190 35 29
f 190 29 188
f 237 239 31
f 532 394 530
f 532 390 392
f 532 392 394
f 192 35 190
f 533 406 408
f 533 408 410
f 533 531 406
f 232 237 31
f 232 31 23
f 194 40 35
f 534 390 532
f 194 35 192
f 534 388 390
f 229 23 22
f 229 232 23
f 535 410 412
f 196 41 40
f 196 40 194
f 535 533 410
f 198 52 41
f 198 41 196
f 536 388 534
f 227 229 22
f 227 22 15
f 536 386 388
f 220 227 15
f 220 15 12
f 537 412 414
f 200 53 52
f 200 52 198
f 537 535 412
f 218 220 12
f 202 53 200
f 538 386 536
f 538 384 386
f 216 12 10
f 216 218 12
f 539 414 416
f 204 63 53
f 204 53 202
f 214 10 82
f 539 537 414
f 214 216 10
f 206 76 63
f 206 63 204
f 208 81 76
f 208 76 206
f 212 82 81
f 212 214 82
f 540 380 382
f 540 382 384
f 210 212 81
f 210 81 208
f 540 384 538
f 541 539 416
f 541 416 418
f 541 418 420
f 542 380 540
f 542 378 380
f 543 420 422
f 543 541 420
f 544 378 542
f 544 376 378
f 545 543 422
f 545 422 424
f 74 301 303
f 74 303 376
f 74 376 544
f 546 424 426
f 546 426 428
f 546 545 424
f 71 299 301
f 71 301 74
f 547 428 430
f 547 546 428
f 65 297 299
f 65 299 71
f 548 547 430
f 548 430 432
f 61 297 65
f 61 293 295
f 61 295 297
f 549 432 434
f 549 434 436
f 549 548 432
f 60 293 61
f 60 291 293
f 550 436 438
f 550 549 436
f 56 289 291
f 56 291 60
f 551 550 438
f 551 438 440
f 50 287 289
f 50 289 56
f 552 551 440
f 552 440 442
f 44 283 285
f 44 285 287
f 44 287 50
f 553 552 442
f 553 442 444
f 553 444 446
f 33 281 283
f 33 283 44
f 554 553 446
f 554 446 448
f 27 279 281
f 27 281 33
f 555 554 448
f 555 448 450
f 26 279 27
f 277 279 26
f 556 555 450
f 452 556 450
f 275 26 17
f 275 277 26
f 454 557 556
f 454 556 452
f 273 17 7
f 273 275 17
f 456 558 557
f 456 557 454
f 271 7 6
f 271 273 7
f 458 559 558
f 458 558 456
f 269 271 6
f 460 559 458
f 268 269 6
f 268 6 5
f 462 559 460
f 462 560 559
f 267 268 5
f 267 5 3
f 464 560 462
f 464 561 560
f 266 3 79
f 266 267 3
f 466 561 464
f 466 562 561
f 264 79 68
f 264 266 79
f 468 562 466
f 468 524 562
f 352 528 531
f 327 330 551
f 325 327 552
f 352 354 528
f 325 552 553
f 325 553 554
f 350 531 533
f 350 533 535
f 323 554 555
f 350 352 531
f 323 325 554
f 320 323 555
f 320 555 556
f 347 350 535
f 373 73 74
f 373 74 544
f 348 535 537
f 348 347 535
f 371 544 542
f 321 320 556
f 371 542 540
f 345 537 539
f 345 539 541
f 322 321 556
f 371 373 544
f 322 556 557
f 345 348 537
f 369 371 540
f 369 540 538
f 324 322 557
f 343 345 541
f 324 557 558
f 324 558 559
f 341 541 543
f 341 543 545
f 326 324 559
f 341 343 541
f 367 369 538
f 326 559 560
f 366 538 536
f 339 341 545
f 366 367 538
f 328 326 560
f 340 545 546
f 340 546 547
f 364 536 534
f 364 534 532
f 331 328 560
f 331 560 561
f 340 339 545
f 364 366 536
f 332 561 562
f 332 562 524
f 332 331 561
f 334 332 524
f 337 340 547
f 362 364 532
f 334 524 525
f 335 547 548
f 360 532 530
f 336 525 526
f 360 530 529
f 336 334 525
f 335 337 547
f 338 526 19
f 360 362 532
f 338 336 526
f 24 338 19
f 333 548 549
f 333 549 550
f 358 360 529
f 333 335 548
f 329 550 551
f 356 529 527
f 329 333 550
f 356 358 529
f 330 329 551
f 354 527 528
f 354 356 527
f 327 551 552
