# Created by FreeCAD <http://www.freecadweb.org>
v -0.207704 190.483673 251.260010
v -0.024475 190.483673 251.111969
v -0.024475 190.783676 251.111969
v -0.401982 190.483673 251.393219
v -0.401982 190.783676 251.393219
v -0.606113 190.783676 251.510757
v 0.957232 190.483673 248.349487
v 0.908513 190.483673 248.119019
v 0.957232 190.783676 248.349487
v 0.987719 190.483673 248.583069
v 0.987719 190.783676 248.583069
v -0.606113 190.483673 251.510757
v 0.999785 190.783676 248.818314
v -0.818838 190.483673 251.611938
v -0.818838 190.783676 251.611938
v -1.038845 190.783676 251.696106
v 0.999785 190.483673 248.818314
v -0.463251 190.483673 246.277740
v -0.670139 190.783676 246.165115
v -0.463251 190.783676 246.277740
v 0.993356 190.483673 249.053787
v 0.993356 190.783676 249.053787
v 0.968473 190.783676 249.288025
v -1.038845 190.483673 251.696106
v -1.264778 190.783676 251.762756
v -0.670139 190.483673 246.165115
v -0.265838 190.483673 246.406250
v -0.265838 190.783676 246.406250
v 0.968473 190.483673 249.288025
v 0.925288 190.783676 249.519592
v -1.264778 190.483673 251.762756
v -1.495244 190.783676 251.811478
v -0.079116 190.483673 246.549866
v -0.079116 190.783676 246.549866
v 0.925288 190.483673 249.519592
v 0.864068 190.783676 249.747055
v -1.495244 190.483673 251.811478
v -1.728821 190.783676 251.841965
v 0.095763 190.483673 246.707672
v 0.095763 190.783676 246.707672
v 0.257720 190.783676 246.878723
v -1.728821 190.483673 251.841965
v 0.864068 190.483673 249.747055
v 0.785189 190.483673 249.969025
v 0.785189 190.783676 249.969025
v 0.689139 190.783676 250.184113
v -1.964071 190.483673 251.854034
v -1.964071 190.783676 251.854034
v 0.257720 190.483673 246.878723
v -2.199542 190.483673 251.847610
v -2.199542 190.783676 251.847610
v 0.405758 190.483673 247.061951
v 0.405758 190.783676 247.061951
v -2.433783 190.783676 251.822723
v 0.538964 190.783676 247.256226
v 0.689139 190.483673 250.184113
v -2.433783 190.483673 251.822723
v -2.665350 190.783676 251.779541
v 0.576510 190.483673 250.390991
v 0.576510 190.783676 250.390991
v -2.665350 190.483673 251.779541
v 0.538964 190.483673 247.256226
v 0.656516 190.783676 247.460358
v -2.892814 190.783676 251.718323
v 0.447995 190.483673 250.588409
v 0.447995 190.783676 250.588409
v 0.304388 190.783676 250.775131
v -2.892814 190.483673 251.718323
v -3.114774 190.483673 251.639435
v -3.114774 190.783676 251.639435
v -3.329861 190.483673 251.543381
v -3.329861 190.783676 251.543381
v 0.656516 190.483673 247.460358
v 0.304388 190.483673 250.775131
v 0.146574 190.783676 250.950012
v 0.757690 190.483673 247.673080
v 0.757690 190.783676 247.673080
v 0.841862 190.783676 247.893097
v 0.146574 190.483673 250.950012
v 0.841862 190.483673 247.893097
v 0.908513 190.783676 248.119019
v -0.207704 190.783676 251.260010
v -0.093566 191.895233 249.607712
v -0.162422 191.883667 249.762985
v 2.481899 191.883667 251.070679
v -0.038775 191.929306 249.450745
v 2.558042 191.896576 250.909363
v 0.015943 192.016113 249.226379
v 2.627261 191.934723 250.748428
v 0.043531 192.141068 249.017029
v 2.708090 192.025406 250.537643
v 0.049835 192.299942 248.828949
v 2.772885 192.157120 250.344070
v 0.041653 192.488159 248.669693
v 2.822315 192.325302 250.175369
v 0.027043 192.701599 248.548157
v 2.857561 192.523697 250.039261
v 0.014516 192.935745 248.473709
v 2.880238 192.745651 249.942047
v 0.010806 193.181610 248.455200
v 2.891726 192.982254 249.889160
v 0.018688 193.424591 248.496552
v 2.892977 193.225510 249.883316
v 0.032930 193.651260 248.590256
v 2.884036 193.464844 249.925034
v 0.046006 193.854752 248.726990
v 2.864279 193.690445 250.011322
v 0.049538 194.031555 248.897629
v 2.832296 193.895264 250.138351
v 0.035733 194.178085 249.094910
v 2.780675 194.088715 250.318817
v -0.001540 194.289307 249.311035
v 2.702076 194.250961 250.554352
v 2.602375 194.349884 250.808151
v -0.067357 194.359650 249.537903
v -0.162422 194.383667 249.762985
v 2.481899 194.383667 251.070679
v -1.663813 195.483673 246.832001
v -1.863646 190.483673 246.808792
v -1.663813 190.483673 246.832001
v -1.467217 195.483673 246.874695
v -1.467217 190.483673 246.874695
v -4.045460 195.483673 248.717896
v -4.045460 190.483673 248.717896
v -4.022246 190.483673 248.518066
v -3.979556 195.483673 248.321457
v -4.022246 195.483673 248.518066
v -1.275752 195.483673 246.936447
v -1.275752 190.483673 246.936447
v -1.091262 195.483673 247.016663
v -1.091262 190.483673 247.016663
v -3.979556 190.483673 248.321457
v -3.917802 190.483673 248.130005
v -3.837579 195.483673 247.945511
v -3.917802 195.483673 248.130005
v -2.908738 195.483673 250.691833
v -2.908738 190.483673 250.691833
v -3.084477 190.483673 250.593903
v -3.837579 190.483673 247.945511
v -3.084477 195.483673 250.593903
v -3.739658 195.483673 247.769775
v -3.739658 190.483673 247.769775
v -3.249771 195.483673 250.479233
v -3.249771 190.483673 250.479233
v -3.624984 195.483673 247.604477
v -3.494660 195.483673 247.451218
v -3.624984 190.483673 247.604477
v -3.542776 195.483673 250.204193
v -3.403029 195.483673 250.348907
v -3.403029 190.483673 250.348907
v -3.494660 190.483673 247.451218
v -3.542776 190.483673 250.204193
v -3.192223 195.483673 247.186584
v -3.349942 195.483673 247.311478
v -3.349942 190.483673 247.311478
v -3.667664 195.483673 250.046478
v -3.667664 190.483673 250.046478
v -3.192223 190.483673 247.186584
v -3.776492 190.483673 249.877274
v -3.868212 195.483673 249.698212
v -3.776492 195.483673 249.877274
v -2.843970 195.483673 246.986038
v -3.023023 195.483673 247.077759
v -3.023023 190.483673 247.077759
v -3.868212 190.483673 249.698212
v -2.843970 190.483673 246.986038
v -2.656789 195.483673 246.912308
v -3.941939 190.483673 249.511032
v -2.463283 195.483673 246.857285
v -2.656789 190.483673 246.912308
v -3.941939 195.483673 249.511032
v -3.996965 190.483673 249.317535
v -2.463283 190.483673 246.857285
v -2.265316 195.483673 246.821487
v -3.996965 195.483673 249.317535
v -4.032759 190.483673 249.119568
v -2.265316 190.483673 246.821487
v -4.048976 195.483673 248.919037
v -4.032759 195.483673 249.119568
v -4.048976 190.483673 248.919037
v -1.863646 195.483673 246.808792
v -2.064793 195.483673 246.805267
v -2.064793 190.483673 246.805267
v 0.483001 190.783676 244.514359
v 0.216435 190.783676 244.372345
v 0.216435 195.483673 244.372345
v 0.483001 195.483673 244.514359
v 0.740508 190.783676 244.672195
v 0.740508 195.483673 244.672195
v 0.988014 190.783676 244.845291
v 0.988014 195.483673 244.845291
v 1.224618 190.783676 245.033005
v 1.224618 195.483673 245.033005
v 1.449455 190.783676 245.234680
v 1.449455 195.483673 245.234680
v 1.661706 190.783676 245.449554
v 1.661706 195.483673 245.449554
v 1.860595 190.783676 245.676865
v 1.860595 195.483673 245.676865
v 2.045398 190.783676 245.915756
v 2.045398 195.483673 245.915756
v 2.215439 190.783676 246.165375
v 2.215439 195.483673 246.165375
v 2.370099 190.783676 246.424789
v 2.370099 195.483673 246.424789
v 2.508812 190.783676 246.693085
v 2.508812 195.483673 246.693085
v 2.631074 190.783676 246.969269
v 2.631074 195.483673 246.969269
v 2.736437 190.783676 247.252319
v 2.736437 195.483673 247.252319
v 2.824517 190.783676 247.541229
v 2.824517 195.483673 247.541229
v 2.894994 190.783676 247.834915
v 2.894994 195.483673 247.834915
v 2.947609 190.783676 248.132324
v 2.947609 195.483673 248.132324
v 2.982171 190.783676 248.432373
v 2.982171 195.483673 248.432373
v 2.998553 190.783676 248.733963
v 2.998553 195.483673 248.733963
v 2.938358 195.483673 249.636948
v 2.882091 195.483673 249.933685
v 2.976607 195.483673 249.337341
v 2.808008 195.483673 250.226486
v 2.996696 195.483673 249.035980
v 2.996696 190.783676 249.035980
v 2.716382 195.483673 250.514282
v 2.976607 190.783676 249.337341
v 2.607547 195.483673 250.796036
v 2.481899 195.483673 251.070679
v 2.938358 190.783676 249.636948
v 2.411870 194.374191 251.206879
v 2.339897 195.483673 251.337250
v 2.339199 194.346268 251.338348
v 2.182059 195.483673 251.594757
v 2.882091 190.783676 249.933685
v 2.221274 194.265350 251.533936
v 2.808008 190.783676 250.226486
v 2.105449 194.142166 251.708160
v 2.008961 195.483673 251.842255
v 2.716382 190.783676 250.514282
v 1.998875 193.982224 251.855743
v 1.821235 195.483673 252.078873
v 2.607547 190.783676 250.796036
v 1.907894 193.790253 251.973282
v 1.619566 195.483673 252.303696
v 1.838787 193.573502 252.057953
v 1.404690 195.483673 252.515961
v 2.481899 190.783676 251.070679
v 1.796896 193.338989 252.107483
v 1.177390 195.483673 252.714844
v 1.785832 193.097244 252.120361
v 2.339897 190.783676 251.337250
v 2.346983 191.917343 251.324646
v 0.938496 195.483673 252.899643
v 2.182059 190.783676 251.594757
v 2.206161 192.015503 251.557587
v 2.008961 190.783676 251.842255
v 2.066289 192.177841 251.763733
v 1.943017 192.394516 251.928787
v 1.821235 190.783676 252.078873
v 1.856867 192.626541 252.036163
v 1.619566 190.783676 252.303696
v 1.806366 192.856766 252.096481
v 1.404690 190.783676 252.515961
v 1.177390 190.783676 252.714844
v 0.938496 190.783676 252.899643
v 0.688879 190.783676 253.069687
v 0.688879 195.483673 253.069687
v 0.429452 190.783676 253.224350
v 0.429452 195.483673 253.224350
v 0.161159 190.783676 253.363068
v 0.161159 195.483673 253.363068
v -0.115019 190.783676 253.485321
v -0.115019 195.483673 253.485321
v -0.398075 190.783676 253.590683
v -0.398075 195.483673 253.590683
v -0.686977 190.783676 253.678772
v -0.686977 195.483673 253.678772
v -0.980669 190.783676 253.749237
v -0.980669 195.483673 253.749237
v -1.278081 190.783676 253.801849
v -1.278081 195.483673 253.801849
v -1.578128 190.783676 253.836426
v -1.578128 195.483673 253.836426
v -1.879713 190.783676 253.852798
v -1.879713 195.483673 253.852798
v -2.181738 190.783676 253.850937
v -2.181738 195.483673 253.850937
v -2.483099 190.783676 253.830856
v -2.483099 195.483673 253.830856
v -2.782698 190.783676 253.792603
v -2.782698 195.483673 253.792603
v -3.079441 190.783676 253.736343
v -3.079441 195.483673 253.736343
v -3.372245 190.783676 253.662262
v -3.372245 195.483673 253.662262
v -3.660041 190.783676 253.570633
v -3.660041 195.483673 253.570633
v -3.941781 190.783676 253.461792
v -3.941781 195.483673 253.461792
v -4.216435 190.783676 253.336151
v -4.216435 195.483673 253.336151
v -2.136354 190.483673 250.899704
v -1.935207 190.483673 250.903229
v -0.807777 190.483673 250.521912
v -0.650058 190.483673 250.397018
v -1.734684 190.483673 250.887009
v -0.976977 190.483673 250.630737
v -1.156030 190.483673 250.722458
v -1.536717 190.483673 250.851212
v -1.343211 190.483673 250.796188
v -3.181162 190.483673 246.096558
v -2.961155 190.483673 246.012390
v -2.735222 190.483673 245.945740
v -2.504756 190.483673 245.897018
v -3.393887 190.483673 246.197739
v -3.598018 190.483673 246.315277
v -2.271178 190.483673 245.866531
v -3.792296 190.483673 246.448486
v -2.035929 190.483673 245.854462
v -4.146574 190.483673 246.758484
v -3.975525 190.483673 246.596527
v -1.800458 190.483673 245.860886
v -1.566217 190.483673 245.885773
v -4.304388 190.483673 246.933365
v -1.334650 190.483673 245.928955
v -4.447995 190.483673 247.120087
v -1.107186 190.483673 245.990173
v -4.576510 190.483673 247.317505
v -0.885226 190.483673 246.069061
v -4.785189 190.483673 247.739471
v -4.689139 190.483673 247.524384
v -4.864068 190.483673 247.961441
v -0.915523 190.483673 247.114594
v -4.925288 190.483673 248.188904
v -0.750229 190.483673 247.229263
v -0.596971 190.483673 247.359589
v -4.968473 190.483673 248.420471
v -4.999785 190.483673 248.890182
v -4.993356 190.483673 248.654709
v -0.457224 190.483673 247.504303
v -4.987719 190.483673 249.125427
v -0.332336 190.483673 247.662018
v -4.957232 190.483673 249.359009
v -0.223508 190.483673 247.831223
v -4.908513 190.483673 249.589462
v -0.131788 190.483673 248.010284
v -4.841862 190.483673 249.815399
v -0.058061 190.483673 248.197464
v -4.757690 190.483673 250.035416
v -0.003035 190.483673 248.390961
v -4.656517 190.483673 250.248138
v 0.032759 190.483673 248.588928
v -4.538964 190.483673 250.452271
v 0.048976 190.483673 248.789459
v -4.405758 190.483673 250.646545
v 0.045460 190.483673 248.990601
v -4.257720 190.483673 250.829773
v -4.095763 190.483673 251.000824
v 0.022246 190.483673 249.190430
v -3.920884 190.483673 251.158630
v -0.020444 190.483673 249.387024
v -3.734162 190.483673 251.302246
v -0.082198 190.483673 249.578491
v -3.536749 190.483673 251.430756
v -0.162422 190.483673 249.762985
v -2.724248 190.483673 250.772049
v -0.260342 190.483673 249.938721
v -2.532783 190.483673 250.833801
v -0.375016 190.483673 250.104019
v -2.336187 190.483673 250.876495
v -0.505340 190.483673 250.257278
v -4.483001 195.483673 253.194138
v -4.483001 190.783676 253.194138
v -4.740508 195.483673 253.036301
v -4.740508 190.783676 253.036301
v -4.988014 195.483673 252.863205
v -4.988014 190.783676 252.863205
v -5.224618 195.483673 252.675476
v -5.224618 190.783676 252.675476
v -5.449455 195.483673 252.473816
v -5.449455 190.783676 252.473816
v -5.661706 195.483673 252.258942
v -5.661706 190.783676 252.258942
v -5.860595 195.483673 252.031631
v -5.860595 190.783676 252.031631
v -6.045398 195.483673 251.792740
v -6.045398 190.783676 251.792740
v -6.215439 195.483673 251.543121
v -6.215439 190.783676 251.543121
v -6.370099 195.483673 251.283707
v -6.370099 190.783676 251.283707
v -6.508812 195.483673 251.015411
v -6.508812 190.783676 251.015411
v -6.631074 195.483673 250.739227
v -6.631074 190.783676 250.739227
v -6.736437 195.483673 250.456177
v -6.736437 190.783676 250.456177
v -6.824518 195.483673 250.167267
v -6.824518 190.783676 250.167267
v -6.894994 195.483673 249.873581
v -6.894994 190.783676 249.873581
v -6.947609 195.483673 249.576172
v -6.947609 190.783676 249.576172
v -6.982171 195.483673 249.276123
v -6.982171 190.783676 249.276123
v -6.998553 195.483673 248.974533
v -6.998553 190.783676 248.974533
v -6.996696 195.483673 248.672516
v -6.996696 190.783676 248.672516
v -6.976607 195.483673 248.371155
v -6.976607 190.783676 248.371155
v -6.938358 195.483673 248.071548
v -6.938358 190.783676 248.071548
v -6.882091 195.483673 247.774811
v -6.882091 190.783676 247.774811
v -6.808008 195.483673 247.482010
v -6.808008 190.783676 247.482010
v -6.716383 195.483673 247.194214
v -6.716383 190.783676 247.194214
v -6.607547 195.483673 246.912460
v -6.607547 190.783676 246.912460
v -6.481899 195.483673 246.637817
v -6.481899 190.783676 246.637817
v -6.339897 195.483673 246.371246
v -6.339897 190.783676 246.371246
v -6.182059 195.483673 246.113739
v -6.182059 190.783676 246.113739
v -6.008961 195.483673 245.866226
v -6.008961 190.783676 245.866226
v -5.821235 195.483673 245.629623
v -5.821235 190.783676 245.629623
v -5.619566 195.483673 245.404785
v -5.619566 190.783676 245.404785
v -5.404689 195.483673 245.192535
v -5.404689 190.783676 245.192535
v -5.177390 195.483673 244.993652
v -5.177390 190.783676 244.993652
v -4.938496 195.483673 244.808853
v -4.938496 190.783676 244.808853
v -4.688879 195.483673 244.638809
v -4.688879 190.783676 244.638809
v -4.429452 195.483673 244.484146
v -4.429452 190.783676 244.484146
v -4.161160 195.483673 244.345428
v -4.161160 190.783676 244.345428
v -3.884981 195.483673 244.223175
v -3.884981 190.783676 244.223175
v -3.601925 195.483673 244.117813
v -3.601925 190.783676 244.117813
v -3.313023 195.483673 244.029724
v -3.313023 190.783676 244.029724
v -3.019331 195.483673 243.959259
v -3.019331 190.783676 243.959259
v -2.721919 195.483673 243.906631
v -2.721919 190.783676 243.906631
v -2.421872 195.483673 243.872070
v -2.421872 190.783676 243.872070
v -2.120287 195.483673 243.855698
v -2.120287 190.783676 243.855698
v -1.818262 195.483673 243.857559
v -1.818262 190.783676 243.857559
v -1.516901 195.483673 243.877640
v -1.516901 190.783676 243.877640
v -1.217302 195.483673 243.915894
v -1.217302 190.783676 243.915894
v -0.920559 195.483673 243.972153
v -0.920559 190.783676 243.972153
v -0.627755 195.483673 244.046234
v -0.627755 190.783676 244.046234
v -0.339959 195.483673 244.137863
v -0.339959 190.783676 244.137863
v -0.058219 195.483673 244.246704
v -0.058219 190.783676 244.246704
v 0.045460 195.483673 248.990601
v 0.022246 195.483673 249.190430
v -0.020444 195.483673 249.387024
v -0.082198 195.483673 249.578491
v -0.162422 195.483673 249.762985
v -0.260342 195.483673 249.938721
v -2.724248 195.483673 250.772049
v -0.375016 195.483673 250.104019
v -2.532783 195.483673 250.833801
v -0.505340 195.483673 250.257278
v -2.336187 195.483673 250.876495
v -0.650058 195.483673 250.397018
v -2.136354 195.483673 250.899704
v -0.807777 195.483673 250.521912
v -1.935207 195.483673 250.903229
v -0.976977 195.483673 250.630737
v -1.734684 195.483673 250.887009
v -1.536717 195.483673 250.851212
v -1.156030 195.483673 250.722458
v -1.343211 195.483673 250.796188
v -0.915523 195.483673 247.114594
v -0.750229 195.483673 247.229263
v -0.596971 195.483673 247.359589
v -0.457224 195.483673 247.504303
v -0.332336 195.483673 247.662018
v -0.223508 195.483673 247.831223
v -0.131788 195.483673 248.010284
v -0.058061 195.483673 248.197464
v -0.003035 195.483673 248.390961
v 0.032759 195.483673 248.588928
v 0.048976 195.483673 248.789459
v -0.297083 191.912857 249.995239
v -0.452566 191.996643 250.198837
v -0.772262 193.971863 250.495941
v -0.890852 193.806244 250.578247
v -0.990092 193.620163 250.638229
v -0.617055 192.128738 250.367401
v -1.061081 193.416260 250.676758
v -1.095516 193.201080 250.693970
v -0.777358 192.301758 250.499741
v -0.919762 192.509109 250.596527
v -0.264276 194.366180 249.944992
v -1.030061 192.747757 250.660278
v -1.087206 192.982254 250.689835
v -0.378855 194.315872 250.108994
v -0.509676 194.229614 250.261856
v -0.642846 194.113953 250.390686
v -1.334650 190.783676 245.928955
v -1.107186 190.783676 245.990173
v -0.885226 190.783676 246.069061
v -4.841862 190.783676 249.815399
v -4.908513 190.783676 249.589462
v -4.757690 190.783676 250.035416
v -4.957232 190.783676 249.359009
v -4.656517 190.783676 250.248138
v -4.538964 190.783676 250.452271
v -4.987719 190.783676 249.125427
v -4.999785 190.783676 248.890182
v -4.405758 190.783676 250.646545
v -4.257720 190.783676 250.829773
v -4.993356 190.783676 248.654709
v -4.095763 190.783676 251.000824
v -4.968473 190.783676 248.420471
v -3.920884 190.783676 251.158630
v -4.925288 190.783676 248.188904
v -3.734162 190.783676 251.302246
v -4.864068 190.783676 247.961441
v -4.785189 190.783676 247.739471
v -3.536749 190.783676 251.430756
v -4.689139 190.783676 247.524384
v -4.576510 190.783676 247.317505
v -4.447995 190.783676 247.120087
v -4.304388 190.783676 246.933365
v -4.146574 190.783676 246.758484
v -3.975525 190.783676 246.596527
v -3.792296 190.783676 246.448486
v -3.598018 190.783676 246.315277
v -3.393887 190.783676 246.197739
v -3.181162 190.783676 246.096558
v -2.961155 190.783676 246.012390
v -2.735222 190.783676 245.945740
v -2.504756 190.783676 245.897018
v -2.271178 190.783676 245.866531
v -2.035929 190.783676 245.854462
v -1.800458 190.783676 245.860886
v -1.566217 190.783676 245.885773
f 1 2 3
f 4 5 6
f 7 8 9
f 4 1 5
f 10 9 11
f 12 4 6
f 10 11 13
f 10 7 9
f 14 12 6
f 14 6 15
f 14 15 16
f 17 10 13
f 18 19 20
f 21 13 22
f 21 22 23
f 24 16 25
f 18 26 19
f 24 14 16
f 21 17 13
f 27 20 28
f 29 23 30
f 31 24 25
f 31 25 32
f 27 18 20
f 29 21 23
f 33 28 34
f 35 30 36
f 33 27 28
f 37 32 38
f 35 29 30
f 37 31 32
f 39 34 40
f 39 40 41
f 42 37 38
f 43 35 36
f 39 33 34
f 44 36 45
f 44 45 46
f 47 42 38
f 47 38 48
f 44 43 36
f 49 39 41
f 50 47 48
f 50 48 51
f 52 41 53
f 50 51 54
f 52 53 55
f 56 44 46
f 57 50 54
f 52 49 41
f 57 54 58
f 59 46 60
f 61 57 58
f 62 55 63
f 61 58 64
f 59 56 46
f 62 52 55
f 65 60 66
f 65 66 67
f 68 61 64
f 69 64 70
f 69 68 64
f 65 59 60
f 71 70 72
f 71 69 70
f 73 62 63
f 74 67 75
f 74 65 67
f 76 63 77
f 76 77 78
f 79 75 3
f 76 73 63
f 79 74 75
f 80 76 78
f 2 79 3
f 8 78 81
f 8 81 9
f 1 3 82
f 1 82 5
f 8 80 78
f 83 84 85
f 86 83 87
f 83 85 87
f 88 86 89
f 86 87 89
f 90 88 91
f 88 89 91
f 92 90 93
f 90 91 93
f 94 92 95
f 92 93 95
f 96 94 97
f 94 95 97
f 98 96 99
f 96 97 99
f 100 98 101
f 98 99 101
f 102 100 103
f 100 101 103
f 104 102 105
f 102 103 105
f 106 104 107
f 104 105 107
f 108 106 109
f 106 107 109
f 110 108 111
f 108 109 111
f 112 110 113
f 110 111 113
f 112 113 114
f 115 112 114
f 116 115 117
f 115 114 117
f 118 119 120
f 121 118 122
f 123 124 125
f 118 120 122
f 126 127 125
f 128 121 129
f 127 123 125
f 121 122 129
f 130 128 131
f 126 125 132
f 128 129 131
f 126 132 133
f 134 135 133
f 135 126 133
f 136 137 138
f 134 133 139
f 140 136 138
f 141 134 139
f 141 139 142
f 143 140 144
f 145 141 142
f 140 138 144
f 146 145 147
f 145 142 147
f 148 149 150
f 149 143 150
f 143 144 150
f 146 147 151
f 148 150 152
f 153 154 155
f 154 146 155
f 146 151 155
f 156 148 157
f 153 155 158
f 148 152 157
f 156 157 159
f 160 161 159
f 161 156 159
f 162 163 164
f 163 153 164
f 153 158 164
f 160 159 165
f 162 164 166
f 167 162 166
f 160 165 168
f 169 167 170
f 171 160 168
f 167 166 170
f 171 168 172
f 169 170 173
f 174 169 173
f 175 171 172
f 175 172 176
f 174 173 177
f 178 179 176
f 179 175 176
f 178 176 180
f 181 182 183
f 182 174 183
f 174 177 183
f 178 180 124
f 118 181 119
f 181 183 119
f 123 178 124
f 184 185 186
f 184 186 187
f 188 184 187
f 188 187 189
f 190 188 189
f 190 189 191
f 192 190 191
f 192 191 193
f 194 192 193
f 194 193 195
f 196 194 195
f 196 195 197
f 198 197 199
f 198 196 197
f 200 199 201
f 200 198 199
f 202 201 203
f 202 200 201
f 204 202 203
f 204 203 205
f 206 205 207
f 206 204 205
f 208 206 207
f 208 207 209
f 210 208 209
f 210 209 211
f 212 210 211
f 212 211 213
f 214 212 213
f 214 213 215
f 216 214 215
f 216 215 217
f 218 216 217
f 218 217 219
f 220 218 219
f 220 219 221
f 107 222 223
f 105 222 107
f 105 224 222
f 109 107 223
f 109 223 225
f 103 220 221
f 103 224 105
f 103 226 224
f 103 221 226
f 111 109 225
f 227 103 101
f 227 220 103
f 113 111 225
f 113 225 228
f 229 101 99
f 229 227 101
f 114 113 228
f 114 228 230
f 117 114 230
f 117 230 231
f 232 99 97
f 232 229 99
f 233 231 234
f 233 117 231
f 235 234 236
f 235 233 234
f 237 97 95
f 237 232 97
f 238 235 236
f 239 95 93
f 239 93 91
f 239 237 95
f 240 236 241
f 240 238 236
f 242 91 89
f 242 239 91
f 243 241 244
f 243 240 241
f 245 89 87
f 245 242 89
f 246 244 247
f 246 243 244
f 248 247 249
f 248 246 247
f 250 87 85
f 250 245 87
f 251 248 249
f 251 249 252
f 253 251 252
f 254 250 85
f 254 85 255
f 256 253 252
f 257 255 258
f 257 254 255
f 259 258 260
f 259 260 261
f 259 257 258
f 262 261 263
f 262 259 261
f 264 263 265
f 264 262 263
f 266 265 253
f 266 264 265
f 267 266 253
f 268 253 256
f 268 267 253
f 269 268 256
f 269 256 270
f 271 270 272
f 271 269 270
f 273 272 274
f 273 271 272
f 275 274 276
f 275 273 274
f 277 276 278
f 277 275 276
f 279 278 280
f 279 277 278
f 281 280 282
f 281 279 280
f 283 282 284
f 283 281 282
f 285 284 286
f 285 283 284
f 287 286 288
f 287 285 286
f 289 288 290
f 289 287 288
f 291 290 292
f 291 289 290
f 293 292 294
f 293 291 292
f 295 294 296
f 295 293 294
f 297 296 298
f 297 295 296
f 299 298 300
f 299 297 298
f 301 300 302
f 301 299 300
f 303 301 302
f 303 302 304
f 50 305 47
f 305 306 47
f 307 308 1
f 308 2 1
f 306 309 42
f 47 306 42
f 307 1 4
f 310 307 4
f 310 4 12
f 311 310 12
f 42 309 37
f 309 312 37
f 37 312 31
f 312 313 31
f 311 12 14
f 313 311 14
f 31 313 24
f 313 14 24
f 314 315 170
f 315 316 170
f 316 317 173
f 170 316 173
f 318 314 166
f 314 170 166
f 319 318 164
f 318 166 164
f 317 320 177
f 173 317 177
f 321 319 158
f 319 164 158
f 320 322 183
f 177 320 183
f 323 324 155
f 324 321 155
f 321 158 155
f 322 325 119
f 325 326 119
f 183 322 119
f 327 323 151
f 323 155 151
f 326 328 120
f 119 326 120
f 329 327 147
f 327 151 147
f 120 328 122
f 328 330 122
f 331 329 142
f 329 147 142
f 330 332 129
f 122 330 129
f 333 334 139
f 334 331 139
f 331 142 139
f 129 332 131
f 332 26 131
f 26 18 131
f 335 333 133
f 333 139 133
f 131 18 336
f 18 27 336
f 337 335 132
f 335 133 132
f 336 27 338
f 27 33 338
f 338 33 339
f 33 39 339
f 340 337 125
f 337 132 125
f 340 125 124
f 341 342 124
f 342 340 124
f 339 39 343
f 39 49 343
f 49 52 343
f 341 124 180
f 344 341 180
f 343 52 345
f 52 62 345
f 346 344 176
f 344 180 176
f 345 62 347
f 62 73 347
f 348 346 172
f 346 176 172
f 73 76 349
f 347 73 349
f 350 348 168
f 348 172 168
f 349 76 351
f 351 76 80
f 168 165 352
f 350 168 352
f 353 351 8
f 351 80 8
f 165 159 354
f 352 165 354
f 353 8 7
f 355 353 7
f 354 159 356
f 159 157 356
f 355 7 10
f 357 355 10
f 356 157 358
f 157 152 358
f 357 10 17
f 359 357 17
f 358 152 360
f 359 17 21
f 360 152 361
f 152 150 361
f 359 21 29
f 362 359 29
f 150 144 363
f 361 150 363
f 362 29 35
f 364 362 35
f 144 138 365
f 363 144 365
f 366 364 43
f 364 35 43
f 138 137 367
f 365 138 367
f 366 43 44
f 368 366 44
f 367 137 71
f 368 44 56
f 137 369 69
f 71 137 69
f 370 368 59
f 368 56 59
f 369 371 68
f 69 369 68
f 372 370 65
f 370 59 65
f 371 373 61
f 68 371 61
f 372 65 74
f 374 372 74
f 373 305 57
f 61 373 57
f 374 74 79
f 308 374 79
f 57 305 50
f 308 79 2
f 303 304 375
f 376 303 375
f 376 375 377
f 378 376 377
f 378 377 379
f 380 378 379
f 380 379 381
f 382 380 381
f 382 381 383
f 384 382 383
f 384 383 385
f 386 384 385
f 386 385 387
f 388 387 389
f 388 386 387
f 390 389 391
f 390 388 389
f 392 391 393
f 392 390 391
f 394 392 393
f 394 393 395
f 396 395 397
f 396 394 395
f 398 396 397
f 398 397 399
f 400 399 401
f 400 398 399
f 402 400 401
f 402 401 403
f 404 403 405
f 404 402 403
f 406 405 407
f 406 404 405
f 408 407 409
f 408 406 407
f 410 409 411
f 410 408 409
f 412 411 413
f 412 410 411
f 414 413 415
f 414 412 413
f 416 414 415
f 416 415 417
f 418 416 417
f 418 417 419
f 420 418 419
f 420 419 421
f 422 420 421
f 422 421 423
f 424 422 423
f 424 423 425
f 426 424 425
f 426 425 427
f 428 427 429
f 428 426 427
f 430 429 431
f 430 428 429
f 432 430 431
f 432 431 433
f 434 433 435
f 434 432 433
f 436 434 435
f 436 435 437
f 438 437 439
f 438 436 437
f 440 439 441
f 440 438 439
f 442 441 443
f 442 440 441
f 444 443 445
f 444 442 443
f 446 445 447
f 446 444 445
f 448 447 449
f 448 446 447
f 450 449 451
f 450 448 449
f 452 451 453
f 452 450 451
f 454 453 455
f 454 452 453
f 456 455 457
f 456 454 455
f 458 457 459
f 458 456 457
f 460 459 461
f 460 458 459
f 462 461 463
f 462 460 461
f 464 463 465
f 464 462 463
f 466 465 467
f 466 464 465
f 468 467 469
f 468 466 467
f 470 469 471
f 470 468 469
f 472 470 471
f 472 471 473
f 474 473 475
f 474 472 473
f 476 475 186
f 476 474 475
f 185 476 186
f 224 226 477
f 224 477 478
f 385 149 148
f 385 148 387
f 222 224 478
f 383 149 385
f 223 222 478
f 223 478 479
f 381 143 149
f 381 149 383
f 225 223 479
f 379 143 381
f 228 479 480
f 228 225 479
f 377 140 143
f 377 143 379
f 230 228 480
f 230 480 481
f 375 140 377
f 375 136 140
f 231 230 481
f 304 136 375
f 234 231 481
f 234 481 482
f 302 483 136
f 302 136 304
f 236 482 484
f 236 234 482
f 300 485 483
f 300 483 302
f 241 236 484
f 298 485 300
f 244 241 484
f 244 484 486
f 167 453 451
f 167 451 449
f 296 487 485
f 296 485 298
f 247 244 486
f 294 487 296
f 249 486 488
f 249 247 486
f 169 455 453
f 169 453 167
f 292 489 487
f 162 449 447
f 162 167 449
f 292 487 294
f 252 249 488
f 252 488 490
f 290 491 489
f 290 489 292
f 256 252 490
f 288 491 290
f 174 459 457
f 174 457 455
f 270 256 490
f 174 455 169
f 270 490 492
f 163 447 445
f 163 445 443
f 286 491 288
f 286 493 491
f 272 270 492
f 284 493 286
f 163 162 447
f 282 494 493
f 282 493 284
f 274 272 492
f 274 492 495
f 182 463 461
f 280 496 494
f 182 461 459
f 280 494 282
f 182 459 174
f 276 495 496
f 276 274 495
f 153 163 443
f 153 443 441
f 153 441 439
f 278 276 496
f 278 496 280
f 181 465 463
f 181 463 182
f 154 439 437
f 154 153 439
f 118 469 467
f 118 467 465
f 118 465 181
f 146 437 435
f 146 435 433
f 146 154 437
f 121 473 471
f 121 471 469
f 121 469 118
f 145 433 431
f 145 431 429
f 145 146 433
f 128 475 473
f 128 473 121
f 141 429 427
f 141 145 429
f 130 186 475
f 130 187 186
f 130 475 128
f 134 427 425
f 134 425 423
f 134 141 427
f 497 189 187
f 497 187 130
f 135 134 423
f 135 423 421
f 498 193 191
f 498 191 189
f 498 189 497
f 126 421 419
f 126 419 417
f 126 135 421
f 499 193 498
f 499 197 195
f 499 195 193
f 127 126 417
f 127 417 415
f 127 415 413
f 500 197 499
f 500 199 197
f 123 413 411
f 123 127 413
f 501 199 500
f 501 203 201
f 501 201 199
f 178 123 411
f 178 411 409
f 178 409 407
f 502 203 501
f 502 207 205
f 502 205 203
f 179 178 407
f 179 407 405
f 179 405 403
f 503 207 502
f 503 209 207
f 175 403 401
f 175 179 403
f 504 209 503
f 211 209 504
f 171 175 401
f 399 171 401
f 213 211 504
f 213 504 505
f 397 171 399
f 397 160 171
f 215 213 505
f 215 505 506
f 395 161 160
f 395 160 397
f 217 215 506
f 393 161 395
f 219 506 507
f 219 217 506
f 391 156 161
f 391 161 393
f 221 219 507
f 389 156 391
f 226 507 477
f 226 221 507
f 387 148 156
f 387 156 389
f 508 370 372
f 136 369 137
f 98 351 353
f 509 508 372
f 96 98 353
f 490 510 511
f 478 110 112
f 479 478 112
f 492 490 511
f 495 492 512
f 492 511 512
f 96 353 355
f 94 96 355
f 497 130 131
f 509 372 374
f 513 509 374
f 480 479 115
f 479 112 115
f 497 131 336
f 495 512 514
f 496 495 514
f 498 497 336
f 94 355 357
f 92 94 357
f 498 336 338
f 496 514 515
f 496 515 494
f 92 357 359
f 498 338 339
f 90 92 359
f 513 374 308
f 482 481 116
f 516 513 308
f 481 480 116
f 480 115 116
f 499 498 339
f 499 339 343
f 516 308 307
f 500 499 343
f 517 516 307
f 90 359 362
f 88 90 362
f 484 482 518
f 500 343 345
f 482 116 518
f 517 307 310
f 502 501 345
f 519 517 310
f 501 500 345
f 502 345 347
f 88 362 364
f 519 310 311
f 520 519 311
f 86 88 364
f 503 502 347
f 486 484 521
f 484 518 521
f 505 504 102
f 520 311 313
f 102 504 100
f 504 503 100
f 505 102 104
f 506 505 104
f 86 364 366
f 83 86 366
f 493 494 312
f 494 515 312
f 515 520 312
f 486 521 522
f 520 313 312
f 488 486 522
f 503 347 349
f 100 503 349
f 506 104 106
f 491 493 309
f 493 312 309
f 507 506 106
f 83 366 368
f 84 83 368
f 488 522 523
f 491 309 306
f 477 507 108
f 84 368 370
f 507 106 108
f 489 491 305
f 100 349 351
f 491 306 305
f 508 84 370
f 98 100 351
f 485 487 373
f 487 489 373
f 489 305 373
f 488 523 510
f 483 485 371
f 478 477 110
f 490 488 510
f 485 373 371
f 477 108 110
f 136 483 369
f 483 371 369
f 116 117 233
f 518 116 233
f 521 518 235
f 518 233 235
f 522 521 238
f 521 235 238
f 523 522 240
f 522 238 240
f 510 523 243
f 523 240 243
f 512 511 246
f 511 510 246
f 510 243 246
f 514 512 248
f 512 246 248
f 515 514 251
f 514 248 251
f 520 515 253
f 515 251 253
f 519 520 265
f 520 253 265
f 517 519 263
f 519 265 263
f 516 517 261
f 517 263 261
f 513 516 260
f 516 261 260
f 509 513 258
f 513 260 258
f 509 258 255
f 508 509 255
f 84 508 85
f 508 255 85
f 259 67 66
f 259 262 67
f 472 524 470
f 472 525 524
f 257 66 60
f 257 259 66
f 474 525 472
f 474 526 525
f 254 60 46
f 254 257 60
f 476 19 526
f 476 526 474
f 250 254 46
f 185 19 476
f 184 20 19
f 184 19 185
f 245 46 45
f 245 250 46
f 527 398 400
f 188 28 20
f 527 400 402
f 188 20 184
f 242 245 45
f 528 527 402
f 528 402 404
f 242 45 36
f 239 242 36
f 239 36 30
f 529 398 527
f 190 28 188
f 190 34 28
f 529 396 398
f 530 404 406
f 530 528 404
f 192 34 190
f 237 239 30
f 232 30 23
f 531 394 396
f 232 237 30
f 194 40 34
f 531 396 529
f 532 394 531
f 194 34 192
f 196 41 40
f 532 390 392
f 532 392 394
f 533 530 406
f 196 40 194
f 533 406 408
f 533 408 410
f 229 23 22
f 229 232 23
f 198 53 41
f 198 41 196
f 534 410 412
f 227 229 22
f 227 22 13
f 534 533 410
f 200 55 53
f 535 390 532
f 200 53 198
f 535 388 390
f 220 13 11
f 220 227 13
f 218 220 11
f 536 388 535
f 202 55 200
f 204 63 55
f 536 386 388
f 204 55 202
f 537 412 414
f 216 11 9
f 216 218 11
f 206 77 63
f 206 63 204
f 537 534 412
f 214 9 81
f 214 216 9
f 538 386 536
f 208 78 77
f 208 77 206
f 212 81 78
f 538 384 386
f 212 214 81
f 210 212 78
f 539 414 416
f 210 78 208
f 539 537 414
f 540 380 382
f 540 382 384
f 540 384 538
f 541 539 416
f 541 416 418
f 541 418 420
f 542 378 380
f 542 380 540
f 543 420 422
f 543 541 420
f 544 422 424
f 544 543 422
f 545 376 378
f 545 378 542
f 72 301 303
f 72 303 376
f 72 376 545
f 546 424 426
f 546 426 428
f 546 544 424
f 70 299 301
f 70 301 72
f 547 546 428
f 547 428 430
f 64 297 299
f 64 299 70
f 548 547 430
f 548 430 432
f 549 432 434
f 549 434 436
f 549 548 432
f 58 297 64
f 58 293 295
f 58 295 297
f 54 291 293
f 54 293 58
f 550 549 436
f 550 436 438
f 51 289 291
f 51 291 54
f 551 550 438
f 551 438 440
f 48 287 289
f 48 289 51
f 552 551 440
f 552 440 442
f 553 552 442
f 553 442 444
f 553 444 446
f 38 287 48
f 38 283 285
f 38 285 287
f 32 281 283
f 32 283 38
f 554 553 446
f 554 446 448
f 25 279 281
f 25 281 32
f 555 554 448
f 555 448 450
f 16 279 25
f 556 555 450
f 277 279 16
f 452 556 450
f 275 16 15
f 275 277 16
f 454 557 556
f 454 556 452
f 273 15 6
f 273 275 15
f 456 558 557
f 456 557 454
f 271 6 5
f 271 273 6
f 458 559 558
f 458 558 456
f 269 271 5
f 460 559 458
f 268 269 5
f 268 5 82
f 462 559 460
f 462 560 559
f 267 268 82
f 267 82 3
f 464 560 462
f 464 561 560
f 266 3 75
f 266 267 3
f 466 561 464
f 466 562 561
f 264 75 67
f 264 266 75
f 468 562 466
f 468 524 562
f 262 264 67
f 470 524 468
f 321 324 552
f 346 528 530
f 319 552 553
f 319 553 554
f 346 348 528
f 319 321 552
f 344 530 533
f 344 533 534
f 318 554 555
f 344 346 530
f 318 319 554
f 341 534 537
f 314 318 555
f 341 344 534
f 367 71 72
f 367 72 545
f 315 555 556
f 315 556 557
f 342 341 537
f 315 314 555
f 365 545 542
f 340 537 539
f 365 542 540
f 340 539 541
f 316 315 557
f 340 342 537
f 365 367 545
f 363 365 540
f 363 540 538
f 317 316 557
f 317 557 558
f 337 340 541
f 335 541 543
f 320 317 558
f 335 337 541
f 320 558 559
f 361 363 538
f 320 559 560
f 333 543 544
f 360 538 536
f 322 320 560
f 333 335 543
f 360 361 538
f 334 544 546
f 334 546 547
f 325 322 560
f 358 536 535
f 358 535 532
f 325 560 561
f 334 333 544
f 358 360 536
f 326 561 562
f 331 334 547
f 326 562 524
f 326 325 561
f 356 358 532
f 328 326 524
f 329 547 548
f 329 548 549
f 330 524 525
f 330 328 524
f 330 525 526
f 354 532 531
f 354 531 529
f 329 331 547
f 332 330 526
f 354 356 532
f 26 526 19
f 327 329 549
f 26 332 526
f 327 549 550
f 352 354 529
f 323 550 551
f 323 327 550
f 350 529 527
f 350 527 528
f 324 551 552
f 350 352 529
f 324 323 551
f 348 350 528
