# Created by FreeCAD <http://www.freecadweb.org>
v -28.398674 514.198242 501.600006
v -28.249914 514.015564 501.600006
v -28.249914 514.015564 501.899994
v -28.532644 514.391968 501.600006
v -28.398674 514.198242 501.899994
v -28.532644 514.391968 501.899994
v -28.651001 514.595642 501.899994
v -25.483589 513.044800 501.600006
v -25.253317 513.094421 501.600006
v -25.483589 513.044800 501.899994
v -25.717045 513.013367 501.600006
v -25.717045 513.013367 501.899994
v -28.651001 514.595642 501.600006
v -25.952246 513.000366 501.600006
v -25.952246 513.000366 501.899994
v -28.753012 514.807983 501.600006
v -28.753012 514.807983 501.899994
v -23.417452 514.473450 501.600006
v -23.305639 514.680725 501.899994
v -23.417452 514.473450 501.899994
v -26.187740 513.005859 501.600006
v -26.187740 513.005859 501.899994
v -26.422077 513.029846 501.899994
v -23.305639 514.680725 501.600006
v -28.838051 515.027649 501.600006
v -28.838051 515.027649 501.899994
v -28.905592 515.253296 501.899994
v -23.545187 514.275513 501.600006
v -23.545187 514.275513 501.899994
v -26.422077 513.029846 501.600006
v -26.653812 513.072083 501.899994
v -28.905592 515.253296 501.600006
v -28.955219 515.483582 501.899994
v -23.688057 514.088196 501.600006
v -23.688057 514.088196 501.899994
v -26.653812 513.072083 501.600006
v -26.881516 513.132446 501.899994
v -28.955219 515.483582 501.600006
v -23.845181 513.912720 501.600006
v -23.845181 513.912720 501.899994
v -24.015589 513.750061 501.899994
v -28.986626 515.717041 501.600006
v -26.881516 513.132446 501.600006
v -28.986626 515.717041 501.899994
v -27.103785 513.210449 501.600006
v -27.103785 513.210449 501.899994
v -27.319248 513.305664 501.899994
v -28.999620 515.952271 501.600006
v -24.015589 513.750061 501.600006
v -28.999620 515.952271 501.899994
v -24.198233 513.601318 501.600006
v -24.198233 513.601318 501.899994
v -24.391985 513.467346 501.899994
v -28.994120 516.187744 501.600006
v -27.319248 513.305664 501.600006
v -28.994120 516.187744 501.899994
v -27.526579 513.417480 501.600006
v -27.526579 513.417480 501.899994
v -28.970160 516.422058 501.600006
v -28.970160 516.422058 501.899994
v -28.927889 516.653809 501.899994
v -24.391985 513.467346 501.600006
v -24.595652 513.348999 501.899994
v -28.927889 516.653809 501.600006
v -28.867565 516.881531 501.899994
v -27.724497 513.545166 501.600006
v -27.724497 513.545166 501.899994
v -27.911783 513.688049 501.899994
v -28.867565 516.881531 501.600006
v -28.789562 517.103760 501.600006
v -28.789562 517.103760 501.899994
v -24.595652 513.348999 501.600006
v -28.694361 517.319275 501.600006
v -28.694361 517.319275 501.899994
v -24.807976 513.247009 501.600006
v -24.807976 513.247009 501.899994
v -27.911783 513.688049 501.600006
v -28.087284 513.845154 501.600006
v -28.087284 513.845154 501.899994
v -25.027649 513.161926 501.600006
v -25.027649 513.161926 501.899994
v -25.253317 513.094421 501.899994
v -26.745945 514.090637 503.011566
v -26.901487 514.158875 503.000000
v -28.198748 511.509399 503.000000
v -26.588760 514.036438 503.045654
v -28.037136 511.433899 503.012909
v -26.364183 513.982605 503.132446
v -27.875925 511.365295 503.051056
v -26.154722 513.955872 503.257385
v -27.664816 511.285309 503.141724
v -25.966614 513.950256 503.416260
v -27.470995 511.221283 503.273438
v -25.807404 513.959106 503.604492
v -27.302094 511.172516 503.441650
v -25.685925 513.974182 503.817932
v -27.165846 511.137817 503.640015
v -25.611521 513.987000 504.052063
v -27.068550 511.115509 503.861969
v -25.593031 513.990784 504.297943
v -27.015621 511.104218 504.098572
v -25.634352 513.982727 504.540924
v -27.009766 511.102997 504.341827
v -25.728001 513.968140 504.767578
v -27.051523 511.111786 504.581177
v -25.864672 513.954529 504.971100
v -27.137884 511.131195 504.806763
v -26.035299 513.950317 505.147888
v -27.265049 511.162689 505.011597
v -26.232634 513.963318 505.294434
v -27.445715 511.213593 505.205048
v -26.448906 513.999756 505.405640
v -27.681549 511.291260 505.367279
v -27.935740 511.389954 505.466217
v -26.676035 514.064697 505.475983
v -26.901487 514.158875 505.500000
v -28.198748 511.509399 505.500000
v -23.976444 515.671814 506.600006
v -23.954018 515.871704 501.600006
v -23.976444 515.671814 501.600006
v -24.018358 515.475037 506.600006
v -24.018358 515.475037 501.600006
v -25.871712 518.045959 506.600006
v -25.871712 518.045959 501.600006
v -25.671787 518.023560 501.600006
v -25.475025 517.981628 506.600006
v -25.671787 518.023560 506.600006
v -24.079357 515.283325 506.600006
v -24.079357 515.283325 501.600006
v -24.158854 515.098511 506.600006
v -24.158854 515.098511 501.600006
v -25.475025 517.981628 501.600006
v -25.283318 517.920654 501.600006
v -25.098513 517.841125 506.600006
v -25.283318 517.920654 506.600006
v -27.841146 516.901489 506.600006
v -27.841146 516.901489 501.600006
v -27.743919 517.077637 501.600006
v -25.098513 517.841125 501.600006
v -27.743919 517.077637 506.600006
v -24.922390 517.743896 506.600006
v -24.922390 517.743896 501.600006
v -27.629898 517.243347 506.600006
v -27.629898 517.243347 501.600006
v -24.756645 517.629883 506.600006
v -24.602875 517.500183 506.600006
v -24.756645 517.629883 501.600006
v -27.356014 517.537415 506.600006
v -27.500179 517.397156 506.600006
v -27.500179 517.397156 501.600006
v -24.602875 517.500183 501.600006
v -27.356014 517.537415 501.600006
v -24.337049 517.198792 506.600006
v -24.462559 517.356018 506.600006
v -24.462559 517.356018 501.600006
v -27.198790 517.662964 506.600006
v -27.198790 517.662964 501.600006
v -24.337049 517.198792 501.600006
v -27.030018 517.772461 501.600006
v -26.851328 517.864868 506.600006
v -27.030018 517.772461 506.600006
v -24.135130 516.851318 506.600006
v -24.227554 517.030029 506.600006
v -24.227554 517.030029 501.600006
v -26.851328 517.864868 501.600006
v -24.135130 516.851318 501.600006
v -24.060665 516.664429 506.600006
v -26.664440 517.939331 501.600006
v -24.004877 516.471130 506.600006
v -24.060665 516.664429 501.600006
v -26.664440 517.939331 506.600006
v -26.471153 517.995117 501.600006
v -24.004877 516.471130 501.600006
v -23.968304 516.273315 506.600006
v -26.471153 517.995117 506.600006
v -26.273327 518.031677 501.600006
v -23.968304 516.273315 501.600006
v -26.072870 518.048706 506.600006
v -26.273327 518.031677 506.600006
v -26.072870 518.048706 501.600006
v -23.954018 515.871704 506.600006
v -23.951296 516.072876 506.600006
v -23.951296 516.072876 501.600006
v -21.650349 513.534119 501.899994
v -21.509398 513.801270 501.899994
v -21.509398 513.801270 506.600006
v -21.650349 513.534119 506.600006
v -21.807169 513.276001 501.899994
v -21.807169 513.276001 506.600006
v -21.979290 513.027832 501.899994
v -21.979290 513.027832 506.600006
v -22.166080 512.790466 501.899994
v -22.166080 512.790466 506.600006
v -22.366863 512.564819 501.899994
v -22.366863 512.564819 506.600006
v -22.580900 512.351746 501.899994
v -22.580900 512.351746 506.600006
v -22.807415 512.151978 501.899994
v -22.807415 512.151978 506.600006
v -23.045578 511.966217 501.899994
v -23.045578 511.966217 506.600006
v -23.294521 511.795197 501.899994
v -23.294521 511.795197 506.600006
v -23.553339 511.639526 501.899994
v -23.553339 511.639526 506.600006
v -23.821081 511.499756 501.899994
v -23.821081 511.499756 506.600006
v -24.096775 511.376404 501.899994
v -24.096775 511.376404 506.600006
v -24.379414 511.269928 501.899994
v -24.379414 511.269928 506.600006
v -24.667967 511.180695 501.899994
v -24.667967 511.180695 506.600006
v -24.961378 511.109070 501.899994
v -24.961378 511.109070 506.600006
v -25.258581 511.055267 501.899994
v -25.258581 511.055267 506.600006
v -25.558489 511.019531 501.899994
v -25.558489 511.019531 506.600006
v -25.860008 511.001953 501.899994
v -25.860008 511.001953 506.600006
v -26.763222 511.058594 506.600006
v -27.060184 511.113678 506.600006
v -26.463476 511.021515 506.600006
v -27.353279 511.186615 506.600006
v -26.162037 511.002625 506.600006
v -26.162037 511.002625 501.899994
v -27.641434 511.277100 506.600006
v -26.463476 511.021515 501.899994
v -27.923601 511.384827 506.600006
v -28.198748 511.509399 506.600006
v -26.763222 511.058594 501.899994
v -28.335224 511.578888 505.490540
v -28.465872 511.650360 506.600006
v -28.466972 511.651031 505.462585
v -28.723999 511.807159 506.600006
v -27.060184 511.113678 501.899994
v -28.663031 511.768188 505.381683
v -27.353279 511.186615 501.899994
v -28.837711 511.883331 505.258514
v -28.972185 511.979279 506.600006
v -27.641434 511.277100 501.899994
v -28.985710 511.989319 505.098541
v -29.209528 512.166077 506.600006
v -27.923601 511.384827 501.899994
v -29.103609 512.079834 504.906586
v -29.435158 512.366882 506.600006
v -29.188545 512.148621 504.689819
v -29.648254 512.580872 506.600006
v -28.198748 511.509399 501.899994
v -29.238249 512.190308 504.455322
v -29.848038 512.807434 506.600006
v -29.251165 512.201294 504.213593
v -28.465872 511.650360 501.899994
v -28.453245 511.643311 503.033661
v -30.033781 513.045593 506.600006
v -28.723999 511.807159 501.899994
v -28.686737 511.783203 503.131836
v -28.972185 511.979279 501.899994
v -28.893431 511.922272 503.294189
v -29.058964 512.044922 503.510834
v -29.209528 512.166077 501.899994
v -29.166685 512.130615 503.742859
v -29.435158 512.366882 501.899994
v -29.227207 512.180908 503.973083
v -29.648254 512.580872 501.899994
v -29.848038 512.807434 501.899994
v -30.033781 513.045593 501.899994
v -30.204805 513.294495 501.899994
v -30.204805 513.294495 506.600006
v -30.360487 513.553345 501.899994
v -30.360487 513.553345 506.600006
v -30.500257 513.821106 501.899994
v -30.500257 513.821106 506.600006
v -30.623606 514.096802 501.899994
v -30.623606 514.096802 506.600006
v -30.730085 514.379395 501.899994
v -30.730085 514.379395 506.600006
v -30.819304 514.667969 501.899994
v -30.819304 514.667969 506.600006
v -30.890938 514.961365 501.899994
v -30.890938 514.961365 506.600006
v -30.944725 515.258606 501.899994
v -30.944725 515.258606 506.600006
v -30.980469 515.558472 501.899994
v -30.980469 515.558472 506.600006
v -30.998039 515.859985 501.899994
v -30.998039 515.859985 506.600006
v -30.997374 516.162048 501.899994
v -30.997374 516.162048 506.600006
v -30.978472 516.463501 501.899994
v -30.978472 516.463501 506.600006
v -30.941406 516.763245 501.899994
v -30.941406 516.763245 506.600006
v -30.886309 517.060181 501.899994
v -30.886309 517.060181 506.600006
v -30.813381 517.353271 501.899994
v -30.813381 517.353271 506.600006
v -30.722891 517.641418 501.899994
v -30.722891 517.641418 506.600006
v -30.615166 517.923584 501.899994
v -30.615166 517.923584 506.600006
v -30.490602 518.198730 501.899994
v -30.490602 518.198730 506.600006
v -28.045982 516.128296 501.600006
v -28.048704 515.927124 501.600006
v -27.662951 514.801208 501.600006
v -27.537441 514.643982 501.600006
v -28.031696 515.726685 501.600006
v -27.772446 514.969971 501.600006
v -27.864870 515.148682 501.600006
v -27.995123 515.528870 501.600006
v -27.939335 515.335571 501.600006
v -23.246988 517.192017 501.600006
v -23.161949 516.972351 501.600006
v -23.094408 516.746704 501.600006
v -23.044781 516.516418 501.600006
v -23.348999 517.404358 501.600006
v -23.013374 516.282959 501.600006
v -23.467356 517.608032 501.600006
v -23.601326 517.801758 501.600006
v -23.000380 516.047729 501.600006
v -23.912716 518.154846 501.600006
v -23.750086 517.984436 501.600006
v -23.005880 515.812256 501.600006
v -23.029840 515.577942 501.600006
v -24.088217 518.311951 501.600006
v -23.072111 515.346191 501.600006
v -24.275503 518.454834 501.600006
v -23.132435 515.118469 501.600006
v -24.473421 518.582520 501.600006
v -23.210438 514.896240 501.600006
v -24.896215 518.789551 501.600006
v -24.680752 518.694336 501.600006
v -25.118484 518.867554 501.600006
v -24.256081 514.922363 501.600006
v -25.346188 518.927917 501.600006
v -24.370102 514.756653 501.600006
v -24.499821 514.602844 501.600006
v -25.577923 518.970154 501.600006
v -26.047754 518.999634 501.600006
v -25.812260 518.994141 501.600006
v -24.643986 514.462585 501.600006
v -26.282955 518.986633 501.600006
v -24.801210 514.337036 501.600006
v -26.516411 518.955200 501.600006
v -24.969982 514.227539 501.600006
v -25.148672 514.135132 501.600006
v -26.746683 518.905579 501.600006
v -26.972351 518.838074 501.600006
v -25.335560 514.060669 501.600006
v -27.192024 518.752991 501.600006
v -25.528847 514.004883 501.600006
v -27.404348 518.651001 501.600006
v -25.726673 513.968323 501.600006
v -27.608015 518.532654 501.600006
v -25.927130 513.951294 501.600006
v -27.801767 518.398682 501.600006
v -26.128288 513.954041 501.600006
v -27.984411 518.249939 501.600006
v -28.154819 518.087280 501.600006
v -26.328213 513.976440 501.600006
v -28.311943 517.911804 501.600006
v -26.524975 514.018372 501.600006
v -28.454813 517.724487 501.600006
v -26.716682 514.079346 501.600006
v -28.582548 517.526550 501.600006
v -26.901487 514.158875 501.600006
v -27.920643 516.716675 501.600006
v -27.077610 514.256104 501.600006
v -27.981642 516.524963 501.600006
v -27.243355 514.370117 501.600006
v -28.023556 516.328186 501.600006
v -27.397125 514.499817 501.600006
v -30.349651 518.465881 506.600006
v -30.349651 518.465881 501.899994
v -30.192831 518.723999 506.600006
v -30.192831 518.723999 501.899994
v -30.020710 518.972168 506.600006
v -30.020710 518.972168 501.899994
v -29.833920 519.209534 506.600006
v -29.833920 519.209534 501.899994
v -29.633137 519.435181 506.600006
v -29.633137 519.435181 501.899994
v -29.419100 519.648254 506.600006
v -29.419100 519.648254 501.899994
v -29.192585 519.848022 506.600006
v -29.192585 519.848022 501.899994
v -28.954422 520.033752 506.600006
v -28.954422 520.033752 501.899994
v -28.705479 520.204834 506.600006
v -28.705479 520.204834 501.899994
v -28.446661 520.360474 506.600006
v -28.446661 520.360474 501.899994
v -28.178919 520.500244 506.600006
v -28.178919 520.500244 501.899994
v -27.903225 520.623596 506.600006
v -27.903225 520.623596 501.899994
v -27.620586 520.730103 506.600006
v -27.620586 520.730103 501.899994
v -27.332033 520.819275 506.600006
v -27.332033 520.819275 501.899994
v -27.038622 520.890930 506.600006
v -27.038622 520.890930 501.899994
v -26.741419 520.944702 506.600006
v -26.741419 520.944702 501.899994
v -26.441511 520.980469 506.600006
v -26.441511 520.980469 501.899994
v -26.139992 520.998047 506.600006
v -26.139992 520.998047 501.899994
v -25.837963 520.997375 506.600006
v -25.837963 520.997375 501.899994
v -25.536524 520.978455 506.600006
v -25.536524 520.978455 501.899994
v -25.236778 520.941406 506.600006
v -25.236778 520.941406 501.899994
v -24.939816 520.886292 506.600006
v -24.939816 520.886292 501.899994
v -24.646721 520.813354 506.600006
v -24.646721 520.813354 501.899994
v -24.358566 520.722900 506.600006
v -24.358566 520.722900 501.899994
v -24.076399 520.615173 506.600006
v -24.076399 520.615173 501.899994
v -23.801252 520.490601 506.600006
v -23.801252 520.490601 501.899994
v -23.534128 520.349670 506.600006
v -23.534128 520.349670 501.899994
v -23.276001 520.192810 506.600006
v -23.276001 520.192810 501.899994
v -23.027815 520.020691 506.600006
v -23.027815 520.020691 501.899994
v -22.790472 519.833923 506.600006
v -22.790472 519.833923 501.899994
v -22.564842 519.633118 506.600006
v -22.564842 519.633118 501.899994
v -22.351746 519.419128 506.600006
v -22.351746 519.419128 501.899994
v -22.151962 519.192566 506.600006
v -22.151962 519.192566 501.899994
v -21.966219 518.954407 506.600006
v -21.966219 518.954407 501.899994
v -21.795195 518.705505 506.600006
v -21.795195 518.705505 501.899994
v -21.639513 518.446655 506.600006
v -21.639513 518.446655 501.899994
v -21.499743 518.178894 506.600006
v -21.499743 518.178894 501.899994
v -21.376394 517.903198 506.600006
v -21.376394 517.903198 501.899994
v -21.269915 517.620605 506.600006
v -21.269915 517.620605 501.899994
v -21.180696 517.332031 506.600006
v -21.180696 517.332031 501.899994
v -21.109062 517.038635 506.600006
v -21.109062 517.038635 501.899994
v -21.055275 516.741394 506.600006
v -21.055275 516.741394 501.899994
v -21.019531 516.441528 506.600006
v -21.019531 516.441528 501.899994
v -21.001961 516.140015 506.600006
v -21.001961 516.140015 501.899994
v -21.002626 515.837952 506.600006
v -21.002626 515.837952 501.899994
v -21.021528 515.536499 506.600006
v -21.021528 515.536499 501.899994
v -21.058594 515.236755 506.600006
v -21.058594 515.236755 501.899994
v -21.113691 514.939819 506.600006
v -21.113691 514.939819 501.899994
v -21.186619 514.646729 506.600006
v -21.186619 514.646729 501.899994
v -21.277109 514.358582 506.600006
v -21.277109 514.358582 501.899994
v -21.384834 514.076416 506.600006
v -21.384834 514.076416 501.899994
v -26.128288 513.954041 506.600006
v -26.328213 513.976440 506.600006
v -26.524975 514.018372 506.600006
v -26.716682 514.079346 506.600006
v -26.901487 514.158875 506.600006
v -27.920643 516.716675 506.600006
v -27.077610 514.256104 506.600006
v -27.981642 516.524963 506.600006
v -27.243355 514.370117 506.600006
v -28.023556 516.328186 506.600006
v -27.397125 514.499817 506.600006
v -27.537441 514.643982 506.600006
v -28.045982 516.128296 506.600006
v -28.048704 515.927124 506.600006
v -27.662951 514.801208 506.600006
v -27.772446 514.969971 506.600006
v -28.031696 515.726685 506.600006
v -27.995123 515.528870 506.600006
v -27.864870 515.148682 506.600006
v -27.939335 515.335571 506.600006
v -24.256081 514.922363 506.600006
v -24.370102 514.756653 506.600006
v -24.499821 514.602844 506.600006
v -24.643986 514.462585 506.600006
v -24.801210 514.337036 506.600006
v -24.969982 514.227539 506.600006
v -25.148672 514.135132 506.600006
v -25.335560 514.060669 506.600006
v -25.528847 514.004883 506.600006
v -25.726673 513.968323 506.600006
v -25.927130 513.951294 506.600006
v -27.134266 514.292603 503.029205
v -27.338478 514.447266 503.112976
v -27.636833 514.765808 505.088196
v -27.719620 514.884033 504.922577
v -27.779985 514.983093 504.736481
v -27.507692 514.611084 503.245056
v -27.818790 515.053894 504.532593
v -27.836138 515.088257 504.317413
v -27.640654 514.770874 503.418091
v -27.738010 514.912903 503.625427
v -27.083891 514.260010 505.482513
v -27.802191 515.022949 503.864075
v -27.831968 515.079956 504.098572
v -27.248350 514.373901 505.432220
v -27.401720 514.504150 505.345947
v -27.531075 514.636780 505.230286
v -23.072111 515.346191 501.899994
v -23.132435 515.118469 501.899994
v -23.210438 514.896240 501.899994
v -26.972351 518.838074 501.899994
v -26.746683 518.905579 501.899994
v -27.192024 518.752991 501.899994
v -26.516411 518.955200 501.899994
v -27.404348 518.651001 501.899994
v -27.608015 518.532654 501.899994
v -26.282955 518.986633 501.899994
v -26.047754 518.999634 501.899994
v -27.801767 518.398682 501.899994
v -25.812260 518.994141 501.899994
v -27.984411 518.249939 501.899994
v -25.577923 518.970154 501.899994
v -28.154819 518.087280 501.899994
v -25.346188 518.927917 501.899994
v -28.311943 517.911804 501.899994
v -25.118484 518.867554 501.899994
v -28.454813 517.724487 501.899994
v -24.896215 518.789551 501.899994
v -28.582548 517.526550 501.899994
v -24.680752 518.694336 501.899994
v -24.473421 518.582520 501.899994
v -24.275503 518.454834 501.899994
v -24.088217 518.311951 501.899994
v -23.912716 518.154846 501.899994
v -23.750086 517.984436 501.899994
v -23.601326 517.801758 501.899994
v -23.467356 517.608032 501.899994
v -23.348999 517.404358 501.899994
v -23.246988 517.192017 501.899994
v -23.161949 516.972351 501.899994
v -23.094408 516.746704 501.899994
v -23.044781 516.516418 501.899994
v -23.013374 516.282959 501.899994
v -23.000380 516.047729 501.899994
v -23.005880 515.812256 501.899994
v -23.029840 515.577942 501.899994
f 1 2 3
f 4 5 6
f 4 6 7
f 8 9 10
f 4 1 5
f 11 10 12
f 11 8 10
f 13 4 7
f 14 12 15
f 16 13 7
f 16 7 17
f 14 11 12
f 18 19 20
f 21 15 22
f 21 22 23
f 18 24 19
f 25 17 26
f 25 26 27
f 21 14 15
f 28 20 29
f 25 16 17
f 30 23 31
f 28 18 20
f 32 25 27
f 32 27 33
f 30 21 23
f 34 29 35
f 34 28 29
f 36 31 37
f 38 32 33
f 36 30 31
f 39 35 40
f 39 40 41
f 39 34 35
f 42 38 33
f 43 36 37
f 42 33 44
f 45 37 46
f 45 46 47
f 48 42 44
f 45 43 37
f 49 39 41
f 48 44 50
f 51 41 52
f 51 52 53
f 54 48 50
f 55 45 47
f 54 50 56
f 51 49 41
f 57 47 58
f 59 56 60
f 59 60 61
f 62 53 63
f 59 54 56
f 57 55 47
f 62 51 53
f 64 61 65
f 66 58 67
f 64 59 61
f 66 67 68
f 69 64 65
f 66 57 58
f 70 65 71
f 72 62 63
f 70 69 65
f 73 71 74
f 73 70 71
f 75 63 76
f 77 66 68
f 78 68 79
f 75 72 63
f 78 79 3
f 80 76 81
f 78 77 68
f 80 75 76
f 2 78 3
f 9 81 82
f 9 82 10
f 1 3 5
f 9 80 81
f 83 84 85
f 86 83 87
f 83 85 87
f 88 86 89
f 86 87 89
f 90 88 91
f 88 89 91
f 92 90 93
f 90 91 93
f 94 92 95
f 92 93 95
f 96 94 97
f 94 95 97
f 98 96 99
f 96 97 99
f 100 98 101
f 98 99 101
f 102 100 103
f 100 101 103
f 104 102 105
f 102 103 105
f 106 104 107
f 104 105 107
f 108 106 109
f 106 107 109
f 110 108 111
f 108 109 111
f 112 110 113
f 110 111 113
f 112 113 114
f 115 112 114
f 116 115 117
f 115 114 117
f 118 119 120
f 121 118 122
f 123 124 125
f 118 120 122
f 126 127 125
f 128 121 129
f 127 123 125
f 121 122 129
f 130 128 131
f 126 125 132
f 128 129 131
f 126 132 133
f 134 135 133
f 135 126 133
f 136 137 138
f 134 133 139
f 140 136 138
f 141 134 139
f 141 139 142
f 143 140 144
f 145 141 142
f 140 138 144
f 146 145 147
f 145 142 147
f 148 149 150
f 149 143 150
f 143 144 150
f 146 147 151
f 148 150 152
f 153 154 155
f 154 146 155
f 146 151 155
f 156 148 157
f 153 155 158
f 148 152 157
f 156 157 159
f 160 161 159
f 161 156 159
f 162 163 164
f 163 153 164
f 153 158 164
f 160 159 165
f 162 164 166
f 167 162 166
f 160 165 168
f 169 167 170
f 171 160 168
f 167 166 170
f 171 168 172
f 169 170 173
f 174 169 173
f 175 171 172
f 175 172 176
f 174 173 177
f 178 179 176
f 179 175 176
f 178 176 180
f 181 182 183
f 182 174 183
f 174 177 183
f 178 180 124
f 118 181 119
f 181 183 119
f 123 178 124
f 184 185 186
f 184 186 187
f 188 184 187
f 188 187 189
f 190 188 189
f 190 189 191
f 192 190 191
f 192 191 193
f 194 192 193
f 194 193 195
f 196 194 195
f 196 195 197
f 198 197 199
f 198 196 197
f 200 199 201
f 200 198 199
f 202 201 203
f 202 200 201
f 204 202 203
f 204 203 205
f 206 205 207
f 206 204 205
f 208 206 207
f 208 207 209
f 210 208 209
f 210 209 211
f 212 210 211
f 212 211 213
f 214 212 213
f 214 213 215
f 216 214 215
f 216 215 217
f 218 216 217
f 218 217 219
f 220 218 219
f 220 219 221
f 107 222 223
f 105 222 107
f 105 224 222
f 109 107 223
f 109 223 225
f 103 220 221
f 103 224 105
f 103 226 224
f 103 221 226
f 111 109 225
f 227 103 101
f 227 220 103
f 113 111 225
f 113 225 228
f 229 101 99
f 229 227 101
f 114 113 228
f 114 228 230
f 117 114 230
f 117 230 231
f 232 99 97
f 232 229 99
f 233 231 234
f 233 117 231
f 235 234 236
f 235 233 234
f 237 97 95
f 237 232 97
f 238 235 236
f 239 95 93
f 239 93 91
f 239 237 95
f 240 236 241
f 240 238 236
f 242 91 89
f 242 239 91
f 243 241 244
f 243 240 241
f 245 89 87
f 245 242 89
f 246 244 247
f 246 243 244
f 248 247 249
f 248 246 247
f 250 87 85
f 250 245 87
f 251 248 249
f 251 249 252
f 253 251 252
f 254 250 85
f 254 85 255
f 256 253 252
f 257 255 258
f 257 254 255
f 259 258 260
f 259 260 261
f 259 257 258
f 262 261 263
f 262 259 261
f 264 263 265
f 264 262 263
f 266 265 253
f 266 264 265
f 267 266 253
f 268 253 256
f 268 267 253
f 269 268 256
f 269 256 270
f 271 270 272
f 271 269 270
f 273 272 274
f 273 271 272
f 275 274 276
f 275 273 274
f 277 276 278
f 277 275 276
f 279 278 280
f 279 277 278
f 281 280 282
f 281 279 280
f 283 282 284
f 283 281 282
f 285 284 286
f 285 283 284
f 287 286 288
f 287 285 286
f 289 288 290
f 289 287 288
f 291 290 292
f 291 289 290
f 293 292 294
f 293 291 292
f 295 294 296
f 295 293 294
f 297 296 298
f 297 295 296
f 299 298 300
f 299 297 298
f 301 300 302
f 301 299 300
f 303 301 302
f 303 302 304
f 54 305 48
f 305 306 48
f 307 308 1
f 308 2 1
f 306 309 42
f 48 306 42
f 307 1 4
f 310 307 4
f 310 4 13
f 311 310 13
f 309 312 38
f 42 309 38
f 311 13 16
f 313 311 16
f 38 312 32
f 312 313 32
f 313 16 25
f 32 313 25
f 314 315 170
f 315 316 170
f 316 317 173
f 170 316 173
f 318 314 166
f 314 170 166
f 317 319 177
f 173 317 177
f 320 318 164
f 318 166 164
f 321 320 158
f 320 164 158
f 319 322 183
f 177 319 183
f 323 324 155
f 324 321 155
f 321 158 155
f 322 325 119
f 325 326 119
f 183 322 119
f 327 323 151
f 323 155 151
f 326 328 120
f 119 326 120
f 327 151 147
f 329 327 147
f 120 328 122
f 328 330 122
f 329 147 142
f 331 329 142
f 330 332 129
f 122 330 129
f 333 334 139
f 334 331 139
f 331 142 139
f 129 332 131
f 332 24 131
f 24 18 131
f 333 139 133
f 335 333 133
f 131 18 336
f 18 28 336
f 337 335 132
f 335 133 132
f 336 28 338
f 28 34 338
f 338 34 339
f 34 39 339
f 337 132 125
f 340 337 125
f 341 342 124
f 342 340 124
f 340 125 124
f 339 39 343
f 39 49 343
f 49 51 343
f 344 341 180
f 341 124 180
f 343 51 345
f 51 62 345
f 346 344 176
f 344 180 176
f 345 62 347
f 62 72 347
f 72 75 348
f 347 72 348
f 349 346 172
f 346 176 172
f 350 349 168
f 349 172 168
f 348 75 351
f 351 75 80
f 168 165 352
f 350 168 352
f 353 351 9
f 351 80 9
f 165 159 354
f 352 165 354
f 353 9 8
f 355 353 8
f 354 159 356
f 159 157 356
f 355 8 11
f 357 355 11
f 356 157 358
f 157 152 358
f 357 11 14
f 359 357 14
f 358 152 360
f 359 14 21
f 360 152 361
f 152 150 361
f 359 21 30
f 362 359 30
f 361 150 363
f 150 144 363
f 362 30 36
f 364 362 36
f 144 138 365
f 363 144 365
f 366 364 43
f 364 36 43
f 138 137 367
f 365 138 367
f 366 43 45
f 368 366 45
f 367 137 73
f 368 45 55
f 137 369 70
f 73 137 70
f 370 368 57
f 368 55 57
f 369 371 69
f 70 369 69
f 372 370 66
f 370 57 66
f 371 373 64
f 69 371 64
f 374 372 77
f 372 66 77
f 64 373 59
f 373 305 59
f 374 77 78
f 308 374 78
f 59 305 54
f 308 78 2
f 303 304 375
f 376 303 375
f 376 375 377
f 378 376 377
f 378 377 379
f 380 378 379
f 380 379 381
f 382 380 381
f 382 381 383
f 384 382 383
f 384 383 385
f 386 384 385
f 386 385 387
f 388 387 389
f 388 386 387
f 390 389 391
f 390 388 389
f 392 391 393
f 392 390 391
f 394 392 393
f 394 393 395
f 396 395 397
f 396 394 395
f 398 396 397
f 398 397 399
f 400 399 401
f 400 398 399
f 402 400 401
f 402 401 403
f 404 403 405
f 404 402 403
f 406 405 407
f 406 404 405
f 408 407 409
f 408 406 407
f 410 409 411
f 410 408 409
f 412 411 413
f 412 410 411
f 414 413 415
f 414 412 413
f 416 414 415
f 416 415 417
f 418 416 417
f 418 417 419
f 420 418 419
f 420 419 421
f 422 420 421
f 422 421 423
f 424 422 423
f 424 423 425
f 426 424 425
f 426 425 427
f 428 427 429
f 428 426 427
f 430 429 431
f 430 428 429
f 432 430 431
f 432 431 433
f 434 433 435
f 434 432 433
f 436 434 435
f 436 435 437
f 438 437 439
f 438 436 437
f 440 439 441
f 440 438 439
f 442 441 443
f 442 440 441
f 444 443 445
f 444 442 443
f 446 445 447
f 446 444 445
f 448 447 449
f 448 446 447
f 450 449 451
f 450 448 449
f 452 451 453
f 452 450 451
f 454 453 455
f 454 452 453
f 456 455 457
f 456 454 455
f 458 457 459
f 458 456 457
f 460 459 461
f 460 458 459
f 462 461 463
f 462 460 461
f 464 463 465
f 464 462 463
f 466 465 467
f 466 464 465
f 468 467 469
f 468 466 467
f 470 469 471
f 470 468 469
f 472 470 471
f 472 471 473
f 474 473 475
f 474 472 473
f 476 475 186
f 476 474 475
f 185 476 186
f 224 226 477
f 224 477 478
f 385 149 148
f 385 148 387
f 222 224 478
f 383 149 385
f 223 478 479
f 223 222 478
f 381 143 149
f 381 149 383
f 225 223 479
f 379 143 381
f 228 479 480
f 228 225 479
f 377 140 143
f 377 143 379
f 230 228 480
f 230 480 481
f 375 140 377
f 375 136 140
f 304 136 375
f 231 230 481
f 302 482 136
f 302 136 304
f 234 231 481
f 234 481 483
f 300 484 482
f 300 482 302
f 236 483 485
f 236 234 483
f 298 484 300
f 241 236 485
f 167 453 451
f 167 451 449
f 296 486 484
f 296 484 298
f 244 241 485
f 244 485 487
f 294 486 296
f 247 244 487
f 169 455 453
f 169 453 167
f 249 247 487
f 162 449 447
f 249 487 488
f 292 489 486
f 162 167 449
f 292 486 294
f 290 490 489
f 290 489 292
f 252 488 491
f 252 249 488
f 174 459 457
f 174 457 455
f 288 490 290
f 174 455 169
f 256 252 491
f 163 447 445
f 163 445 443
f 270 491 492
f 270 256 491
f 286 493 490
f 286 490 288
f 284 493 286
f 163 162 447
f 272 270 492
f 282 494 493
f 282 493 284
f 182 463 461
f 182 461 459
f 182 459 174
f 274 492 495
f 274 272 492
f 280 496 494
f 153 163 443
f 153 443 441
f 280 494 282
f 153 441 439
f 276 495 496
f 276 274 495
f 278 276 496
f 278 496 280
f 154 439 437
f 154 153 439
f 181 465 463
f 181 463 182
f 118 469 467
f 118 467 465
f 118 465 181
f 146 154 437
f 146 437 435
f 146 435 433
f 145 433 431
f 145 431 429
f 145 146 433
f 121 473 471
f 121 471 469
f 121 469 118
f 128 475 473
f 128 473 121
f 141 429 427
f 141 145 429
f 130 186 475
f 130 187 186
f 130 475 128
f 134 427 425
f 134 425 423
f 134 141 427
f 497 189 187
f 497 187 130
f 135 423 421
f 135 134 423
f 498 193 191
f 498 191 189
f 498 189 497
f 126 421 419
f 126 419 417
f 126 135 421
f 499 193 498
f 499 197 195
f 499 195 193
f 127 417 415
f 127 415 413
f 127 126 417
f 500 197 499
f 500 199 197
f 123 413 411
f 123 127 413
f 501 199 500
f 501 203 201
f 501 201 199
f 178 411 409
f 178 409 407
f 178 123 411
f 502 203 501
f 502 207 205
f 502 205 203
f 179 407 405
f 179 405 403
f 179 178 407
f 503 207 502
f 503 209 207
f 175 179 403
f 175 403 401
f 504 209 503
f 171 175 401
f 211 209 504
f 399 171 401
f 213 211 504
f 213 504 505
f 397 160 171
f 397 171 399
f 215 213 505
f 215 505 506
f 395 161 160
f 395 160 397
f 217 215 506
f 393 161 395
f 219 506 507
f 219 217 506
f 391 156 161
f 391 161 393
f 221 219 507
f 389 156 391
f 226 507 477
f 226 221 507
f 387 148 156
f 387 156 389
f 508 370 372
f 136 369 137
f 98 351 353
f 509 508 372
f 96 98 353
f 491 510 511
f 478 110 112
f 479 478 112
f 492 491 511
f 495 492 512
f 492 511 512
f 96 353 355
f 94 96 355
f 497 130 131
f 509 372 374
f 513 509 374
f 480 479 115
f 479 112 115
f 497 131 336
f 495 512 514
f 496 495 514
f 498 497 336
f 94 355 357
f 92 94 357
f 498 336 338
f 496 514 515
f 496 515 494
f 92 357 359
f 498 338 339
f 90 92 359
f 513 374 308
f 483 481 116
f 516 513 308
f 481 480 116
f 480 115 116
f 499 498 339
f 499 339 343
f 516 308 307
f 500 499 343
f 517 516 307
f 90 359 362
f 88 90 362
f 485 483 518
f 500 343 345
f 483 116 518
f 517 307 310
f 502 501 345
f 519 517 310
f 501 500 345
f 502 345 347
f 88 362 364
f 519 310 311
f 520 519 311
f 86 88 364
f 503 502 347
f 487 485 521
f 485 518 521
f 505 504 102
f 520 311 313
f 102 504 100
f 504 503 100
f 505 102 104
f 506 505 104
f 86 364 366
f 83 86 366
f 493 494 312
f 494 515 312
f 515 520 312
f 487 521 522
f 520 313 312
f 488 487 522
f 503 347 348
f 100 503 348
f 506 104 106
f 490 493 309
f 493 312 309
f 507 506 106
f 83 366 368
f 84 83 368
f 488 522 523
f 490 309 306
f 477 507 108
f 84 368 370
f 507 106 108
f 489 490 305
f 100 348 351
f 490 306 305
f 508 84 370
f 98 100 351
f 484 486 373
f 486 489 373
f 489 305 373
f 488 523 510
f 482 484 371
f 478 477 110
f 491 488 510
f 484 373 371
f 477 108 110
f 136 482 369
f 482 371 369
f 116 117 233
f 518 116 233
f 521 518 235
f 518 233 235
f 522 521 238
f 521 235 238
f 523 522 240
f 522 238 240
f 510 523 243
f 523 240 243
f 512 511 246
f 511 510 246
f 510 243 246
f 514 512 248
f 512 246 248
f 515 514 251
f 514 248 251
f 520 515 253
f 515 251 253
f 519 520 265
f 520 253 265
f 517 519 263
f 519 265 263
f 516 517 261
f 517 263 261
f 513 516 260
f 516 261 260
f 509 513 258
f 513 260 258
f 509 258 255
f 508 509 255
f 84 508 85
f 508 255 85
f 262 264 68
f 470 524 468
f 259 68 67
f 259 262 68
f 472 524 470
f 472 525 524
f 257 67 58
f 257 259 67
f 474 525 472
f 474 526 525
f 254 257 58
f 254 58 47
f 476 19 526
f 476 526 474
f 185 19 476
f 250 254 47
f 527 398 400
f 184 20 19
f 527 400 402
f 184 19 185
f 245 250 47
f 528 527 402
f 528 402 404
f 245 47 46
f 188 29 20
f 529 398 527
f 188 20 184
f 242 245 46
f 529 396 398
f 242 46 37
f 530 404 406
f 190 35 29
f 530 528 404
f 190 29 188
f 239 242 37
f 239 37 31
f 531 394 396
f 192 35 190
f 531 396 529
f 237 239 31
f 532 390 392
f 532 392 394
f 532 394 531
f 533 530 406
f 194 40 35
f 533 406 408
f 533 408 410
f 194 35 192
f 534 410 412
f 232 31 23
f 232 237 31
f 196 41 40
f 196 40 194
f 534 533 410
f 535 390 532
f 229 23 22
f 535 388 390
f 229 232 23
f 198 52 41
f 198 41 196
f 536 412 414
f 227 22 15
f 227 229 22
f 200 53 52
f 200 52 198
f 536 534 412
f 537 388 535
f 220 15 12
f 220 227 15
f 202 53 200
f 537 386 388
f 218 220 12
f 538 414 416
f 204 63 53
f 204 53 202
f 538 536 414
f 216 12 10
f 216 218 12
f 206 76 63
f 206 63 204
f 539 384 386
f 214 10 82
f 539 386 537
f 214 216 10
f 208 81 76
f 208 76 206
f 212 82 81
f 212 214 82
f 210 212 81
f 540 416 418
f 210 81 208
f 540 418 420
f 540 538 416
f 541 380 382
f 541 382 384
f 541 384 539
f 542 420 422
f 542 540 420
f 543 378 380
f 543 380 541
f 544 542 422
f 544 422 424
f 545 376 378
f 545 378 543
f 546 424 426
f 546 426 428
f 546 544 424
f 74 301 303
f 74 303 376
f 74 376 545
f 547 546 428
f 547 428 430
f 71 299 301
f 71 301 74
f 548 430 432
f 548 547 430
f 65 297 299
f 65 299 71
f 549 548 432
f 549 432 434
f 549 434 436
f 61 297 65
f 61 293 295
f 61 295 297
f 550 549 436
f 550 436 438
f 60 293 61
f 60 291 293
f 551 550 438
f 551 438 440
f 56 289 291
f 56 291 60
f 552 551 440
f 552 440 442
f 50 287 289
f 50 289 56
f 553 552 442
f 553 442 444
f 553 444 446
f 44 283 285
f 44 285 287
f 44 287 50
f 554 553 446
f 554 446 448
f 33 283 44
f 33 281 283
f 555 554 448
f 555 448 450
f 27 279 281
f 27 281 33
f 556 555 450
f 26 279 27
f 277 279 26
f 452 556 450
f 275 26 17
f 275 277 26
f 454 557 556
f 454 556 452
f 273 17 7
f 273 275 17
f 456 558 557
f 456 557 454
f 271 7 6
f 271 273 7
f 458 559 558
f 458 558 456
f 269 271 6
f 460 559 458
f 268 269 6
f 268 6 5
f 462 559 460
f 462 560 559
f 267 268 5
f 267 5 3
f 464 560 462
f 464 561 560
f 266 3 79
f 266 267 3
f 466 561 464
f 466 562 561
f 264 79 68
f 264 266 79
f 468 562 466
f 468 524 562
f 346 528 530
f 321 324 551
f 320 321 552
f 346 349 528
f 320 552 553
f 320 553 554
f 344 530 533
f 344 533 534
f 318 554 555
f 344 346 530
f 318 320 554
f 314 318 555
f 314 555 556
f 341 344 534
f 367 73 74
f 367 74 545
f 342 534 536
f 342 341 534
f 365 545 543
f 315 314 556
f 365 543 541
f 340 536 538
f 340 538 540
f 316 315 556
f 365 367 545
f 316 556 557
f 340 342 536
f 363 365 541
f 363 541 539
f 317 316 557
f 337 340 540
f 317 557 558
f 317 558 559
f 335 540 542
f 335 542 544
f 319 317 559
f 335 337 540
f 361 363 539
f 319 559 560
f 360 539 537
f 333 335 544
f 360 361 539
f 322 319 560
f 334 544 546
f 334 546 547
f 358 537 535
f 358 535 532
f 325 322 560
f 325 560 561
f 334 333 544
f 358 360 537
f 326 561 562
f 326 562 524
f 326 325 561
f 328 326 524
f 331 334 547
f 356 358 532
f 328 524 525
f 329 547 548
f 354 532 531
f 330 525 526
f 354 531 529
f 330 328 525
f 329 331 547
f 332 526 19
f 354 356 532
f 332 330 526
f 24 332 19
f 327 548 549
f 327 549 550
f 352 354 529
f 327 329 548
f 323 550 551
f 350 529 527
f 323 327 550
f 350 352 529
f 324 323 551
f 349 527 528
f 349 350 527
f 321 551 552
