# Created by FreeCAD <http://www.freecadweb.org>
v 3.564579 530.237183 71.862404
v 9.364578 530.237183 71.861877
v 3.565312 530.237183 79.982399
v 9.365313 530.237183 79.981880
v 3.264552 531.237183 71.562431
v 3.264677 531.237183 72.947426
v 3.264781 531.237183 74.097427
v 3.264894 531.237183 75.347427
v 3.265214 531.237183 78.897430
v 3.265110 531.237183 77.747429
v 3.264997 531.237183 76.497429
v 3.265339 531.237183 80.282425
v 9.664552 531.237183 71.561852
v 9.664677 531.237183 72.946854
v 9.664781 531.237183 74.096848
v 9.664893 531.237183 75.346848
v 9.664997 531.237183 76.496849
v 9.665111 531.237183 77.746849
v 9.665215 531.237183 78.896851
v 9.665339 531.237183 80.281853
v 3.265214 531.112183 78.897430
v 3.265110 531.112183 77.747429
v 3.264894 531.112183 75.347427
v 3.264997 531.112183 76.497429
v 3.264781 531.112183 74.097427
v 3.264677 531.112183 72.947426
v 3.264552 533.237183 71.562431
v 9.664552 533.237183 71.561852
v 9.664677 531.112183 72.946854
v 9.664781 531.112183 74.096848
v 9.664893 531.112183 75.346848
v 9.664997 531.112183 76.496849
v 9.665111 531.112183 77.746849
v 9.665215 531.112183 78.896851
v 9.665339 533.237183 80.281853
v 3.265339 533.237183 80.282425
v 2.539624 530.233643 78.897491
v 2.789624 530.233643 78.897469
v 2.789624 531.012207 78.897469
v 2.889624 531.112183 78.897461
v 3.265214 531.362183 78.897430
v 2.803022 531.062195 78.897469
v 2.818913 531.082886 78.897469
v 2.539624 531.262207 78.897491
v 2.793032 531.038086 78.897469
v 2.863742 531.108765 78.897461
v 2.639624 531.362183 78.897484
v 2.839624 531.098816 78.897469
v 2.613742 531.358765 78.897484
v 2.543032 531.288086 78.897491
v 2.553022 531.312195 78.897491
v 2.589624 531.348816 78.897491
v 2.568913 531.332886 78.897491
v 2.889520 531.112183 77.747459
v 2.789520 531.012207 77.747475
v 2.789520 530.233643 77.747475
v 2.539520 530.233643 77.747498
v 3.265110 531.362183 77.747429
v 2.539520 531.262207 77.747498
v 2.818810 531.082886 77.747467
v 2.802918 531.062195 77.747467
v 2.792928 531.038086 77.747475
v 2.639520 531.362183 77.747482
v 2.863638 531.108765 77.747467
v 2.839520 531.098816 77.747467
v 2.552918 531.312195 77.747490
v 2.542928 531.288086 77.747490
v 2.613638 531.358765 77.747490
v 2.589520 531.348816 77.747490
v 2.568810 531.332886 77.747490
v 2.889304 531.112183 75.347466
v 2.889407 531.112183 76.497459
v 2.789407 531.012207 76.497475
v 2.539407 530.233643 76.497498
v 2.789407 530.233643 76.497475
v 2.539407 531.262207 76.497498
v 2.792815 531.038086 76.497475
v 2.802805 531.062195 76.497467
v 2.818697 531.082886 76.497467
v 2.568697 531.332886 76.497490
v 2.552805 531.312195 76.497490
v 2.542815 531.288086 76.497490
v 2.613526 531.358765 76.497490
v 2.589407 531.348816 76.497490
v 2.639407 531.362183 76.497482
v 2.839407 531.098816 76.497467
v 2.863526 531.108765 76.497467
v 3.264997 531.362183 76.497429
v 2.789304 530.233643 75.347473
v 2.539304 530.233643 75.347496
v 2.789304 531.012207 75.347473
v 2.539304 531.262207 75.347496
v 2.792711 531.038086 75.347473
v 2.802701 531.062195 75.347473
v 2.818593 531.082886 75.347466
v 2.552701 531.312195 75.347496
v 2.568593 531.332886 75.347488
v 2.589303 531.348816 75.347488
v 2.542711 531.288086 75.347496
v 2.613422 531.358765 75.347488
v 2.639304 531.362183 75.347488
v 2.839303 531.098816 75.347466
v 2.863422 531.108765 75.347466
v 3.264894 531.362183 75.347427
v 2.539191 530.233643 74.097496
v 2.789191 530.233643 74.097473
v 2.789191 531.012207 74.097473
v 2.889191 531.112183 74.097466
v 3.264781 531.362183 74.097427
v 2.802588 531.062195 74.097473
v 2.818480 531.082886 74.097466
v 2.539191 531.262207 74.097496
v 2.792598 531.038086 74.097473
v 2.863309 531.108765 74.097466
v 2.639191 531.362183 74.097488
v 2.839191 531.098816 74.097466
v 2.542598 531.288086 74.097496
v 2.552588 531.312195 74.097496
v 2.613309 531.358765 74.097488
v 2.589191 531.348816 74.097488
v 2.568480 531.332886 74.097488
v 2.889087 531.112183 72.947464
v 2.789087 531.012207 72.947472
v 2.789087 530.233643 72.947472
v 2.539087 530.233643 72.947495
v 3.264677 531.362183 72.947426
v 2.539087 531.262207 72.947495
v 2.818376 531.082886 72.947472
v 2.802484 531.062195 72.947472
v 2.792494 531.038086 72.947472
v 2.639087 531.362183 72.947487
v 2.863205 531.108765 72.947464
v 2.839087 531.098816 72.947464
v 2.552484 531.312195 72.947495
v 2.542494 531.288086 72.947495
v 2.613205 531.358765 72.947487
v 2.589087 531.348816 72.947487
v 2.568376 531.332886 72.947495
v 9.664677 531.362183 72.946854
v 9.664781 531.362183 74.096848
v 9.664893 531.362183 75.346848
v 9.665111 531.362183 77.746849
v 9.664997 531.362183 76.496849
v 9.665215 531.362183 78.896851
v 9.202362 533.237183 74.401215
v 9.129574 533.237183 74.347275
v 3.823172 533.237183 78.600632
v 3.736625 533.237183 78.343903
v 3.695253 533.237183 78.563301
v 3.534373 533.237183 73.595627
v 3.538007 533.237183 73.591148
v 9.219107 533.237183 74.420715
v 3.541504 533.237183 73.588768
v 4.082716 533.237183 78.447311
v 4.083444 533.237183 78.446556
v 3.869206 533.237183 78.318504
v 9.233582 533.237183 74.448349
v 3.545750 533.237183 73.586884
v 9.240525 533.237183 74.470230
v 4.082306 533.237183 78.448006
v 4.082094 533.237183 78.448677
v 3.568891 533.237183 73.578362
v 3.550140 533.237183 73.585396
v 3.620669 533.237183 73.562378
v 4.082065 533.237183 78.449120
v 3.655403 533.237183 73.550835
v 3.822034 533.237183 73.572586
v 3.737390 533.237183 73.570557
v 4.321068 533.237183 73.499023
v 4.089865 533.237183 78.442650
v 3.869204 533.237183 78.302734
v 4.964674 533.237183 72.922272
v 4.345572 533.237183 73.493271
v 4.965216 533.237183 78.922272
v 4.486184 533.237183 78.294472
v 4.528083 533.237183 78.583092
v 4.965108 533.237183 77.722275
v 4.385852 533.237183 73.573814
v 4.506351 533.237183 78.600357
v 4.096577 533.237183 78.439301
v 4.471833 533.237183 78.627846
v 4.464679 533.237183 78.632698
v 4.461294 533.237183 78.634087
v 4.459682 533.237183 78.634346
v 4.458492 533.237183 78.634293
v 4.460645 533.237183 73.582542
v 3.999266 533.237183 78.635498
v 9.249745 533.237183 74.773880
v 9.242475 533.237183 74.493034
v 9.236702 533.237183 74.515396
v 4.492396 533.237183 73.599800
v 9.222825 533.237183 74.542923
v 9.201750 533.237183 74.570450
v 9.175389 533.237183 74.592964
v 9.135236 533.237183 74.615906
v 3.957021 533.237183 78.600403
v 4.082125 533.237183 78.449463
v 5.464674 533.237183 72.922226
v 4.141109 533.237183 78.416283
v 4.964783 533.237183 74.122276
v 4.492398 533.237183 73.615570
v 3.728494 533.237183 73.614143
v 4.145611 533.237183 78.413651
v 6.464674 533.237183 72.922142
v 4.147938 533.237183 78.412834
v 6.465108 533.237183 77.722137
v 5.465000 533.237183 76.522232
v 5.465108 533.237183 77.722229
v 6.465000 533.237183 76.522141
v 3.623903 533.237183 75.838211
v 3.621225 533.237183 75.840446
v 4.150072 533.237183 78.412613
v 3.619090 533.237183 75.843155
v 3.626911 533.237183 75.836548
v 3.617841 533.237183 75.845825
v 9.246786 533.237183 75.047264
v 9.249747 533.237183 74.795616
v 9.226757 533.237183 75.053024
v 3.617182 533.237183 75.848732
v 9.183508 533.237183 75.122063
v 9.131982 533.237183 75.108353
v 9.078669 533.237183 75.104813
v 9.259786 533.237183 75.060265
v 3.616919 533.237183 75.854897
v 5.465216 533.237183 78.922226
v 3.687924 533.237183 75.832077
v 4.025723 533.237183 78.584846
v 4.082504 533.237183 78.450134
v 4.082275 533.237183 78.449806
v 7.965000 533.237183 76.522003
v 6.465216 533.237183 78.922142
v 3.749242 533.237183 75.836136
v 7.965108 533.237183 77.722000
v 4.120873 533.237183 78.494057
v 4.118101 533.237183 78.471046
v 4.099349 533.237183 78.461037
v 7.965216 533.237183 78.922005
v 4.120138 533.237183 78.511253
v 4.121422 533.237183 78.502724
v 8.475853 533.237183 75.066086
v 9.077174 533.237183 75.066032
v 4.072600 533.237183 78.563965
v 4.084648 533.237183 78.451874
v 8.300488 533.237183 75.104881
v 7.964891 533.237183 75.322006
v 8.300487 533.237183 75.083359
v 9.071398 533.237183 74.812889
v 8.417019 533.237183 74.812950
v 8.553601 533.237183 74.773941
v 8.759219 533.237183 74.684425
v 8.865184 533.237183 74.682228
v 8.970272 533.237183 74.668198
v 4.115864 533.237183 78.521606
v 4.107533 533.237183 78.533897
v 4.093824 533.237183 78.548241
v 3.680229 533.237183 76.129555
v 3.783111 533.237183 75.881828
v 3.731986 533.237183 75.875130
v 3.671683 533.237183 75.872154
v 4.965000 533.237183 76.522278
v 4.180766 533.237183 76.167015
v 3.857306 533.237183 76.177055
v 3.683754 533.237183 76.141121
v 3.681138 533.237183 76.136490
v 3.682203 533.237183 76.139030
v 3.685956 533.237183 76.142982
v 8.334871 533.237183 74.394791
v 8.349903 533.237183 74.377106
v 7.964783 533.237183 74.122002
v 3.688307 533.237183 76.144173
v 8.373782 533.237183 74.357407
v 8.322730 533.237183 74.414574
v 8.413753 533.237183 74.333847
v 3.710028 533.237183 76.148491
v 8.313485 533.237183 74.435875
v 4.415766 533.237183 78.334435
v 4.152705 533.237183 78.412903
v 4.155385 533.237183 78.413513
v 4.159861 533.237183 78.425018
v 4.166894 533.237183 78.443771
v 3.732011 533.237183 76.151283
v 3.882112 533.237183 75.918594
v 3.832910 533.237183 75.895370
v 4.469033 533.237183 78.298416
v 8.308953 533.237183 74.458603
v 4.159214 533.237183 75.841850
v 3.849737 533.237183 75.857330
v 3.894672 533.237183 75.877090
v 3.956981 533.237183 75.922379
v 3.857304 533.237183 76.157028
v 4.246169 533.237183 78.524307
v 4.164128 533.237183 78.481056
v 4.165090 533.237183 78.522362
v 4.159287 533.237183 78.540085
v 4.146108 533.237183 78.561485
v 4.129691 533.237183 78.577995
v 3.957865 533.237183 75.998695
v 3.912754 533.237183 75.941948
v 4.477179 533.237183 78.293259
v 4.159216 533.237183 75.863586
v 3.983887 533.237183 75.951523
v 4.008152 533.237183 75.982925
v 4.482582 533.237183 78.291000
v 4.483393 533.237183 78.290947
v 4.002406 533.237183 76.069221
v 4.484081 533.237183 78.291061
v 4.045660 533.237183 76.041946
v 4.484797 533.237183 78.291336
v 4.016148 533.237183 76.087051
v 4.485310 533.237183 78.291687
v 4.485680 533.237183 78.292099
v 4.031199 533.237183 76.103783
v 4.075521 533.237183 76.079651
v 4.485960 533.237183 78.292625
v 4.061261 533.237183 76.127335
v 4.486161 533.237183 78.293442
v 4.094651 533.237183 76.094269
v 4.127668 533.237183 76.108910
v 4.206734 533.237183 75.864861
v 4.112831 533.237183 76.150589
v 4.964891 533.237183 75.322273
v 4.293031 533.237183 75.841835
v 4.396259 533.237183 75.859070
v 8.308923 533.237183 74.471718
v 5.464783 533.237183 74.122231
v 4.227702 533.237183 76.129562
v 4.299831 533.237183 75.873787
v 4.464033 533.237183 75.894157
v 4.479803 533.237183 78.311462
v 4.484037 533.237183 78.300438
v 4.480352 533.237183 78.307823
v 4.491119 533.237183 75.916885
v 8.310781 533.237183 74.484711
v 4.282935 533.237183 76.128860
v 4.479475 533.237183 78.320740
v 4.480543 533.237183 78.329956
v 4.485965 533.237183 78.295891
v 4.485341 533.237183 78.297859
v 4.505425 533.237183 75.936012
v 4.337591 533.237183 76.120972
v 4.389059 533.237183 75.901062
v 4.329484 533.237183 78.518547
v 4.434523 533.237183 78.396225
v 4.421520 533.237183 78.348709
v 4.464152 533.237183 76.010155
v 4.462739 533.237183 75.988167
v 4.455918 533.237183 75.967209
v 4.482038 533.237183 78.375977
v 4.515732 533.237183 75.963120
v 4.462850 533.237183 76.022522
v 4.444864 533.237183 75.948135
v 8.579065 533.237183 74.280708
v 7.964674 533.237183 72.922005
v 4.395316 533.237183 76.101662
v 4.430549 533.237183 75.931282
v 4.413986 533.237183 75.916695
v 4.441772 533.237183 78.439270
v 4.520882 533.237183 75.985023
v 8.684562 533.237183 74.267448
v 4.430486 533.237183 76.081345
v 4.453244 533.237183 76.054176
v 4.460633 533.237183 76.034691
v 4.451797 533.237183 78.564560
v 4.443872 533.237183 76.068573
v 4.428788 533.237183 78.601852
v 8.790931 533.237183 74.267212
v 4.441788 533.237183 78.617622
v 4.447823 533.237183 78.625526
v 4.111064 533.237183 78.591980
v 4.454828 533.237183 78.632553
v 4.516576 533.237183 78.571587
v 4.503576 533.237183 78.557312
v 5.464891 533.237183 75.322227
v 8.295515 533.237183 74.794388
v 8.335598 533.237183 74.538643
v 8.319011 533.237183 74.509605
v 4.523176 533.237183 76.007385
v 8.292880 533.237183 74.797165
v 4.518833 533.237183 76.035362
v 4.508436 533.237183 76.061714
v 4.493352 533.237183 76.085739
v 4.474049 533.237183 76.106522
v 4.451382 533.237183 76.123543
v 4.426331 533.237183 76.136818
v 4.305581 533.237183 76.166862
v 4.457232 533.237183 78.633934
v 8.291315 533.237183 74.799896
v 6.464891 533.237183 75.322136
v 6.464783 533.237183 74.122139
v 3.622667 533.237183 78.371696
v 3.629235 533.237183 76.181465
v 3.628273 533.237183 76.180382
v 8.290920 533.237183 74.801300
v 3.640333 533.237183 78.355392
v 3.630445 533.237183 76.182304
v 3.607659 533.237183 78.390480
v 3.627126 533.237183 76.178154
v 3.666939 533.237183 78.337524
v 3.598331 533.237183 78.409309
v 3.699755 533.237183 78.322594
v 3.635543 533.237183 76.184204
v 8.307521 533.237183 74.787575
v 8.363746 533.237183 74.567284
v 3.592890 533.237183 78.429985
v 3.624531 533.237183 76.159706
v 3.746305 533.237183 78.310509
v 8.320489 533.237183 74.782700
v 8.385264 533.237183 74.759682
v 3.779603 533.237183 78.306099
v 8.425597 533.237183 74.606834
v 3.667449 533.237183 76.184319
v 8.403557 533.237183 74.754646
v 3.644205 533.237183 78.445808
v 3.676414 533.237183 78.380180
v 3.660664 533.237183 78.399513
v 3.649482 533.237183 78.422600
v 3.643351 533.237183 78.469597
v 8.477886 533.237183 74.769379
v 8.579485 533.237183 74.660614
v 3.705948 533.237183 78.358009
v 8.291036 533.237183 74.802612
v 8.290907 533.237183 74.802086
v 3.813164 533.237183 78.304230
v 9.029620 533.237183 74.304604
v 8.291649 533.237183 74.803474
v 8.291243 533.237183 74.803009
v 8.292464 533.237183 74.804062
v 3.675422 533.237183 78.547104
v 3.648298 533.237183 78.500824
v 3.659746 533.237183 78.526863
v 3.879250 533.237183 78.645157
v 3.755346 533.237183 78.630981
v 3.695920 533.237183 78.611862
v 3.654383 533.237183 78.590378
v 3.627352 533.237183 78.568016
v 3.610582 533.237183 78.547714
v 3.600726 533.237183 78.530617
v 3.592819 533.237183 78.502106
v 3.590294 533.237183 78.472588
v 3.624189 533.237183 76.141068
v 10.040267 531.112183 72.946815
v 10.040370 531.112183 74.096817
v 10.140266 531.012207 72.946808
v 10.390266 530.233643 72.946785
v 10.140266 530.233643 72.946808
v 10.390266 531.262207 72.946785
v 10.136859 531.038086 72.946808
v 10.126869 531.062195 72.946808
v 10.110977 531.082886 72.946808
v 10.360977 531.332886 72.946785
v 10.376869 531.312195 72.946785
v 10.386859 531.288086 72.946785
v 10.316149 531.358765 72.946793
v 10.340266 531.348816 72.946793
v 10.290267 531.362183 72.946793
v 10.090266 531.098816 72.946815
v 10.066149 531.108765 72.946815
v 10.140370 530.233643 74.096809
v 10.390370 530.233643 74.096786
v 10.140370 531.012207 74.096809
v 10.390370 531.262207 74.096786
v 10.136963 531.038086 74.096809
v 10.126973 531.062195 74.096809
v 10.111081 531.082886 74.096809
v 10.386963 531.288086 74.096786
v 10.376973 531.312195 74.096786
v 10.361081 531.332886 74.096786
v 10.340370 531.348816 74.096786
v 10.316253 531.358765 74.096794
v 10.290370 531.362183 74.096794
v 10.090370 531.098816 74.096809
v 10.066253 531.108765 74.096817
v 10.140587 531.012207 76.496811
v 10.140587 530.233643 76.496811
v 10.390587 530.233643 76.496788
v 10.040587 531.112183 76.496819
v 10.390587 531.262207 76.496788
v 10.111298 531.082886 76.496811
v 10.127190 531.062195 76.496811
v 10.137179 531.038086 76.496811
v 10.290587 531.362183 76.496796
v 10.066469 531.108765 76.496811
v 10.090588 531.098816 76.496811
v 10.377190 531.312195 76.496788
v 10.387179 531.288086 76.496788
v 10.316469 531.358765 76.496788
v 10.340588 531.348816 76.496788
v 10.361298 531.332886 76.496788
v 10.390483 530.233643 75.346786
v 10.140483 530.233643 75.346809
v 10.140483 531.012207 75.346809
v 10.040483 531.112183 75.346817
v 10.127086 531.062195 75.346809
v 10.111194 531.082886 75.346809
v 10.390483 531.262207 75.346786
v 10.137075 531.038086 75.346809
v 10.066365 531.108765 75.346817
v 10.290483 531.362183 75.346794
v 10.090484 531.098816 75.346809
v 10.387075 531.288086 75.346786
v 10.316365 531.358765 75.346794
v 10.377086 531.312195 75.346786
v 10.340484 531.348816 75.346786
v 10.361194 531.332886 75.346786
v 10.040700 531.112183 77.746819
v 10.040804 531.112183 78.896812
v 10.140700 531.012207 77.746811
v 10.390700 530.233643 77.746788
v 10.140700 530.233643 77.746811
v 10.390700 531.262207 77.746788
v 10.137293 531.038086 77.746811
v 10.127302 531.062195 77.746811
v 10.111411 531.082886 77.746811
v 10.361411 531.332886 77.746788
v 10.377302 531.312195 77.746788
v 10.387293 531.288086 77.746788
v 10.316582 531.358765 77.746788
v 10.340700 531.348816 77.746788
v 10.290700 531.362183 77.746796
v 10.090700 531.098816 77.746811
v 10.066582 531.108765 77.746811
v 10.140804 530.233643 78.896805
v 10.390804 530.233643 78.896782
v 10.140804 531.012207 78.896805
v 10.390804 531.262207 78.896782
v 10.137397 531.038086 78.896805
v 10.127406 531.062195 78.896805
v 10.111515 531.082886 78.896812
v 10.387397 531.288086 78.896782
v 10.377406 531.312195 78.896790
v 10.361515 531.332886 78.896790
v 10.340804 531.348816 78.896790
v 10.316686 531.358765 78.896790
v 10.290804 531.362183 78.896797
v 10.090804 531.098816 78.896812
v 10.066686 531.108765 78.896812
v 2.539521 530.207703 77.750900
v 2.539522 530.183594 77.760895
v 2.539523 530.162903 77.776787
v 2.539541 529.962219 77.977493
v 2.539603 529.962219 78.667496
v 2.539622 530.162903 78.868202
v 2.539623 530.183594 78.884094
v 2.539624 530.207703 78.894089
v 2.789624 530.207703 78.894066
v 2.789623 530.183594 78.884071
v 2.789622 530.162903 78.868179
v 2.789522 530.183594 77.760872
v 2.789521 530.207703 77.750877
v 2.789523 530.162903 77.776764
v 2.789550 529.712219 78.072472
v 2.789550 529.867188 78.072472
v 2.789595 529.712219 78.572472
v 2.789595 529.867188 78.572472
v 2.789407 530.207703 76.494064
v 2.789406 530.183594 76.484077
v 2.789405 530.162903 76.468185
v 2.789333 529.867188 75.672470
v 2.789378 529.867188 76.172470
v 2.789378 529.712219 76.172470
v 2.789333 529.712219 75.672470
v 2.789306 530.162903 75.376762
v 2.789305 530.183594 75.360870
v 2.789304 530.207703 75.350876
v 2.539406 530.183594 76.484093
v 2.539405 530.162903 76.468208
v 2.539407 530.207703 76.494087
v 2.539387 529.962219 76.267494
v 2.539324 529.962219 75.577492
v 2.539305 530.183594 75.360893
v 2.539306 530.162903 75.376785
v 2.539304 530.207703 75.350899
v 2.539087 530.207703 72.950905
v 2.539088 530.183594 72.960892
v 2.539089 530.162903 72.976784
v 2.539108 529.962219 73.177490
v 2.539170 529.962219 73.867493
v 2.539188 530.162903 74.068207
v 2.539190 530.183594 74.084099
v 2.539190 530.207703 74.094086
v 2.789190 530.207703 74.094063
v 2.789189 530.183594 74.084076
v 2.789188 530.162903 74.068184
v 2.789088 530.183594 72.960869
v 2.789087 530.207703 72.950882
v 2.789089 530.162903 72.976761
v 2.789116 529.712219 73.272469
v 2.789116 529.867188 73.272469
v 2.789161 529.712219 73.772469
v 2.789161 529.867188 73.772469
v 4.141109 533.227173 78.416283
v 4.145611 533.227173 78.413651
v 4.147938 533.227173 78.412834
v 4.150072 533.227173 78.412613
v 4.152705 533.227173 78.412903
v 4.155385 533.227173 78.413513
v 4.096577 533.227173 78.439301
v 4.099349 533.227173 78.461037
v 4.084648 533.227173 78.451874
v 4.082504 533.227173 78.450134
v 4.082275 533.227173 78.449806
v 4.082125 533.227173 78.449463
v 4.082065 533.227173 78.449120
v 4.082094 533.227173 78.448677
v 4.082306 533.227173 78.448006
v 4.082716 533.227173 78.447311
v 4.083444 533.227173 78.446556
v 4.089865 533.227173 78.442650
v 4.118101 533.227173 78.471046
v 4.120873 533.227173 78.494057
v 3.957021 533.227173 78.600403
v 4.025723 533.227173 78.584846
v 4.072600 533.227173 78.563965
v 4.093824 533.227173 78.548241
v 4.107533 533.227173 78.533897
v 4.115864 533.227173 78.521606
v 4.120138 533.227173 78.511253
v 4.121422 533.227173 78.502724
v 3.648298 533.227173 78.500824
v 3.643351 533.227173 78.469597
v 3.659746 533.227173 78.526863
v 3.675422 533.227173 78.547104
v 3.695253 533.227173 78.563301
v 3.823172 533.227173 78.600632
v 3.869206 533.227173 78.318504
v 3.736625 533.227173 78.343903
v 3.705948 533.227173 78.358009
v 3.676414 533.227173 78.380180
v 3.660664 533.227173 78.399513
v 3.649482 533.227173 78.422600
v 3.644205 533.227173 78.445808
v 3.869204 533.227173 78.302734
v 3.813164 533.227173 78.304230
v 3.590294 533.227173 78.472588
v 3.592890 533.227173 78.429985
v 3.598331 533.227173 78.409309
v 3.607659 533.227173 78.390480
v 3.622667 533.227173 78.371696
v 3.640333 533.227173 78.355392
v 3.666939 533.227173 78.337524
v 3.699755 533.227173 78.322594
v 3.746305 533.227173 78.310509
v 3.779603 533.227173 78.306099
v 3.755346 533.227173 78.630981
v 3.879250 533.227173 78.645157
v 3.695920 533.227173 78.611862
v 3.654383 533.227173 78.590378
v 3.627352 533.227173 78.568016
v 3.610582 533.227173 78.547714
v 3.600726 533.227173 78.530617
v 3.592819 533.227173 78.502106
v 4.164128 533.227173 78.481056
v 4.165090 533.227173 78.522362
v 4.159287 533.227173 78.540085
v 4.146108 533.227173 78.561485
v 4.129691 533.227173 78.577995
v 4.111064 533.227173 78.591980
v 3.999266 533.227173 78.635498
v 4.246169 533.227173 78.524307
v 4.428788 533.227173 78.601852
v 4.441788 533.227173 78.617622
v 4.471833 533.227173 78.627846
v 4.464679 533.227173 78.632698
v 4.461294 533.227173 78.634087
v 4.459682 533.227173 78.634346
v 4.458492 533.227173 78.634293
v 4.457232 533.227173 78.633934
v 4.454828 533.227173 78.632553
v 4.447823 533.227173 78.625526
v 4.506351 533.227173 78.600357
v 4.528083 533.227173 78.583092
v 4.516576 533.227173 78.571587
v 4.503576 533.227173 78.557312
v 4.482038 533.227173 78.375977
v 4.480543 533.227173 78.329956
v 4.480352 533.227173 78.307823
v 4.479803 533.227173 78.311462
v 4.479475 533.227173 78.320740
v 4.469033 533.227173 78.298416
v 4.477179 533.227173 78.293259
v 4.482582 533.227173 78.291000
v 4.483393 533.227173 78.290947
v 4.484081 533.227173 78.291061
v 4.484797 533.227173 78.291336
v 4.485310 533.227173 78.291687
v 4.485680 533.227173 78.292099
v 4.485960 533.227173 78.292625
v 4.486161 533.227173 78.293442
v 4.486184 533.227173 78.294472
v 4.485965 533.227173 78.295891
v 4.485341 533.227173 78.297859
v 4.484037 533.227173 78.300438
v 4.415766 533.227173 78.334435
v 4.421520 533.227173 78.348709
v 4.434523 533.227173 78.396225
v 4.441772 533.227173 78.439270
v 4.451797 533.227173 78.564560
v 4.329484 533.227173 78.518547
v 4.166894 533.227173 78.443771
v 4.159861 533.227173 78.425018
v 4.345572 533.227173 73.493271
v 4.321068 533.227173 73.499023
v 4.385852 533.227173 73.573814
v 3.822034 533.227173 73.572586
v 3.620669 533.227173 73.562378
v 3.655403 533.227173 73.550835
v 3.737390 533.227173 73.570557
v 3.568891 533.227173 73.578362
v 3.550140 533.227173 73.585396
v 3.534373 533.227173 73.595627
v 3.538007 533.227173 73.591148
v 3.541504 533.227173 73.588768
v 3.545750 533.227173 73.586884
v 3.688589 533.231201 73.613503
v 3.728494 533.227173 73.614143
v 3.688589 533.229187 73.613503
v 3.688589 533.233215 73.613503
v 3.688589 533.235168 73.613503
v 3.648688 533.229187 73.612663
v 3.648688 533.231201 73.612663
v 3.648688 533.233215 73.612663
v 3.648688 533.235168 73.612663
v 3.608805 533.229187 73.611153
v 3.608805 533.231201 73.611153
v 3.608805 533.233215 73.611153
v 3.608805 533.235168 73.611153
v 3.569095 533.229187 73.607880
v 3.569095 533.231201 73.607880
v 3.569095 533.233215 73.607880
v 3.569095 533.235168 73.607880
v 4.492398 533.227173 73.615570
v 4.492396 533.227173 73.599800
v 4.460645 533.227173 73.582542
v 9.236702 533.227173 74.515396
v 9.242475 533.227173 74.493034
v 9.222825 533.227173 74.542923
v 9.201750 533.227173 74.570450
v 9.175389 533.227173 74.592964
v 9.135236 533.227173 74.615906
v 8.970272 533.227173 74.668198
v 8.865184 533.227173 74.682228
v 8.759219 533.227173 74.684425
v 8.790931 533.227173 74.267212
v 9.029620 533.227173 74.304604
v 9.129574 533.227173 74.347275
v 9.202362 533.227173 74.401215
v 9.219107 533.227173 74.420715
v 9.233582 533.227173 74.448349
v 9.240525 533.227173 74.470230
v 8.308953 533.227173 74.458603
v 8.313485 533.227173 74.435875
v 8.322730 533.227173 74.414574
v 8.334871 533.227173 74.394791
v 8.349903 533.227173 74.377106
v 8.373782 533.227173 74.357407
v 8.413753 533.227173 74.333847
v 8.579065 533.227173 74.280708
v 8.684562 533.227173 74.267448
v 8.579485 533.227173 74.660614
v 8.425597 533.227173 74.606834
v 8.363746 533.227173 74.567284
v 8.335598 533.227173 74.538643
v 8.319011 533.227173 74.509605
v 8.310781 533.227173 74.484711
v 8.308923 533.227173 74.471718
v 5.464783 534.237183 74.122231
v 6.464783 534.237183 74.122139
v 6.964783 532.437195 74.122093
v 6.464783 532.437195 74.122139
v 6.964783 532.237183 74.122093
v 7.964783 532.237183 74.122002
v 7.964674 532.237183 72.922005
v 6.964674 532.237183 72.922096
v 6.964674 532.437195 72.922096
v 6.464674 532.437195 72.922142
v 5.464674 534.237183 72.922226
v 6.464674 534.237183 72.922142
v 4.964674 532.237183 72.922272
v 5.464674 532.237183 72.922226
v 4.964783 532.237183 74.122276
v 5.464783 532.237183 74.122231
v 5.465108 534.237183 77.722229
v 6.465108 534.237183 77.722137
v 4.965108 532.237183 77.722275
v 5.465108 532.237183 77.722229
v 4.965216 532.237183 78.922272
v 5.465216 532.237183 78.922226
v 5.465216 534.237183 78.922226
v 6.465216 534.237183 78.922142
v 6.965216 532.437195 78.922096
v 6.465216 532.437195 78.922142
v 6.965216 532.237183 78.922096
v 7.965216 532.237183 78.922005
v 7.965108 532.237183 77.722000
v 6.965108 532.237183 77.722092
v 6.965108 532.437195 77.722092
v 6.465108 532.437195 77.722137
v 5.464891 534.237183 75.322227
v 6.464891 534.237183 75.322136
v 4.964891 532.237183 75.322273
v 5.464891 532.237183 75.322227
v 4.965000 532.237183 76.522278
v 5.465000 532.237183 76.522232
v 5.465000 534.237183 76.522232
v 6.465000 534.237183 76.522141
v 6.465000 532.437195 76.522141
v 6.965000 532.437195 76.522095
v 6.965000 532.237183 76.522095
v 7.965000 532.237183 76.522003
v 7.964891 532.237183 75.322006
v 6.464891 532.437195 75.322136
v 6.964891 532.437195 75.322098
v 6.964891 532.237183 75.322098
v 8.475853 533.227173 75.066086
v 9.077174 533.227173 75.066032
v 9.249747 533.227173 74.795616
v 9.249745 533.227173 74.773880
v 8.553601 533.227173 74.773941
v 8.385264 533.227173 74.759682
v 8.403557 533.227173 74.754646
v 8.477886 533.227173 74.769379
v 8.320489 533.227173 74.782700
v 8.290895 533.233215 74.801964
v 8.292464 533.233215 74.804062
v 8.292464 533.231201 74.804062
v 8.290895 533.231201 74.801964
v 8.291714 533.231201 74.799034
v 8.291714 533.229187 74.799034
v 8.290895 533.235168 74.801964
v 8.292464 533.235168 74.804062
v 8.291714 533.233215 74.799034
v 8.295515 533.229187 74.794388
v 8.292880 533.227173 74.797165
v 8.295515 533.227173 74.794388
v 8.307521 533.227173 74.787575
v 8.291714 533.235168 74.799034
v 8.295515 533.231201 74.794388
v 8.295515 533.233215 74.794388
v 8.295515 533.235168 74.794388
v 8.307521 533.229187 74.787575
v 8.307521 533.231201 74.787575
v 8.307521 533.233215 74.787575
v 8.307521 533.235168 74.787575
v 8.292464 533.229187 74.804062
v 8.417019 533.227173 74.812950
v 8.292464 533.227173 74.804062
v 8.291649 533.227173 74.803474
v 8.291243 533.227173 74.803009
v 8.290895 533.229187 74.801964
v 8.291036 533.227173 74.802612
v 8.290907 533.227173 74.802086
v 8.290920 533.227173 74.801300
v 8.291315 533.227173 74.799896
v 9.071398 533.227173 74.812889
v 8.300487 533.227173 75.083359
v 8.300488 533.227173 75.104881
v 9.078669 533.227173 75.104813
v 9.131982 533.227173 75.108353
v 9.183508 533.227173 75.122063
v 9.259786 533.227173 75.060265
v 9.246786 533.227173 75.047264
v 9.226757 533.227173 75.053024
v 4.337591 533.227173 76.120972
v 4.395316 533.227173 76.101662
v 4.430486 533.227173 76.081345
v 4.443872 533.227173 76.068573
v 4.453244 533.227173 76.054176
v 4.460633 533.227173 76.034691
v 4.462850 533.227173 76.022522
v 4.464152 533.227173 76.010155
v 4.045660 533.227173 76.041946
v 4.075521 533.227173 76.079651
v 4.094651 533.227173 76.094269
v 4.127668 533.227173 76.108910
v 4.227702 533.227173 76.129562
v 4.282935 533.227173 76.128860
v 4.008152 533.227173 75.982925
v 3.749242 533.227173 75.836136
v 3.849737 533.227173 75.857330
v 3.894672 533.227173 75.877090
v 3.956981 533.227173 75.922379
v 3.983887 533.227173 75.951523
v 3.616919 533.227173 75.854897
v 3.617182 533.227173 75.848732
v 3.617841 533.227173 75.845825
v 3.619090 533.227173 75.843155
v 3.621225 533.227173 75.840446
v 3.623903 533.227173 75.838211
v 3.626911 533.227173 75.836548
v 3.687924 533.227173 75.832077
v 3.624189 533.227173 76.141068
v 3.667449 533.227173 76.184319
v 3.635543 533.227173 76.184204
v 3.630445 533.227173 76.182304
v 3.629235 533.227173 76.181465
v 3.628273 533.227173 76.180382
v 3.627126 533.227173 76.178154
v 3.624531 533.227173 76.159706
v 3.857306 533.227173 76.177055
v 3.857304 533.227173 76.157028
v 3.732011 533.227173 76.151283
v 3.680229 533.227173 76.129555
v 3.681138 533.227173 76.136490
v 3.682203 533.227173 76.139030
v 3.683754 533.227173 76.141121
v 3.685956 533.227173 76.142982
v 3.688307 533.227173 76.144173
v 3.710028 533.227173 76.148491
v 3.671683 533.227173 75.872154
v 3.731986 533.227173 75.875130
v 3.912754 533.227173 75.941948
v 3.957865 533.227173 75.998695
v 3.882112 533.227173 75.918594
v 3.832910 533.227173 75.895370
v 3.783111 533.227173 75.881828
v 4.002406 533.227173 76.069221
v 4.112831 533.227173 76.150589
v 4.180766 533.227173 76.167015
v 4.061261 533.227173 76.127335
v 4.031199 533.227173 76.103783
v 4.016148 533.227173 76.087051
v 4.523176 533.227173 76.007385
v 4.518833 533.227173 76.035362
v 4.508436 533.227173 76.061714
v 4.493352 533.227173 76.085739
v 4.474049 533.227173 76.106522
v 4.451382 533.227173 76.123543
v 4.426331 533.227173 76.136818
v 4.305581 533.227173 76.166862
v 4.396259 533.227173 75.859070
v 4.293031 533.227173 75.841835
v 4.464033 533.227173 75.894157
v 4.491119 533.227173 75.916885
v 4.505425 533.227173 75.936012
v 4.515732 533.227173 75.963120
v 4.520882 533.227173 75.985023
v 4.159214 533.227173 75.841850
v 4.159216 533.227173 75.863586
v 4.206734 533.227173 75.864861
v 4.462739 533.227173 75.988167
v 4.455918 533.227173 75.967209
v 4.444864 533.227173 75.948135
v 4.430549 533.227173 75.931282
v 4.413986 533.227173 75.916695
v 4.389059 533.227173 75.901062
v 4.299831 533.227173 75.873787
v 10.140266 530.207703 72.950218
v 10.140267 530.183594 72.960205
v 10.140269 530.162903 72.976097
v 10.140341 529.867188 73.771805
v 10.140296 529.867188 73.271805
v 10.140296 529.712219 73.271805
v 10.140341 529.712219 73.771805
v 10.140368 530.162903 74.067520
v 10.140369 530.183594 74.083412
v 10.140370 530.207703 74.093399
v 10.390267 530.183594 72.960182
v 10.390269 530.162903 72.976074
v 10.390266 530.207703 72.950195
v 10.390287 529.962219 73.176788
v 10.390369 530.183594 74.083389
v 10.390368 530.162903 74.067497
v 10.390370 530.207703 74.093376
v 10.390349 529.962219 73.866783
v 10.140585 530.162903 76.467522
v 10.390585 530.162903 76.467499
v 10.390586 530.183594 76.483391
v 10.140586 530.183594 76.483406
v 10.390587 530.207703 76.493378
v 10.140587 530.207703 76.493401
v 10.140558 529.712219 76.171806
v 10.140558 529.867188 76.171806
v 10.140512 529.712219 75.671806
v 10.140512 529.867188 75.671806
v 10.140486 530.162903 75.376099
v 10.140485 530.183594 75.360207
v 10.140484 530.207703 75.350212
v 10.390567 529.962219 76.266785
v 10.390504 529.962219 75.576782
v 10.390486 530.162903 75.376076
v 10.390485 530.183594 75.360184
v 10.390484 530.207703 75.350189
v 10.140700 530.207703 77.750214
v 10.140701 530.183594 77.760208
v 10.140703 530.162903 77.776100
v 10.140775 529.867188 78.571808
v 10.140730 529.867188 78.071808
v 10.140730 529.712219 78.071808
v 10.140775 529.712219 78.571808
v 10.140801 530.162903 78.867516
v 10.140802 530.183594 78.883408
v 10.140803 530.207703 78.893402
v 10.390701 530.183594 77.760185
v 10.390703 530.162903 77.776077
v 10.390700 530.207703 77.750191
v 10.390721 529.962219 77.976784
v 10.390802 530.183594 78.883385
v 10.390801 530.162903 78.867493
v 10.390803 530.207703 78.893379
v 10.390783 529.962219 78.666786
v 2.489174 529.875366 78.580650
v 2.470820 529.867188 78.572502
v 2.506211 529.887634 78.592911
v 2.520600 529.903564 78.608856
v 2.531253 529.922180 78.627502
v 2.537585 529.942200 78.647514
v 2.537526 529.942200 77.997475
v 2.531198 529.922180 78.017487
v 2.520548 529.903564 78.036133
v 2.506162 529.887634 78.052078
v 2.489128 529.875366 78.064346
v 2.470775 529.867188 78.072502
v 2.460608 529.864441 78.572502
v 2.460563 529.864441 78.072502
v 2.450161 529.862732 78.572502
v 2.450115 529.862732 78.072502
v 2.439595 529.862183 78.572502
v 2.439550 529.862183 78.072502
v 1.800390 529.862183 78.572563
v 1.800390 529.612183 78.572563
v 2.689595 529.612183 78.572479
v 2.715477 529.615601 78.572479
v 2.739595 529.625610 78.572479
v 2.760306 529.641479 78.572472
v 2.776197 529.662170 78.572472
v 2.786187 529.686340 78.572472
v 2.689550 529.612183 78.072479
v 2.715432 529.615601 78.072479
v 2.739550 529.625610 78.072479
v 2.760260 529.641479 78.072472
v 2.776152 529.662170 78.072472
v 2.786142 529.686340 78.072472
v 1.800345 529.612183 78.072563
v 1.800345 529.862183 78.072563
v 2.533908 529.929749 75.609970
v 2.519332 529.902222 75.637489
v 2.501736 529.884033 75.655632
v 2.486580 529.874084 75.665634
v 2.470558 529.867188 75.672501
v 1.800129 529.612183 75.672562
v 1.800129 529.862183 75.672562
v 2.439333 529.862183 75.672501
v 2.460346 529.864441 75.672501
v 2.689333 529.612183 75.672478
v 2.449898 529.862732 75.672501
v 2.715215 529.615601 75.672478
v 2.739333 529.625610 75.672478
v 2.785926 529.686340 75.672470
v 2.775935 529.662170 75.672470
v 2.760044 529.641479 75.672470
v 2.785971 529.686340 76.172470
v 2.775981 529.662170 76.172470
v 2.760089 529.641479 76.172470
v 2.739378 529.625610 76.172478
v 2.715260 529.615601 76.172478
v 2.689378 529.612183 76.172478
v 1.800174 529.862183 76.172562
v 1.800174 529.612183 76.172562
v 2.439378 529.862183 76.172501
v 2.449944 529.862732 76.172501
v 2.460391 529.864441 76.172501
v 2.470603 529.867188 76.172501
v 2.488957 529.875366 76.180656
v 2.505994 529.887634 76.192917
v 2.520383 529.903564 76.208855
v 2.531037 529.922180 76.227501
v 2.537368 529.942200 76.247513
v 2.488741 529.875366 73.780655
v 2.470386 529.867188 73.772499
v 2.505777 529.887634 73.792915
v 2.520166 529.903564 73.808853
v 2.530820 529.922180 73.827499
v 2.537151 529.942200 73.847511
v 2.537092 529.942200 73.197479
v 2.530765 529.922180 73.217491
v 2.520114 529.903564 73.236137
v 2.505729 529.887634 73.252083
v 2.488694 529.875366 73.264343
v 2.470341 529.867188 73.272499
v 2.460174 529.864441 73.772499
v 2.460129 529.864441 73.272499
v 2.449727 529.862732 73.772499
v 2.449682 529.862732 73.272499
v 2.439161 529.862183 73.772499
v 2.439116 529.862183 73.272499
v 1.799957 529.862183 73.772560
v 1.799957 529.612183 73.772560
v 2.689161 529.612183 73.772484
v 2.785754 529.686340 73.772469
v 2.759872 529.641479 73.772476
v 2.775764 529.662170 73.772476
v 2.715043 529.615601 73.772476
v 2.739161 529.625610 73.772476
v 2.689116 529.612183 73.272484
v 2.714998 529.615601 73.272476
v 2.739116 529.625610 73.272476
v 2.759827 529.641479 73.272476
v 2.775719 529.662170 73.272476
v 2.785709 529.686340 73.272469
v 1.799912 529.612183 73.272560
v 1.799912 529.862183 73.272560
v 8.434399 533.227173 74.370842
v 8.543013 533.227173 74.330994
v 8.691276 533.227173 74.636856
v 8.891540 533.227173 74.638390
v 8.406947 533.227173 74.388306
v 8.388937 533.227173 74.404716
v 9.149418 533.227173 74.413101
v 9.165236 533.227173 74.428787
v 9.177058 533.227173 74.447205
v 8.374667 533.227173 74.424507
v 9.185704 533.227173 74.467918
v 9.083701 533.227173 74.370140
v 8.515024 533.227173 74.598732
v 8.365542 533.227173 74.444199
v 9.189203 533.227173 74.490059
v 9.186420 533.227173 74.504486
v 9.180688 533.227173 74.518036
v 8.995399 533.227173 74.337387
v 8.362225 533.227173 74.460091
v 9.155889 533.227173 74.551338
v 9.138818 533.227173 74.565308
v 8.787951 533.227173 74.308975
v 8.361908 533.227173 74.468857
v 8.722518 533.227173 74.307602
v 9.019163 533.227173 74.614838
v 8.657168 533.227173 74.311218
v 8.362701 533.227173 74.477562
v 8.440874 533.227173 74.565613
v 8.367414 533.227173 74.494446
v 8.378528 533.227173 74.515526
v 8.391176 533.227173 74.530510
v 10.427938 529.884033 73.788643
v 10.443094 529.874084 73.778648
v 10.459116 529.867188 73.771782
v 10.410342 529.902222 73.806786
v 10.395766 529.929749 73.834312
v 11.129545 529.612183 73.771721
v 11.129545 529.862183 73.771721
v 10.490341 529.862183 73.771774
v 10.240341 529.612183 73.771797
v 10.479775 529.862732 73.771774
v 10.469328 529.864441 73.771774
v 10.169630 529.641479 73.771805
v 10.190341 529.625610 73.771805
v 10.143748 529.686340 73.771805
v 10.153739 529.662170 73.771805
v 10.214459 529.615601 73.771797
v 10.143703 529.686340 73.271805
v 10.153693 529.662170 73.271805
v 10.169585 529.641479 73.271805
v 10.190296 529.625610 73.271805
v 10.214414 529.615601 73.271797
v 10.240295 529.612183 73.271797
v 10.459071 529.867188 73.271782
v 10.469283 529.864441 73.271774
v 10.479731 529.862732 73.271774
v 10.490295 529.862183 73.271774
v 11.129500 529.612183 73.271721
v 11.129500 529.862183 73.271721
v 10.392306 529.942200 73.196770
v 10.398638 529.922180 73.216782
v 10.409291 529.903564 73.235420
v 10.423679 529.887634 73.251366
v 10.440717 529.875366 73.263626
v 10.428155 529.884033 76.188644
v 10.443311 529.874084 76.178642
v 10.459332 529.867188 76.171776
v 10.410559 529.902222 76.206787
v 10.395983 529.929749 76.234314
v 10.392523 529.942200 75.596764
v 10.398854 529.922180 75.616776
v 10.409508 529.903564 75.635422
v 10.423897 529.887634 75.651367
v 10.440933 529.875366 75.663628
v 10.459288 529.867188 75.671776
v 10.490513 529.862183 75.671776
v 11.129717 529.862183 75.671715
v 11.129717 529.612183 75.671715
v 10.240513 529.612183 75.671799
v 10.479947 529.862732 75.671776
v 10.469500 529.864441 75.671776
v 10.143920 529.686340 75.671806
v 10.169802 529.641479 75.671806
v 10.153910 529.662170 75.671806
v 10.214631 529.615601 75.671799
v 10.190513 529.625610 75.671806
v 10.240558 529.612183 76.171799
v 10.214676 529.615601 76.171799
v 10.190557 529.625610 76.171806
v 10.169847 529.641479 76.171806
v 10.153955 529.662170 76.171806
v 10.143966 529.686340 76.171806
v 10.469545 529.864441 76.171776
v 10.479992 529.862732 76.171776
v 10.490558 529.862183 76.171776
v 11.129763 529.612183 76.171715
v 11.129763 529.862183 76.171715
v 10.428371 529.884033 78.588646
v 10.443527 529.874084 78.578644
v 10.459550 529.867188 78.571777
v 10.410775 529.902222 78.606789
v 10.396200 529.929749 78.634308
v 11.129979 529.612183 78.571716
v 11.129979 529.862183 78.571716
v 10.490774 529.862183 78.571777
v 10.240774 529.612183 78.571800
v 10.480209 529.862732 78.571777
v 10.469762 529.864441 78.571777
v 10.214892 529.615601 78.571800
v 10.190775 529.625610 78.571800
v 10.170064 529.641479 78.571808
v 10.154172 529.662170 78.571808
v 10.144182 529.686340 78.571808
v 10.144136 529.686340 78.071808
v 10.154127 529.662170 78.071808
v 10.170019 529.641479 78.071808
v 10.190729 529.625610 78.071800
v 10.214848 529.615601 78.071800
v 10.240729 529.612183 78.071800
v 10.459504 529.867188 78.071777
v 10.469716 529.864441 78.071777
v 10.480164 529.862732 78.071777
v 10.490729 529.862183 78.071777
v 11.129933 529.612183 78.071716
v 11.129933 529.862183 78.071716
v 10.392739 529.942200 77.996765
v 10.399071 529.922180 78.016777
v 10.409724 529.903564 78.035423
v 10.424113 529.887634 78.051361
v 10.441150 529.875366 78.063622
v 9.185704 533.237183 74.467918
v 9.189203 533.237183 74.490059
v 9.177058 533.237183 74.447205
v 9.165236 533.237183 74.428787
v 9.149418 533.237183 74.413101
v 9.083701 533.237183 74.370140
v 8.995399 533.237183 74.337387
v 8.787951 533.237183 74.308975
v 8.722518 533.237183 74.307602
v 8.657168 533.237183 74.311218
v 8.543013 533.237183 74.330994
v 8.434399 533.237183 74.370842
v 8.406947 533.237183 74.388306
v 8.388937 533.237183 74.404716
v 8.374667 533.237183 74.424507
v 8.365542 533.237183 74.444199
v 8.362225 533.237183 74.460091
v 8.361908 533.237183 74.468857
v 8.362701 533.237183 74.477562
v 8.367414 533.237183 74.494446
v 8.378528 533.237183 74.515526
v 8.391176 533.237183 74.530510
v 8.440874 533.237183 74.565613
v 8.515024 533.237183 74.598732
v 8.691276 533.237183 74.636856
v 8.891540 533.237183 74.638390
v 9.019163 533.237183 74.614838
v 9.138818 533.237183 74.565308
v 9.155889 533.237183 74.551338
v 9.180688 533.237183 74.518036
v 9.186420 533.237183 74.504486
f 1 2 3
f 3 2 4
f 5 1 6
f 6 1 7
f 7 1 8
f 9 10 3
f 10 11 3
f 9 3 12
f 8 1 3
f 11 8 3
f 1 5 13
f 1 13 2
f 2 13 14
f 2 14 15
f 2 15 16
f 17 18 4
f 18 19 4
f 19 20 4
f 16 4 2
f 17 4 16
f 3 4 20
f 12 3 20
f 21 22 9
f 22 10 9
f 23 11 24
f 8 11 23
f 25 26 7
f 26 6 7
f 5 27 28
f 5 28 13
f 15 14 29
f 15 29 30
f 31 32 16
f 32 17 16
f 19 18 33
f 19 33 34
f 20 35 12
f 12 35 36
f 37 38 39
f 21 9 40
f 9 41 40
f 42 43 44
f 45 42 44
f 39 45 44
f 37 39 44
f 46 40 47
f 48 46 47
f 43 48 47
f 40 41 47
f 44 43 47
f 44 47 49
f 50 44 51
f 44 49 51
f 51 49 52
f 51 52 53
f 54 22 40
f 40 22 21
f 55 56 57
f 54 58 10
f 54 10 22
f 59 60 61
f 59 61 62
f 59 62 55
f 59 55 57
f 63 54 64
f 63 64 65
f 63 65 60
f 63 58 54
f 63 60 59
f 66 59 67
f 66 68 63
f 66 63 59
f 69 68 66
f 70 69 66
f 71 24 72
f 23 24 71
f 73 74 75
f 76 74 73
f 77 76 73
f 78 76 77
f 79 76 78
f 80 81 82
f 83 84 80
f 85 82 76
f 85 79 86
f 85 86 87
f 85 87 72
f 85 80 82
f 85 76 79
f 85 83 80
f 11 72 24
f 88 85 72
f 88 72 11
f 89 90 91
f 91 90 92
f 91 92 93
f 93 92 94
f 94 92 95
f 96 97 98
f 99 96 98
f 99 98 100
f 92 99 101
f 102 95 101
f 103 102 101
f 71 103 101
f 95 92 101
f 99 100 101
f 23 71 8
f 71 101 104
f 8 71 104
f 105 106 107
f 25 7 108
f 7 109 108
f 110 111 112
f 113 110 112
f 107 113 112
f 105 107 112
f 114 108 115
f 116 114 115
f 111 116 115
f 108 109 115
f 112 111 115
f 117 112 118
f 115 119 118
f 112 115 118
f 118 119 120
f 118 120 121
f 122 26 108
f 108 26 25
f 123 124 125
f 122 126 6
f 122 6 26
f 127 128 129
f 127 129 130
f 127 130 123
f 127 123 125
f 131 122 132
f 131 132 133
f 131 133 128
f 131 126 122
f 131 128 127
f 134 127 135
f 134 136 131
f 134 131 127
f 137 136 134
f 138 137 134
f 14 13 139
f 139 13 28
f 139 28 140
f 16 15 141
f 15 140 141
f 140 28 141
f 18 17 142
f 17 143 142
f 19 144 20
f 144 142 35
f 142 143 35
f 20 144 35
f 141 28 35
f 143 141 35
f 9 12 41
f 41 12 36
f 41 36 58
f 10 58 11
f 11 58 88
f 58 36 88
f 7 8 109
f 8 104 109
f 6 126 5
f 126 109 27
f 109 104 27
f 5 126 27
f 88 36 27
f 104 88 27
f 145 28 146
f 147 148 149
f 150 151 27
f 152 28 145
f 153 27 151
f 154 155 156
f 157 28 152
f 158 27 153
f 159 28 157
f 160 154 156
f 161 160 156
f 162 27 158
f 162 158 163
f 164 27 162
f 165 161 156
f 166 27 164
f 167 27 166
f 167 166 168
f 169 27 167
f 170 156 155
f 170 171 156
f 172 169 173
f 172 27 169
f 174 175 176
f 174 177 175
f 178 169 167
f 174 176 179
f 180 171 170
f 174 179 181
f 174 181 182
f 174 182 183
f 174 183 184
f 174 184 185
f 186 172 173
f 174 187 36
f 174 185 187
f 188 189 190
f 191 172 186
f 188 190 192
f 188 192 193
f 188 193 194
f 188 194 195
f 196 197 165
f 196 165 156
f 196 156 147
f 198 27 172
f 199 171 180
f 200 191 201
f 200 201 202
f 203 171 199
f 200 172 191
f 204 27 198
f 205 171 203
f 206 207 208
f 206 209 207
f 210 150 211
f 212 171 205
f 213 211 150
f 214 202 150
f 214 150 210
f 215 213 150
f 216 217 218
f 219 215 150
f 220 221 222
f 223 188 217
f 223 217 216
f 224 150 27
f 225 174 36
f 224 219 150
f 226 202 214
f 227 228 229
f 227 229 197
f 227 197 196
f 230 220 222
f 231 225 36
f 232 202 226
f 233 230 209
f 233 209 206
f 234 235 236
f 233 220 230
f 35 231 36
f 35 233 237
f 35 237 231
f 238 239 234
f 35 223 220
f 35 220 233
f 35 28 223
f 223 28 188
f 188 28 189
f 189 28 159
f 217 240 241
f 242 243 228
f 217 241 218
f 242 228 227
f 222 244 230
f 230 244 245
f 246 247 248
f 249 188 250
f 250 188 251
f 251 188 252
f 252 188 195
f 253 234 236
f 253 238 234
f 254 253 236
f 254 236 243
f 255 243 242
f 255 254 243
f 256 257 258
f 256 258 259
f 177 260 261
f 177 261 262
f 177 262 171
f 263 264 265
f 266 264 263
f 267 268 269
f 270 264 266
f 270 256 264
f 271 269 268
f 272 267 269
f 273 269 271
f 274 256 270
f 275 272 269
f 276 212 277
f 276 277 278
f 276 278 279
f 276 279 280
f 281 256 274
f 276 171 212
f 281 282 283
f 281 283 257
f 281 257 256
f 284 171 276
f 285 275 269
f 286 200 202
f 286 202 232
f 286 232 287
f 286 287 288
f 286 288 289
f 290 282 281
f 291 292 293
f 291 293 294
f 291 294 295
f 291 295 296
f 290 297 298
f 290 298 282
f 299 177 171
f 300 286 289
f 299 171 284
f 300 289 301
f 300 301 302
f 303 177 299
f 304 177 303
f 305 297 290
f 306 177 304
f 307 300 302
f 308 177 306
f 309 305 290
f 310 177 308
f 311 177 310
f 312 309 290
f 312 290 262
f 313 300 307
f 314 177 311
f 315 312 262
f 316 177 314
f 317 300 313
f 318 319 300
f 175 177 316
f 318 300 317
f 320 315 262
f 321 200 286
f 321 286 322
f 321 322 323
f 324 285 269
f 321 325 200
f 261 320 262
f 326 327 319
f 326 319 318
f 328 321 323
f 329 330 331
f 332 321 328
f 333 324 269
f 334 327 326
f 335 330 329
f 336 330 335
f 336 337 338
f 339 321 332
f 336 338 330
f 340 341 327
f 340 327 334
f 342 343 344
f 342 344 276
f 342 276 280
f 345 346 347
f 348 175 337
f 348 337 336
f 349 321 339
f 350 347 351
f 352 353 269
f 352 269 273
f 350 345 347
f 354 351 355
f 354 355 356
f 354 356 341
f 357 343 342
f 354 341 340
f 358 321 349
f 359 353 352
f 360 361 362
f 360 362 350
f 360 351 354
f 360 350 351
f 363 357 342
f 364 361 360
f 365 291 296
f 366 353 359
f 367 365 296
f 368 296 369
f 368 367 296
f 370 368 369
f 371 348 372
f 373 325 321
f 28 27 204
f 374 375 376
f 28 204 353
f 260 358 377
f 378 374 376
f 260 377 379
f 260 379 380
f 260 380 381
f 260 381 382
f 260 382 383
f 260 383 384
f 260 384 385
f 386 369 187
f 260 385 261
f 386 370 369
f 260 321 358
f 387 333 269
f 388 325 373
f 387 376 333
f 387 378 376
f 388 389 325
f 185 386 187
f 390 391 392
f 393 387 269
f 394 391 390
f 394 395 391
f 396 390 392
f 396 392 397
f 398 395 394
f 399 396 397
f 400 401 395
f 400 395 398
f 402 375 374
f 402 403 375
f 404 397 405
f 404 399 397
f 406 401 400
f 407 403 402
f 176 175 348
f 176 348 371
f 408 403 407
f 409 401 406
f 408 410 403
f 409 411 401
f 412 410 408
f 208 260 177
f 208 207 260
f 413 414 415
f 413 415 416
f 417 414 413
f 418 419 410
f 417 420 414
f 418 410 412
f 245 421 422
f 245 422 393
f 423 411 409
f 423 262 411
f 245 389 388
f 245 269 389
f 245 393 269
f 249 419 418
f 424 28 353
f 424 353 366
f 246 425 426
f 246 426 421
f 246 421 245
f 171 262 423
f 246 248 427
f 246 427 425
f 244 246 245
f 250 419 249
f 146 28 424
f 428 429 430
f 36 404 405
f 36 187 431
f 149 420 417
f 36 224 27
f 149 148 420
f 36 431 432
f 149 417 429
f 36 432 433
f 36 433 434
f 149 429 428
f 36 434 435
f 36 435 436
f 36 436 437
f 36 437 438
f 36 438 439
f 36 439 404
f 36 405 440
f 36 440 224
f 147 156 148
f 441 442 30
f 441 30 29
f 443 444 445
f 446 444 443
f 447 446 443
f 448 446 447
f 449 446 448
f 450 451 452
f 453 454 450
f 455 452 446
f 455 449 456
f 455 456 457
f 455 457 441
f 455 450 452
f 455 446 449
f 455 453 450
f 14 441 29
f 139 455 441
f 139 441 14
f 458 459 460
f 460 459 461
f 460 461 462
f 462 461 463
f 463 461 464
f 465 466 467
f 467 468 469
f 461 465 470
f 471 464 470
f 472 471 470
f 442 472 470
f 465 467 470
f 464 461 470
f 467 469 470
f 30 442 15
f 442 470 140
f 15 442 140
f 473 474 475
f 476 143 17
f 476 17 32
f 477 478 479
f 477 479 480
f 477 480 473
f 477 473 475
f 481 476 482
f 481 482 483
f 481 483 478
f 481 143 476
f 481 478 477
f 484 477 485
f 484 486 481
f 484 481 477
f 487 486 484
f 488 487 484
f 489 490 491
f 31 16 492
f 16 141 492
f 493 494 495
f 496 493 495
f 491 496 495
f 489 491 495
f 497 492 498
f 499 497 498
f 494 499 498
f 492 141 498
f 495 494 498
f 495 498 500
f 500 498 501
f 502 500 503
f 500 501 503
f 502 503 504
f 31 492 32
f 32 492 476
f 505 506 34
f 505 34 33
f 507 508 509
f 510 508 507
f 511 510 507
f 512 510 511
f 513 510 512
f 514 515 516
f 517 518 514
f 519 516 510
f 519 513 520
f 519 520 521
f 519 521 505
f 519 514 516
f 519 510 513
f 519 517 514
f 18 505 33
f 142 519 505
f 142 505 18
f 522 523 524
f 524 523 525
f 524 525 526
f 526 525 527
f 527 525 528
f 529 530 531
f 531 532 533
f 525 529 534
f 535 528 534
f 536 535 534
f 506 536 534
f 529 531 534
f 528 525 534
f 531 533 534
f 34 506 19
f 506 534 144
f 19 506 144
f 47 58 63
f 41 58 47
f 47 63 68
f 49 68 69
f 49 47 68
f 52 69 70
f 52 49 69
f 53 70 66
f 53 52 70
f 51 66 67
f 51 53 66
f 50 67 59
f 50 51 67
f 44 50 59
f 57 537 538
f 57 538 539
f 57 539 540
f 541 57 540
f 37 541 542
f 37 542 543
f 37 543 544
f 37 57 541
f 44 59 57
f 44 57 37
f 545 38 37
f 545 37 544
f 546 544 543
f 546 545 544
f 547 543 542
f 547 546 543
f 548 549 56
f 550 548 56
f 551 552 553
f 552 550 554
f 553 552 554
f 550 56 547
f 554 550 547
f 546 547 38
f 545 546 38
f 547 56 38
f 56 55 39
f 38 56 39
f 45 39 55
f 42 45 62
f 45 55 62
f 43 42 61
f 42 62 61
f 48 43 60
f 43 61 60
f 46 48 65
f 48 60 65
f 40 46 64
f 46 65 64
f 40 64 54
f 550 539 538
f 548 538 537
f 548 550 538
f 549 537 57
f 549 548 537
f 56 549 57
f 71 72 87
f 103 71 87
f 102 103 86
f 103 87 86
f 95 102 79
f 102 86 79
f 94 95 78
f 95 79 78
f 93 94 77
f 94 78 77
f 91 93 73
f 93 77 73
f 75 555 556
f 75 556 557
f 558 557 559
f 558 559 560
f 558 560 561
f 562 75 557
f 562 557 558
f 89 562 563
f 89 563 564
f 89 75 562
f 91 73 75
f 91 75 89
f 565 557 556
f 565 566 557
f 567 556 555
f 567 565 556
f 74 555 75
f 74 567 555
f 568 566 74
f 565 567 74
f 566 565 74
f 568 74 569
f 570 571 90
f 572 570 90
f 571 569 90
f 569 74 90
f 74 76 92
f 90 74 92
f 99 92 76
f 99 76 82
f 96 82 81
f 96 99 82
f 97 81 80
f 97 96 81
f 98 80 84
f 98 97 80
f 100 84 83
f 100 98 84
f 101 83 85
f 101 100 83
f 85 88 101
f 101 88 104
f 90 89 564
f 572 564 563
f 572 90 564
f 570 563 562
f 570 572 563
f 571 570 562
f 109 126 131
f 109 131 115
f 115 131 136
f 119 136 137
f 119 115 136
f 120 137 138
f 120 119 137
f 121 138 134
f 121 120 138
f 118 134 135
f 118 121 134
f 117 135 127
f 117 118 135
f 112 117 127
f 125 573 574
f 125 574 575
f 125 575 576
f 577 125 576
f 105 577 578
f 105 578 579
f 105 579 580
f 105 125 577
f 112 127 125
f 112 125 105
f 581 106 105
f 581 105 580
f 582 580 579
f 582 581 580
f 583 579 578
f 583 582 579
f 584 585 124
f 586 584 124
f 587 588 589
f 588 586 590
f 589 588 590
f 586 124 583
f 590 586 583
f 582 583 106
f 581 582 106
f 583 124 106
f 124 123 107
f 106 124 107
f 113 107 123
f 110 113 130
f 113 123 130
f 111 110 129
f 110 130 129
f 116 111 128
f 111 129 128
f 114 116 133
f 116 128 133
f 108 114 132
f 114 133 132
f 108 132 122
f 586 575 574
f 584 574 573
f 584 586 574
f 585 573 125
f 585 584 573
f 124 585 125
f 142 144 519
f 144 534 519
f 143 498 141
f 481 498 143
f 139 140 455
f 140 470 455
f 199 591 592
f 203 199 592
f 205 592 593
f 205 203 592
f 212 593 594
f 212 594 595
f 212 205 593
f 277 595 596
f 277 212 595
f 278 277 596
f 591 180 597
f 199 180 591
f 243 598 599
f 243 236 598
f 228 599 600
f 228 243 599
f 229 600 601
f 229 228 600
f 197 601 602
f 197 229 601
f 165 602 603
f 165 197 602
f 161 603 604
f 161 165 603
f 160 604 605
f 160 605 606
f 160 161 604
f 154 606 607
f 154 160 606
f 155 607 608
f 155 154 607
f 170 155 608
f 180 608 597
f 180 170 608
f 236 609 598
f 236 235 609
f 609 234 610
f 235 234 609
f 227 611 612
f 227 196 611
f 242 612 613
f 242 227 612
f 255 613 614
f 255 242 613
f 615 255 614
f 254 255 615
f 616 254 615
f 253 254 616
f 617 253 616
f 238 617 618
f 238 253 617
f 239 618 610
f 239 238 618
f 234 239 610
f 619 417 620
f 429 417 619
f 430 619 621
f 430 429 619
f 428 621 622
f 428 430 621
f 623 428 622
f 149 428 623
f 624 149 623
f 147 149 624
f 611 147 624
f 196 147 611
f 148 625 626
f 148 156 625
f 420 626 627
f 420 148 626
f 628 420 627
f 414 420 628
f 415 628 629
f 415 414 628
f 416 629 630
f 416 415 629
f 413 630 631
f 413 416 630
f 417 631 620
f 417 413 631
f 156 171 632
f 625 156 632
f 632 423 633
f 171 423 632
f 404 634 635
f 404 439 634
f 399 635 636
f 399 404 635
f 396 636 637
f 396 399 636
f 390 637 638
f 390 396 637
f 394 638 639
f 394 390 638
f 398 639 640
f 398 394 639
f 641 398 640
f 400 398 641
f 406 641 642
f 406 400 641
f 409 642 643
f 409 406 642
f 423 643 633
f 423 409 643
f 644 431 645
f 432 431 644
f 433 644 646
f 433 432 644
f 434 646 647
f 434 433 646
f 435 647 648
f 435 434 647
f 436 648 649
f 436 435 648
f 437 649 650
f 437 436 649
f 438 650 651
f 438 437 650
f 439 651 634
f 439 438 651
f 293 652 653
f 293 292 652
f 294 653 654
f 294 293 653
f 295 654 655
f 295 294 654
f 296 655 656
f 296 295 655
f 369 656 657
f 369 296 656
f 187 657 658
f 187 369 657
f 431 658 645
f 431 187 658
f 652 291 659
f 292 291 652
f 291 660 659
f 291 365 660
f 660 367 661
f 365 367 660
f 182 662 663
f 182 181 662
f 183 663 664
f 183 664 665
f 183 182 663
f 184 665 666
f 184 183 665
f 185 666 667
f 185 184 666
f 386 667 668
f 386 185 667
f 370 668 669
f 370 386 668
f 368 669 661
f 368 370 669
f 367 368 661
f 181 670 662
f 181 179 670
f 179 671 670
f 179 176 671
f 671 371 672
f 176 371 671
f 371 673 672
f 371 372 673
f 372 674 673
f 372 348 674
f 348 675 674
f 348 336 675
f 331 676 677
f 331 330 676
f 329 677 678
f 329 331 677
f 335 329 678
f 335 678 675
f 336 335 675
f 299 679 680
f 299 284 679
f 303 680 681
f 303 299 680
f 304 681 682
f 304 303 681
f 306 682 683
f 306 304 682
f 308 683 684
f 308 306 683
f 310 684 685
f 310 308 684
f 311 685 686
f 311 310 685
f 314 686 687
f 314 687 688
f 314 311 686
f 316 688 689
f 316 314 688
f 175 689 690
f 175 316 689
f 337 690 691
f 337 175 690
f 338 691 692
f 338 337 691
f 330 692 676
f 330 338 692
f 679 276 693
f 284 276 679
f 276 694 693
f 276 344 694
f 344 695 694
f 344 343 695
f 695 357 696
f 343 357 695
f 357 697 696
f 357 363 697
f 697 342 698
f 363 342 697
f 342 699 698
f 342 280 699
f 699 279 700
f 280 279 699
f 279 596 700
f 279 278 596
f 701 169 702
f 173 169 701
f 702 178 703
f 169 178 702
f 178 704 703
f 178 167 704
f 166 705 706
f 166 164 705
f 168 706 707
f 168 166 706
f 167 707 704
f 167 168 707
f 705 162 708
f 164 162 705
f 162 709 708
f 162 163 709
f 151 710 711
f 151 711 712
f 151 150 710
f 153 712 713
f 153 151 712
f 158 153 713
f 163 713 709
f 163 158 713
f 714 202 715
f 714 715 716
f 717 202 714
f 718 202 717
f 719 716 715
f 720 714 716
f 720 716 719
f 721 717 714
f 721 714 720
f 722 202 718
f 722 718 717
f 722 717 721
f 723 715 710
f 723 719 715
f 724 719 723
f 724 720 719
f 725 721 720
f 725 720 724
f 726 150 202
f 726 202 722
f 726 722 721
f 726 721 725
f 727 723 710
f 727 724 723
f 728 727 710
f 728 725 724
f 728 724 727
f 729 710 150
f 729 726 725
f 729 728 710
f 729 725 728
f 730 150 726
f 730 729 150
f 730 726 729
f 202 731 715
f 202 201 731
f 731 201 191
f 731 191 732
f 191 733 732
f 191 186 733
f 733 173 701
f 186 173 733
f 734 189 735
f 190 189 734
f 736 190 734
f 192 190 736
f 737 192 736
f 193 192 737
f 738 193 737
f 194 193 738
f 739 194 738
f 195 194 739
f 740 195 739
f 252 195 740
f 741 252 740
f 251 252 741
f 742 251 741
f 250 251 742
f 424 743 744
f 424 366 743
f 745 424 744
f 146 424 745
f 145 745 746
f 145 146 745
f 152 746 747
f 152 145 746
f 157 747 748
f 157 152 747
f 159 748 749
f 159 157 748
f 735 159 749
f 189 159 735
f 275 750 751
f 275 285 750
f 272 751 752
f 272 275 751
f 753 272 752
f 267 272 753
f 754 267 753
f 268 267 754
f 271 754 755
f 271 268 754
f 273 755 756
f 273 271 755
f 352 756 757
f 352 273 756
f 758 352 757
f 359 352 758
f 743 359 758
f 366 359 743
f 759 250 742
f 419 250 759
f 760 419 759
f 410 419 760
f 761 410 760
f 403 410 761
f 762 403 761
f 375 403 762
f 763 375 762
f 376 375 763
f 333 763 764
f 333 376 763
f 324 764 765
f 324 333 764
f 285 765 750
f 285 324 765
f 766 325 767
f 325 389 767
f 768 769 389
f 770 768 771
f 768 389 269
f 771 768 269
f 353 772 771
f 353 771 269
f 773 772 774
f 772 353 774
f 775 774 204
f 774 353 204
f 198 776 204
f 776 777 204
f 778 779 198
f 778 198 172
f 778 172 200
f 778 200 780
f 781 780 325
f 780 200 325
f 208 782 206
f 782 783 206
f 784 785 208
f 784 208 177
f 784 177 174
f 784 174 786
f 787 786 174
f 787 174 225
f 225 231 788
f 788 231 789
f 790 791 231
f 792 790 793
f 790 231 237
f 793 790 237
f 233 794 237
f 794 793 237
f 795 794 796
f 794 233 796
f 797 796 206
f 796 233 206
f 373 798 388
f 798 799 388
f 800 801 321
f 321 801 373
f 800 321 260
f 800 260 802
f 260 207 802
f 802 207 803
f 207 209 804
f 804 209 805
f 806 209 807
f 807 209 230
f 808 807 809
f 807 230 809
f 245 810 809
f 245 809 230
f 811 812 388
f 812 813 810
f 812 810 245
f 388 812 245
f 241 240 814
f 815 241 814
f 240 816 814
f 240 217 816
f 217 188 817
f 816 217 817
f 188 249 818
f 817 188 818
f 412 819 820
f 412 408 819
f 418 820 821
f 418 412 820
f 249 821 818
f 249 418 821
f 819 407 822
f 408 407 819
f 823 824 825
f 823 825 826
f 827 826 828
f 829 421 426
f 829 422 421
f 829 393 422
f 829 387 393
f 829 830 824
f 829 426 830
f 829 824 823
f 831 829 823
f 831 826 827
f 831 823 826
f 832 833 834
f 832 834 835
f 832 827 828
f 832 828 833
f 836 378 387
f 836 387 829
f 836 829 831
f 837 831 827
f 837 827 832
f 838 831 837
f 838 836 831
f 839 374 378
f 839 378 836
f 839 836 838
f 840 835 822
f 840 832 835
f 840 837 832
f 841 840 822
f 841 838 837
f 841 837 840
f 842 822 407
f 842 839 838
f 842 841 822
f 842 838 841
f 843 402 374
f 843 407 402
f 843 842 407
f 843 374 839
f 843 839 842
f 844 845 846
f 844 846 847
f 844 847 848
f 825 248 845
f 825 845 844
f 849 848 850
f 849 850 851
f 849 851 852
f 849 852 853
f 849 844 848
f 824 248 825
f 826 825 844
f 826 844 849
f 828 853 833
f 828 826 849
f 828 849 853
f 830 427 248
f 830 425 427
f 830 426 425
f 830 248 824
f 247 854 845
f 247 845 248
f 854 246 855
f 247 246 854
f 244 856 855
f 244 855 246
f 857 856 244
f 222 857 244
f 858 220 859
f 221 220 858
f 857 221 858
f 222 221 857
f 859 223 860
f 220 223 859
f 223 861 860
f 223 216 861
f 216 862 861
f 216 218 862
f 218 815 862
f 218 241 815
f 354 863 864
f 354 340 863
f 360 864 865
f 360 354 864
f 364 865 866
f 364 360 865
f 867 364 866
f 361 364 867
f 868 361 867
f 362 361 868
f 869 362 868
f 350 362 869
f 870 350 869
f 345 350 870
f 313 871 872
f 313 307 871
f 317 872 873
f 317 313 872
f 874 317 873
f 318 317 874
f 875 318 874
f 326 318 875
f 876 326 875
f 334 326 876
f 863 334 876
f 340 334 863
f 871 302 877
f 307 302 871
f 287 878 879
f 287 232 878
f 288 879 880
f 288 287 879
f 881 288 880
f 289 288 881
f 301 881 882
f 301 289 881
f 302 882 877
f 302 301 882
f 219 883 884
f 219 224 883
f 215 884 885
f 215 219 884
f 213 885 886
f 213 886 887
f 213 215 885
f 211 213 887
f 210 887 888
f 210 211 887
f 214 888 889
f 214 210 888
f 226 889 890
f 226 214 889
f 232 890 878
f 232 226 890
f 224 891 883
f 224 440 891
f 401 892 893
f 401 411 892
f 395 893 894
f 395 401 893
f 391 894 895
f 391 395 894
f 392 895 896
f 392 896 897
f 392 391 895
f 397 392 897
f 898 397 897
f 405 397 898
f 440 898 891
f 440 405 898
f 892 262 899
f 411 262 892
f 262 290 900
f 899 262 900
f 290 901 900
f 290 281 901
f 256 902 903
f 264 903 904
f 264 256 903
f 265 264 904
f 263 904 905
f 263 265 904
f 266 905 906
f 266 263 905
f 270 906 907
f 270 266 906
f 274 907 908
f 274 270 907
f 901 274 908
f 281 274 901
f 902 259 909
f 256 259 902
f 909 258 910
f 259 258 909
f 911 297 912
f 298 297 911
f 282 911 913
f 282 298 911
f 283 913 914
f 283 282 913
f 257 914 915
f 257 283 914
f 258 915 910
f 258 257 915
f 297 916 912
f 297 305 916
f 917 261 918
f 320 261 917
f 315 917 919
f 315 320 917
f 312 919 920
f 312 315 919
f 309 920 921
f 309 312 920
f 305 921 916
f 305 309 921
f 379 922 923
f 379 377 922
f 380 923 924
f 380 379 923
f 925 380 924
f 381 380 925
f 382 925 926
f 382 381 925
f 383 926 927
f 383 382 926
f 928 383 927
f 384 383 928
f 385 928 929
f 385 384 928
f 261 929 918
f 261 385 929
f 930 322 931
f 323 322 930
f 932 323 930
f 328 323 932
f 332 932 933
f 332 328 932
f 934 332 933
f 339 332 934
f 935 339 934
f 349 339 935
f 936 349 935
f 358 349 936
f 922 358 936
f 377 358 922
f 322 937 931
f 322 286 937
f 938 937 286
f 300 938 286
f 300 939 938
f 300 319 939
f 346 870 940
f 346 345 870
f 941 346 940
f 347 346 941
f 942 347 941
f 351 347 942
f 943 351 942
f 355 351 943
f 356 943 944
f 356 355 943
f 341 944 945
f 341 356 944
f 327 945 946
f 327 341 945
f 319 946 939
f 319 327 946
f 472 442 441
f 471 472 457
f 472 441 457
f 464 471 456
f 471 457 456
f 464 456 449
f 463 464 448
f 464 449 448
f 460 462 447
f 462 463 447
f 463 448 447
f 460 447 443
f 445 947 948
f 445 948 949
f 950 949 951
f 950 951 952
f 950 952 953
f 954 949 950
f 458 954 955
f 458 955 956
f 458 445 949
f 458 949 954
f 460 443 445
f 460 445 458
f 957 949 948
f 957 958 949
f 959 948 947
f 959 957 948
f 444 947 445
f 444 959 947
f 960 958 444
f 957 959 444
f 958 957 444
f 961 962 459
f 963 961 459
f 962 964 459
f 964 960 459
f 960 444 459
f 444 446 461
f 459 444 461
f 465 461 446
f 465 446 452
f 466 451 450
f 466 452 451
f 466 465 452
f 467 466 450
f 468 450 454
f 468 467 450
f 469 454 453
f 469 468 454
f 470 453 455
f 470 469 453
f 459 458 956
f 963 956 955
f 963 459 956
f 961 955 954
f 961 963 955
f 962 961 954
f 965 966 967
f 968 967 969
f 968 965 967
f 970 969 475
f 970 968 969
f 474 970 475
f 968 970 474
f 965 968 474
f 971 972 973
f 972 965 974
f 973 972 974
f 965 474 975
f 974 965 975
f 976 975 490
f 977 976 490
f 975 474 490
f 474 473 491
f 490 474 491
f 496 491 473
f 493 496 480
f 496 473 480
f 494 493 479
f 493 480 479
f 499 494 478
f 494 479 478
f 497 499 483
f 499 478 483
f 492 497 482
f 497 483 482
f 492 482 476
f 498 481 486
f 501 486 487
f 501 498 486
f 503 487 488
f 503 501 487
f 504 488 484
f 504 503 488
f 502 484 485
f 502 504 484
f 500 485 477
f 500 502 485
f 495 500 477
f 475 967 966
f 475 969 967
f 475 966 978
f 979 475 978
f 489 979 980
f 489 980 981
f 489 981 982
f 489 475 979
f 495 477 475
f 495 475 489
f 977 490 489
f 977 489 982
f 976 982 981
f 976 977 982
f 975 981 980
f 975 976 981
f 536 506 505
f 535 536 521
f 536 505 521
f 535 521 520
f 527 528 513
f 528 535 513
f 535 520 513
f 527 513 512
f 524 526 511
f 526 527 511
f 527 512 511
f 524 511 507
f 509 983 984
f 509 984 985
f 986 985 987
f 986 987 988
f 986 988 989
f 990 509 985
f 990 985 986
f 522 990 991
f 522 991 992
f 522 509 990
f 524 507 509
f 524 509 522
f 993 985 984
f 993 994 985
f 995 984 983
f 995 993 984
f 508 983 509
f 508 995 983
f 996 994 508
f 993 995 508
f 994 993 508
f 997 998 523
f 999 997 523
f 998 1000 523
f 1000 996 523
f 996 508 523
f 508 510 525
f 523 508 525
f 525 510 516
f 529 525 516
f 530 516 515
f 530 529 516
f 531 514 518
f 531 515 514
f 531 530 515
f 532 531 518
f 533 518 517
f 533 532 518
f 534 517 519
f 534 533 517
f 523 522 992
f 999 992 991
f 999 523 992
f 997 991 990
f 997 999 991
f 998 997 990
f 1001 1002 554
f 1003 1001 554
f 1004 1003 554
f 1005 1004 554
f 1006 1005 554
f 541 1006 554
f 542 541 547
f 541 554 547
f 541 540 1007
f 1006 541 1007
f 1005 1006 1008
f 1006 1007 1008
f 1004 1005 1009
f 1005 1008 1009
f 1003 1004 1010
f 1004 1009 1010
f 1001 1003 1011
f 1003 1010 1011
f 1002 1001 1012
f 1001 1011 1012
f 1013 1002 1014
f 1002 1012 1014
f 1015 1013 1016
f 1013 1014 1016
f 1017 1015 1018
f 1015 1016 1018
f 539 550 540
f 1012 1011 552
f 1011 1010 552
f 1010 1009 552
f 1009 1008 552
f 1008 1007 552
f 1007 540 552
f 540 550 552
f 1017 1019 1020
f 1021 1017 1020
f 1015 1017 1021
f 1013 1015 1021
f 1002 1013 1021
f 553 1021 1022
f 553 1022 1023
f 553 1023 1024
f 553 1024 1025
f 553 1025 1026
f 553 1002 1021
f 554 1002 553
f 1022 1021 1027
f 1022 1027 1028
f 1022 1028 1029
f 1023 1022 1029
f 1024 1029 1030
f 1024 1023 1029
f 1025 1030 1031
f 1025 1024 1030
f 1026 1031 1032
f 1026 1032 551
f 1026 1025 1031
f 553 1026 551
f 551 1029 1028
f 551 1030 1029
f 551 1031 1030
f 551 1032 1031
f 1027 551 1028
f 1012 552 551
f 1012 551 1027
f 1014 1012 1027
f 1016 1014 1027
f 1018 1016 1027
f 1033 1018 1027
f 1034 1018 1033
f 571 562 569
f 1035 569 558
f 1036 1035 558
f 1037 1036 558
f 1038 1037 558
f 1039 1038 558
f 569 562 558
f 1040 1041 1042
f 1043 1039 1044
f 1045 1043 1044
f 1042 1045 1044
f 1040 1042 1044
f 1039 558 561
f 1044 1039 561
f 1044 561 1046
f 1046 561 1047
f 1048 1049 1050
f 561 1048 1050
f 1047 561 1050
f 1048 561 560
f 1048 560 1051
f 1049 1051 1052
f 1049 1048 1051
f 1050 1052 1053
f 1050 1049 1052
f 1047 1053 1054
f 1047 1054 1055
f 1047 1050 1053
f 1046 1055 1056
f 1046 1047 1055
f 1044 1046 1056
f 1057 1058 1059
f 1059 1058 1056
f 1059 1056 1060
f 1060 1056 1061
f 1061 1056 1062
f 1052 1051 560
f 1053 1052 560
f 1054 1053 560
f 1055 1054 560
f 1056 1055 560
f 1062 1056 560
f 1062 560 559
f 1063 1062 559
f 1064 1063 559
f 1065 1064 559
f 1066 1065 559
f 1067 1066 559
f 568 1067 559
f 566 568 557
f 568 559 557
f 1042 1059 1060
f 1045 1042 1060
f 1043 1045 1061
f 1045 1060 1061
f 1039 1043 1062
f 1038 1039 1062
f 1043 1061 1062
f 1037 1038 1063
f 1038 1062 1063
f 1036 1037 1064
f 1037 1063 1064
f 1036 1064 1065
f 1035 1036 1066
f 1036 1065 1066
f 569 1035 1067
f 1035 1066 1067
f 569 1067 568
f 1068 1069 590
f 1070 1068 590
f 1071 1070 590
f 1072 1071 590
f 1073 1072 590
f 577 1073 590
f 578 577 583
f 577 590 583
f 577 576 1074
f 1073 577 1074
f 1072 1073 1075
f 1073 1074 1075
f 1071 1072 1076
f 1072 1075 1076
f 1070 1071 1077
f 1071 1076 1077
f 1068 1070 1078
f 1070 1077 1078
f 1069 1068 1079
f 1068 1078 1079
f 1080 1069 1081
f 1069 1079 1081
f 1082 1080 1083
f 1080 1081 1083
f 1084 1082 1085
f 1082 1083 1085
f 575 586 576
f 1079 1078 588
f 1078 1077 588
f 1077 1076 588
f 1076 1075 588
f 1075 1074 588
f 1074 576 588
f 576 586 588
f 1084 1086 1087
f 1088 1084 1087
f 1082 1084 1088
f 1080 1082 1088
f 1069 1080 1088
f 1089 1090 1091
f 589 1088 1092
f 589 1092 1093
f 589 1093 1090
f 589 1069 1088
f 589 1090 1089
f 590 1069 589
f 1088 1094 1095
f 1092 1088 1095
f 1093 1095 1096
f 1093 1096 1097
f 1093 1092 1095
f 1090 1093 1097
f 1091 1097 1098
f 1091 1098 1099
f 1091 1090 1097
f 1089 1099 587
f 1089 1091 1099
f 589 1089 587
f 1099 1098 1097
f 587 1096 1095
f 587 1097 1096
f 587 1099 1097
f 1094 587 1095
f 1079 588 587
f 1079 587 1094
f 1081 1079 1094
f 1083 1081 1094
f 1085 1083 1094
f 1100 1085 1094
f 1101 1085 1100
f 628 640 639
f 629 628 639
f 629 638 637
f 629 639 638
f 627 640 628
f 627 641 640
f 630 629 637
f 630 636 635
f 630 637 636
f 626 641 627
f 626 642 641
f 643 642 626
f 631 630 635
f 631 635 634
f 620 631 634
f 620 634 651
f 633 643 626
f 619 620 651
f 619 651 650
f 621 619 650
f 621 650 649
f 625 632 633
f 625 633 626
f 648 621 649
f 622 621 648
f 647 622 648
f 623 622 647
f 646 623 647
f 644 623 646
f 624 623 644
f 645 624 644
f 601 603 602
f 601 604 603
f 600 605 604
f 600 606 605
f 600 607 606
f 600 604 601
f 599 608 607
f 599 607 600
f 611 624 645
f 598 597 608
f 598 608 599
f 700 592 591
f 700 593 592
f 700 594 593
f 700 595 594
f 700 596 595
f 609 597 598
f 609 591 597
f 699 700 591
f 699 591 609
f 658 611 645
f 658 612 611
f 652 609 610
f 652 699 609
f 652 610 618
f 653 618 617
f 653 652 618
f 654 617 616
f 654 653 617
f 657 613 612
f 657 614 613
f 657 612 658
f 655 616 615
f 655 654 616
f 656 614 657
f 656 615 614
f 656 655 615
f 659 699 652
f 687 685 684
f 687 686 685
f 688 687 684
f 688 682 681
f 688 683 682
f 688 684 683
f 689 688 681
f 690 689 681
f 691 690 681
f 691 681 680
f 692 691 680
f 692 680 679
f 676 692 679
f 677 676 679
f 678 679 693
f 678 677 679
f 675 693 694
f 675 678 693
f 698 699 659
f 674 694 695
f 674 675 694
f 696 674 695
f 660 697 698
f 660 698 659
f 661 697 660
f 673 674 696
f 673 696 697
f 665 667 666
f 664 667 665
f 664 668 667
f 663 668 664
f 663 669 668
f 662 669 663
f 662 697 661
f 662 661 669
f 670 673 697
f 670 697 662
f 670 672 673
f 671 672 670
f 711 710 712
f 712 710 713
f 713 710 709
f 709 710 708
f 706 705 715
f 705 708 715
f 708 710 715
f 706 715 707
f 707 715 704
f 702 703 701
f 701 703 733
f 703 731 733
f 733 731 732
f 703 715 731
f 704 715 703
f 1102 1103 756
f 1104 742 1105
f 1106 1102 756
f 755 1106 756
f 1107 1106 755
f 754 1107 755
f 1108 746 745
f 1108 1109 746
f 1110 747 746
f 1110 748 747
f 1111 1107 754
f 1110 746 1109
f 753 1111 754
f 759 742 1104
f 1112 749 748
f 1112 748 1110
f 1113 745 744
f 1113 1108 745
f 1114 759 1104
f 752 1115 1111
f 1116 734 735
f 752 1111 753
f 1116 735 749
f 1116 749 1112
f 1117 734 1116
f 736 734 1117
f 1118 736 1117
f 1119 1113 744
f 751 1120 1115
f 737 736 1118
f 751 1115 752
f 1121 737 1118
f 738 737 1121
f 1122 738 1121
f 743 1119 744
f 739 738 1122
f 1123 1119 743
f 750 1124 1120
f 1125 1123 743
f 750 1120 751
f 1125 743 758
f 1126 739 1122
f 765 1124 750
f 764 1124 765
f 1127 1125 758
f 764 1128 1124
f 740 739 1126
f 760 1114 1129
f 760 759 1114
f 757 1127 758
f 1105 740 1126
f 763 1130 1128
f 763 1128 764
f 762 1131 1130
f 1103 1127 757
f 762 1130 763
f 761 1129 1132
f 741 740 1105
f 761 1132 1131
f 761 760 1129
f 761 1131 762
f 756 1103 757
f 742 741 1105
f 204 777 767
f 204 767 389
f 775 204 769
f 204 389 769
f 767 777 776
f 767 776 766
f 198 779 325
f 779 781 325
f 776 198 766
f 198 325 766
f 773 774 768
f 773 768 770
f 769 774 775
f 768 774 769
f 770 771 773
f 773 771 772
f 778 780 779
f 780 781 779
f 782 208 225
f 208 785 225
f 785 787 225
f 782 225 788
f 789 783 782
f 789 782 788
f 797 206 231
f 206 783 231
f 783 789 231
f 797 231 791
f 787 785 784
f 787 784 786
f 795 796 790
f 795 790 792
f 797 791 796
f 791 790 796
f 792 794 795
f 793 794 792
f 373 801 803
f 798 373 207
f 373 803 207
f 798 207 804
f 805 799 798
f 805 798 804
f 811 388 209
f 388 799 209
f 799 805 209
f 811 209 806
f 803 801 800
f 803 800 802
f 813 812 807
f 813 807 808
f 806 812 811
f 807 812 806
f 808 810 813
f 809 810 808
f 848 851 850
f 847 852 851
f 847 851 848
f 846 853 852
f 846 833 853
f 846 834 833
f 846 835 834
f 846 852 847
f 822 835 846
f 845 820 819
f 845 819 822
f 845 822 846
f 821 820 845
f 818 821 845
f 814 855 856
f 816 817 854
f 857 815 814
f 858 815 857
f 862 815 858
f 859 862 858
f 860 861 862
f 860 862 859
f 814 816 855
f 855 816 854
f 817 818 854
f 845 854 818
f 856 857 814
f 901 908 892
f 929 876 875
f 929 863 876
f 929 875 918
f 882 881 911
f 912 882 911
f 935 941 940
f 935 934 941
f 877 882 912
f 884 886 885
f 884 887 886
f 884 888 887
f 884 889 888
f 883 889 884
f 909 889 883
f 909 890 889
f 899 901 892
f 936 940 870
f 899 900 901
f 936 935 940
f 916 877 912
f 910 878 890
f 910 890 909
f 939 937 938
f 915 878 910
f 871 877 916
f 879 878 915
f 914 879 915
f 921 871 916
f 891 909 883
f 922 936 870
f 931 937 939
f 880 879 914
f 923 869 868
f 923 870 869
f 923 922 870
f 928 863 929
f 928 864 863
f 928 865 864
f 872 921 920
f 913 880 914
f 872 871 921
f 946 931 939
f 924 868 867
f 924 923 868
f 927 865 928
f 919 872 920
f 925 867 866
f 902 909 891
f 925 924 867
f 873 872 919
f 926 866 865
f 926 865 927
f 926 925 866
f 930 931 946
f 917 874 873
f 894 896 895
f 894 897 896
f 917 873 919
f 945 930 946
f 903 902 891
f 944 930 945
f 893 897 894
f 893 898 897
f 904 903 891
f 918 874 917
f 904 891 898
f 875 874 918
f 932 930 944
f 943 932 944
f 942 932 943
f 933 932 942
f 892 904 898
f 892 898 893
f 892 905 904
f 892 906 905
f 892 907 906
f 911 880 913
f 941 933 942
f 934 933 941
f 908 907 892
f 881 880 911
f 1133 950 1134
f 1134 950 1135
f 950 1133 1136
f 950 1136 1137
f 950 1137 964
f 950 964 954
f 954 964 962
f 1138 1139 1140
f 1138 1140 1141
f 1141 1140 1142
f 1141 1142 1143
f 1141 1143 1135
f 1144 1145 1146
f 1147 1144 1146
f 1148 1141 953
f 1145 1148 953
f 1141 1135 953
f 1146 1145 953
f 953 1135 950
f 1146 953 952
f 1146 952 1149
f 1147 1149 1150
f 1147 1146 1149
f 1144 1150 1151
f 1144 1147 1150
f 1145 1151 1152
f 1145 1152 1153
f 1145 1144 1151
f 1148 1153 1154
f 1148 1145 1153
f 1141 1148 1154
f 1150 1149 952
f 1151 1150 952
f 1152 1151 952
f 1153 1152 952
f 1153 952 1154
f 952 951 1155
f 1154 952 1155
f 1154 1155 1156
f 1154 1156 1157
f 1154 1157 1158
f 1154 1158 1159
f 1159 1158 1160
f 949 958 960
f 951 949 960
f 951 960 1161
f 951 1161 1162
f 951 1162 1163
f 951 1163 1164
f 951 1164 1165
f 951 1165 1155
f 1140 1158 1157
f 1142 1140 1157
f 1143 1142 1156
f 1142 1157 1156
f 1135 1143 1155
f 1134 1135 1155
f 1143 1156 1155
f 1133 1134 1165
f 1134 1155 1165
f 1136 1133 1164
f 1133 1165 1164
f 1136 1164 1163
f 1137 1136 1162
f 1136 1163 1162
f 964 1137 1161
f 1137 1162 1161
f 964 1161 960
f 1166 972 1167
f 1167 972 1168
f 972 1166 1169
f 972 1169 1170
f 972 1170 978
f 972 978 965
f 965 978 966
f 975 980 979
f 974 975 979
f 974 979 1171
f 974 1171 1172
f 974 1172 1173
f 974 1173 1174
f 974 1174 1175
f 974 1175 1176
f 1177 1178 1179
f 1180 1177 1179
f 1181 1177 1180
f 1182 1181 1180
f 1176 1182 1180
f 1183 1184 1185
f 973 1180 1186
f 973 1186 1187
f 973 1187 1184
f 973 1176 1180
f 973 1184 1183
f 974 1176 973
f 1180 1188 1189
f 1186 1189 1190
f 1186 1180 1189
f 1187 1190 1191
f 1187 1186 1190
f 1184 1191 1192
f 1184 1187 1191
f 1185 1192 1193
f 1185 1184 1192
f 1183 1193 971
f 1183 1185 1193
f 973 1183 971
f 971 1190 1189
f 971 1191 1190
f 971 1192 1191
f 971 1193 1192
f 1188 971 1189
f 1168 972 971
f 1168 971 1188
f 1194 1168 1188
f 1195 1194 1188
f 1196 1195 1188
f 1197 1196 1188
f 1198 1196 1197
f 1171 979 978
f 1172 1171 1170
f 1171 978 1170
f 1174 1173 1169
f 1173 1172 1169
f 1172 1170 1169
f 1175 1174 1166
f 1174 1169 1166
f 1176 1175 1167
f 1175 1166 1167
f 1176 1167 1168
f 1182 1176 1194
f 1176 1168 1194
f 1181 1182 1195
f 1182 1194 1195
f 1177 1181 1196
f 1181 1195 1196
f 1199 986 1200
f 1200 986 1201
f 986 1199 1202
f 986 1202 1203
f 986 1203 1000
f 986 1000 990
f 990 1000 998
f 1204 1205 1206
f 1204 1206 1207
f 1207 1206 1208
f 1207 1208 1209
f 1207 1209 1201
f 1210 1207 989
f 1211 1210 989
f 1212 1211 989
f 1213 1212 989
f 1214 1213 989
f 1207 1201 989
f 989 1201 986
f 1214 989 988
f 1214 988 1215
f 1213 1215 1216
f 1213 1214 1215
f 1212 1216 1217
f 1212 1213 1216
f 1211 1217 1218
f 1211 1218 1219
f 1211 1212 1217
f 1210 1219 1220
f 1210 1211 1219
f 1207 1210 1220
f 1216 1215 988
f 1217 1216 988
f 1218 1217 988
f 1219 1218 988
f 1219 988 1220
f 988 987 1221
f 1220 988 1221
f 1220 1221 1222
f 1220 1222 1223
f 1220 1223 1224
f 1220 1224 1225
f 1225 1224 1226
f 985 994 996
f 987 985 996
f 987 996 1227
f 987 1227 1228
f 987 1228 1229
f 987 1229 1230
f 987 1230 1231
f 987 1231 1221
f 1206 1224 1223
f 1208 1206 1223
f 1209 1208 1222
f 1208 1223 1222
f 1201 1209 1221
f 1200 1201 1221
f 1209 1222 1221
f 1199 1200 1231
f 1200 1221 1231
f 1202 1199 1230
f 1199 1231 1230
f 1202 1230 1229
f 1203 1202 1228
f 1202 1229 1228
f 1000 1203 1227
f 1203 1228 1227
f 1000 1227 996
f 1018 1034 1019
f 1017 1018 1019
f 1033 1020 1034
f 1020 1019 1034
f 1020 1033 1021
f 1033 1027 1021
f 1044 1056 1058
f 1044 1058 1040
f 1057 1041 1040
f 1057 1040 1058
f 1041 1057 1059
f 1041 1059 1042
f 1085 1101 1086
f 1084 1085 1086
f 1100 1087 1101
f 1087 1086 1101
f 1087 1100 1088
f 1100 1094 1088
f 1232 1116 1112
f 1232 1233 1116
f 1234 1112 1110
f 1234 1232 1112
f 1109 1234 1110
f 1235 1234 1109
f 1236 1109 1108
f 1236 1235 1109
f 1237 1108 1113
f 1237 1236 1108
f 1238 1113 1119
f 1238 1237 1113
f 1239 1119 1123
f 1239 1238 1119
f 1240 1123 1125
f 1240 1239 1123
f 1127 1240 1125
f 1241 1240 1127
f 1103 1241 1127
f 1242 1241 1103
f 1102 1242 1103
f 1243 1242 1102
f 1244 1102 1106
f 1244 1243 1102
f 1245 1106 1107
f 1245 1244 1106
f 1246 1107 1111
f 1246 1245 1107
f 1247 1111 1115
f 1247 1246 1111
f 1120 1247 1115
f 1248 1247 1120
f 1249 1120 1124
f 1249 1248 1120
f 1250 1124 1128
f 1250 1249 1124
f 1130 1250 1128
f 1251 1250 1130
f 1131 1251 1130
f 1252 1251 1131
f 1132 1252 1131
f 1253 1252 1132
f 1129 1253 1132
f 1254 1253 1129
f 1114 1254 1129
f 1255 1254 1114
f 1256 1114 1104
f 1256 1255 1114
f 1257 1104 1105
f 1257 1256 1104
f 1258 1105 1126
f 1258 1257 1105
f 1259 1126 1122
f 1259 1258 1126
f 1260 1122 1121
f 1260 1259 1122
f 1261 1121 1118
f 1261 1260 1121
f 1262 1118 1117
f 1262 1261 1118
f 1233 1117 1116
f 1233 1262 1117
f 1138 1141 1154
f 1159 1138 1154
f 1160 1139 1138
f 1160 1138 1159
f 1158 1140 1160
f 1140 1139 1160
f 1197 1179 1198
f 1179 1178 1198
f 1178 1177 1196
f 1198 1178 1196
f 1188 1180 1197
f 1180 1179 1197
f 1204 1207 1220
f 1225 1204 1220
f 1226 1205 1204
f 1226 1204 1225
f 1224 1206 1226
f 1206 1205 1226
f 1250 1248 1249
f 1251 1247 1248
f 1251 1246 1247
f 1251 1248 1250
f 1252 1246 1251
f 1253 1245 1246
f 1253 1244 1245
f 1253 1246 1252
f 1254 1243 1244
f 1254 1244 1253
f 1255 1242 1243
f 1255 1241 1242
f 1255 1243 1254
f 1256 1240 1241
f 1256 1239 1240
f 1256 1241 1255
f 1257 1238 1239
f 1257 1239 1256
f 1258 1237 1238
f 1258 1238 1257
f 1262 1233 1232
f 1261 1232 1234
f 1261 1262 1232
f 1259 1236 1237
f 1259 1237 1258
f 1260 1235 1236
f 1260 1234 1235
f 1260 1261 1234
f 1260 1236 1259
