# Created by FreeCAD <http://www.freecadweb.org>
v -50.076244 534.489502 197.877075
v -50.076244 534.489502 198.077072
v -50.086567 534.489502 197.876648
v -50.096817 534.489502 197.875366
v -50.106930 534.489502 197.873245
v -50.116833 534.489502 197.870300
v -50.126457 534.489502 197.866547
v -50.135738 534.489502 197.862000
v -50.351246 534.489502 198.077072
v -50.126457 534.489502 197.637604
v -50.135738 534.489502 197.642136
v -50.076244 534.489502 197.427063
v -50.116833 534.489502 197.633835
v -50.106930 534.489502 197.630890
v -50.096817 534.489502 197.628769
v -50.086567 534.489502 197.627502
v -50.076244 534.489502 197.627075
v -50.144611 534.489502 197.856720
v -50.351246 534.489502 197.427063
v -50.200817 534.489502 197.741745
v -50.201244 534.489502 197.752075
v -50.199539 534.489502 197.731491
v -50.197418 534.489502 197.721390
v -50.194473 534.489502 197.711487
v -50.190716 534.489502 197.701859
v -50.186180 534.489502 197.692581
v -50.153023 534.489502 197.850708
v -50.180889 534.489502 197.683701
v -50.174889 534.489502 197.675293
v -50.168209 534.489502 197.667404
v -50.160904 534.489502 197.660110
v -50.153023 534.489502 197.653427
v -50.144611 534.489502 197.647430
v -50.160904 534.489502 197.844040
v -50.168209 534.489502 197.836731
v -50.174889 534.489502 197.828842
v -50.180889 534.489502 197.820435
v -50.186180 534.489502 197.811569
v -50.190716 534.489502 197.802277
v -50.194473 534.489502 197.792664
v -50.197418 534.489502 197.782761
v -50.199539 534.489502 197.772644
v -50.200817 534.489502 197.762390
v -50.076244 534.839539 197.877075
v -50.076244 534.839539 198.077072
v -50.101246 534.514526 198.077072
v -50.351246 534.514526 198.077072
v -50.101246 534.814514 198.077072
v -50.301243 534.839539 198.077072
v -50.301243 534.814514 198.077072
v -50.351246 534.514526 197.427063
v -50.101246 534.514526 197.427063
v -50.101246 534.814514 197.427063
v -50.076244 534.839539 197.427063
v -50.301243 534.839539 197.427063
v -50.301243 534.814514 197.427063
v -50.076244 534.839539 197.627075
v -50.180889 534.839539 197.820435
v -50.174889 534.839539 197.675293
v -50.180889 534.839539 197.683701
v -50.186180 534.839539 197.811569
v -50.174889 534.839539 197.828842
v -50.186180 534.839539 197.692581
v -50.168209 534.839539 197.836731
v -50.190716 534.839539 197.701859
v -50.160904 534.839539 197.844040
v -50.194473 534.839539 197.711487
v -50.086567 534.839539 197.627502
v -50.096817 534.839539 197.628769
v -50.153023 534.839539 197.850708
v -50.197418 534.839539 197.721390
v -50.144611 534.839539 197.856720
v -50.106930 534.839539 197.630890
v -50.199539 534.839539 197.731491
v -50.135738 534.839539 197.862000
v -50.116833 534.839539 197.633835
v -50.200817 534.839539 197.741745
v -50.126457 534.839539 197.866547
v -50.126457 534.839539 197.637604
v -50.116833 534.839539 197.870300
v -50.201244 534.839539 197.752075
v -50.106930 534.839539 197.873245
v -50.200817 534.839539 197.762390
v -50.135738 534.839539 197.642136
v -50.096817 534.839539 197.875366
v -50.086567 534.839539 197.876648
v -50.144611 534.839539 197.647430
v -50.199539 534.839539 197.772644
v -50.153023 534.839539 197.653427
v -50.197418 534.839539 197.782761
v -50.194473 534.839539 197.792664
v -50.160904 534.839539 197.660110
v -50.190716 534.839539 197.802277
v -50.168209 534.839539 197.667404
v -50.210129 534.514526 197.684433
v -50.204456 534.514526 197.674210
v -50.198002 534.514526 197.664459
v -50.190807 534.514526 197.655243
v -50.182919 534.514526 197.646622
v -50.174381 534.514526 197.638626
v -50.165249 534.514526 197.631332
v -50.155575 534.514526 197.624771
v -50.226246 534.514526 197.752075
v -50.112686 534.514526 197.897568
v -50.101246 534.514526 197.899979
v -50.225788 534.514526 197.740387
v -50.225788 534.514526 197.763748
v -50.123909 534.514526 197.894287
v -50.134842 534.514526 197.890152
v -50.145420 534.514526 197.885162
v -50.155575 534.514526 197.879379
v -50.165249 534.514526 197.872803
v -50.174381 534.514526 197.865509
v -50.182919 534.514526 197.857529
v -50.190807 534.514526 197.848892
v -50.198002 534.514526 197.839676
v -50.204456 534.514526 197.829926
v -50.210129 534.514526 197.819702
v -50.214993 534.514526 197.809067
v -50.219009 534.514526 197.798096
v -50.222160 534.514526 197.786835
v -50.224426 534.514526 197.775360
v -50.145420 534.514526 197.618973
v -50.134842 534.514526 197.613983
v -50.123909 534.514526 197.609848
v -50.112686 534.514526 197.606567
v -50.101246 534.514526 197.604172
v -50.224426 534.514526 197.728775
v -50.222160 534.514526 197.717300
v -50.219009 534.514526 197.706039
v -50.214993 534.514526 197.695068
v -50.101246 534.814514 197.899979
v -50.112686 534.814514 197.606567
v -50.101246 534.814514 197.604172
v -50.123909 534.814514 197.609848
v -50.134842 534.814514 197.613983
v -50.145420 534.814514 197.618973
v -50.145420 534.814514 197.885162
v -50.134842 534.814514 197.890152
v -50.123909 534.814514 197.894287
v -50.112686 534.814514 197.897568
v -50.224426 534.814514 197.775360
v -50.222160 534.814514 197.786835
v -50.219009 534.814514 197.798096
v -50.214993 534.814514 197.809067
v -50.210129 534.814514 197.819702
v -50.155575 534.814514 197.624771
v -50.204456 534.814514 197.829926
v -50.198002 534.814514 197.839676
v -50.190807 534.814514 197.848892
v -50.182919 534.814514 197.857529
v -50.174381 534.814514 197.865509
v -50.165249 534.814514 197.872803
v -50.155575 534.814514 197.879379
v -50.165249 534.814514 197.631332
v -50.226246 534.814514 197.752075
v -50.225788 534.814514 197.763748
v -50.174381 534.814514 197.638626
v -50.225788 534.814514 197.740387
v -50.224426 534.814514 197.728775
v -50.182919 534.814514 197.646622
v -50.190807 534.814514 197.655243
v -50.198002 534.814514 197.664459
v -50.204456 534.814514 197.674210
v -50.210129 534.814514 197.684433
v -50.214993 534.814514 197.695068
v -50.219009 534.814514 197.706039
v -50.222160 534.814514 197.717300
f 1 2 3
f 3 2 4
f 4 2 5
f 5 2 6
f 6 2 7
f 7 2 8
f 8 2 9
f 10 11 12
f 13 10 12
f 14 13 12
f 15 14 12
f 16 15 12
f 17 16 12
f 8 9 18
f 12 11 19
f 20 21 19
f 22 20 19
f 23 22 19
f 24 23 19
f 25 24 19
f 26 25 19
f 18 9 27
f 28 26 19
f 29 28 19
f 30 29 19
f 31 30 19
f 32 31 19
f 33 32 19
f 11 33 19
f 27 9 34
f 21 9 19
f 34 9 35
f 35 9 36
f 36 9 37
f 37 9 38
f 38 9 39
f 39 9 40
f 40 9 41
f 41 9 42
f 42 9 43
f 43 9 21
f 44 2 1
f 44 45 2
f 46 47 9
f 46 9 2
f 48 49 50
f 48 46 2
f 45 49 48
f 45 48 2
f 47 19 9
f 47 51 19
f 19 52 12
f 51 52 19
f 53 12 52
f 54 12 53
f 55 53 56
f 55 54 53
f 54 17 12
f 54 57 17
f 37 38 58
f 29 59 60
f 38 61 58
f 28 29 60
f 35 36 62
f 36 37 62
f 37 58 62
f 28 60 63
f 26 28 63
f 34 35 64
f 35 62 64
f 26 63 65
f 16 17 57
f 34 64 66
f 25 26 65
f 25 65 67
f 16 57 68
f 24 25 67
f 16 68 69
f 27 34 70
f 24 67 71
f 34 66 70
f 15 16 69
f 27 70 72
f 23 24 71
f 15 69 73
f 18 27 72
f 14 15 73
f 22 23 74
f 23 71 74
f 18 72 75
f 14 73 76
f 8 18 75
f 10 13 76
f 21 20 77
f 13 14 76
f 20 22 77
f 8 75 78
f 22 74 77
f 6 7 78
f 10 76 79
f 7 8 78
f 6 78 80
f 21 77 81
f 11 10 79
f 5 6 80
f 5 80 82
f 21 81 83
f 11 79 84
f 5 82 85
f 42 43 83
f 43 21 83
f 4 5 85
f 4 85 86
f 11 84 87
f 3 4 86
f 3 86 44
f 1 3 44
f 42 83 88
f 33 11 87
f 33 87 89
f 41 42 90
f 42 88 90
f 32 33 89
f 41 90 91
f 32 89 92
f 40 41 91
f 31 32 92
f 39 40 93
f 31 92 94
f 40 91 93
f 29 30 94
f 30 31 94
f 39 93 61
f 29 94 59
f 38 39 61
f 86 45 44
f 85 45 86
f 82 45 85
f 80 45 82
f 78 49 45
f 54 79 76
f 54 76 73
f 54 73 69
f 78 45 80
f 54 69 68
f 54 68 57
f 55 79 54
f 55 74 71
f 55 71 67
f 55 67 65
f 75 49 78
f 55 65 63
f 55 63 60
f 55 60 59
f 55 59 94
f 55 94 92
f 72 49 75
f 55 92 89
f 55 89 87
f 55 87 84
f 55 84 79
f 55 49 81
f 70 49 72
f 55 81 77
f 55 77 74
f 81 49 83
f 83 49 88
f 66 49 70
f 64 49 66
f 62 49 64
f 58 49 62
f 61 49 58
f 93 49 61
f 91 49 93
f 90 49 91
f 88 49 90
f 51 95 96
f 51 96 97
f 51 97 98
f 51 98 99
f 51 99 100
f 51 100 101
f 51 101 102
f 51 47 103
f 104 46 105
f 51 103 106
f 103 47 107
f 108 46 104
f 109 46 108
f 110 46 109
f 111 47 46
f 111 46 110
f 112 47 111
f 113 47 112
f 114 47 113
f 115 47 114
f 116 47 115
f 117 47 116
f 118 47 117
f 119 47 118
f 120 47 119
f 121 47 120
f 122 47 121
f 107 47 122
f 52 102 123
f 52 123 124
f 52 124 125
f 52 125 126
f 52 126 127
f 51 102 52
f 51 106 128
f 51 128 129
f 51 129 130
f 51 130 131
f 51 131 95
f 132 105 46
f 48 132 46
f 133 53 134
f 135 53 133
f 136 53 135
f 137 56 53
f 48 138 139
f 48 139 140
f 48 140 141
f 48 141 132
f 137 53 136
f 50 138 48
f 50 142 143
f 50 143 144
f 50 144 145
f 50 145 146
f 147 56 137
f 50 146 148
f 50 148 149
f 50 149 150
f 50 150 151
f 50 151 152
f 50 152 153
f 50 153 154
f 155 56 147
f 50 154 138
f 50 56 156
f 50 156 157
f 50 157 142
f 158 56 155
f 156 56 159
f 159 56 160
f 161 56 158
f 162 56 161
f 163 56 162
f 164 56 163
f 165 56 164
f 166 56 165
f 167 56 166
f 168 56 167
f 160 56 168
f 49 55 56
f 49 56 50
f 53 52 127
f 134 53 127
f 150 115 114
f 150 149 115
f 165 95 131
f 165 164 95
f 166 165 131
f 151 114 113
f 151 150 114
f 166 131 130
f 152 151 113
f 167 130 129
f 152 113 112
f 167 166 130
f 168 167 129
f 133 127 126
f 133 134 127
f 153 112 111
f 153 152 112
f 168 129 128
f 154 111 110
f 154 153 111
f 160 128 106
f 135 126 125
f 160 168 128
f 135 133 126
f 138 110 109
f 138 154 110
f 139 109 108
f 139 138 109
f 159 106 103
f 159 160 106
f 140 108 104
f 136 125 124
f 136 135 125
f 140 139 108
f 141 104 105
f 141 140 104
f 137 136 124
f 132 141 105
f 156 103 107
f 156 159 103
f 137 124 123
f 157 107 122
f 147 137 123
f 157 156 107
f 147 123 102
f 142 122 121
f 142 157 122
f 155 147 102
f 155 102 101
f 143 121 120
f 143 142 121
f 158 155 101
f 158 101 100
f 144 120 119
f 144 143 120
f 161 158 100
f 145 119 118
f 145 144 119
f 161 100 99
f 162 161 99
f 146 118 117
f 146 145 118
f 162 99 98
f 148 117 116
f 148 146 117
f 163 97 96
f 163 98 97
f 163 162 98
f 149 116 115
f 149 148 116
f 164 163 96
f 164 96 95
