# Created by FreeCAD <http://www.freecadweb.org>
v -50.401245 534.814514 197.389572
v -50.401245 534.814514 198.114563
v -51.401245 534.814514 198.114563
v -51.401245 534.814514 197.389572
v -50.447445 535.164551 197.389572
v -51.355045 535.164551 197.389572
v -50.447445 535.164551 198.114563
v -51.355045 535.164551 198.114563
f 1 2 3
f 1 3 4
f 4 5 1
f 6 5 4
f 5 7 2
f 1 5 2
f 7 3 2
f 7 8 3
f 4 3 8
f 6 4 8
f 6 8 7
f 6 7 5
