# Created by FreeCAD <http://www.freecadweb.org>
v 11.995234 544.617249 -1.982010
v 11.995234 544.766113 -1.982023
v 11.995234 544.766113 -2.142080
v 11.995234 544.617249 -2.142067
v 12.070233 544.766113 -2.142080
v 12.070233 544.617249 -2.142067
v 12.070233 544.766113 -1.982023
v 12.070233 544.617249 -1.982010
f 1 2 3
f 1 3 4
f 4 5 6
f 4 3 5
f 3 7 5
f 3 2 7
f 2 8 7
f 2 1 8
f 8 4 6
f 1 4 8
f 6 5 8
f 5 7 8
