# Created by FreeCAD <http://www.freecadweb.org>
v 19.773756 534.489502 184.288071
v 19.773756 534.489502 184.488068
v 19.763433 534.489502 184.287643
v 19.753181 534.489502 184.286362
v 19.743071 534.489502 184.284241
v 19.733168 534.489502 184.281296
v 19.723543 534.489502 184.277542
v 19.714262 534.489502 184.273010
v 19.498755 534.489502 184.488068
v 19.705387 534.489502 184.267715
v 19.723543 534.489502 184.048599
v 19.714262 534.489502 184.053131
v 19.773756 534.489502 183.838074
v 19.733168 534.489502 184.044846
v 19.743071 534.489502 184.041901
v 19.753181 534.489502 184.039780
v 19.696980 534.489502 184.261719
v 19.763433 534.489502 184.038498
v 19.773756 534.489502 184.038071
v 19.498755 534.489502 183.838074
v 19.649183 534.489502 184.152740
v 19.648756 534.489502 184.163071
v 19.650461 534.489502 184.142502
v 19.689095 534.489502 184.255035
v 19.652580 534.489502 184.132385
v 19.655529 534.489502 184.122482
v 19.659285 534.489502 184.112854
v 19.663820 534.489502 184.103577
v 19.669109 534.489502 184.094696
v 19.675114 534.489502 184.086288
v 19.681789 534.489502 184.247726
v 19.681789 534.489502 184.078415
v 19.689095 534.489502 184.071106
v 19.696980 534.489502 184.064423
v 19.705387 534.489502 184.058426
v 19.675114 534.489502 184.239853
v 19.669109 534.489502 184.231445
v 19.663820 534.489502 184.222565
v 19.659285 534.489502 184.213287
v 19.655529 534.489502 184.203659
v 19.652580 534.489502 184.193756
v 19.650461 534.489502 184.183640
v 19.649183 534.489502 184.173386
v 19.773756 534.839539 184.288071
v 19.773756 534.839539 184.488068
v 19.748755 534.514526 184.488068
v 19.498755 534.514526 184.488068
v 19.748755 534.814514 184.488068
v 19.548756 534.839539 184.488068
v 19.548756 534.814514 184.488068
v 19.498755 534.514526 183.838074
v 19.748755 534.514526 183.838074
v 19.748755 534.814514 183.838074
v 19.773756 534.839539 183.838074
v 19.548756 534.839539 183.838074
v 19.548756 534.814514 183.838074
v 19.773756 534.839539 184.038071
v 19.669109 534.839539 184.231445
v 19.675114 534.839539 184.086288
v 19.669109 534.839539 184.094696
v 19.663820 534.839539 184.222565
v 19.675114 534.839539 184.239853
v 19.663820 534.839539 184.103577
v 19.681789 534.839539 184.247726
v 19.659285 534.839539 184.112854
v 19.689095 534.839539 184.255035
v 19.655529 534.839539 184.122482
v 19.763433 534.839539 184.038498
v 19.753181 534.839539 184.039780
v 19.696980 534.839539 184.261719
v 19.652580 534.839539 184.132385
v 19.705387 534.839539 184.267715
v 19.743071 534.839539 184.041901
v 19.650461 534.839539 184.142502
v 19.714262 534.839539 184.273010
v 19.733168 534.839539 184.044846
v 19.649183 534.839539 184.152740
v 19.723543 534.839539 184.277542
v 19.723543 534.839539 184.048599
v 19.733168 534.839539 184.281296
v 19.648756 534.839539 184.163071
v 19.743071 534.839539 184.284241
v 19.649183 534.839539 184.173386
v 19.714262 534.839539 184.053131
v 19.753181 534.839539 184.286362
v 19.763433 534.839539 184.287643
v 19.705387 534.839539 184.058426
v 19.650461 534.839539 184.183640
v 19.696980 534.839539 184.064423
v 19.652580 534.839539 184.193756
v 19.655529 534.839539 184.203659
v 19.689095 534.839539 184.071106
v 19.659285 534.839539 184.213287
v 19.681789 534.839539 184.078415
v 19.639870 534.514526 184.095428
v 19.645544 534.514526 184.085205
v 19.651999 534.514526 184.075455
v 19.659191 534.514526 184.066238
v 19.667080 534.514526 184.057617
v 19.675617 534.514526 184.049622
v 19.684752 534.514526 184.042328
v 19.694426 534.514526 184.035767
v 19.623755 534.514526 184.163071
v 19.737312 534.514526 184.308578
v 19.748755 534.514526 184.310974
v 19.624210 534.514526 184.151382
v 19.624210 534.514526 184.174759
v 19.726089 534.514526 184.305298
v 19.715158 534.514526 184.301147
v 19.704580 534.514526 184.296173
v 19.694426 534.514526 184.290375
v 19.684752 534.514526 184.283813
v 19.675617 534.514526 184.276505
v 19.667080 534.514526 184.268524
v 19.659191 534.514526 184.259888
v 19.651999 534.514526 184.250671
v 19.645544 534.514526 184.240921
v 19.639870 534.514526 184.230713
v 19.635008 534.514526 184.220078
v 19.630991 534.514526 184.209091
v 19.627840 534.514526 184.197830
v 19.625576 534.514526 184.186371
v 19.704580 534.514526 184.029968
v 19.715158 534.514526 184.024994
v 19.726089 534.514526 184.020844
v 19.737312 534.514526 184.017563
v 19.748755 534.514526 184.015167
v 19.625576 534.514526 184.139771
v 19.627840 534.514526 184.128311
v 19.630991 534.514526 184.117050
v 19.635008 534.514526 184.106064
v 19.748755 534.814514 184.310974
v 19.737312 534.814514 184.017563
v 19.748755 534.814514 184.015167
v 19.726089 534.814514 184.020844
v 19.715158 534.814514 184.024994
v 19.704580 534.814514 184.029968
v 19.704580 534.814514 184.296173
v 19.715158 534.814514 184.301147
v 19.726089 534.814514 184.305298
v 19.737312 534.814514 184.308578
v 19.625576 534.814514 184.186371
v 19.627840 534.814514 184.197830
v 19.630991 534.814514 184.209091
v 19.635008 534.814514 184.220078
v 19.639870 534.814514 184.230713
v 19.645544 534.814514 184.240921
v 19.651999 534.814514 184.250671
v 19.694426 534.814514 184.035767
v 19.659191 534.814514 184.259888
v 19.667080 534.814514 184.268524
v 19.675617 534.814514 184.276505
v 19.684752 534.814514 184.283813
v 19.694426 534.814514 184.290375
v 19.684752 534.814514 184.042328
v 19.623755 534.814514 184.163071
v 19.624210 534.814514 184.174759
v 19.624210 534.814514 184.151382
v 19.625576 534.814514 184.139771
v 19.675617 534.814514 184.049622
v 19.667080 534.814514 184.057617
v 19.659191 534.814514 184.066238
v 19.651999 534.814514 184.075455
v 19.645544 534.814514 184.085205
v 19.639870 534.814514 184.095428
v 19.635008 534.814514 184.106064
v 19.630991 534.814514 184.117050
v 19.627840 534.814514 184.128311
f 1 2 3
f 3 2 4
f 4 2 5
f 5 2 6
f 6 2 7
f 7 2 8
f 8 2 9
f 8 9 10
f 11 12 13
f 14 11 13
f 15 14 13
f 16 15 13
f 10 9 17
f 18 16 13
f 19 18 13
f 13 12 20
f 21 22 20
f 23 21 20
f 17 9 24
f 25 23 20
f 26 25 20
f 27 26 20
f 28 27 20
f 29 28 20
f 30 29 20
f 24 9 31
f 32 30 20
f 33 32 20
f 34 33 20
f 35 34 20
f 12 35 20
f 22 9 20
f 31 9 36
f 36 9 37
f 37 9 38
f 38 9 39
f 39 9 40
f 40 9 41
f 41 9 42
f 42 9 43
f 43 9 22
f 44 2 1
f 44 45 2
f 46 47 9
f 46 9 2
f 48 49 50
f 48 46 2
f 45 49 48
f 45 48 2
f 47 20 9
f 47 51 20
f 20 52 13
f 51 52 20
f 53 13 52
f 54 13 53
f 55 53 56
f 55 54 53
f 54 19 13
f 54 57 19
f 37 38 58
f 30 59 60
f 38 61 58
f 29 30 60
f 31 36 62
f 36 37 62
f 37 58 62
f 29 60 63
f 28 29 63
f 24 31 64
f 31 62 64
f 28 63 65
f 18 19 57
f 24 64 66
f 27 28 65
f 27 65 67
f 18 57 68
f 26 27 67
f 18 68 69
f 17 24 70
f 26 67 71
f 24 66 70
f 16 18 69
f 17 70 72
f 25 26 71
f 16 69 73
f 10 17 72
f 15 16 73
f 23 25 74
f 25 71 74
f 10 72 75
f 15 73 76
f 8 10 75
f 11 14 76
f 22 21 77
f 14 15 76
f 21 23 77
f 8 75 78
f 23 74 77
f 6 7 78
f 11 76 79
f 7 8 78
f 6 78 80
f 22 77 81
f 12 11 79
f 5 6 80
f 5 80 82
f 22 81 83
f 12 79 84
f 5 82 85
f 42 43 83
f 43 22 83
f 4 5 85
f 4 85 86
f 12 84 87
f 3 4 86
f 3 86 44
f 1 3 44
f 42 83 88
f 35 12 87
f 35 87 89
f 41 42 90
f 42 88 90
f 34 35 89
f 41 90 91
f 34 89 92
f 40 41 91
f 33 34 92
f 39 40 93
f 33 92 94
f 40 91 93
f 30 32 94
f 32 33 94
f 39 93 61
f 30 94 59
f 38 39 61
f 86 45 44
f 85 45 86
f 82 45 85
f 80 45 82
f 78 49 45
f 54 79 76
f 54 76 73
f 54 73 69
f 54 69 68
f 54 68 57
f 78 45 80
f 55 79 54
f 55 74 71
f 55 71 67
f 55 67 65
f 55 65 63
f 55 63 60
f 55 60 59
f 75 49 78
f 55 59 94
f 55 94 92
f 55 92 89
f 55 89 87
f 55 87 84
f 72 49 75
f 55 84 79
f 55 49 81
f 55 81 77
f 55 77 74
f 81 49 83
f 70 49 72
f 83 49 88
f 66 49 70
f 64 49 66
f 62 49 64
f 58 49 62
f 61 49 58
f 93 49 61
f 91 49 93
f 90 49 91
f 88 49 90
f 51 95 96
f 51 96 97
f 51 97 98
f 51 98 99
f 51 99 100
f 51 100 101
f 51 101 102
f 51 47 103
f 104 46 105
f 51 103 106
f 103 47 107
f 108 46 104
f 109 46 108
f 110 46 109
f 111 47 46
f 111 46 110
f 112 47 111
f 113 47 112
f 114 47 113
f 115 47 114
f 116 47 115
f 117 47 116
f 118 47 117
f 119 47 118
f 120 47 119
f 121 47 120
f 122 47 121
f 107 47 122
f 52 102 123
f 52 123 124
f 52 124 125
f 52 125 126
f 52 126 127
f 51 102 52
f 51 106 128
f 51 128 129
f 51 129 130
f 51 130 131
f 51 131 95
f 132 105 46
f 48 132 46
f 133 53 134
f 135 53 133
f 136 53 135
f 137 56 53
f 48 138 139
f 48 139 140
f 48 140 141
f 48 141 132
f 137 53 136
f 50 138 48
f 50 142 143
f 50 143 144
f 50 144 145
f 50 145 146
f 50 146 147
f 50 147 148
f 149 56 137
f 50 148 150
f 50 150 151
f 50 151 152
f 50 152 153
f 50 153 154
f 50 154 138
f 155 56 149
f 50 56 156
f 50 156 157
f 50 157 142
f 156 56 158
f 158 56 159
f 160 56 155
f 161 56 160
f 162 56 161
f 163 56 162
f 164 56 163
f 165 56 164
f 166 56 165
f 167 56 166
f 168 56 167
f 159 56 168
f 49 55 56
f 49 56 50
f 53 52 127
f 134 53 127
f 150 115 114
f 150 148 115
f 165 95 131
f 165 164 95
f 166 165 131
f 151 114 113
f 151 150 114
f 166 131 130
f 152 151 113
f 167 130 129
f 152 113 112
f 167 166 130
f 168 167 129
f 133 127 126
f 133 134 127
f 153 112 111
f 153 152 112
f 168 129 128
f 154 111 110
f 154 153 111
f 159 128 106
f 135 126 125
f 159 168 128
f 135 133 126
f 138 110 109
f 138 154 110
f 139 109 108
f 139 138 109
f 158 106 103
f 158 159 106
f 140 108 104
f 136 125 124
f 136 135 125
f 140 139 108
f 141 104 105
f 141 140 104
f 137 136 124
f 132 141 105
f 156 103 107
f 156 158 103
f 137 124 123
f 157 107 122
f 149 137 123
f 157 156 107
f 149 123 102
f 142 122 121
f 142 157 122
f 155 149 102
f 155 102 101
f 143 121 120
f 143 142 121
f 160 155 101
f 160 101 100
f 144 120 119
f 144 143 120
f 161 160 100
f 145 119 118
f 145 144 119
f 161 100 99
f 162 161 99
f 146 118 117
f 146 145 118
f 162 99 98
f 147 117 116
f 147 146 117
f 163 97 96
f 163 98 97
f 163 162 98
f 148 116 115
f 148 147 116
f 164 163 96
f 164 96 95
