# Created by FreeCAD <http://www.freecadweb.org>
v -50.101246 534.514526 197.899979
v -50.101246 534.514526 198.114563
v -50.118332 534.514526 197.896042
v -51.701244 534.514526 198.114563
v -51.623760 534.514526 197.861603
v -51.611679 534.514526 197.848892
v -51.637241 534.514526 197.872803
v -50.134842 534.514526 197.890152
v -50.150555 534.514526 197.882370
v -51.601166 534.514526 197.834869
v -50.165249 534.514526 197.872803
v -50.201324 534.514526 197.834869
v -50.101246 534.514526 197.389572
v -50.201324 534.514526 197.669266
v -51.701244 534.514526 197.389572
v -51.651936 534.514526 197.882370
v -51.601166 534.514526 197.669266
v -51.684158 534.514526 197.608093
v -51.701244 534.514526 197.604172
v -50.178730 534.514526 197.861603
v -51.667648 534.514526 197.613983
v -51.651936 534.514526 197.621765
v -51.637241 534.514526 197.631332
v -50.210129 534.514526 197.819702
v -51.592358 534.514526 197.819702
v -51.623760 534.514526 197.642532
v -51.611679 534.514526 197.655243
v -50.190807 534.514526 197.848892
v -51.667648 534.514526 197.890152
v -50.217106 534.514526 197.803619
v -51.585381 534.514526 197.803619
v -51.684158 534.514526 197.896042
v -50.222160 534.514526 197.786835
v -51.580330 534.514526 197.786835
v -51.701244 534.514526 197.899979
v -50.225220 534.514526 197.769577
v -51.577271 534.514526 197.769577
v -50.226246 534.514526 197.752075
v -51.576244 534.514526 197.752075
v -50.225220 534.514526 197.734573
v -51.577271 534.514526 197.734573
v -50.222160 534.514526 197.717300
v -51.580330 534.514526 197.717300
v -50.190807 534.514526 197.655243
v -50.178730 534.514526 197.642532
v -50.165249 534.514526 197.631332
v -50.150555 534.514526 197.621765
v -50.217106 534.514526 197.700516
v -51.585381 534.514526 197.700516
v -50.134842 534.514526 197.613983
v -50.118332 534.514526 197.608093
v -50.101246 534.514526 197.604172
v -50.210129 534.514526 197.684433
v -51.592358 534.514526 197.684433
v -51.601166 534.814514 197.834869
v -51.592358 534.814514 197.819702
v -51.611679 534.814514 197.848892
v -51.684158 534.814514 197.608093
v -51.701244 534.814514 197.604172
v -51.623760 534.814514 197.861603
v -51.667648 534.814514 197.613983
v -51.637241 534.814514 197.872803
v -51.651936 534.814514 197.621765
v -51.651936 534.814514 197.882370
v -51.637241 534.814514 197.631332
v -51.667648 534.814514 197.890152
v -51.684158 534.814514 197.896042
v -51.623760 534.814514 197.642532
v -51.701244 534.814514 197.899979
v -51.611679 534.814514 197.655243
v -51.601166 534.814514 197.669266
v -51.592358 534.814514 197.684433
v -51.585381 534.814514 197.700516
v -51.580330 534.814514 197.717300
v -51.577271 534.814514 197.734573
v -51.576244 534.814514 197.752075
v -51.577271 534.814514 197.769577
v -51.580330 534.814514 197.786835
v -51.585381 534.814514 197.803619
v -51.701244 534.814514 197.389572
v -50.101246 534.814514 197.389572
v -50.101246 534.814514 197.604172
v -50.217106 534.814514 197.803619
v -50.222160 534.814514 197.786835
v -50.210129 534.814514 197.819702
v -50.201324 534.814514 197.834869
v -50.118332 534.814514 197.608093
v -50.190807 534.814514 197.848892
v -50.178730 534.814514 197.861603
v -50.134842 534.814514 197.613983
v -50.165249 534.814514 197.872803
v -50.150555 534.814514 197.621765
v -50.150555 534.814514 197.882370
v -50.134842 534.814514 197.890152
v -50.165249 534.814514 197.631332
v -50.118332 534.814514 197.896042
v -50.101246 534.814514 197.899979
v -50.178730 534.814514 197.642532
v -50.190807 534.814514 197.655243
v -50.201324 534.814514 197.669266
v -50.210129 534.814514 197.684433
v -50.217106 534.814514 197.700516
v -50.222160 534.814514 197.717300
v -50.225220 534.814514 197.734573
v -50.226246 534.814514 197.752075
v -50.225220 534.814514 197.769577
v -50.101246 534.814514 198.114563
v -51.701244 534.814514 198.114563
f 1 2 3
f 4 5 6
f 5 4 7
f 3 2 8
f 8 2 9
f 4 6 10
f 2 4 10
f 9 2 11
f 12 2 10
f 13 14 15
f 7 4 16
f 14 17 15
f 18 19 15
f 11 2 20
f 21 18 15
f 22 21 15
f 23 22 15
f 24 12 25
f 26 23 15
f 27 26 15
f 20 2 28
f 17 27 15
f 28 2 12
f 12 10 25
f 16 4 29
f 30 24 31
f 24 25 31
f 29 4 32
f 33 30 34
f 30 31 34
f 32 4 35
f 36 33 37
f 33 34 37
f 38 36 39
f 36 37 39
f 40 38 41
f 38 39 41
f 42 40 43
f 40 41 43
f 44 14 13
f 45 44 13
f 46 45 13
f 47 46 13
f 48 42 49
f 50 47 13
f 51 50 13
f 52 51 13
f 42 43 49
f 53 48 54
f 48 49 54
f 14 53 17
f 53 54 17
f 55 56 25
f 56 31 25
f 57 55 10
f 55 25 10
f 58 59 19
f 60 57 6
f 57 10 6
f 61 58 18
f 58 19 18
f 62 60 5
f 60 6 5
f 63 61 21
f 61 18 21
f 64 62 7
f 62 5 7
f 65 63 22
f 66 64 16
f 63 21 22
f 64 7 16
f 66 16 29
f 67 66 29
f 68 65 23
f 69 67 32
f 67 29 32
f 65 22 23
f 69 32 35
f 70 68 26
f 68 23 26
f 71 70 27
f 70 26 27
f 72 71 17
f 71 27 17
f 73 72 54
f 72 17 54
f 74 73 49
f 73 54 49
f 75 74 43
f 74 49 43
f 76 75 41
f 75 43 41
f 76 41 39
f 77 76 39
f 77 39 37
f 78 77 37
f 78 37 34
f 79 78 34
f 56 79 31
f 79 34 31
f 80 15 19
f 59 80 19
f 80 81 13
f 80 13 15
f 82 52 13
f 81 82 13
f 24 30 83
f 30 84 83
f 12 24 85
f 24 83 85
f 28 12 86
f 12 85 86
f 52 82 87
f 20 28 88
f 28 86 88
f 51 52 87
f 11 20 89
f 20 88 89
f 50 51 90
f 51 87 90
f 9 11 91
f 11 89 91
f 47 50 92
f 50 90 92
f 8 9 93
f 9 91 93
f 3 8 94
f 8 93 94
f 46 47 95
f 47 92 95
f 1 3 96
f 3 94 96
f 1 96 97
f 45 46 98
f 46 95 98
f 44 45 99
f 45 98 99
f 53 14 100
f 14 44 100
f 44 99 100
f 48 53 101
f 53 100 101
f 42 48 102
f 48 101 102
f 40 42 103
f 42 102 103
f 40 103 104
f 38 40 104
f 38 104 105
f 36 38 105
f 33 36 106
f 36 105 106
f 30 33 84
f 33 106 84
f 107 2 1
f 97 107 1
f 2 108 4
f 107 108 2
f 108 69 35
f 108 35 4
f 62 108 60
f 96 107 97
f 55 86 85
f 94 107 96
f 55 57 108
f 55 108 86
f 93 107 94
f 64 108 62
f 91 107 93
f 56 55 85
f 80 59 58
f 80 58 61
f 80 61 63
f 80 63 65
f 80 65 68
f 80 68 70
f 56 85 83
f 89 107 91
f 80 70 71
f 80 100 81
f 80 71 100
f 88 107 89
f 66 108 64
f 86 107 88
f 79 56 83
f 79 83 84
f 67 108 66
f 78 79 84
f 78 84 106
f 69 108 67
f 77 106 105
f 77 78 106
f 76 77 105
f 75 105 104
f 75 76 105
f 74 75 104
f 74 104 103
f 73 74 103
f 73 103 102
f 81 100 99
f 81 99 98
f 81 98 95
f 81 95 92
f 81 92 90
f 72 102 101
f 81 90 87
f 81 87 82
f 72 73 102
f 71 101 100
f 71 72 101
f 108 107 86
f 57 60 108
