# Created by FreeCAD <http://www.freecadweb.org>
v 20.329144 529.929749 84.437988
v 21.054144 529.929749 84.437920
v 21.054235 529.929749 85.437920
v 20.329235 529.929749 85.437988
v 20.329149 530.279785 84.484192
v 20.329231 530.279785 85.391785
v 21.054148 530.279785 84.484123
v 21.054230 530.279785 85.391724
f 1 2 3
f 1 3 4
f 4 5 1
f 6 5 4
f 5 7 2
f 1 5 2
f 7 3 2
f 7 8 3
f 4 3 8
f 6 4 8
f 6 8 7
f 6 7 5
