# Created by FreeCAD <http://www.freecadweb.org>
v -26.463137 536.153992 182.579330
v -26.391762 536.234741 182.650711
v -26.391762 536.153992 182.588730
v -26.529648 536.153992 182.551788
v -26.489262 536.092041 182.481827
v -26.529648 536.092041 182.450851
v -26.304346 536.234741 182.639206
v -26.320387 536.153992 182.579330
v -26.489262 536.053040 182.339081
v -26.580116 536.092041 182.363434
v -26.479177 536.053040 182.363434
v -26.560637 536.092041 182.410461
v -26.391762 536.039734 182.312958
v -26.442230 536.092041 182.501312
v -26.222887 536.234741 182.605453
v -26.253876 536.153992 182.551788
v -26.463137 536.053040 182.384338
v -26.391762 536.092041 182.507965
v -26.152937 536.234741 182.551788
v -26.196762 536.153992 182.507965
v -26.099262 536.234741 182.481827
v -26.442230 536.053040 182.400375
v -26.341291 536.092041 182.501312
v -26.152937 536.153992 182.450851
v -26.417887 536.053040 182.410461
v -26.294262 536.092041 182.481827
v -26.391762 536.053040 182.413895
v -26.667534 536.153992 182.312958
v -26.729511 536.234741 182.312958
v -26.658136 536.153992 182.384338
v -26.718002 536.234741 182.400375
v -26.684261 536.234741 182.481827
v -26.054012 536.234741 182.312958
v -26.115990 536.153992 182.312958
v -26.125387 536.153992 182.384338
v -26.065519 536.234741 182.400375
v -26.253876 536.092041 182.450851
v -26.630587 536.234741 182.551788
v -26.630587 536.153992 182.450851
v -26.365637 536.053040 182.410461
v -26.222887 536.092041 182.410461
v -26.586761 536.153992 182.507965
v -26.586761 536.092041 182.312958
v -26.341291 536.053040 182.400375
v -26.196762 536.092041 182.312958
v -26.203405 536.092041 182.363434
v -26.290821 536.053040 182.312958
v -26.320387 536.053040 182.384338
v -26.560637 536.234741 182.605453
v -26.304346 536.053040 182.363434
v -26.294262 536.053040 182.339081
v -26.479177 536.234741 182.639206
v -26.492701 536.053040 182.312958
v -27.022972 534.634766 186.284164
v -27.022972 534.634766 181.681747
v -23.420551 534.634766 186.284164
v -23.420551 534.634766 181.681747
v -27.171761 535.334778 186.432953
v -23.271761 535.334778 186.432953
v -27.171761 535.334778 181.532959
v -27.171761 535.334778 181.867966
v -27.171761 535.334778 182.287964
v -27.171761 535.334778 183.137955
v -27.171761 535.334778 183.557953
v -27.171761 535.334778 184.407959
v -27.171761 535.334778 184.827957
v -27.171761 535.334778 185.677963
v -27.171761 535.334778 186.097961
v -23.271761 535.334778 181.532959
v -23.271761 535.334778 181.867966
v -23.271761 535.334778 182.287964
v -23.271761 535.334778 183.137955
v -23.271761 535.334778 183.557953
v -23.271761 535.334778 184.407959
v -23.271761 535.334778 184.827957
v -23.271761 535.334778 185.677963
v -23.271761 535.334778 186.097961
v -23.271761 535.534790 186.432953
v -27.171761 535.534790 186.432953
v -27.171761 535.534790 186.097961
v -27.335194 535.334778 185.677963
v -27.335194 535.334778 186.097961
v -27.171761 535.534790 184.827957
v -27.171761 535.534790 185.677963
v -27.335194 535.334778 184.827957
v -27.335194 535.334778 184.407959
v -27.171761 535.534790 183.557953
v -27.171761 535.534790 184.407959
v -27.335194 535.334778 183.137955
v -27.335194 535.334778 183.557953
v -27.171761 535.534790 182.287964
v -27.171761 535.534790 183.137955
v -27.335194 535.334778 181.867966
v -27.335194 535.334778 182.287964
v -27.171761 535.534790 181.532959
v -27.171761 535.534790 181.867966
v -23.271761 535.534790 181.532959
v -23.271761 535.534790 181.867966
v -23.108328 535.334778 181.867966
v -23.108328 535.334778 182.287964
v -23.271761 535.534790 182.287964
v -23.271761 535.534790 183.137955
v -23.108328 535.334778 183.137955
v -23.108328 535.334778 183.557953
v -23.271761 535.534790 183.557953
v -23.271761 535.534790 184.407959
v -23.108328 535.334778 184.407959
v -23.108328 535.334778 184.827957
v -23.271761 535.534790 184.827957
v -23.271761 535.534790 185.677963
v -23.108328 535.334778 185.677963
v -23.108328 535.334778 186.097961
v -23.271761 535.534790 186.097961
v -23.420551 536.234741 186.284164
v -27.022972 536.234741 186.284164
v -27.405905 535.305481 186.097961
v -27.547327 535.446899 186.097961
v -27.595001 535.384766 186.097961
v -27.385195 535.321350 186.097961
v -27.485195 535.494568 186.097961
v -27.421797 535.284790 186.097961
v -27.361076 535.331360 186.097961
v -27.412840 535.524536 186.097961
v -27.431787 535.260620 186.097961
v -27.624971 535.312378 186.097961
v -27.335194 535.534790 186.097961
v -27.852823 534.716309 186.097961
v -28.221762 534.684021 186.097961
v -28.204330 534.484741 186.097961
v -27.835392 534.517029 186.097961
v -27.823271 534.723511 186.097961
v -27.571762 534.738281 186.097961
v -27.764946 534.790039 186.097961
v -27.746735 534.538757 186.097961
v -27.608522 534.654724 186.097961
v -27.777201 534.762146 186.097961
v -27.797260 534.739319 186.097961
v -27.668703 534.586060 186.097961
v -27.431787 535.260620 185.677963
v -27.421797 535.284790 185.677963
v -27.405905 535.305481 185.677963
v -27.385195 535.321350 185.677963
v -27.361076 535.331360 185.677963
v -27.595001 535.384766 185.677963
v -27.547327 535.446899 185.677963
v -27.485195 535.494568 185.677963
v -27.412840 535.524536 185.677963
v -27.624971 535.312378 185.677963
v -27.335194 535.534790 185.677963
v -28.204330 534.484741 185.677963
v -28.221762 534.684021 185.677963
v -27.852823 534.716309 185.677963
v -27.823271 534.723511 185.677963
v -27.835392 534.517029 185.677963
v -27.764946 534.790039 185.677963
v -27.571762 534.738281 185.677963
v -27.746735 534.538757 185.677963
v -27.777201 534.762146 185.677963
v -27.608522 534.654724 185.677963
v -27.797260 534.739319 185.677963
v -27.668703 534.586060 185.677963
v -27.405905 535.305481 184.827957
v -27.547327 535.446899 184.827957
v -27.595001 535.384766 184.827957
v -27.385195 535.321350 184.827957
v -27.485195 535.494568 184.827957
v -27.421797 535.284790 184.827957
v -27.361076 535.331360 184.827957
v -27.412840 535.524536 184.827957
v -27.431787 535.260620 184.827957
v -27.624971 535.312378 184.827957
v -27.335194 535.534790 184.827957
v -27.852823 534.716309 184.827957
v -28.221762 534.684021 184.827957
v -28.204330 534.484741 184.827957
v -27.835392 534.517029 184.827957
v -27.823271 534.723511 184.827957
v -27.571762 534.738281 184.827957
v -27.764946 534.790039 184.827957
v -27.746735 534.538757 184.827957
v -27.608522 534.654724 184.827957
v -27.777201 534.762146 184.827957
v -27.797260 534.739319 184.827957
v -27.668703 534.586060 184.827957
v -27.431787 535.260620 184.407959
v -27.421797 535.284790 184.407959
v -27.405905 535.305481 184.407959
v -27.385195 535.321350 184.407959
v -27.361076 535.331360 184.407959
v -27.595001 535.384766 184.407959
v -27.547327 535.446899 184.407959
v -27.485195 535.494568 184.407959
v -27.412840 535.524536 184.407959
v -27.624971 535.312378 184.407959
v -27.335194 535.534790 184.407959
v -28.204330 534.484741 184.407959
v -28.221762 534.684021 184.407959
v -27.852823 534.716309 184.407959
v -27.823271 534.723511 184.407959
v -27.835392 534.517029 184.407959
v -27.764946 534.790039 184.407959
v -27.571762 534.738281 184.407959
v -27.746735 534.538757 184.407959
v -27.777201 534.762146 184.407959
v -27.608522 534.654724 184.407959
v -27.797260 534.739319 184.407959
v -27.668703 534.586060 184.407959
v -27.405905 535.305481 183.557953
v -27.547327 535.446899 183.557953
v -27.595001 535.384766 183.557953
v -27.385195 535.321350 183.557953
v -27.485195 535.494568 183.557953
v -27.421797 535.284790 183.557953
v -27.361076 535.331360 183.557953
v -27.412840 535.524536 183.557953
v -27.431787 535.260620 183.557953
v -27.624971 535.312378 183.557953
v -27.335194 535.534790 183.557953
v -27.852823 534.716309 183.557953
v -28.221762 534.684021 183.557953
v -28.204330 534.484741 183.557953
v -27.835392 534.517029 183.557953
v -27.823271 534.723511 183.557953
v -27.571762 534.738281 183.557953
v -27.764946 534.790039 183.557953
v -27.746735 534.538757 183.557953
v -27.608522 534.654724 183.557953
v -27.777201 534.762146 183.557953
v -27.797260 534.739319 183.557953
v -27.668703 534.586060 183.557953
v -27.431787 535.260620 183.137955
v -27.421797 535.284790 183.137955
v -27.405905 535.305481 183.137955
v -27.385195 535.321350 183.137955
v -27.361076 535.331360 183.137955
v -27.595001 535.384766 183.137955
v -27.547327 535.446899 183.137955
v -27.485195 535.494568 183.137955
v -27.412840 535.524536 183.137955
v -27.624971 535.312378 183.137955
v -27.335194 535.534790 183.137955
v -28.204330 534.484741 183.137955
v -28.221762 534.684021 183.137955
v -27.852823 534.716309 183.137955
v -27.823271 534.723511 183.137955
v -27.835392 534.517029 183.137955
v -27.764946 534.790039 183.137955
v -27.571762 534.738281 183.137955
v -27.746735 534.538757 183.137955
v -27.777201 534.762146 183.137955
v -27.608522 534.654724 183.137955
v -27.797260 534.739319 183.137955
v -27.668703 534.586060 183.137955
v -27.405905 535.305481 182.287964
v -27.547327 535.446899 182.287964
v -27.595001 535.384766 182.287964
v -27.385195 535.321350 182.287964
v -27.485195 535.494568 182.287964
v -27.421797 535.284790 182.287964
v -27.361076 535.331360 182.287964
v -27.412840 535.524536 182.287964
v -27.431787 535.260620 182.287964
v -27.624971 535.312378 182.287964
v -27.335194 535.534790 182.287964
v -27.852823 534.716309 182.287964
v -28.221762 534.684021 182.287964
v -28.204330 534.484741 182.287964
v -27.835392 534.517029 182.287964
v -27.823271 534.723511 182.287964
v -27.571762 534.738281 182.287964
v -27.764946 534.790039 182.287964
v -27.746735 534.538757 182.287964
v -27.608522 534.654724 182.287964
v -27.777201 534.762146 182.287964
v -27.797260 534.739319 182.287964
v -27.668703 534.586060 182.287964
v -27.431787 535.260620 181.867966
v -27.421797 535.284790 181.867966
v -27.405905 535.305481 181.867966
v -27.385195 535.321350 181.867966
v -27.361076 535.331360 181.867966
v -27.595001 535.384766 181.867966
v -27.547327 535.446899 181.867966
v -27.485195 535.494568 181.867966
v -27.412840 535.524536 181.867966
v -27.624971 535.312378 181.867966
v -27.335194 535.534790 181.867966
v -28.204330 534.484741 181.867966
v -28.221762 534.684021 181.867966
v -27.852823 534.716309 181.867966
v -27.823271 534.723511 181.867966
v -27.835392 534.517029 181.867966
v -27.764946 534.790039 181.867966
v -27.571762 534.738281 181.867966
v -27.746735 534.538757 181.867966
v -27.777201 534.762146 181.867966
v -27.608522 534.654724 181.867966
v -27.797260 534.739319 181.867966
v -27.668703 534.586060 181.867966
v -27.022972 536.234741 181.681747
v -23.420551 536.234741 181.681747
v -23.108328 535.534790 181.867966
v -23.030684 535.524536 181.867966
v -22.958328 535.494568 181.867966
v -23.082447 535.331360 181.867966
v -23.058329 535.321350 181.867966
v -22.896196 535.446899 181.867966
v -23.037617 535.305481 181.867966
v -23.021727 535.284790 181.867966
v -22.848520 535.384766 181.867966
v -23.011736 535.260620 181.867966
v -22.818550 535.312378 181.867966
v -22.871761 534.738281 181.867966
v -22.678576 534.790039 181.867966
v -22.835001 534.654724 181.867966
v -22.666323 534.762146 181.867966
v -22.646263 534.739319 181.867966
v -22.774820 534.586060 181.867966
v -22.620253 534.723511 181.867966
v -22.696789 534.538757 181.867966
v -22.590700 534.716309 181.867966
v -22.608130 534.517029 181.867966
v -22.221762 534.684021 181.867966
v -22.239193 534.484741 181.867966
v -23.082447 535.331360 182.287964
v -23.058329 535.321350 182.287964
v -23.037617 535.305481 182.287964
v -23.021727 535.284790 182.287964
v -23.011736 535.260620 182.287964
v -23.030684 535.524536 182.287964
v -23.108328 535.534790 182.287964
v -22.958328 535.494568 182.287964
v -22.896196 535.446899 182.287964
v -22.848520 535.384766 182.287964
v -22.818550 535.312378 182.287964
v -22.871761 534.738281 182.287964
v -22.678576 534.790039 182.287964
v -22.666323 534.762146 182.287964
v -22.835001 534.654724 182.287964
v -22.646263 534.739319 182.287964
v -22.774820 534.586060 182.287964
v -22.620253 534.723511 182.287964
v -22.696789 534.538757 182.287964
v -22.608130 534.517029 182.287964
v -22.590700 534.716309 182.287964
v -22.239193 534.484741 182.287964
v -22.221762 534.684021 182.287964
v -23.108328 535.534790 183.137955
v -23.030684 535.524536 183.137955
v -22.958328 535.494568 183.137955
v -23.082447 535.331360 183.137955
v -23.058329 535.321350 183.137955
v -22.896196 535.446899 183.137955
v -23.037617 535.305481 183.137955
v -23.021727 535.284790 183.137955
v -22.848520 535.384766 183.137955
v -23.011736 535.260620 183.137955
v -22.818550 535.312378 183.137955
v -22.871761 534.738281 183.137955
v -22.678576 534.790039 183.137955
v -22.835001 534.654724 183.137955
v -22.666323 534.762146 183.137955
v -22.646263 534.739319 183.137955
v -22.774820 534.586060 183.137955
v -22.620253 534.723511 183.137955
v -22.696789 534.538757 183.137955
v -22.590700 534.716309 183.137955
v -22.608130 534.517029 183.137955
v -22.221762 534.684021 183.137955
v -22.239193 534.484741 183.137955
v -23.082447 535.331360 183.557953
v -23.058329 535.321350 183.557953
v -23.037617 535.305481 183.557953
v -23.021727 535.284790 183.557953
v -23.011736 535.260620 183.557953
v -23.030684 535.524536 183.557953
v -23.108328 535.534790 183.557953
v -22.958328 535.494568 183.557953
v -22.896196 535.446899 183.557953
v -22.848520 535.384766 183.557953
v -22.818550 535.312378 183.557953
v -22.871761 534.738281 183.557953
v -22.678576 534.790039 183.557953
v -22.666323 534.762146 183.557953
v -22.835001 534.654724 183.557953
v -22.646263 534.739319 183.557953
v -22.774820 534.586060 183.557953
v -22.620253 534.723511 183.557953
v -22.696789 534.538757 183.557953
v -22.608130 534.517029 183.557953
v -22.590700 534.716309 183.557953
v -22.239193 534.484741 183.557953
v -22.221762 534.684021 183.557953
v -23.108328 535.534790 184.407959
v -23.030684 535.524536 184.407959
v -22.958328 535.494568 184.407959
v -23.082447 535.331360 184.407959
v -23.058329 535.321350 184.407959
v -22.896196 535.446899 184.407959
v -23.037617 535.305481 184.407959
v -23.021727 535.284790 184.407959
v -22.848520 535.384766 184.407959
v -23.011736 535.260620 184.407959
v -22.818550 535.312378 184.407959
v -22.871761 534.738281 184.407959
v -22.678576 534.790039 184.407959
v -22.835001 534.654724 184.407959
v -22.666323 534.762146 184.407959
v -22.646263 534.739319 184.407959
v -22.774820 534.586060 184.407959
v -22.620253 534.723511 184.407959
v -22.696789 534.538757 184.407959
v -22.590700 534.716309 184.407959
v -22.608130 534.517029 184.407959
v -22.221762 534.684021 184.407959
v -22.239193 534.484741 184.407959
v -23.082447 535.331360 184.827957
v -23.058329 535.321350 184.827957
v -23.037617 535.305481 184.827957
v -23.021727 535.284790 184.827957
v -23.011736 535.260620 184.827957
v -23.030684 535.524536 184.827957
v -23.108328 535.534790 184.827957
v -22.958328 535.494568 184.827957
v -22.896196 535.446899 184.827957
v -22.848520 535.384766 184.827957
v -22.818550 535.312378 184.827957
v -22.871761 534.738281 184.827957
v -22.678576 534.790039 184.827957
v -22.666323 534.762146 184.827957
v -22.835001 534.654724 184.827957
v -22.646263 534.739319 184.827957
v -22.774820 534.586060 184.827957
v -22.620253 534.723511 184.827957
v -22.696789 534.538757 184.827957
v -22.608130 534.517029 184.827957
v -22.590700 534.716309 184.827957
v -22.239193 534.484741 184.827957
v -22.221762 534.684021 184.827957
v -23.108328 535.534790 185.677963
v -23.030684 535.524536 185.677963
v -22.958328 535.494568 185.677963
v -23.082447 535.331360 185.677963
v -23.058329 535.321350 185.677963
v -22.896196 535.446899 185.677963
v -23.037617 535.305481 185.677963
v -23.021727 535.284790 185.677963
v -22.848520 535.384766 185.677963
v -23.011736 535.260620 185.677963
v -22.818550 535.312378 185.677963
v -22.871761 534.738281 185.677963
v -22.678576 534.790039 185.677963
v -22.835001 534.654724 185.677963
v -22.666323 534.762146 185.677963
v -22.646263 534.739319 185.677963
v -22.774820 534.586060 185.677963
v -22.620253 534.723511 185.677963
v -22.696789 534.538757 185.677963
v -22.590700 534.716309 185.677963
v -22.608130 534.517029 185.677963
v -22.221762 534.684021 185.677963
v -22.239193 534.484741 185.677963
v -23.082447 535.331360 186.097961
v -23.058329 535.321350 186.097961
v -23.037617 535.305481 186.097961
v -23.021727 535.284790 186.097961
v -23.011736 535.260620 186.097961
v -23.030684 535.524536 186.097961
v -23.108328 535.534790 186.097961
v -22.958328 535.494568 186.097961
v -22.896196 535.446899 186.097961
v -22.848520 535.384766 186.097961
v -22.818550 535.312378 186.097961
v -22.871761 534.738281 186.097961
v -22.678576 534.790039 186.097961
v -22.666323 534.762146 186.097961
v -22.835001 534.654724 186.097961
v -22.646263 534.739319 186.097961
v -22.774820 534.586060 186.097961
v -22.620253 534.723511 186.097961
v -22.696789 534.538757 186.097961
v -22.608130 534.517029 186.097961
v -22.590700 534.716309 186.097961
v -22.239193 534.484741 186.097961
v -22.221762 534.684021 186.097961
v -26.684261 536.234741 182.144089
v -26.630587 536.234741 182.074127
v -26.718002 536.234741 182.225540
v -26.560637 536.234741 182.020462
v -26.479177 536.234741 181.986710
v -26.391762 536.234741 181.975204
v -26.304346 536.234741 181.986710
v -26.065519 536.234741 182.225540
v -26.099262 536.234741 182.144089
v -26.152937 536.234741 182.074127
v -26.222887 536.234741 182.020462
v -26.320387 536.153992 182.046585
v -26.391762 536.153992 182.037186
v -26.253876 536.092041 182.175079
v -26.253876 536.153992 182.074127
v -26.294262 536.092041 182.144089
v -26.463137 536.153992 182.046585
v -26.203405 536.092041 182.262482
v -26.222887 536.092041 182.215454
v -26.304346 536.053040 182.262482
v -26.294262 536.053040 182.286835
v -26.341291 536.092041 182.124603
v -26.529648 536.153992 182.074127
v -26.320387 536.053040 182.241577
v -26.391762 536.092041 182.117966
v -26.586761 536.153992 182.117966
v -26.341291 536.053040 182.225540
v -26.442230 536.092041 182.124603
v -26.630587 536.153992 182.175079
v -26.365637 536.053040 182.215454
v -26.489262 536.092041 182.144089
v -26.125387 536.153992 182.241577
v -26.391762 536.053040 182.212021
v -26.658136 536.153992 182.241577
v -26.152937 536.153992 182.175079
v -26.529648 536.092041 182.175079
v -26.417887 536.053040 182.215454
v -26.196762 536.153992 182.117966
v -26.560637 536.092041 182.215454
v -26.442230 536.053040 182.225540
v -26.580116 536.092041 182.262482
v -26.463137 536.053040 182.241577
v -26.479177 536.053040 182.262482
v -26.489262 536.053040 182.286835
f 1 2 3
f 4 1 5
f 6 4 5
f 2 7 8
f 3 2 8
f 9 10 11
f 10 12 11
f 13 9 11
f 5 1 14
f 1 3 14
f 7 15 16
f 8 7 16
f 12 6 17
f 13 11 17
f 11 12 17
f 3 8 18
f 14 3 18
f 15 19 20
f 19 21 20
f 16 15 20
f 6 5 22
f 17 6 22
f 13 17 22
f 18 8 23
f 8 16 23
f 20 21 24
f 5 14 25
f 22 5 25
f 13 22 25
f 16 20 26
f 23 16 26
f 28 29 30
f 25 14 27
f 29 31 30
f 14 18 27
f 31 32 30
f 13 25 27
f 33 34 35
f 21 36 35
f 36 33 35
f 24 21 35
f 20 24 37
f 32 38 39
f 26 20 37
f 27 18 40
f 30 32 39
f 18 23 40
f 13 27 40
f 24 35 41
f 37 24 41
f 39 38 42
f 43 28 10
f 13 40 44
f 40 23 44
f 23 26 44
f 30 39 10
f 34 45 46
f 45 47 46
f 28 30 10
f 41 35 46
f 35 34 46
f 26 37 48
f 38 49 4
f 13 44 48
f 44 26 48
f 48 37 50
f 42 38 4
f 13 48 50
f 37 41 50
f 13 50 51
f 47 13 51
f 39 42 12
f 41 46 51
f 50 41 51
f 46 47 51
f 10 39 12
f 49 52 1
f 52 2 1
f 4 49 1
f 42 4 6
f 12 42 6
f 53 43 9
f 13 53 9
f 43 10 9
f 54 55 56
f 55 57 56
f 56 58 54
f 56 59 58
f 60 55 61
f 61 55 62
f 62 55 63
f 63 55 64
f 64 55 65
f 66 65 54
f 65 55 54
f 66 54 67
f 67 54 68
f 68 54 58
f 55 60 57
f 60 69 57
f 69 70 57
f 70 71 57
f 57 71 72
f 57 72 73
f 73 74 56
f 74 75 56
f 75 76 56
f 76 77 56
f 77 59 56
f 57 73 56
f 59 78 79
f 59 79 58
f 80 68 79
f 68 58 79
f 81 67 82
f 82 67 68
f 83 66 84
f 66 67 84
f 85 86 66
f 86 65 66
f 87 64 88
f 64 65 88
f 89 63 90
f 90 63 64
f 91 62 92
f 62 63 92
f 93 61 94
f 94 61 62
f 95 60 61
f 95 61 96
f 60 95 69
f 95 97 69
f 69 97 70
f 97 98 70
f 70 99 100
f 71 70 100
f 71 101 72
f 101 102 72
f 72 103 104
f 73 72 104
f 73 105 74
f 105 106 74
f 74 107 75
f 75 107 108
f 75 109 76
f 109 110 76
f 76 111 77
f 77 111 112
f 77 113 59
f 113 78 59
f 78 114 115
f 78 115 79
f 116 117 118
f 119 120 117
f 119 117 116
f 121 116 118
f 122 123 120
f 122 120 119
f 124 118 125
f 124 121 118
f 82 126 123
f 82 123 122
f 127 128 129
f 68 80 126
f 68 126 82
f 130 131 127
f 130 127 129
f 132 125 133
f 132 124 125
f 134 131 130
f 135 133 136
f 135 136 137
f 135 132 133
f 138 137 131
f 138 135 137
f 138 131 134
f 121 124 139
f 116 121 140
f 121 139 140
f 116 140 141
f 119 116 142
f 116 141 142
f 122 119 143
f 119 142 143
f 82 122 81
f 122 143 81
f 144 145 141
f 145 146 142
f 141 145 142
f 144 141 140
f 146 147 143
f 142 146 143
f 148 144 139
f 144 140 139
f 147 149 81
f 143 147 81
f 150 151 152
f 149 84 67
f 81 149 67
f 152 153 154
f 150 152 154
f 155 148 156
f 148 139 156
f 154 153 157
f 158 155 159
f 160 158 159
f 155 156 159
f 153 160 161
f 160 159 161
f 157 153 161
f 162 163 164
f 165 166 163
f 165 163 162
f 167 162 164
f 168 169 166
f 168 166 165
f 170 164 171
f 170 167 164
f 85 172 169
f 85 169 168
f 173 174 175
f 66 83 172
f 66 172 85
f 176 177 173
f 176 173 175
f 178 171 179
f 178 170 171
f 180 177 176
f 181 179 182
f 181 182 183
f 181 178 179
f 184 183 177
f 184 181 183
f 184 177 180
f 167 170 185
f 162 167 186
f 167 185 186
f 165 162 187
f 162 186 187
f 165 187 188
f 168 165 189
f 165 188 189
f 85 168 86
f 168 189 86
f 190 191 187
f 191 192 188
f 187 191 188
f 190 187 186
f 192 193 189
f 188 192 189
f 194 190 185
f 190 186 185
f 193 195 86
f 189 193 86
f 196 197 198
f 195 88 65
f 86 195 65
f 198 199 200
f 196 198 200
f 201 194 202
f 194 185 202
f 200 199 203
f 204 201 205
f 206 204 205
f 201 202 205
f 199 206 207
f 206 205 207
f 203 199 207
f 208 209 210
f 211 212 209
f 211 209 208
f 213 208 210
f 214 215 212
f 214 212 211
f 216 210 217
f 216 213 210
f 90 218 215
f 90 215 214
f 219 220 221
f 64 87 218
f 64 218 90
f 222 223 219
f 222 219 221
f 224 217 225
f 224 216 217
f 226 223 222
f 227 225 228
f 227 228 229
f 227 224 225
f 230 229 223
f 230 227 229
f 230 223 226
f 213 216 231
f 208 213 232
f 213 231 232
f 211 208 233
f 208 232 233
f 211 233 234
f 214 211 235
f 211 234 235
f 90 214 89
f 214 235 89
f 236 237 233
f 237 238 234
f 233 237 234
f 236 233 232
f 238 239 235
f 234 238 235
f 240 236 231
f 236 232 231
f 239 241 89
f 235 239 89
f 242 243 244
f 241 92 63
f 89 241 63
f 244 245 246
f 242 244 246
f 247 240 248
f 240 231 248
f 246 245 249
f 250 247 251
f 252 250 251
f 247 248 251
f 245 252 253
f 252 251 253
f 249 245 253
f 254 255 256
f 257 258 255
f 257 255 254
f 259 254 256
f 260 261 258
f 260 258 257
f 262 256 263
f 262 259 256
f 94 264 261
f 94 261 260
f 265 266 267
f 62 91 264
f 62 264 94
f 268 269 265
f 268 265 267
f 270 263 271
f 270 262 263
f 272 269 268
f 273 271 274
f 273 274 275
f 273 270 271
f 276 275 269
f 276 273 275
f 276 269 272
f 259 262 277
f 254 259 278
f 259 277 278
f 254 278 279
f 257 254 280
f 254 279 280
f 260 257 281
f 257 280 281
f 94 260 93
f 260 281 93
f 282 283 279
f 283 284 280
f 279 283 280
f 282 279 278
f 284 285 281
f 280 284 281
f 286 282 277
f 282 278 277
f 285 287 93
f 281 285 93
f 288 289 290
f 287 96 61
f 93 287 61
f 290 291 292
f 288 290 292
f 293 286 294
f 286 277 294
f 292 291 295
f 296 293 297
f 298 296 297
f 293 294 297
f 291 298 299
f 298 297 299
f 295 291 299
f 95 300 301
f 95 301 97
f 70 98 99
f 98 302 99
f 302 303 99
f 303 304 305
f 99 303 305
f 305 304 306
f 306 304 307
f 306 307 308
f 309 308 310
f 311 309 310
f 308 307 310
f 311 310 312
f 311 312 313
f 313 312 314
f 315 313 316
f 313 314 316
f 315 316 317
f 315 317 318
f 318 317 319
f 318 319 320
f 319 321 322
f 320 319 322
f 321 323 324
f 322 321 324
f 325 100 99
f 325 99 305
f 326 325 306
f 327 326 306
f 325 305 306
f 327 306 308
f 328 327 309
f 327 308 309
f 329 328 311
f 328 309 311
f 100 330 331
f 100 331 101
f 100 101 71
f 325 332 330
f 325 330 100
f 326 332 325
f 333 332 326
f 327 333 326
f 334 327 328
f 334 328 329
f 334 333 327
f 335 334 329
f 336 335 329
f 337 335 336
f 338 336 339
f 338 337 336
f 340 338 339
f 341 340 339
f 342 340 341
f 343 342 341
f 344 345 342
f 344 342 343
f 346 347 345
f 346 345 344
f 72 102 103
f 102 348 103
f 348 349 103
f 349 350 351
f 103 349 351
f 351 350 352
f 352 350 353
f 352 353 354
f 355 354 356
f 357 355 356
f 354 353 356
f 357 356 358
f 357 358 359
f 359 358 360
f 361 359 362
f 359 360 362
f 361 362 363
f 361 363 364
f 364 363 365
f 364 365 366
f 365 367 368
f 366 365 368
f 367 369 370
f 368 367 370
f 371 104 103
f 371 103 351
f 372 371 352
f 371 351 352
f 373 372 354
f 372 352 354
f 374 373 355
f 373 354 355
f 375 374 357
f 374 355 357
f 104 376 377
f 104 377 105
f 104 105 73
f 371 378 376
f 371 376 104
f 372 378 371
f 379 378 372
f 373 379 372
f 380 373 374
f 380 374 375
f 380 379 373
f 381 380 375
f 382 381 375
f 383 381 382
f 384 382 385
f 384 383 382
f 386 384 385
f 387 386 385
f 388 386 387
f 389 388 387
f 390 391 388
f 390 388 389
f 392 393 391
f 392 391 390
f 74 106 107
f 106 394 107
f 394 395 107
f 395 396 397
f 107 395 397
f 397 396 398
f 398 396 399
f 398 399 400
f 401 400 402
f 403 401 402
f 400 399 402
f 403 402 404
f 403 404 405
f 405 404 406
f 407 405 408
f 405 406 408
f 407 408 409
f 407 409 410
f 410 409 411
f 410 411 412
f 411 413 414
f 412 411 414
f 413 415 416
f 414 413 416
f 108 107 397
f 417 108 397
f 418 417 397
f 418 397 398
f 419 418 400
f 418 398 400
f 420 419 401
f 419 400 401
f 421 420 403
f 420 401 403
f 108 422 423
f 108 423 109
f 108 109 75
f 417 424 422
f 417 422 108
f 418 424 417
f 425 424 418
f 419 425 418
f 426 419 420
f 426 420 421
f 426 425 419
f 427 426 421
f 428 427 421
f 429 427 428
f 430 428 431
f 430 429 428
f 432 430 431
f 433 432 431
f 434 432 433
f 435 434 433
f 436 437 434
f 436 434 435
f 438 439 437
f 438 437 436
f 76 110 111
f 110 440 111
f 440 441 111
f 441 442 443
f 111 441 443
f 443 442 444
f 444 442 445
f 444 445 446
f 447 446 448
f 449 447 448
f 446 445 448
f 449 448 450
f 449 450 451
f 451 450 452
f 453 451 454
f 451 452 454
f 453 454 455
f 453 455 456
f 456 455 457
f 456 457 458
f 457 459 460
f 458 457 460
f 459 461 462
f 460 459 462
f 463 112 111
f 463 111 443
f 464 463 444
f 465 464 444
f 463 443 444
f 465 444 446
f 466 465 447
f 465 446 447
f 467 466 449
f 466 447 449
f 112 468 469
f 112 469 113
f 112 113 77
f 463 470 468
f 463 468 112
f 464 470 463
f 471 470 464
f 465 471 464
f 472 465 466
f 472 466 467
f 472 471 465
f 473 472 467
f 474 473 467
f 475 473 474
f 476 474 477
f 476 475 474
f 478 476 477
f 479 478 477
f 480 478 479
f 481 480 479
f 482 483 480
f 482 480 481
f 484 485 483
f 484 483 482
f 115 38 32
f 38 115 49
f 115 32 31
f 49 115 52
f 52 115 2
f 2 115 7
f 115 114 15
f 7 115 15
f 15 114 19
f 31 29 300
f 486 487 300
f 488 486 300
f 29 488 300
f 115 31 300
f 19 114 21
f 300 487 489
f 300 489 490
f 300 490 491
f 300 491 492
f 36 21 301
f 33 36 301
f 493 33 301
f 494 493 301
f 495 494 301
f 496 495 301
f 492 496 301
f 21 114 301
f 300 492 301
f 139 124 156
f 156 124 132
f 159 132 135
f 159 156 132
f 161 138 134
f 161 135 138
f 161 159 135
f 157 161 134
f 154 134 130
f 154 157 134
f 150 154 130
f 150 130 129
f 150 129 128
f 151 150 128
f 152 151 128
f 152 128 127
f 136 133 155
f 137 136 158
f 136 155 158
f 137 158 160
f 131 137 153
f 127 131 153
f 137 160 153
f 127 153 152
f 155 133 148
f 148 133 125
f 144 125 118
f 144 148 125
f 145 118 117
f 145 144 118
f 146 117 120
f 146 145 117
f 147 120 123
f 147 146 120
f 149 123 126
f 149 147 123
f 149 126 84
f 126 80 84
f 185 170 178
f 202 185 178
f 205 178 181
f 205 202 178
f 207 184 180
f 207 181 184
f 207 205 181
f 203 207 180
f 200 180 176
f 200 203 180
f 200 176 175
f 196 200 175
f 196 175 174
f 197 196 174
f 197 174 173
f 198 197 173
f 182 179 201
f 183 182 204
f 182 201 204
f 183 204 206
f 177 183 199
f 173 177 199
f 183 206 199
f 173 199 198
f 201 179 171
f 194 201 171
f 194 171 164
f 190 194 164
f 191 163 166
f 191 164 163
f 191 190 164
f 192 191 166
f 193 169 172
f 193 166 169
f 193 192 166
f 195 193 172
f 172 83 195
f 195 83 88
f 231 216 248
f 248 216 224
f 251 224 227
f 251 248 224
f 253 227 230
f 253 251 227
f 249 230 226
f 249 253 230
f 246 226 222
f 246 249 226
f 246 222 221
f 242 246 221
f 242 221 220
f 243 242 220
f 244 243 220
f 244 220 219
f 228 225 247
f 228 247 250
f 229 228 252
f 228 250 252
f 223 229 245
f 219 223 245
f 229 252 245
f 219 245 244
f 247 225 217
f 240 247 217
f 236 217 210
f 236 240 217
f 237 209 212
f 237 210 209
f 237 236 210
f 238 237 212
f 239 215 218
f 239 212 215
f 239 238 212
f 241 239 218
f 241 218 92
f 218 87 92
f 277 262 270
f 294 277 270
f 297 270 273
f 297 294 270
f 299 276 272
f 299 273 276
f 299 297 273
f 295 299 272
f 292 272 268
f 292 295 272
f 292 268 267
f 288 292 267
f 288 267 266
f 289 288 266
f 290 289 266
f 290 266 265
f 274 271 293
f 275 274 296
f 274 293 296
f 275 296 298
f 269 275 291
f 265 269 291
f 275 298 291
f 265 291 290
f 293 271 263
f 286 293 263
f 282 263 256
f 282 286 263
f 283 256 255
f 283 282 256
f 284 255 258
f 284 283 255
f 285 258 261
f 285 284 258
f 287 261 264
f 287 285 261
f 287 264 96
f 264 91 96
f 101 331 98
f 98 331 302
f 303 330 332
f 303 331 330
f 303 302 331
f 304 303 332
f 307 333 334
f 307 332 333
f 307 304 332
f 310 307 334
f 312 334 335
f 312 310 334
f 312 335 337
f 314 312 337
f 345 321 319
f 342 345 319
f 340 342 319
f 338 340 317
f 340 319 317
f 338 317 316
f 337 338 314
f 338 316 314
f 323 321 345
f 323 345 347
f 323 347 346
f 324 323 346
f 322 324 346
f 322 346 344
f 320 343 341
f 320 344 343
f 320 322 344
f 318 320 341
f 315 339 336
f 315 341 339
f 315 318 341
f 313 315 336
f 313 336 311
f 311 336 329
f 105 377 102
f 102 377 348
f 348 377 376
f 349 348 376
f 350 376 378
f 350 349 376
f 353 379 380
f 353 378 379
f 353 350 378
f 356 353 380
f 358 380 381
f 358 356 380
f 358 381 360
f 360 381 383
f 391 367 365
f 388 391 365
f 386 388 365
f 386 365 363
f 384 386 362
f 386 363 362
f 383 384 360
f 384 362 360
f 369 367 391
f 369 391 393
f 369 393 392
f 370 369 392
f 368 370 392
f 368 392 390
f 366 389 387
f 366 390 389
f 366 368 390
f 364 366 387
f 361 385 382
f 361 387 385
f 361 364 387
f 359 361 382
f 359 382 375
f 357 359 375
f 109 423 394
f 106 109 394
f 394 423 422
f 395 394 422
f 396 422 424
f 396 395 422
f 399 425 426
f 399 424 425
f 399 396 424
f 402 399 426
f 404 426 427
f 404 402 426
f 404 427 429
f 406 404 429
f 437 413 411
f 434 437 411
f 432 434 411
f 432 411 409
f 430 432 408
f 432 409 408
f 429 430 406
f 430 408 406
f 415 413 437
f 415 437 439
f 415 439 438
f 416 415 438
f 416 438 436
f 414 416 436
f 412 435 433
f 412 436 435
f 412 414 436
f 410 433 431
f 410 412 433
f 407 431 428
f 407 410 431
f 405 407 428
f 405 428 421
f 403 405 421
f 113 469 110
f 110 469 440
f 441 468 470
f 441 469 468
f 441 440 469
f 442 441 470
f 445 471 472
f 445 470 471
f 445 442 470
f 448 445 472
f 450 472 473
f 450 448 472
f 450 473 475
f 452 450 475
f 483 459 457
f 480 483 457
f 478 480 457
f 476 478 455
f 478 457 455
f 476 455 454
f 475 476 452
f 476 454 452
f 461 459 483
f 461 483 485
f 461 485 484
f 462 461 484
f 460 462 484
f 460 484 482
f 458 481 479
f 458 482 481
f 458 460 482
f 456 458 479
f 453 477 474
f 453 479 477
f 453 456 479
f 451 453 474
f 451 474 467
f 449 451 467
f 497 492 498
f 499 500 501
f 500 497 501
f 491 490 502
f 498 491 502
f 503 504 505
f 13 506 505
f 506 503 505
f 497 498 507
f 501 497 507
f 490 489 508
f 489 487 508
f 502 490 508
f 504 499 509
f 505 504 509
f 13 505 509
f 498 502 510
f 507 498 510
f 508 487 511
f 509 499 512
f 499 501 512
f 13 509 512
f 510 502 513
f 502 508 513
f 487 486 514
f 486 488 514
f 511 487 514
f 501 507 515
f 13 512 515
f 512 501 515
f 508 511 516
f 513 508 516
f 33 493 517
f 515 507 518
f 34 33 517
f 507 510 518
f 45 34 517
f 13 515 518
f 29 28 519
f 488 29 519
f 493 494 520
f 514 488 519
f 511 514 521
f 516 511 521
f 517 493 520
f 518 510 522
f 510 513 522
f 494 495 523
f 13 518 522
f 514 519 524
f 521 514 524
f 513 516 525
f 520 494 523
f 13 522 525
f 522 513 525
f 28 43 526
f 517 520 503
f 45 517 503
f 524 519 526
f 519 28 526
f 525 516 527
f 495 496 500
f 516 521 527
f 13 525 527
f 13 527 528
f 523 495 500
f 521 524 528
f 527 521 528
f 526 43 529
f 43 53 529
f 520 523 504
f 53 13 529
f 503 520 504
f 524 526 529
f 13 528 529
f 528 524 529
f 496 492 497
f 500 496 497
f 504 523 499
f 523 500 499
f 47 45 506
f 13 47 506
f 45 503 506
f 492 491 498
f 97 301 98
f 98 301 101
f 101 301 102
f 102 301 105
f 109 106 114
f 106 105 114
f 105 301 114
f 109 114 110
f 110 114 113
f 113 114 78
f 95 96 300
f 96 91 300
f 300 91 92
f 300 92 87
f 87 88 115
f 88 83 115
f 83 84 115
f 84 80 115
f 80 79 115
f 300 87 115
