# Created by FreeCAD <http://www.freecadweb.org>
v 14.852198 542.246948 206.979996
v 13.952198 542.246948 206.979996
v 13.952198 531.746948 206.979996
v 14.852198 531.746948 206.979996
v 14.602198 542.496948 206.729996
v 14.202198 542.496948 206.729996
v 14.852198 531.746948 206.080002
v 14.852198 542.246948 206.080002
v 14.202198 531.496948 206.729996
v 14.602198 531.496948 206.729996
v 13.952198 542.246948 206.080002
v 13.952198 531.746948 206.080002
v 14.602198 542.496948 206.330002
v 14.202198 542.496948 206.330002
v 14.602198 531.496948 206.330002
v 14.202198 531.496948 206.330002
f 1 2 3
f 1 3 4
f 1 5 6
f 1 6 2
f 4 7 1
f 7 8 1
f 9 10 4
f 3 9 4
f 2 11 12
f 2 12 3
f 5 13 6
f 6 13 14
f 1 8 13
f 5 1 13
f 11 2 6
f 14 11 6
f 15 7 4
f 15 4 10
f 7 12 8
f 12 11 8
f 9 3 12
f 9 12 16
f 16 10 9
f 16 15 10
f 11 14 8
f 14 13 8
f 15 16 12
f 7 15 12
