# Created by FreeCAD <http://www.freecadweb.org>
v 12.253882 523.710815 -21.139837
v 12.253882 523.010803 -21.139774
v 12.400001 523.710754 -21.968512
v 12.400001 523.010742 -21.968449
v 12.139816 523.710815 -20.937336
v 12.139816 523.010803 -20.937271
v 12.161242 523.010803 -20.957705
v 12.161242 523.710815 -20.957767
v 12.180863 523.010803 -20.979874
v 12.180863 523.710815 -20.979937
v 12.198542 523.010803 -21.003622
v 12.198542 523.710815 -21.003685
v 12.214149 523.010803 -21.028778
v 12.214149 523.710815 -21.028841
v 12.227575 523.010803 -21.055164
v 12.227575 523.710815 -21.055227
v 12.238723 523.010803 -21.082592
v 12.238723 523.710815 -21.082655
v 12.247513 523.010803 -21.110863
v 12.247513 523.710815 -21.110926
v 12.007681 523.010803 -21.183186
v 12.153798 523.010742 -22.011860
v 12.001300 523.010803 -21.161594
v 11.924109 523.010864 -20.748325
v 11.718102 523.010864 -20.893494
v 11.737829 523.010864 -20.915817
v 11.759383 523.010803 -20.936382
v 11.905683 523.010864 -20.726866
v 11.671240 523.010864 -20.817644
v 11.684687 523.010864 -20.844229
v 11.700345 523.010864 -20.869572
v 11.990250 523.010803 -21.141977
v 11.894001 523.010864 -20.701105
v 11.645062 523.010864 -20.732416
v 11.651356 523.010864 -20.761534
v 11.660103 523.010864 -20.790012
v 11.975091 523.010803 -21.125328
v 11.890000 523.010864 -20.673103
v 11.640000 523.010864 -20.673103
v 11.641268 523.010864 -20.702868
v 11.640000 523.010925 -20.218449
v 11.890000 523.010925 -20.218449
v 12.153798 523.710754 -22.011923
v 12.007681 523.710815 -21.183250
v 12.001300 523.710815 -21.161657
v 11.737829 523.710815 -20.915880
v 11.718102 523.710815 -20.893557
v 11.924109 523.710876 -20.748388
v 11.759383 523.710815 -20.936445
v 11.684687 523.710815 -20.844292
v 11.671240 523.710815 -20.817707
v 11.905683 523.710876 -20.726929
v 11.700345 523.710815 -20.869635
v 11.990250 523.710815 -21.142040
v 11.651356 523.710876 -20.761599
v 11.645062 523.710876 -20.732479
v 11.894001 523.710876 -20.701168
v 11.660103 523.710876 -20.790075
v 11.975091 523.710815 -21.125391
v 11.641268 523.710876 -20.702930
v 11.640000 523.710876 -20.673166
v 11.890000 523.710876 -20.673166
v 11.640000 523.710876 -20.218512
v 11.890000 523.710876 -20.218512
f 1 2 3
f 3 2 4
f 5 6 7
f 8 7 9
f 8 5 7
f 10 9 11
f 10 8 9
f 12 11 13
f 12 10 11
f 14 13 15
f 14 12 13
f 16 15 17
f 16 14 15
f 18 17 19
f 18 16 17
f 20 19 2
f 20 18 19
f 1 20 2
f 21 22 4
f 2 21 4
f 19 23 21
f 19 21 2
f 17 23 19
f 15 23 17
f 24 25 26
f 24 26 27
f 28 29 30
f 28 30 31
f 28 31 25
f 28 25 24
f 13 32 23
f 13 23 15
f 33 34 35
f 33 35 36
f 33 36 29
f 33 29 28
f 11 32 13
f 9 32 11
f 6 27 37
f 6 24 27
f 7 37 32
f 7 32 9
f 7 6 37
f 38 39 40
f 38 40 34
f 38 34 33
f 41 39 38
f 42 41 38
f 43 3 22
f 3 4 22
f 3 43 44
f 3 44 1
f 44 45 20
f 1 44 20
f 20 45 18
f 18 45 16
f 46 47 48
f 49 46 48
f 50 51 52
f 53 50 52
f 47 53 52
f 48 47 52
f 45 54 14
f 16 45 14
f 55 56 57
f 58 55 57
f 51 58 57
f 52 51 57
f 14 54 12
f 12 54 10
f 59 49 5
f 49 48 5
f 54 59 8
f 10 54 8
f 59 5 8
f 60 61 62
f 56 60 62
f 57 56 62
f 62 61 63
f 62 63 64
f 5 48 6
f 48 24 6
f 49 59 27
f 59 37 27
f 49 27 26
f 46 49 26
f 47 26 25
f 47 46 26
f 53 25 31
f 53 47 25
f 50 30 29
f 50 31 30
f 50 53 31
f 51 50 29
f 58 36 35
f 58 29 36
f 58 51 29
f 55 35 34
f 55 58 35
f 56 55 34
f 60 34 40
f 60 56 34
f 61 40 39
f 61 60 40
f 39 41 61
f 61 41 63
f 64 63 42
f 63 41 42
f 62 64 38
f 38 64 42
f 28 24 52
f 33 28 52
f 24 48 52
f 38 33 57
f 33 52 57
f 38 57 62
f 43 22 44
f 44 22 21
f 32 37 54
f 23 32 54
f 37 59 54
f 23 54 45
f 21 23 44
f 23 45 44
