# Created by FreeCAD <http://www.freecadweb.org>
v 19.932198 542.246948 206.979996
v 19.032198 542.246948 206.979996
v 19.032198 531.746948 206.979996
v 19.932198 531.746948 206.979996
v 19.682198 542.496948 206.729996
v 19.282198 542.496948 206.729996
v 19.932198 531.746948 206.080002
v 19.932198 542.246948 206.080002
v 19.282198 531.496948 206.729996
v 19.682198 531.496948 206.729996
v 19.032198 542.246948 206.080002
v 19.032198 531.746948 206.080002
v 19.282198 542.496948 206.330002
v 19.682198 542.496948 206.330002
v 19.682198 531.496948 206.330002
v 19.282198 531.496948 206.330002
f 1 2 3
f 1 3 4
f 1 5 6
f 1 6 2
f 4 7 1
f 7 8 1
f 9 10 4
f 3 9 4
f 11 12 3
f 2 11 3
f 6 5 13
f 5 14 13
f 5 1 8
f 5 8 14
f 11 2 6
f 13 11 6
f 7 4 10
f 15 7 10
f 7 12 8
f 12 11 8
f 9 3 12
f 9 12 16
f 9 15 10
f 16 15 9
f 11 13 14
f 11 14 8
f 7 15 16
f 7 16 12
