# Created by FreeCAD <http://www.freecadweb.org>
v 13.515040 534.496948 205.059998
v 13.332198 534.496948 204.877151
v 13.332198 534.496948 203.102844
v 15.289355 534.496948 205.059998
v 13.515040 534.496948 202.919998
v 15.472198 534.496948 204.877151
v 15.472198 534.496948 203.102844
v 15.289355 534.496948 202.919998
v 13.132198 534.696960 204.960007
v 13.132198 534.696960 203.020004
v 13.432198 534.696960 202.720001
v 15.372198 534.696960 202.720001
v 15.672198 534.696960 203.020004
v 15.672198 534.696960 204.960007
v 15.372198 534.696960 205.259995
v 13.432198 534.696960 205.259995
v 13.132198 536.296936 204.960007
v 13.132198 536.296936 203.020004
v 13.432198 536.296936 202.720001
v 15.372198 536.296936 202.720001
v 15.872198 534.496948 203.102844
v 15.872198 534.496948 204.877151
v 13.515040 534.496948 205.460007
v 15.289355 534.496948 205.460007
v 13.332198 536.496948 204.877151
v 13.332198 536.496948 203.102844
v 13.432198 536.296936 205.259995
v 15.672198 536.296936 203.020004
v 15.289355 536.496948 202.919998
v 13.515040 536.496948 202.919998
v 17.829355 534.496948 205.059998
v 16.055040 534.496948 205.059998
v 16.055040 534.496948 202.919998
v 18.012197 534.496948 204.877151
v 18.012197 534.496948 203.102844
v 17.829355 534.496948 202.919998
v 15.972198 534.696960 202.720001
v 15.972198 534.696960 205.259995
v 15.472198 534.496948 205.642838
v 15.672198 534.696960 205.559998
v 13.515040 534.496948 207.600006
v 13.332198 534.496948 207.417160
v 13.332198 534.496948 205.642838
v 15.289355 534.496948 207.600006
v 15.472198 534.496948 207.417160
v 13.132198 534.696960 205.559998
v 13.515040 536.496948 205.059998
v 15.289355 536.496948 205.059998
v 15.472198 536.496948 203.102844
v 15.472198 536.496948 204.877151
v 13.132198 536.296936 205.559998
v 15.972198 536.296936 202.720001
v 17.912197 534.696960 202.720001
v 18.212198 534.696960 203.020004
v 18.212198 534.696960 204.960007
v 17.912197 534.696960 205.259995
v 13.132198 534.696960 207.500000
v 15.672198 534.696960 207.500000
v 15.372198 534.696960 207.800003
v 13.432198 534.696960 207.800003
v 15.672198 536.296936 204.960007
v 15.372198 536.296936 205.259995
v 13.515040 536.496948 205.460007
v 13.332198 536.496948 205.642838
v 16.055040 536.496948 202.919998
v 15.872198 536.496948 203.102844
v 17.912197 536.296936 202.720001
v 18.412197 534.496948 203.102844
v 18.412197 534.496948 204.877151
v 16.055040 534.496948 205.460007
v 17.829355 534.496948 205.460007
v 13.132198 536.296936 207.500000
v 15.872198 534.496948 205.642838
v 15.872198 534.496948 207.417160
v 15.372198 536.296936 207.800003
v 13.432198 536.296936 207.800003
v 15.872198 536.496948 204.877151
v 15.289355 536.496948 205.460007
v 18.212198 536.296936 203.020004
v 17.829355 536.496948 202.919998
v 18.595041 534.496948 205.059998
v 20.369356 534.496948 205.059998
v 18.595041 534.496948 202.919998
v 20.552198 534.496948 204.877151
v 20.552198 534.496948 203.102844
v 20.369356 534.496948 202.919998
v 18.512197 534.696960 202.720001
v 18.512197 534.696960 205.259995
v 18.012197 534.496948 205.642838
v 18.212198 534.696960 205.559998
v 16.055040 534.496948 207.600006
v 17.829355 534.496948 207.600006
v 18.012197 534.496948 207.417160
v 13.332198 536.496948 207.417160
v 15.972198 534.696960 207.800003
v 13.515040 536.496948 207.600006
v 15.289355 536.496948 207.600006
v 15.672198 536.296936 207.500000
v 15.972198 536.296936 205.259995
v 16.055040 536.496948 205.059998
v 17.829355 536.496948 205.059998
v 18.012197 536.496948 203.102844
v 18.012197 536.496948 204.877151
v 15.472198 536.496948 205.642838
v 15.472198 536.496948 207.417160
v 15.672198 536.296936 205.559998
v 18.512197 536.296936 202.720001
v 20.452198 534.696960 202.720001
v 20.752197 534.696960 203.020004
v 20.752197 534.696960 204.960007
v 20.452198 534.696960 205.259995
v 18.212198 534.696960 207.500000
v 17.912197 534.696960 207.800003
v 15.972198 536.296936 207.800003
v 18.212198 536.296936 204.960007
v 17.912197 536.296936 205.259995
v 18.595041 536.496948 202.919998
v 18.412197 536.496948 203.102844
v 20.452198 536.296936 202.720001
v 20.752197 536.296936 204.960007
v 20.752197 536.296936 203.020004
v 18.595041 534.496948 205.460007
v 20.369356 534.496948 205.460007
v 18.412197 534.496948 205.642838
v 18.412197 534.496948 207.417160
v 17.912197 536.296936 207.800003
v 16.055040 536.496948 205.460007
v 15.872198 536.496948 205.642838
v 16.055040 536.496948 207.600006
v 15.872198 536.496948 207.417160
v 18.412197 536.496948 204.877151
v 17.829355 536.496948 205.460007
v 20.369356 536.496948 202.919998
v 20.452198 536.296936 205.259995
v 20.552198 536.496948 203.102844
v 20.552198 536.496948 204.877151
v 20.552198 534.496948 205.642838
v 20.752197 534.696960 205.559998
v 18.595041 534.496948 207.600006
v 20.369356 534.496948 207.600006
v 20.552198 534.496948 207.417160
v 18.512197 534.696960 207.800003
v 17.829355 536.496948 207.600006
v 18.212198 536.296936 207.500000
v 18.512197 536.296936 205.259995
v 18.595041 536.496948 205.059998
v 20.369356 536.496948 205.059998
v 18.012197 536.496948 205.642838
v 18.012197 536.496948 207.417160
v 18.212198 536.296936 205.559998
v 20.752197 536.296936 205.559998
v 20.752197 534.696960 207.500000
v 20.452198 534.696960 207.800003
v 18.512197 536.296936 207.800003
v 20.369356 536.496948 205.460007
v 20.552198 536.496948 205.642838
v 20.752197 536.296936 207.500000
v 20.452198 536.296936 207.800003
v 18.595041 536.496948 205.460007
v 18.412197 536.496948 205.642838
v 18.595041 536.496948 207.600006
v 18.412197 536.496948 207.417160
v 20.552198 536.496948 207.417160
v 20.369356 536.496948 207.600006
f 1 2 3
f 1 3 4
f 4 3 5
f 6 4 7
f 4 5 7
f 7 5 8
f 3 2 9
f 10 3 9
f 3 10 5
f 5 10 11
f 5 11 12
f 5 12 8
f 7 8 13
f 13 8 12
f 14 6 7
f 14 7 13
f 4 14 15
f 6 14 4
f 4 16 1
f 4 15 16
f 9 2 1
f 9 1 16
f 17 18 10
f 17 10 9
f 11 19 12
f 12 19 20
f 21 22 14
f 13 21 14
f 23 16 24
f 16 15 24
f 25 26 18
f 17 25 18
f 17 9 16
f 27 17 16
f 11 10 19
f 10 18 19
f 13 12 28
f 12 20 28
f 29 19 30
f 29 20 19
f 31 32 21
f 32 22 21
f 31 21 33
f 34 31 35
f 31 33 35
f 35 33 36
f 21 13 33
f 33 13 37
f 14 22 32
f 14 32 38
f 39 24 40
f 40 24 15
f 41 42 43
f 41 43 44
f 45 44 39
f 44 43 39
f 43 23 24
f 39 43 24
f 43 46 23
f 23 46 16
f 27 47 25
f 27 25 17
f 48 25 47
f 30 26 25
f 49 48 50
f 49 25 48
f 49 30 25
f 29 30 49
f 30 18 26
f 19 18 30
f 16 46 27
f 46 51 27
f 37 13 52
f 13 28 52
f 28 29 49
f 20 29 28
f 33 37 53
f 33 53 36
f 35 36 54
f 54 36 53
f 55 34 35
f 55 35 54
f 31 55 56
f 34 55 31
f 31 38 32
f 31 56 38
f 43 42 57
f 46 43 57
f 58 45 39
f 58 39 40
f 44 58 59
f 45 58 44
f 44 60 41
f 44 59 60
f 57 42 41
f 57 41 60
f 49 50 61
f 28 49 61
f 62 61 50
f 48 62 50
f 47 27 48
f 27 62 48
f 63 51 64
f 27 51 63
f 65 28 66
f 52 28 65
f 37 52 53
f 53 52 67
f 68 69 55
f 54 68 55
f 70 38 71
f 38 56 71
f 72 51 46
f 72 46 57
f 73 74 58
f 40 73 58
f 75 76 60
f 75 60 59
f 77 66 28
f 61 77 28
f 62 27 63
f 78 62 63
f 54 53 79
f 53 67 79
f 80 52 65
f 80 67 52
f 81 69 68
f 81 68 82
f 82 68 83
f 84 82 85
f 82 83 85
f 85 83 86
f 83 68 87
f 68 54 87
f 55 69 81
f 55 81 88
f 89 71 56
f 90 89 56
f 91 74 73
f 91 73 92
f 73 70 71
f 93 92 89
f 92 73 89
f 73 71 89
f 73 40 70
f 70 40 38
f 94 64 51
f 72 94 51
f 72 57 60
f 76 72 60
f 58 74 91
f 58 91 95
f 96 76 97
f 76 75 97
f 98 75 59
f 98 59 58
f 99 100 77
f 99 77 61
f 101 77 100
f 102 66 77
f 102 101 103
f 102 77 101
f 80 65 66
f 80 66 102
f 97 94 96
f 63 64 94
f 104 97 105
f 104 94 97
f 104 63 94
f 78 63 104
f 106 78 104
f 62 78 106
f 87 54 107
f 54 79 107
f 79 80 102
f 67 80 79
f 83 87 108
f 83 108 86
f 85 86 108
f 109 85 108
f 110 84 85
f 110 85 109
f 84 110 111
f 84 111 82
f 82 88 81
f 82 111 88
f 112 93 89
f 112 89 90
f 92 112 113
f 93 112 92
f 92 95 91
f 92 113 95
f 38 40 99
f 40 106 99
f 96 94 72
f 76 96 72
f 75 98 105
f 97 75 105
f 98 58 95
f 114 98 95
f 79 102 103
f 79 103 115
f 116 115 103
f 101 116 103
f 100 99 116
f 100 116 101
f 104 105 98
f 106 104 98
f 117 79 118
f 107 79 117
f 87 107 108
f 108 107 119
f 110 109 120
f 109 121 120
f 122 88 123
f 88 111 123
f 124 125 112
f 90 124 112
f 126 114 95
f 126 95 113
f 61 14 38
f 99 61 38
f 40 15 62
f 40 62 106
f 127 106 128
f 99 106 127
f 114 129 130
f 114 130 98
f 131 118 79
f 115 131 79
f 116 99 127
f 132 116 127
f 98 130 128
f 98 128 106
f 109 108 121
f 108 119 121
f 133 107 117
f 133 119 107
f 120 134 111
f 120 111 110
f 121 135 136
f 121 136 120
f 137 123 111
f 138 137 111
f 139 125 124
f 139 124 140
f 124 122 123
f 141 140 137
f 140 124 137
f 124 123 137
f 122 124 88
f 124 90 88
f 112 125 139
f 112 139 142
f 129 114 143
f 114 126 143
f 144 126 113
f 144 113 112
f 61 62 15
f 61 15 14
f 145 146 131
f 145 131 115
f 147 118 131
f 147 131 146
f 136 118 147
f 133 117 118
f 133 118 136
f 135 133 136
f 143 130 129
f 127 128 130
f 127 130 143
f 148 143 149
f 148 127 143
f 132 127 148
f 150 132 148
f 116 132 150
f 121 133 135
f 119 133 121
f 134 120 136
f 147 134 136
f 138 111 151
f 111 134 151
f 152 141 137
f 152 137 138
f 140 152 153
f 141 152 140
f 140 142 139
f 140 153 142
f 88 90 145
f 90 150 145
f 126 144 149
f 143 126 149
f 144 112 142
f 154 144 142
f 146 145 147
f 145 134 147
f 148 149 144
f 150 148 144
f 151 155 156
f 134 155 151
f 152 138 157
f 138 151 157
f 158 154 142
f 158 142 153
f 115 55 88
f 145 115 88
f 90 56 116
f 90 116 150
f 159 150 160
f 145 150 159
f 154 161 162
f 154 162 144
f 155 145 159
f 155 134 145
f 144 162 160
f 144 160 150
f 158 153 152
f 157 158 152
f 151 156 163
f 151 163 157
f 161 154 158
f 161 158 164
f 115 116 56
f 115 56 55
f 164 162 161
f 159 160 162
f 155 164 163
f 155 162 164
f 155 159 162
f 156 155 163
f 158 157 163
f 164 158 163
