# Created by FreeCAD <http://www.freecadweb.org>
v -10.178326 534.564758 196.388031
v -9.023278 534.564758 196.388031
v -9.023278 534.564758 199.263885
v -10.178326 534.564758 199.263885
v -8.900802 534.967651 196.325958
v -8.942401 534.830811 197.600952
v -8.900802 534.967651 197.600952
v -8.942401 534.830811 198.050964
v -8.900802 534.967651 198.050964
v -8.900802 534.967651 199.325958
v -10.300802 534.967651 199.325958
v -10.300802 534.967651 196.325958
v -10.259203 534.830811 196.650955
v -10.300802 534.967651 196.650955
v -10.259203 534.830811 197.100952
v -10.300802 534.967651 197.100952
v -10.300802 534.967651 198.550964
v -10.259203 534.830811 198.550964
v -10.259203 534.830811 199.000961
v -10.300802 534.967651 199.000961
v -8.870261 534.830811 197.600952
v -8.870261 534.830811 198.050964
v -8.786716 534.980774 198.050964
v -8.900802 534.980774 198.050964
v -8.809740 534.820007 198.050964
v -8.722149 534.973267 198.050964
v -8.752264 534.978821 198.050964
v -8.766417 534.800659 198.050964
v -8.652666 534.937622 198.050964
v -8.683065 534.958313 198.050964
v -8.621319 534.902405 198.050964
v -8.734735 534.776855 198.050964
v -8.708466 534.748413 198.050964
v -8.536540 534.727783 198.050964
v -8.600744 534.571350 198.050964
v -8.517444 534.699951 198.050964
v -8.494016 534.675781 198.050964
v -8.563811 534.532349 198.050964
v -8.465011 534.656250 198.050964
v -8.524692 534.507080 198.050964
v -8.479610 534.491455 198.050964
v -8.425989 534.641663 198.050964
v -8.451778 534.486755 198.050964
v -8.420802 534.484741 198.050964
v -8.364512 534.634766 198.050964
v -8.280802 534.484741 198.050964
v -8.280802 534.634766 198.050964
v -8.900802 534.980774 199.325958
v -8.900802 534.980774 196.325958
v -8.900802 534.980774 197.600952
v -8.786716 534.980774 197.600952
v -8.752264 534.978821 197.600952
v -8.722149 534.973267 197.600952
v -8.809740 534.820007 197.600952
v -8.683065 534.958313 197.600952
v -8.652666 534.937622 197.600952
v -8.766417 534.800659 197.600952
v -8.621319 534.902405 197.600952
v -8.734735 534.776855 197.600952
v -8.708466 534.748413 197.600952
v -8.536540 534.727783 197.600952
v -8.517444 534.699951 197.600952
v -8.600744 534.571350 197.600952
v -8.494016 534.675781 197.600952
v -8.465011 534.656250 197.600952
v -8.563811 534.532349 197.600952
v -8.524692 534.507080 197.600952
v -8.425989 534.641663 197.600952
v -8.479610 534.491455 197.600952
v -8.451778 534.486755 197.600952
v -8.364512 534.634766 197.600952
v -8.420802 534.484741 197.600952
v -8.280802 534.634766 197.600952
v -8.280802 534.484741 197.600952
v -10.300802 534.980774 199.325958
v -10.331343 534.830811 196.650955
v -10.331343 534.830811 197.100952
v -10.837091 534.634766 196.650955
v -10.780802 534.484741 196.650955
v -10.920802 534.484741 196.650955
v -10.920802 534.634766 196.650955
v -10.775615 534.641663 196.650955
v -10.721993 534.491455 196.650955
v -10.749825 534.486755 196.650955
v -10.736593 534.656250 196.650955
v -10.637793 534.532349 196.650955
v -10.676912 534.507080 196.650955
v -10.707589 534.675781 196.650955
v -10.600860 534.571350 196.650955
v -10.684160 534.699951 196.650955
v -10.665064 534.727783 196.650955
v -10.493138 534.748413 196.650955
v -10.580285 534.902405 196.650955
v -10.466868 534.776855 196.650955
v -10.435187 534.800659 196.650955
v -10.548938 534.937622 196.650955
v -10.518538 534.958313 196.650955
v -10.479455 534.973267 196.650955
v -10.391864 534.820007 196.650955
v -10.449340 534.978821 196.650955
v -10.414888 534.980774 196.650955
v -10.300802 534.980774 196.650955
v -10.300802 534.980774 196.325958
v -10.300802 534.980774 199.000961
v -10.920802 534.634766 199.000961
v -10.920802 534.484741 199.000961
v -10.837091 534.634766 199.000961
v -10.780802 534.484741 199.000961
v -10.749825 534.486755 199.000961
v -10.721993 534.491455 199.000961
v -10.775615 534.641663 199.000961
v -10.676912 534.507080 199.000961
v -10.637793 534.532349 199.000961
v -10.736593 534.656250 199.000961
v -10.707589 534.675781 199.000961
v -10.600860 534.571350 199.000961
v -10.684160 534.699951 199.000961
v -10.665064 534.727783 199.000961
v -10.493138 534.748413 199.000961
v -10.466868 534.776855 199.000961
v -10.580285 534.902405 199.000961
v -10.435187 534.800659 199.000961
v -10.548938 534.937622 199.000961
v -10.518538 534.958313 199.000961
v -10.391864 534.820007 199.000961
v -10.479455 534.973267 199.000961
v -10.449340 534.978821 199.000961
v -10.331343 534.830811 199.000961
v -10.414888 534.980774 199.000961
v -10.331343 534.830811 198.550964
v -10.837091 534.634766 198.550964
v -10.780802 534.484741 198.550964
v -10.920802 534.484741 198.550964
v -10.920802 534.634766 198.550964
v -10.775615 534.641663 198.550964
v -10.721993 534.491455 198.550964
v -10.749825 534.486755 198.550964
v -10.736593 534.656250 198.550964
v -10.637793 534.532349 198.550964
v -10.676912 534.507080 198.550964
v -10.707589 534.675781 198.550964
v -10.600860 534.571350 198.550964
v -10.684160 534.699951 198.550964
v -10.665064 534.727783 198.550964
v -10.493138 534.748413 198.550964
v -10.580285 534.902405 198.550964
v -10.466868 534.776855 198.550964
v -10.435187 534.800659 198.550964
v -10.548938 534.937622 198.550964
v -10.518538 534.958313 198.550964
v -10.479455 534.973267 198.550964
v -10.391864 534.820007 198.550964
v -10.449340 534.978821 198.550964
v -10.414888 534.980774 198.550964
v -10.300802 534.980774 198.550964
v -10.300802 534.980774 197.100952
v -10.920802 534.634766 197.100952
v -10.920802 534.484741 197.100952
v -10.837091 534.634766 197.100952
v -10.780802 534.484741 197.100952
v -10.749825 534.486755 197.100952
v -10.721993 534.491455 197.100952
v -10.775615 534.641663 197.100952
v -10.676912 534.507080 197.100952
v -10.637793 534.532349 197.100952
v -10.736593 534.656250 197.100952
v -10.707589 534.675781 197.100952
v -10.600860 534.571350 197.100952
v -10.684160 534.699951 197.100952
v -10.665064 534.727783 197.100952
v -10.493138 534.748413 197.100952
v -10.466868 534.776855 197.100952
v -10.580285 534.902405 197.100952
v -10.435187 534.800659 197.100952
v -10.548938 534.937622 197.100952
v -10.518538 534.958313 197.100952
v -10.391864 534.820007 197.100952
v -10.479455 534.973267 197.100952
v -10.449340 534.978821 197.100952
v -10.414888 534.980774 197.100952
v -9.024207 535.564758 196.390320
v -9.024207 535.564758 199.261597
v -10.177397 535.564758 199.261597
v -10.177397 535.564758 196.390320
f 1 2 3
f 1 3 4
f 2 5 6
f 5 7 6
f 8 9 10
f 8 10 3
f 6 3 2
f 8 3 6
f 11 4 3
f 11 3 10
f 12 1 13
f 12 13 14
f 13 1 15
f 16 15 17
f 15 18 17
f 18 4 19
f 20 19 11
f 19 4 11
f 15 1 4
f 18 15 4
f 1 12 2
f 12 5 2
f 6 21 22
f 6 22 8
f 23 24 9
f 22 9 8
f 22 23 9
f 25 26 27
f 25 27 23
f 25 23 22
f 28 29 30
f 28 30 26
f 28 26 25
f 31 29 28
f 32 31 28
f 33 31 32
f 34 31 33
f 35 36 34
f 35 34 33
f 37 36 35
f 38 39 37
f 38 37 35
f 40 39 38
f 41 42 39
f 41 39 40
f 43 42 41
f 44 45 42
f 44 42 43
f 46 47 45
f 46 45 44
f 9 24 10
f 24 48 10
f 5 49 50
f 5 50 7
f 7 50 51
f 6 7 21
f 7 51 21
f 52 53 54
f 51 52 54
f 21 51 54
f 55 56 57
f 53 55 57
f 54 53 57
f 57 56 58
f 57 58 59
f 59 58 60
f 60 58 61
f 61 62 63
f 60 61 63
f 63 62 64
f 64 65 66
f 63 64 66
f 66 65 67
f 65 68 69
f 67 65 69
f 69 68 70
f 68 71 72
f 70 68 72
f 71 73 74
f 72 71 74
f 48 75 11
f 10 48 11
f 76 13 15
f 76 15 77
f 78 79 80
f 78 80 81
f 82 83 84
f 82 84 79
f 82 79 78
f 85 86 87
f 85 87 83
f 85 83 82
f 88 86 85
f 89 86 88
f 90 89 88
f 91 89 90
f 92 89 91
f 93 94 92
f 93 92 91
f 95 94 93
f 96 95 93
f 97 95 96
f 98 99 95
f 98 95 97
f 100 99 98
f 101 76 99
f 101 99 100
f 14 13 76
f 14 76 101
f 102 14 101
f 103 12 102
f 12 14 102
f 104 20 11
f 104 11 75
f 105 106 107
f 106 108 107
f 109 110 111
f 108 109 111
f 107 108 111
f 112 113 114
f 110 112 114
f 111 110 114
f 114 113 115
f 115 113 116
f 115 116 117
f 117 116 118
f 118 116 119
f 119 120 121
f 118 119 121
f 121 120 122
f 121 122 123
f 123 122 124
f 122 125 126
f 124 122 126
f 126 125 127
f 125 128 129
f 127 125 129
f 128 19 20
f 129 128 20
f 129 20 104
f 18 19 128
f 130 18 128
f 131 132 133
f 131 133 134
f 135 136 137
f 135 137 132
f 135 132 131
f 138 139 140
f 138 140 136
f 138 136 135
f 141 139 138
f 142 139 141
f 143 142 141
f 144 142 143
f 145 142 144
f 146 147 145
f 146 145 144
f 148 147 146
f 149 148 146
f 150 148 149
f 151 152 148
f 151 148 150
f 153 152 151
f 154 130 152
f 154 152 153
f 17 18 130
f 17 130 154
f 155 17 154
f 16 17 155
f 156 16 155
f 157 158 159
f 158 160 159
f 161 162 163
f 160 161 163
f 159 160 163
f 164 165 166
f 162 164 166
f 163 162 166
f 166 165 167
f 167 165 168
f 167 168 169
f 169 168 170
f 170 168 171
f 171 172 173
f 170 171 173
f 173 172 174
f 173 174 175
f 175 174 176
f 174 177 178
f 176 174 178
f 178 177 179
f 177 77 180
f 179 177 180
f 77 15 16
f 180 77 16
f 180 16 156
f 12 103 5
f 103 49 5
f 22 21 54
f 25 22 54
f 28 25 57
f 25 54 57
f 32 28 59
f 28 57 59
f 33 32 60
f 32 59 60
f 35 33 63
f 33 60 63
f 38 35 66
f 35 63 66
f 40 38 67
f 38 66 67
f 41 40 69
f 43 41 69
f 40 67 69
f 43 69 70
f 44 43 72
f 43 70 72
f 50 24 23
f 51 50 23
f 42 45 71
f 42 71 68
f 39 42 65
f 42 68 65
f 37 39 64
f 36 37 64
f 39 65 64
f 36 64 62
f 34 36 61
f 31 34 61
f 36 62 61
f 31 61 58
f 29 31 56
f 31 58 56
f 30 29 55
f 26 30 55
f 29 56 55
f 26 55 53
f 27 26 52
f 23 27 52
f 26 53 52
f 23 52 51
f 73 71 45
f 73 45 47
f 74 73 47
f 74 47 46
f 74 46 44
f 72 74 44
f 49 181 50
f 50 181 24
f 24 181 182
f 24 182 48
f 183 75 48
f 183 48 182
f 76 77 177
f 99 76 177
f 95 99 174
f 94 95 174
f 99 177 174
f 92 94 172
f 94 174 172
f 92 172 171
f 89 92 168
f 86 89 168
f 92 171 168
f 86 168 165
f 87 86 164
f 86 165 164
f 83 87 162
f 84 83 162
f 87 164 162
f 84 162 161
f 79 84 160
f 84 161 160
f 102 101 180
f 102 180 156
f 78 159 163
f 82 78 163
f 85 82 163
f 85 163 166
f 88 85 167
f 85 166 167
f 90 88 169
f 88 167 169
f 91 90 170
f 90 169 170
f 93 91 173
f 91 170 173
f 96 93 175
f 93 173 175
f 97 96 176
f 98 97 176
f 96 175 176
f 100 98 178
f 98 176 178
f 100 178 179
f 101 100 180
f 100 179 180
f 78 81 157
f 78 157 159
f 81 80 158
f 81 158 157
f 80 79 158
f 79 160 158
f 155 154 129
f 155 129 104
f 127 129 154
f 127 154 153
f 126 127 151
f 127 153 151
f 124 126 150
f 126 151 150
f 121 123 149
f 123 124 149
f 124 150 149
f 121 149 146
f 117 118 144
f 118 121 144
f 121 146 144
f 117 144 143
f 114 115 141
f 115 117 141
f 117 143 141
f 111 114 138
f 114 141 138
f 107 111 135
f 111 138 135
f 107 135 131
f 134 105 107
f 131 134 107
f 133 106 105
f 134 133 105
f 133 132 108
f 133 108 106
f 108 132 137
f 109 108 137
f 112 110 136
f 110 109 136
f 109 137 136
f 113 112 140
f 112 136 140
f 113 140 139
f 116 113 142
f 113 139 142
f 119 116 145
f 116 142 145
f 120 119 147
f 119 145 147
f 125 122 148
f 122 120 148
f 120 147 148
f 128 125 152
f 125 148 152
f 128 152 130
f 103 184 181
f 103 181 49
f 181 184 183
f 181 183 182
f 103 102 184
f 184 102 156
f 156 155 183
f 155 104 183
f 104 75 183
f 184 156 183
