# Created by FreeCAD <http://www.freecadweb.org>
v -4.070783 531.349976 76.317932
v -4.099194 531.400024 76.236763
v -4.070783 531.400024 76.317932
v -4.036385 531.349976 76.396751
v -3.843396 531.349976 75.115570
v -3.843396 531.400024 75.115570
v -3.899487 531.400024 75.180763
v -3.899487 531.349976 75.180763
v -4.036385 531.400024 76.396751
v -3.996193 531.349976 76.472786
v -3.950549 531.400024 75.249962
v -3.996193 531.400024 76.472786
v -3.950549 531.349976 75.249962
v -3.950432 531.349976 76.545601
v -3.086359 531.349976 74.750916
v -3.000420 531.349976 74.747696
v -3.000420 531.400024 74.747696
v -3.950432 531.400024 76.545601
v -3.996297 531.400024 75.322784
v -3.996297 531.349976 75.322784
v -3.899358 531.349976 76.614784
v -3.899358 531.400024 76.614784
v -3.086359 531.400024 74.750916
v -4.036475 531.400024 75.398819
v -3.843255 531.349976 76.679970
v -4.036475 531.349976 75.398819
v -3.171817 531.400024 74.760551
v -3.171817 531.349976 74.760551
v -3.843255 531.400024 76.679970
v -4.070859 531.349976 75.477646
v -4.070859 531.400024 75.477646
v -3.782439 531.349976 76.740776
v -4.099256 531.349976 75.558823
v -3.256316 531.400024 74.776550
v -3.256316 531.349976 74.776550
v -3.782439 531.400024 76.740776
v -4.121506 531.349976 75.641899
v -4.099256 531.400024 75.558823
v -3.717248 531.349976 76.796867
v -3.339384 531.400024 74.798813
v -3.339384 531.349976 74.798813
v -3.717248 531.400024 76.796867
v -4.137487 531.349976 75.726395
v -4.121506 531.400024 75.641899
v -3.648048 531.349976 76.847923
v -3.420555 531.400024 74.827225
v -3.420555 531.349976 74.827225
v -4.147108 531.349976 75.811859
v -4.137487 531.400024 75.726395
v -3.648048 531.400024 76.847923
v -3.575226 531.349976 76.893677
v -3.499376 531.400024 74.861626
v -3.575226 531.400024 76.893677
v -3.499376 531.349976 74.861626
v -3.575406 531.349976 74.901817
v -3.499189 531.349976 76.933853
v -4.147108 531.400024 75.811859
v -4.150316 531.349976 75.897797
v -4.150316 531.400024 75.897797
v -3.499189 531.400024 76.933853
v -3.420362 531.349976 76.968239
v -3.575406 531.400024 74.901817
v -3.420362 531.400024 76.968239
v -3.339185 531.349976 76.996635
v -4.147093 531.349976 75.983734
v -4.147093 531.400024 75.983734
v -4.137456 531.349976 76.069191
v -3.648220 531.400024 74.947578
v -3.648220 531.349976 74.947578
v -3.256114 531.349976 77.018883
v -3.339185 531.400024 76.996635
v -4.121460 531.349976 76.153694
v -4.137456 531.400024 76.069191
v -3.171612 531.349976 77.034866
v -3.256114 531.400024 77.018883
v -3.717411 531.400024 74.998650
v -3.717411 531.349976 74.998650
v -3.171612 531.400024 77.034866
v -3.086152 531.349976 77.044487
v -4.099194 531.349976 76.236763
v -4.121460 531.400024 76.153694
v -3.086152 531.400024 77.044487
v -3.000212 531.349976 77.047691
v -3.000212 531.400024 77.047691
v -3.782591 531.400024 75.054756
v -3.782591 531.349976 75.054756
v -4.800280 529.599976 76.297859
v -4.800352 529.599976 75.497856
v -4.000352 529.599976 75.497780
v -4.000280 529.599976 76.297783
v -4.000456 529.599976 74.347786
v -2.100370 529.599976 75.297615
v -1.200456 529.599976 74.347534
v -1.200370 529.599976 75.297531
v -4.000176 529.599976 77.447784
v -2.100262 529.599976 76.497612
v -1.200262 529.599976 76.497528
v -1.200176 529.599976 77.447533
v -4.000352 529.500000 75.497780
v -5.200352 529.500000 75.497894
v -5.200352 529.599976 75.497894
v -4.000461 529.500000 74.297783
v -4.000461 529.599976 74.297783
v -4.800456 529.599976 74.347855
v -4.800456 531.400024 74.347855
v -1.200456 531.400024 74.347534
v -2.100370 529.500000 75.297615
v -0.900370 529.500000 75.297501
v -0.900370 529.599976 75.297501
v -2.100262 529.500000 76.497612
v -0.900262 529.500000 76.497505
v -0.900262 529.599976 76.497505
v -1.200176 531.400024 77.447533
v -4.800176 529.599976 77.447853
v -4.800176 531.400024 77.447853
v -4.000172 529.500000 77.497780
v -4.000280 529.500000 76.297783
v -4.000172 529.599976 77.497780
v -5.200280 529.500000 76.297890
v -5.200280 529.599976 76.297890
v -5.200460 529.599976 74.297890
v -5.200460 529.500000 74.297890
v -1.850316 531.400024 75.897591
v -1.853539 531.400024 75.811653
v -2.914480 531.400024 74.750900
v -2.829020 531.400024 74.760521
v -2.744518 531.400024 74.776505
v -2.661447 531.400024 74.798752
v -2.580271 531.400024 74.827148
v -2.501443 531.400024 74.861534
v -2.425406 531.400024 74.901711
v -2.352584 531.400024 74.947456
v -2.283384 531.400024 74.998520
v -2.218194 531.400024 75.054611
v -2.157377 531.400024 75.115417
v -2.101275 531.400024 75.180595
v -1.853524 531.400024 75.983528
v -1.863145 531.400024 76.068993
v -2.050200 531.400024 75.249786
v -1.879126 531.400024 76.153488
v -1.901377 531.400024 76.236565
v -1.929773 531.400024 76.317741
v -1.964157 531.400024 76.396568
v -2.004335 531.400024 76.472603
v -2.050083 531.400024 76.545425
v -2.101145 531.400024 76.614624
v -2.157236 531.400024 76.679817
v -2.218041 531.400024 76.740631
v -2.283221 531.400024 76.796738
v -2.352412 531.400024 76.847809
v -2.425226 531.400024 76.893570
v -2.501256 531.400024 76.933762
v -2.580077 531.400024 76.968163
v -2.661248 531.400024 76.996574
v -2.004439 531.400024 75.322601
v -2.744316 531.400024 77.018837
v -2.828815 531.400024 77.034836
v -2.914273 531.400024 77.044472
v -1.964247 531.400024 75.398636
v -1.929849 531.400024 75.477455
v -1.901438 531.400024 75.558624
v -1.879172 531.400024 75.641693
v -1.863176 531.400024 75.726189
v -5.200171 529.599976 77.497894
v -5.200171 529.500000 77.497894
v -2.101145 531.349976 76.614624
v -2.050083 531.349976 76.545425
v -1.964247 531.349976 75.398636
v -2.004439 531.349976 75.322601
v -2.004335 531.349976 76.472603
v -2.050200 531.349976 75.249786
v -1.964157 531.349976 76.396568
v -2.914273 531.349976 77.044472
v -2.101275 531.349976 75.180595
v -1.929773 531.349976 76.317741
v -2.828815 531.349976 77.034836
v -1.901377 531.349976 76.236565
v -2.157377 531.349976 75.115417
v -2.218194 531.349976 75.054611
v -2.744316 531.349976 77.018837
v -1.879126 531.349976 76.153488
v -2.661248 531.349976 76.996574
v -1.863145 531.349976 76.068993
v -2.283384 531.349976 74.998520
v -2.580077 531.349976 76.968163
v -1.853524 531.349976 75.983528
v -2.352584 531.349976 74.947456
v -2.501256 531.349976 76.933762
v -2.425406 531.349976 74.901711
v -2.425226 531.349976 76.893570
v -1.850316 531.349976 75.897591
v -1.853539 531.349976 75.811653
v -2.501443 531.349976 74.861534
v -2.580271 531.349976 74.827148
v -2.352412 531.349976 76.847809
v -1.863176 531.349976 75.726189
v -2.661447 531.349976 74.798752
v -2.283221 531.349976 76.796738
v -1.879172 531.349976 75.641693
v -2.744518 531.349976 74.776505
v -1.901438 531.349976 75.558624
v -2.218041 531.349976 76.740631
v -2.829020 531.349976 74.760521
v -2.914480 531.349976 74.750900
v -1.929849 531.349976 75.477455
v -2.157236 531.349976 76.679817
v -3.250217 531.349976 76.997719
v -2.750415 531.349976 74.797668
v -1.900339 531.349976 75.647591
v -4.100294 531.349976 76.147789
v -3.250339 531.349976 75.647713
v -3.250415 531.349976 74.797714
v -4.100338 531.349976 75.647789
v -1.900293 531.349976 76.147591
v -2.750217 531.349976 76.997673
v -2.750339 531.349976 75.647667
v -2.750293 531.349976 76.147667
v -3.250293 531.349976 76.147713
v -3.250339 530.799988 75.647713
v -4.100338 530.799988 75.647789
v -4.100294 530.799988 76.147789
v -3.250293 530.799988 76.147713
v -3.250217 530.799988 76.997719
v -2.750217 530.799988 76.997673
v -2.750293 530.799988 76.147667
v -1.900293 530.799988 76.147591
v -1.900339 530.799988 75.647591
v -2.750339 530.799988 75.647667
v -2.750415 530.799988 74.797668
v -3.250415 530.799988 74.797714
f 1 2 3
f 4 1 3
f 5 6 7
f 8 5 7
f 4 3 9
f 10 4 9
f 8 7 11
f 10 9 12
f 13 8 11
f 14 10 12
f 15 16 17
f 14 12 18
f 13 11 19
f 20 13 19
f 21 14 18
f 21 18 22
f 15 17 23
f 20 19 24
f 25 21 22
f 26 20 24
f 15 23 27
f 28 15 27
f 25 22 29
f 30 26 31
f 32 25 29
f 26 24 31
f 33 30 31
f 28 27 34
f 35 28 34
f 32 29 36
f 37 33 38
f 39 32 36
f 33 31 38
f 35 34 40
f 41 35 40
f 39 36 42
f 43 37 44
f 45 39 42
f 37 38 44
f 41 40 46
f 47 41 46
f 48 43 49
f 45 42 50
f 51 45 50
f 43 44 49
f 47 46 52
f 51 50 53
f 54 47 52
f 55 54 52
f 56 51 53
f 48 49 57
f 58 48 59
f 56 53 60
f 61 56 60
f 48 57 59
f 55 52 62
f 61 60 63
f 64 61 63
f 65 58 66
f 67 65 66
f 55 62 68
f 69 55 68
f 70 64 71
f 58 59 66
f 64 63 71
f 72 67 73
f 74 70 75
f 69 68 76
f 77 69 76
f 70 71 75
f 67 66 73
f 74 75 78
f 79 74 78
f 80 72 81
f 79 78 82
f 83 79 82
f 83 82 84
f 77 76 85
f 72 73 81
f 86 77 85
f 1 80 2
f 80 81 2
f 86 85 6
f 5 86 6
f 87 88 89
f 87 89 90
f 89 91 92
f 91 93 92
f 92 93 94
f 95 90 96
f 89 92 96
f 90 89 96
f 96 97 98
f 95 96 98
f 99 89 88
f 99 88 100
f 100 88 101
f 102 103 91
f 102 91 99
f 99 91 89
f 91 104 105
f 93 91 106
f 91 105 106
f 107 92 94
f 107 94 108
f 108 94 109
f 107 110 92
f 110 96 92
f 96 110 97
f 97 111 112
f 97 110 111
f 98 113 95
f 114 95 115
f 95 113 115
f 116 117 95
f 117 90 95
f 116 95 118
f 119 120 87
f 119 87 117
f 117 87 90
f 121 101 104
f 101 88 104
f 104 91 103
f 104 103 121
f 122 100 121
f 100 101 121
f 122 99 100
f 102 99 122
f 102 122 103
f 122 121 103
f 104 88 105
f 105 88 87
f 87 114 115
f 105 87 115
f 123 106 124
f 84 82 115
f 6 85 105
f 7 6 105
f 76 105 85
f 11 7 105
f 68 105 76
f 115 18 12
f 115 12 9
f 115 59 105
f 115 9 3
f 115 3 2
f 115 2 81
f 115 81 73
f 115 73 66
f 115 66 59
f 19 11 105
f 22 18 115
f 62 105 68
f 24 19 105
f 29 22 115
f 52 105 62
f 36 29 115
f 46 105 52
f 31 24 105
f 42 36 115
f 40 105 46
f 106 105 17
f 106 17 125
f 38 31 105
f 106 125 126
f 106 126 127
f 106 127 128
f 106 128 129
f 106 129 130
f 106 130 131
f 44 38 105
f 106 131 132
f 106 132 133
f 106 133 134
f 106 134 135
f 106 135 136
f 34 105 40
f 50 42 115
f 113 84 115
f 113 123 137
f 113 137 138
f 139 106 136
f 113 138 140
f 49 44 105
f 113 140 141
f 113 141 142
f 27 105 34
f 113 142 143
f 113 143 144
f 113 144 145
f 113 145 146
f 113 146 147
f 53 50 115
f 113 147 148
f 57 49 105
f 113 148 149
f 113 149 150
f 113 150 151
f 113 151 152
f 113 152 153
f 113 153 154
f 155 106 139
f 113 154 156
f 23 105 27
f 113 156 157
f 113 157 158
f 113 158 84
f 113 106 123
f 159 106 155
f 17 105 23
f 60 53 115
f 59 57 105
f 63 60 115
f 160 106 159
f 71 63 115
f 161 106 160
f 162 106 161
f 75 71 115
f 163 106 162
f 78 75 115
f 124 106 163
f 82 78 115
f 93 106 94
f 94 106 113
f 94 113 97
f 97 113 98
f 97 112 94
f 94 112 109
f 108 109 111
f 109 112 111
f 108 111 110
f 108 110 107
f 164 114 120
f 114 118 95
f 120 114 87
f 114 164 118
f 165 116 164
f 116 118 164
f 117 116 165
f 117 165 119
f 120 119 164
f 119 165 164
f 166 147 146
f 167 166 146
f 168 159 155
f 169 168 155
f 167 146 145
f 170 167 145
f 169 155 139
f 171 169 139
f 170 145 144
f 172 170 144
f 173 83 84
f 171 139 136
f 174 171 136
f 172 144 143
f 175 172 143
f 176 173 158
f 173 84 158
f 174 136 135
f 177 175 142
f 175 143 142
f 178 174 135
f 179 178 135
f 176 158 157
f 180 176 157
f 181 177 141
f 177 142 141
f 180 157 156
f 179 135 134
f 182 180 156
f 183 181 140
f 179 134 133
f 184 179 133
f 181 141 140
f 182 156 154
f 185 182 154
f 186 183 138
f 184 133 132
f 187 184 132
f 183 140 138
f 185 154 153
f 188 185 153
f 187 132 131
f 186 138 137
f 189 187 131
f 188 153 152
f 190 188 152
f 191 186 123
f 192 191 123
f 189 131 130
f 186 137 123
f 193 189 130
f 194 193 130
f 190 152 151
f 195 190 151
f 196 192 124
f 194 130 129
f 197 194 129
f 192 123 124
f 195 151 150
f 198 195 150
f 199 196 163
f 197 129 128
f 196 124 163
f 197 128 127
f 200 197 127
f 201 199 162
f 198 150 149
f 202 198 149
f 203 200 126
f 199 163 162
f 200 127 126
f 203 126 125
f 204 203 125
f 205 201 161
f 202 149 148
f 206 202 148
f 204 125 17
f 16 204 17
f 201 162 161
f 168 205 160
f 206 148 147
f 166 206 147
f 205 161 160
f 168 160 159
f 74 207 70
f 197 200 208
f 196 199 209
f 1 210 80
f 79 207 74
f 194 197 208
f 192 196 209
f 211 212 47
f 211 30 213
f 211 47 54
f 211 54 55
f 211 55 69
f 211 69 77
f 211 77 86
f 211 86 5
f 211 5 8
f 211 8 13
f 211 13 20
f 211 20 26
f 211 26 30
f 214 183 186
f 215 173 176
f 180 215 176
f 181 183 214
f 182 215 180
f 177 181 214
f 216 179 184
f 216 184 187
f 185 215 182
f 216 187 189
f 216 189 193
f 185 217 215
f 216 193 194
f 175 177 214
f 216 194 208
f 175 214 217
f 213 30 33
f 188 217 185
f 213 33 37
f 218 210 1
f 218 1 4
f 218 4 10
f 218 10 14
f 172 175 217
f 218 14 21
f 212 35 41
f 218 21 25
f 212 41 47
f 190 217 188
f 32 218 25
f 170 172 217
f 178 179 216
f 43 213 37
f 195 217 190
f 28 35 212
f 39 218 32
f 167 170 217
f 174 178 216
f 198 217 195
f 48 213 43
f 45 218 39
f 171 174 216
f 166 167 217
f 15 28 212
f 202 217 198
f 51 218 45
f 169 171 216
f 206 166 217
f 206 217 202
f 210 213 48
f 210 48 58
f 210 58 65
f 212 208 204
f 212 204 16
f 212 16 15
f 209 214 186
f 209 186 191
f 209 191 192
f 215 207 79
f 215 79 83
f 215 83 173
f 56 218 51
f 168 169 216
f 61 218 56
f 205 168 216
f 207 218 61
f 207 61 64
f 209 205 216
f 209 201 205
f 210 65 67
f 210 67 72
f 70 207 64
f 208 200 203
f 208 203 204
f 199 201 209
f 80 210 72
f 219 211 213
f 220 219 213
f 220 213 221
f 213 210 221
f 221 210 222
f 210 218 222
f 222 218 223
f 223 218 207
f 224 223 207
f 224 207 215
f 224 215 217
f 225 224 217
f 225 217 226
f 217 214 226
f 227 226 209
f 226 214 209
f 228 227 216
f 227 209 216
f 228 216 229
f 229 216 208
f 230 229 208
f 230 208 212
f 230 212 219
f 219 212 211
f 219 229 230
f 222 219 220
f 222 220 221
f 228 219 222
f 228 229 219
f 225 228 222
f 223 225 222
f 226 227 228
f 226 228 225
f 224 225 223
