# Created by FreeCAD <http://www.freecadweb.org>
v -22.966898 548.953491 211.033432
v -22.975452 548.953491 211.163956
v -22.975452 549.028503 211.163956
v -22.966898 549.028503 211.033432
v -22.941378 549.028503 210.905136
v -22.941378 548.953491 210.905136
v -22.899332 549.028503 210.781265
v -22.899332 548.953491 210.781265
v -22.841478 549.028503 210.663956
v -22.841478 548.953491 210.663956
v -22.768806 548.953491 210.555191
v -22.768806 549.028503 210.555191
v -22.682560 548.953491 210.456848
v -22.682560 549.028503 210.456848
v -22.584213 549.028503 210.370605
v -22.584213 548.953491 210.370605
v -22.475452 549.028503 210.297928
v -22.475452 548.953491 210.297928
v -22.358135 549.028503 210.240082
v -22.358135 548.953491 210.240082
v -22.234272 549.028503 210.198029
v -22.234272 548.953491 210.198029
v -22.105978 548.953491 210.172516
v -22.105978 549.028503 210.172516
v -21.975452 549.028503 210.163956
v -21.975452 548.953491 210.163956
v -17.544172 549.028503 213.996552
v -18.620323 549.003479 213.996552
v -18.620323 549.028503 213.996552
v -17.544172 549.003479 213.996552
v -18.620323 549.003479 213.209137
v -18.620323 549.028503 213.209137
v -17.202955 549.053467 217.671219
v -17.225452 549.053467 217.671219
v -17.225452 549.053467 221.663956
v -12.475452 549.053467 221.663956
v -12.092769 549.053467 221.587830
v -12.344926 549.053467 221.655396
v -12.216634 549.053467 221.629883
v -11.975452 549.053467 221.529984
v -11.866691 549.053467 221.457306
v -11.609427 549.053467 221.163956
v -11.768346 549.053467 221.371063
v -11.682099 549.053467 221.272720
v -11.551573 549.053467 221.046646
v -11.509526 549.053467 220.922775
v -11.484008 549.053467 220.794479
v -11.475452 549.053467 220.663956
v -11.475452 549.053467 215.913956
v -16.863260 549.053467 215.913956
v -22.975452 548.953491 220.663956
v -22.975452 549.043457 220.663956
v -22.975452 549.028503 215.913956
v -22.975452 549.043457 215.913956
v -21.975452 549.043457 221.663956
v -21.975452 548.953491 221.663956
v -17.225452 549.043457 221.663956
v -12.475452 548.953491 221.663956
v -11.475452 548.953491 220.663956
v -11.475452 549.027466 215.913956
v -11.475452 548.953491 211.163956
v -11.475452 549.027466 211.163956
v -17.225452 549.027466 210.163956
v -17.225452 549.028503 210.163956
v -12.475452 548.953491 210.163956
v -12.475452 549.027466 210.163956
v -22.682560 548.953491 221.371063
v -22.768806 548.953491 221.272720
v -22.584213 548.953491 221.457306
v -11.509526 548.953491 220.922775
v -11.551573 548.953491 221.046646
v -11.484008 548.953491 220.794479
v -22.841478 548.953491 221.163956
v -22.475452 548.953491 221.529984
v -22.966898 548.953491 220.794479
v -22.899332 548.953491 221.046646
v -22.941378 548.953491 220.922775
v -11.509526 548.953491 210.905136
v -22.105978 548.953491 221.655396
v -22.234272 548.953491 221.629883
v -22.358135 548.953491 221.587830
v -11.484008 548.953491 211.033432
v -12.092769 548.953491 210.240082
v -12.344926 548.953491 210.172516
v -12.216634 548.953491 210.198029
v -11.551573 548.953491 210.781265
v -11.609427 548.953491 210.663956
v -11.682099 548.953491 210.555191
v -11.975452 548.953491 210.297928
v -11.768346 548.953491 210.456848
v -11.866691 548.953491 210.370605
v -12.092769 548.953491 221.587830
v -12.216634 548.953491 221.629883
v -11.975452 548.953491 221.529984
v -11.866691 548.953491 221.457306
v -11.768346 548.953491 221.371063
v -11.609427 548.953491 221.163956
v -11.682099 548.953491 221.272720
v -12.344926 548.953491 221.655396
v -22.105978 549.043457 221.655396
v -22.234272 549.043457 221.629883
v -22.358135 549.043457 221.587830
v -22.475452 549.043457 221.529984
v -22.584213 549.043457 221.457306
v -22.682560 549.043457 221.371063
v -22.768806 549.043457 221.272720
v -22.841478 549.043457 221.163956
v -22.899332 549.043457 221.046646
v -22.941378 549.043457 220.922775
v -22.966898 549.043457 220.794479
v -12.344926 549.027466 210.172516
v -12.216634 549.027466 210.198029
v -12.092769 549.027466 210.240082
v -11.975452 549.027466 210.297928
v -11.866691 549.027466 210.370605
v -11.768346 549.027466 210.456848
v -11.682099 549.027466 210.555191
v -11.609427 549.027466 210.663956
v -11.551573 549.027466 210.781265
v -11.509526 549.027466 210.905136
v -11.484008 549.027466 211.033432
v -17.225452 549.027466 213.209137
v -17.225452 549.028503 213.209137
v -16.520517 549.003479 213.209137
v -16.520517 549.027466 213.209137
v -16.520517 549.003479 214.140915
v -16.520517 549.027466 214.140915
v -16.863260 549.027466 215.913956
v -17.202955 549.003479 217.671219
v -17.225452 549.043457 217.671219
v -18.305353 549.003479 217.671219
v -18.305353 549.043457 217.671219
v -17.941349 549.028503 215.913956
v -17.941349 549.043457 215.913956
f 1 2 3
f 1 3 4
f 1 4 5
f 6 5 7
f 6 1 5
f 8 7 9
f 8 6 7
f 10 8 9
f 11 9 12
f 11 10 9
f 13 12 14
f 13 14 15
f 13 11 12
f 16 15 17
f 16 13 15
f 18 17 19
f 18 16 17
f 20 19 21
f 20 18 19
f 22 20 21
f 23 21 24
f 23 24 25
f 23 22 21
f 26 23 25
f 27 28 29
f 27 30 28
f 31 32 29
f 31 29 28
f 33 34 35
f 36 33 35
f 37 38 39
f 40 38 37
f 41 38 40
f 42 43 44
f 45 41 43
f 45 43 42
f 46 41 45
f 47 38 41
f 47 41 46
f 48 36 38
f 48 33 36
f 48 38 47
f 49 50 33
f 49 33 48
f 51 52 53
f 53 52 54
f 51 53 2
f 2 53 3
f 55 56 57
f 35 57 36
f 57 58 36
f 57 56 58
f 48 59 60
f 48 60 49
f 60 61 62
f 60 59 61
f 26 25 63
f 63 25 64
f 26 63 65
f 65 63 66
f 67 68 69
f 18 20 23
f 20 22 23
f 70 71 72
f 69 68 73
f 2 11 26
f 11 18 26
f 18 23 26
f 51 2 26
f 58 56 59
f 72 71 59
f 71 58 59
f 51 26 61
f 59 56 61
f 26 65 61
f 56 51 61
f 74 69 75
f 73 76 75
f 76 77 75
f 69 73 75
f 61 65 78
f 79 80 56
f 80 81 56
f 82 61 78
f 81 74 56
f 75 51 56
f 78 65 83
f 65 84 83
f 84 85 83
f 74 75 56
f 86 78 87
f 78 83 88
f 87 78 88
f 2 1 6
f 83 89 90
f 89 91 90
f 88 83 90
f 6 8 10
f 2 6 10
f 92 93 94
f 2 10 11
f 94 93 95
f 95 93 96
f 11 13 18
f 13 16 18
f 97 98 71
f 98 96 71
f 96 93 71
f 93 99 71
f 99 58 71
f 72 48 47
f 72 59 48
f 70 47 46
f 70 72 47
f 71 46 45
f 71 70 46
f 97 45 42
f 97 71 45
f 98 42 44
f 98 97 42
f 96 44 43
f 96 98 44
f 95 43 41
f 95 96 43
f 94 41 40
f 94 95 41
f 92 37 39
f 92 40 37
f 92 94 40
f 93 39 38
f 93 92 39
f 99 38 36
f 99 93 38
f 58 99 36
f 56 55 100
f 79 56 100
f 80 100 101
f 80 79 100
f 81 101 102
f 81 80 101
f 74 103 104
f 74 102 103
f 74 81 102
f 69 104 105
f 69 74 104
f 67 69 105
f 68 105 106
f 68 67 105
f 73 106 107
f 73 68 106
f 76 107 108
f 76 73 107
f 77 109 110
f 77 108 109
f 77 76 108
f 75 110 52
f 75 77 110
f 51 75 52
f 65 66 111
f 84 111 112
f 84 65 111
f 85 112 113
f 85 84 112
f 83 85 113
f 89 114 115
f 89 113 114
f 89 83 113
f 91 89 115
f 90 115 116
f 90 91 115
f 88 116 117
f 88 90 116
f 87 117 118
f 87 88 117
f 86 118 119
f 86 87 118
f 78 119 120
f 78 86 119
f 82 120 121
f 82 78 120
f 61 121 62
f 61 82 121
f 122 123 32
f 122 32 31
f 124 125 122
f 31 124 122
f 124 126 127
f 125 124 127
f 128 127 126
f 129 128 126
f 33 50 128
f 33 128 129
f 130 129 131
f 130 131 132
f 33 130 34
f 33 129 130
f 133 132 131
f 134 132 133
f 30 133 131
f 27 133 30
f 131 129 30
f 129 126 30
f 126 124 30
f 28 30 31
f 30 124 31
f 53 54 133
f 54 134 133
f 5 4 3
f 9 7 5
f 9 5 3
f 12 9 3
f 17 14 12
f 17 15 14
f 29 53 133
f 24 19 17
f 24 21 19
f 24 12 3
f 24 17 12
f 25 24 3
f 32 3 53
f 32 53 29
f 32 25 3
f 27 29 133
f 64 32 123
f 64 25 32
f 128 50 49
f 128 49 60
f 121 120 119
f 121 119 118
f 121 118 117
f 117 116 113
f 116 115 113
f 115 114 113
f 62 121 111
f 113 112 111
f 121 117 111
f 117 113 111
f 62 111 66
f 128 60 127
f 60 62 125
f 127 60 125
f 62 66 125
f 122 125 63
f 125 66 63
f 123 122 64
f 122 63 64
f 35 34 130
f 57 35 130
f 100 55 101
f 55 57 132
f 57 130 132
f 102 101 103
f 103 101 104
f 105 104 106
f 104 101 106
f 109 108 110
f 108 107 110
f 107 106 110
f 106 101 110
f 55 132 52
f 101 55 52
f 110 101 52
f 132 134 54
f 52 132 54
