# Created by FreeCAD <http://www.freecadweb.org>
v -36.834270 549.053467 175.805923
v -37.575451 549.053467 174.839996
v -37.566898 549.053467 174.970520
v -36.705978 549.053467 175.831451
v -36.575451 549.053467 175.839996
v -30.790567 549.053467 171.528214
v -30.543774 549.053467 171.534943
v -31.218008 549.053467 170.706497
v -36.958138 549.053467 175.763885
v -31.204102 549.053467 171.246674
v -30.913467 549.053467 171.516586
v -37.368805 549.053467 175.448761
v -37.541378 549.053467 175.098816
v -37.499332 549.053467 175.222687
v -37.441479 549.053467 175.339996
v -37.075451 549.053467 175.706024
v -37.184216 549.053467 175.633347
v -26.692768 549.053467 164.416122
v -26.368345 549.053467 164.632889
v -26.466690 549.053467 164.546646
v -26.575453 549.053467 164.473969
v -37.282558 549.053467 175.547104
v -30.430582 549.053467 172.046768
v -26.075453 549.053467 174.839996
v -30.430582 549.053467 171.534943
v -31.033684 549.053467 171.489151
v -31.095444 549.053467 171.457962
v -26.944925 549.053467 164.348557
v -26.282099 549.053467 164.731232
v -31.189604 549.053467 171.335510
v -26.816633 549.053467 164.374069
v -31.139563 549.053467 171.421844
v -31.169712 549.053467 171.382126
v -26.075453 549.053467 165.339996
v -26.084007 549.053467 165.209473
v -26.109526 549.053467 165.081177
v -26.151573 549.053467 164.957321
v -26.209427 549.053467 164.839996
v -37.541378 549.053467 165.081177
v -37.441479 549.053467 164.839996
v -37.499332 549.053467 164.957321
v -37.282558 549.053467 164.632889
v -27.075453 549.053467 164.339996
v -31.218008 549.053467 168.332733
v -26.944925 549.053467 175.831451
v -26.816633 549.053467 175.805923
v -26.692768 549.053467 175.763885
v -26.575453 549.053467 175.706024
v -32.320408 549.053467 168.332733
v -36.575451 549.053467 164.339996
v -27.075453 549.053467 175.839996
v -37.575451 549.053467 165.339996
v -37.566898 549.053467 165.209473
v -26.209427 549.053467 175.339996
v -26.151573 549.053467 175.222687
v -26.109526 549.053467 175.098816
v -26.084007 549.053467 174.970520
v -37.075451 549.053467 164.473969
v -36.705978 549.053467 164.348557
v -36.834270 549.053467 164.374069
v -36.958138 549.053467 164.416122
v -26.282099 549.053467 175.448761
v -37.184216 549.053467 164.546646
v -31.637970 549.053467 172.794830
v -30.740149 549.053467 172.137360
v -31.034451 549.053467 172.269211
v -31.299150 549.053467 172.443100
v -31.480801 549.053467 172.607224
v -32.320408 549.053467 172.794830
v -26.466690 549.053467 175.633347
v -26.368345 549.053467 175.547104
v -37.368805 549.053467 164.731232
v -26.075453 548.953491 174.839996
v -26.075453 548.953491 165.339996
v -27.075453 548.953491 164.339996
v -36.575451 548.953491 164.339996
v -37.575451 548.953491 165.339996
v -37.575451 548.953491 174.839996
v -36.575451 548.953491 175.839996
v -27.075453 548.953491 175.839996
v -26.282099 548.953491 175.448761
v -26.944925 548.953491 175.831451
v -26.575453 548.953491 175.706024
v -26.368345 548.953491 164.632889
v -26.282099 548.953491 164.731232
v -26.466690 548.953491 164.546646
v -26.692768 548.953491 175.763885
v -26.816633 548.953491 175.805923
v -26.209427 548.953491 164.839996
v -37.541378 548.953491 165.081177
v -37.499332 548.953491 164.957321
v -37.566898 548.953491 165.209473
v -26.151573 548.953491 164.957321
v -26.084007 548.953491 165.209473
v -26.109526 548.953491 165.081177
v -37.541378 548.953491 175.098816
v -26.944925 548.953491 164.348557
v -26.816633 548.953491 164.374069
v -37.566898 548.953491 174.970520
v -26.692768 548.953491 164.416122
v -26.575453 548.953491 164.473969
v -36.705978 548.953491 175.831451
v -36.958138 548.953491 175.763885
v -36.834270 548.953491 175.805923
v -37.499332 548.953491 175.222687
v -37.441479 548.953491 175.339996
v -37.368805 548.953491 175.448761
v -26.084007 548.953491 174.970520
v -26.109526 548.953491 175.098816
v -37.075451 548.953491 175.706024
v -37.282558 548.953491 175.547104
v -37.184216 548.953491 175.633347
v -26.151573 548.953491 175.222687
v -26.209427 548.953491 175.339996
v -36.958138 548.953491 164.416122
v -36.834270 548.953491 164.374069
v -37.075451 548.953491 164.473969
v -37.184216 548.953491 164.546646
v -37.282558 548.953491 164.632889
v -26.368345 548.953491 175.547104
v -26.466690 548.953491 175.633347
v -37.441479 548.953491 164.839996
v -37.368805 548.953491 164.731232
v -36.705978 548.953491 164.348557
v -31.637970 549.033508 172.794830
v -32.320408 549.033508 172.794830
v -32.320408 549.033508 168.332733
v -31.218008 549.033508 168.332733
v -31.218008 549.033508 170.706497
v -31.204102 549.033508 171.246674
v -31.189604 549.033508 171.335510
v -31.169712 549.033508 171.382126
v -31.139563 549.033508 171.421844
v -31.095444 549.033508 171.457962
v -31.033684 549.033508 171.489151
v -30.913467 549.033508 171.516586
v -30.790567 549.033508 171.528214
v -30.543774 549.033508 171.534943
v -30.430582 549.033508 171.534943
v -30.430582 549.033508 172.046768
v -30.740149 549.033508 172.137360
v -31.034451 549.033508 172.269211
v -31.299150 549.033508 172.443100
v -31.480801 549.033508 172.607224
f 1 2 3
f 1 4 5
f 1 5 2
f 6 7 8
f 9 1 3
f 10 6 8
f 10 11 6
f 12 9 3
f 12 3 13
f 12 13 14
f 12 14 15
f 12 16 9
f 17 16 12
f 18 19 20
f 18 20 21
f 22 17 12
f 23 24 25
f 26 11 10
f 27 26 10
f 28 29 19
f 27 10 30
f 28 18 31
f 28 19 18
f 32 30 33
f 32 27 30
f 34 35 36
f 34 36 37
f 34 37 38
f 34 38 29
f 34 29 28
f 39 40 41
f 39 42 40
f 43 34 28
f 44 34 43
f 45 46 47
f 45 47 48
f 49 44 43
f 50 49 43
f 51 45 48
f 51 48 24
f 51 24 23
f 52 49 50
f 52 50 42
f 52 39 53
f 52 42 39
f 54 55 56
f 54 56 57
f 58 59 60
f 58 60 61
f 62 54 57
f 62 57 24
f 63 59 58
f 64 51 23
f 64 23 65
f 64 65 66
f 64 66 67
f 42 50 59
f 64 67 68
f 42 59 63
f 25 34 44
f 25 24 34
f 5 64 69
f 25 44 8
f 5 51 64
f 7 25 8
f 2 69 49
f 70 62 24
f 70 71 62
f 2 49 52
f 2 5 69
f 48 70 24
f 40 42 72
f 73 74 24
f 74 34 24
f 75 76 50
f 43 75 50
f 52 77 2
f 77 78 2
f 79 80 5
f 80 51 5
f 73 81 82
f 81 83 82
f 84 85 86
f 83 87 82
f 87 88 82
f 86 85 89
f 90 91 92
f 73 82 80
f 75 73 80
f 91 76 77
f 92 91 77
f 76 75 77
f 75 80 78
f 77 75 78
f 80 79 78
f 89 93 94
f 93 95 94
f 86 89 94
f 78 79 96
f 97 98 75
f 99 78 96
f 98 100 75
f 100 101 75
f 79 102 103
f 101 86 75
f 94 74 75
f 102 104 103
f 96 79 103
f 86 94 75
f 75 74 73
f 105 96 106
f 96 103 107
f 106 96 107
f 73 108 109
f 103 110 111
f 110 112 111
f 107 103 111
f 109 113 114
f 73 109 114
f 115 116 117
f 73 114 81
f 117 116 118
f 118 116 119
f 81 120 83
f 120 121 83
f 122 123 91
f 123 119 91
f 119 116 91
f 116 124 91
f 124 76 91
f 92 52 53
f 92 77 52
f 90 53 39
f 90 92 53
f 91 39 41
f 91 90 39
f 122 41 40
f 122 91 41
f 123 40 72
f 123 122 40
f 119 72 42
f 119 123 72
f 118 42 63
f 118 119 42
f 117 63 58
f 117 118 63
f 115 61 60
f 115 58 61
f 115 117 58
f 116 60 59
f 116 115 60
f 124 59 50
f 124 116 59
f 76 124 50
f 75 43 28
f 97 28 31
f 97 75 28
f 98 31 18
f 98 97 31
f 100 18 21
f 100 98 18
f 101 21 20
f 101 100 21
f 86 101 20
f 84 19 29
f 84 20 19
f 84 86 20
f 85 29 38
f 85 84 29
f 89 38 37
f 89 85 38
f 93 37 36
f 93 89 37
f 95 36 35
f 95 93 36
f 94 35 34
f 94 95 35
f 74 94 34
f 108 57 56
f 108 24 57
f 108 73 24
f 109 56 55
f 109 108 56
f 113 55 54
f 113 109 55
f 114 113 54
f 81 54 62
f 81 114 54
f 120 71 70
f 120 62 71
f 120 81 62
f 121 70 48
f 121 120 70
f 83 48 47
f 83 121 48
f 87 47 46
f 87 83 47
f 88 87 46
f 82 46 45
f 82 88 46
f 80 45 51
f 80 82 45
f 102 5 4
f 102 79 5
f 104 4 1
f 104 102 4
f 103 1 9
f 103 104 1
f 110 9 16
f 110 103 9
f 112 16 17
f 112 110 16
f 111 17 22
f 111 112 17
f 107 22 12
f 107 111 22
f 106 12 15
f 106 107 12
f 105 15 14
f 105 106 15
f 96 14 13
f 96 105 14
f 99 13 3
f 99 96 13
f 78 3 2
f 78 99 3
f 69 64 125
f 126 69 125
f 69 126 127
f 69 127 49
f 49 127 128
f 49 128 44
f 129 8 44
f 129 44 128
f 130 8 129
f 10 8 130
f 131 10 130
f 30 10 131
f 33 131 132
f 33 30 131
f 133 33 132
f 32 33 133
f 27 133 134
f 27 32 133
f 135 27 134
f 26 27 135
f 136 26 135
f 11 26 136
f 137 11 136
f 6 11 137
f 7 137 138
f 7 6 137
f 138 139 25
f 7 138 25
f 140 23 25
f 140 25 139
f 65 23 140
f 65 140 141
f 66 141 142
f 66 65 141
f 67 142 143
f 67 66 142
f 68 143 144
f 68 67 143
f 64 144 125
f 64 68 144
f 128 127 129
f 130 129 126
f 131 130 126
f 132 131 126
f 129 127 126
f 132 126 144
f 133 132 143
f 134 133 143
f 132 144 143
f 144 126 125
f 135 134 142
f 136 135 142
f 134 143 142
f 137 136 141
f 138 137 141
f 136 142 141
f 139 138 140
f 138 141 140
