# Created by FreeCAD <http://www.freecadweb.org>
v 6.465926 534.453491 169.241180
v 6.500000 531.953491 169.500000
v 6.465926 531.953491 169.241180
v 6.500000 534.453491 169.500000
v 6.366025 531.953491 169.000000
v 6.366025 534.453491 169.000000
v 6.207107 531.953491 168.792892
v 6.207107 534.453491 168.792892
v 6.000000 531.953491 168.633972
v 6.000000 534.453491 168.633972
v 5.758819 534.453491 168.534073
v 5.758819 531.953491 168.534073
v 5.500000 531.953491 168.500000
v 5.500000 534.453491 168.500000
v 5.241181 531.953491 168.534073
v 5.241181 536.953491 168.534073
v 5.000000 531.953491 168.633972
v 5.500000 536.953491 168.500000
v 5.000000 536.953491 168.633972
v 4.792893 531.953491 168.792892
v 4.792893 536.953491 168.792892
v 4.633975 536.953491 169.000000
v 4.633975 531.953491 169.000000
v 4.534074 536.953491 169.241180
v 4.534074 531.953491 169.241180
v 4.500000 536.953491 169.500000
v 4.500000 531.953491 169.500000
v 18.500000 536.953491 169.500000
v 18.500000 531.953491 169.500000
v 18.465925 531.953491 169.241180
v 18.462727 536.953491 169.229523
v 18.366026 531.953491 169.000000
v 18.353685 536.953491 168.979218
v 18.207108 531.953491 168.792892
v 18.181004 536.953491 168.767715
v 18.000000 531.953491 168.633972
v 17.957558 536.953491 168.610825
v 17.700001 534.453491 168.520203
v 17.758820 531.953491 168.534073
v 17.500000 531.953491 168.500000
v 17.700001 536.953491 168.520203
v 17.448215 534.453491 168.501343
v 17.241180 531.953491 168.534073
v 17.199734 534.453491 168.546143
v 17.000000 531.953491 168.633972
v 16.970394 534.453491 168.651764
v 16.792892 531.953491 168.792892
v 16.774817 534.453491 168.811447
v 16.633974 531.953491 169.000000
v 16.625469 534.453491 169.015030
v 16.534075 531.953491 169.241180
v 16.531876 534.453491 169.249527
v 16.500000 531.953491 169.500000
v 16.500000 534.453491 169.500000
v 16.500000 534.453491 173.500000
v 17.700001 534.453491 176.500000
v 16.500000 534.453491 176.500000
v 17.700001 534.453491 170.479797
v 6.500000 534.453491 165.500000
v 16.500000 534.453491 165.500000
v 17.448215 534.453491 170.498657
v 17.199734 534.453491 170.453857
v 16.970394 534.453491 170.348236
v 5.500000 534.453491 163.500000
v 6.500000 534.453491 163.500000
v 16.774817 534.453491 170.188553
v 16.625469 534.453491 169.984970
v 16.531876 534.453491 169.750473
v 17.700001 534.453491 163.500000
v 16.500000 534.453491 163.500000
v 6.500000 534.453491 173.500000
v 6.500000 534.453491 176.500000
v 5.500000 534.453491 176.500000
v 6.000000 534.453491 170.366028
v 6.207107 534.453491 170.207108
v 6.366025 534.453491 170.000000
v 6.465926 534.453491 169.758820
v 5.758819 534.453491 170.465927
v 5.500000 534.453491 170.500000
v 5.500000 536.953491 170.500000
v 5.500000 548.953491 176.500000
v 5.500000 548.953491 163.500000
v 17.700001 536.953491 170.479797
v 17.700001 548.953491 176.500000
v 17.700001 548.953491 163.500000
v 9.500000 546.303467 166.500000
v 8.000000 546.303467 166.500000
v 9.500000 546.303467 163.500000
v 8.000000 546.303467 163.500000
v 9.500000 547.753479 175.500000
v 9.500000 548.303467 175.500000
v 13.500000 547.753479 175.500000
v 13.500000 548.303467 175.500000
v 15.000000 546.303467 166.500000
v 13.500000 546.303467 166.500000
v 15.000000 546.303467 163.500000
v 13.500000 546.303467 163.500000
v 6.500000 544.803467 165.500000
v 6.500000 544.803467 163.500000
v 8.000000 544.803467 165.500000
v 8.000000 544.803467 163.500000
v 9.500000 548.303467 163.500000
v 16.500000 544.803467 163.500000
v 15.000000 544.803467 163.500000
v 13.500000 548.303467 163.500000
v 6.700000 545.753479 176.500000
v 6.700000 547.753479 176.500000
v 16.500000 547.753479 176.500000
v 16.500000 545.753479 176.500000
v 6.500000 535.453491 176.500000
v 16.500000 535.453491 176.500000
v 6.500000 544.953491 175.500000
v 8.000000 544.953491 175.500000
v 6.500000 537.953491 175.500000
v 8.000000 545.753479 175.500000
v 15.000000 544.953491 175.500000
v 15.000000 545.753479 175.500000
v 16.500000 544.953491 175.500000
v 16.500000 537.953491 175.500000
v 16.500000 537.953491 165.500000
v 14.500000 537.953491 167.500000
v 13.700000 537.953491 167.500000
v 13.500000 537.953491 167.500000
v 12.700000 537.953491 167.500000
v 14.500000 537.953491 165.500000
v 12.500000 537.953491 167.500000
v 13.700000 537.953491 165.500000
v 11.700000 537.953491 167.500000
v 13.500000 537.953491 165.500000
v 11.500000 537.953491 167.500000
v 12.700000 537.953491 165.500000
v 10.700000 537.953491 167.500000
v 12.500000 537.953491 165.500000
v 10.500000 537.953491 167.500000
v 11.700000 537.953491 165.500000
v 9.700000 537.953491 167.500000
v 11.500000 537.953491 165.500000
v 9.500000 537.953491 167.500000
v 10.700000 537.953491 165.500000
v 10.500000 537.953491 165.500000
v 8.500000 537.953491 167.500000
v 9.700000 537.953491 165.500000
v 9.500000 537.953491 165.500000
v 8.500000 537.953491 166.000000
v 6.500000 537.953491 166.000000
v 6.500000 537.453491 165.500000
v 8.500000 535.453491 165.500000
v 8.500000 537.453491 165.500000
v 9.500000 535.453491 165.500000
v 9.700000 535.453491 165.500000
v 10.500000 535.453491 165.500000
v 10.700000 535.453491 165.500000
v 11.500000 535.453491 165.500000
v 11.700000 535.453491 165.500000
v 12.500000 535.453491 165.500000
v 12.700000 535.453491 165.500000
v 13.500000 535.453491 165.500000
v 13.700000 535.453491 165.500000
v 14.500000 535.453491 165.500000
v 15.000000 544.803467 165.500000
v 16.500000 544.803467 165.500000
v 16.500000 544.953491 165.500000
v 6.500000 537.582886 165.517044
v 6.500000 537.936462 165.870590
v 6.500000 544.953491 165.500000
v 6.500000 537.886475 165.750000
v 6.500000 537.807007 165.646454
v 6.500000 537.703491 165.566986
v 8.000000 545.753479 166.500000
v 8.000000 544.953491 165.500000
v 15.000000 545.753479 166.500000
v 15.000000 544.953491 165.500000
v 9.500000 547.753479 166.500000
v 13.500000 547.753479 166.500000
v 14.500000 535.453491 167.500000
v 13.700000 535.453491 167.500000
v 13.500000 535.453491 167.500000
v 12.700000 535.453491 167.500000
v 12.500000 535.453491 167.500000
v 11.700000 535.453491 167.500000
v 11.500000 535.453491 167.500000
v 10.700000 535.453491 167.500000
v 10.500000 535.453491 167.500000
v 9.700000 535.453491 167.500000
v 8.500000 535.453491 167.500000
v 8.500000 537.582886 165.517044
v 8.500000 537.703491 165.566986
v 8.500000 537.807007 165.646454
v 8.500000 537.886475 165.750000
v 8.500000 537.936462 165.870590
v 9.500000 535.453491 167.500000
v 6.500000 535.453491 173.500000
v 16.500000 535.453491 173.500000
v 16.500000 545.753479 166.500000
v 6.700000 545.753479 166.500000
v 6.700000 547.753479 166.500000
v 16.500000 547.753479 166.500000
v 16.534075 531.953491 169.758820
v 16.633974 531.953491 170.000000
v 16.792892 531.953491 170.207108
v 17.000000 531.953491 170.366028
v 17.241180 531.953491 170.465927
v 17.500000 531.953491 170.500000
v 17.758820 531.953491 170.465927
v 18.000000 531.953491 170.366028
v 17.957558 536.953491 170.389175
v 18.181004 536.953491 170.232285
v 18.207108 531.953491 170.207108
v 18.353685 536.953491 170.020782
v 18.366026 531.953491 170.000000
v 18.462727 536.953491 169.770477
v 18.465925 531.953491 169.758820
v 4.534074 536.953491 169.758820
v 4.534074 531.953491 169.758820
v 4.633975 536.953491 170.000000
v 4.633975 531.953491 170.000000
v 4.792893 536.953491 170.207108
v 4.792893 531.953491 170.207108
v 5.000000 536.953491 170.366028
v 5.000000 531.953491 170.366028
v 5.241181 536.953491 170.465927
v 5.241181 531.953491 170.465927
v 5.500000 531.953491 170.500000
v 5.758819 531.953491 170.465927
v 6.000000 531.953491 170.366028
v 6.207107 531.953491 170.207108
v 6.366025 531.953491 170.000000
v 6.465926 531.953491 169.758820
f 1 2 3
f 1 4 2
f 5 1 3
f 6 1 5
f 7 6 5
f 8 6 7
f 9 8 7
f 10 8 9
f 11 9 12
f 11 10 9
f 13 11 12
f 14 11 13
f 15 14 13
f 16 15 17
f 16 18 14
f 16 14 15
f 19 17 20
f 19 16 17
f 21 19 20
f 22 20 23
f 22 21 20
f 24 23 25
f 24 22 23
f 26 25 27
f 26 24 25
f 28 29 30
f 31 30 32
f 31 28 30
f 33 32 34
f 33 31 32
f 35 34 36
f 35 33 34
f 37 35 36
f 38 39 40
f 38 36 39
f 38 37 36
f 41 37 38
f 42 40 43
f 42 38 40
f 44 43 45
f 44 42 43
f 46 45 47
f 46 44 45
f 48 47 49
f 48 46 47
f 50 49 51
f 50 48 49
f 52 50 51
f 53 52 51
f 54 52 53
f 55 56 57
f 58 56 55
f 59 60 1
f 59 1 6
f 61 58 55
f 59 6 8
f 59 8 10
f 59 10 11
f 59 11 14
f 62 61 55
f 63 62 55
f 64 65 59
f 66 63 55
f 64 59 14
f 67 66 55
f 68 67 55
f 60 38 42
f 60 42 44
f 60 44 46
f 60 46 48
f 60 48 50
f 60 50 52
f 69 38 60
f 70 69 60
f 71 72 73
f 74 75 71
f 76 71 75
f 77 55 71
f 77 68 55
f 77 71 76
f 78 74 71
f 79 78 71
f 79 71 73
f 4 52 54
f 4 54 68
f 4 68 77
f 1 60 52
f 1 52 4
f 80 79 73
f 64 14 18
f 81 80 73
f 82 18 80
f 82 64 18
f 82 80 81
f 56 58 83
f 41 38 69
f 56 83 84
f 83 41 85
f 41 69 85
f 84 83 85
f 86 87 88
f 87 89 88
f 90 91 92
f 91 93 92
f 94 95 96
f 95 97 96
f 98 99 100
f 99 101 100
f 99 65 64
f 89 101 99
f 82 99 64
f 82 89 99
f 102 88 89
f 102 89 82
f 103 69 70
f 96 103 104
f 105 96 97
f 85 103 96
f 85 96 105
f 82 85 105
f 82 105 102
f 85 69 103
f 106 107 81
f 84 81 107
f 108 84 107
f 109 84 108
f 73 106 81
f 110 106 73
f 72 110 73
f 111 109 106
f 111 106 110
f 56 111 57
f 56 109 111
f 56 84 109
f 82 81 84
f 85 82 84
f 112 113 114
f 113 115 116
f 115 117 116
f 116 118 119
f 114 113 119
f 113 116 119
f 119 120 121
f 119 121 122
f 119 122 123
f 119 123 124
f 121 120 125
f 119 124 126
f 123 122 127
f 119 126 128
f 123 127 129
f 114 119 130
f 119 128 130
f 126 124 131
f 114 130 132
f 126 131 133
f 114 132 134
f 130 128 135
f 114 134 136
f 130 135 137
f 114 136 138
f 134 132 139
f 134 139 140
f 114 138 141
f 138 136 142
f 138 142 143
f 141 144 145
f 114 141 145
f 59 146 147
f 146 148 147
f 143 142 149
f 59 147 149
f 149 142 150
f 59 149 150
f 140 139 151
f 59 150 151
f 151 139 152
f 59 151 152
f 137 135 153
f 153 135 154
f 133 131 155
f 155 131 156
f 129 127 157
f 157 127 158
f 125 120 159
f 154 155 60
f 156 157 60
f 158 159 60
f 155 156 60
f 157 158 60
f 159 120 60
f 154 60 59
f 153 154 59
f 152 153 59
f 160 104 161
f 104 103 161
f 120 70 60
f 161 119 118
f 161 120 119
f 162 161 118
f 103 120 161
f 103 70 120
f 59 65 146
f 112 114 145
f 146 65 163
f 145 164 98
f 112 145 98
f 112 98 165
f 164 166 99
f 166 167 99
f 167 168 99
f 168 163 99
f 98 164 99
f 163 65 99
f 115 113 169
f 169 170 87
f 170 100 101
f 170 101 89
f 87 170 89
f 169 113 170
f 116 117 171
f 171 94 172
f 172 94 96
f 160 172 104
f 172 96 104
f 171 172 116
f 118 116 162
f 116 172 162
f 160 161 162
f 172 160 162
f 98 100 170
f 165 98 170
f 113 112 165
f 113 165 170
f 91 90 173
f 173 86 88
f 173 88 102
f 173 102 91
f 92 93 174
f 95 174 97
f 174 105 97
f 174 93 105
f 93 91 105
f 91 102 105
f 122 121 175
f 176 122 175
f 176 158 122
f 158 127 122
f 121 125 159
f 175 121 159
f 159 176 175
f 159 158 176
f 123 129 177
f 177 129 157
f 124 123 177
f 178 124 177
f 124 178 131
f 178 156 131
f 157 156 178
f 157 178 177
f 126 133 155
f 179 126 155
f 128 126 179
f 180 128 179
f 180 154 128
f 154 135 128
f 155 154 180
f 155 180 179
f 153 181 137
f 181 130 137
f 132 130 181
f 182 132 181
f 182 152 132
f 152 139 132
f 153 152 182
f 153 182 181
f 134 140 151
f 183 134 151
f 136 134 183
f 184 136 183
f 136 184 142
f 184 150 142
f 151 150 184
f 151 184 183
f 141 185 148
f 185 147 148
f 141 148 144
f 144 148 186
f 186 187 188
f 189 190 188
f 190 144 188
f 144 186 188
f 185 191 147
f 191 149 147
f 191 138 149
f 138 143 149
f 141 191 185
f 138 191 141
f 110 72 192
f 72 71 192
f 111 110 193
f 110 192 193
f 57 111 55
f 111 193 55
f 193 192 71
f 55 193 71
f 164 144 190
f 164 145 144
f 166 189 188
f 166 190 189
f 166 164 190
f 167 166 188
f 168 187 186
f 168 188 187
f 168 167 188
f 163 186 148
f 163 168 186
f 146 163 148
f 117 115 106
f 109 117 106
f 117 109 194
f 117 194 171
f 115 169 195
f 106 115 195
f 107 90 92
f 107 92 108
f 90 107 196
f 90 196 173
f 92 174 197
f 108 92 197
f 87 196 195
f 173 196 87
f 169 87 195
f 86 173 87
f 94 174 95
f 197 174 94
f 194 94 171
f 194 197 94
f 107 106 195
f 107 195 196
f 109 108 197
f 109 197 194
f 68 54 53
f 68 53 198
f 67 198 199
f 67 68 198
f 66 199 200
f 66 67 199
f 63 200 201
f 63 66 200
f 62 201 202
f 62 63 201
f 61 202 203
f 61 62 202
f 58 203 204
f 58 61 203
f 205 58 204
f 206 83 58
f 206 58 205
f 207 205 208
f 207 206 205
f 209 208 210
f 209 207 208
f 211 210 212
f 211 209 210
f 28 212 29
f 28 211 212
f 209 211 83
f 207 209 83
f 206 207 83
f 83 211 28
f 33 35 37
f 31 33 37
f 28 31 37
f 83 28 37
f 83 37 41
f 205 210 208
f 203 205 204
f 29 212 210
f 202 205 203
f 30 210 205
f 30 29 210
f 34 202 201
f 34 32 30
f 34 205 202
f 34 30 205
f 199 201 200
f 198 34 201
f 198 201 199
f 39 36 34
f 39 34 198
f 40 39 198
f 51 198 53
f 47 51 49
f 47 45 43
f 47 43 40
f 47 198 51
f 47 40 198
f 213 26 27
f 213 27 214
f 215 214 216
f 215 213 214
f 217 216 218
f 217 215 216
f 219 218 220
f 219 217 218
f 221 220 222
f 221 219 220
f 79 222 223
f 79 221 222
f 80 221 79
f 78 223 224
f 78 79 223
f 74 224 225
f 74 78 224
f 226 74 225
f 75 74 226
f 227 75 226
f 76 75 227
f 228 76 227
f 77 76 228
f 4 228 2
f 4 77 228
f 225 227 226
f 223 225 224
f 2 228 227
f 222 225 223
f 3 227 225
f 3 2 227
f 7 222 220
f 7 5 3
f 7 225 222
f 7 3 225
f 216 220 218
f 214 7 220
f 214 220 216
f 12 9 7
f 12 7 214
f 13 12 214
f 25 214 27
f 20 25 23
f 20 17 15
f 20 15 13
f 20 214 25
f 20 13 214
f 221 80 219
f 217 219 215
f 219 80 215
f 213 215 18
f 26 213 18
f 215 80 18
f 26 18 24
f 18 16 19
f 22 24 21
f 24 18 21
f 18 19 21
